443116.7020028609,4425104.231759659,39800.0608564815,39800.1015277778,135.98301364436279,2008-12-18,01:27:38,2008-12-18,02:26:12
443107.76833333285,4425114.591851851,39804.0591782407,39804.0878935185,147.1436373072244,2008-12-22,01:25:13,2008-12-22,02:06:34
443079.07811447844,4425140.967676769,39805.0197106482,39805.0380324074,137.63854837997098,2008-12-23,00:28:23,2008-12-23,00:54:46
441928.81774193555,4426304.303225807,39805.0549305556,39805.0578819444,187.56665481903445,2008-12-23,01:19:06,2008-12-23,01:23:21
443796.60217864893,4424988.354466234,39820.4432523148,39820.5292013889,62.58538167959895,2009-01-07,10:38:17,2009-01-07,12:42:03
443575.6178714859,4425042.772891565,39820.5428356482,39820.6398263889,189.4207222032539,2009-01-07,13:01:41,2009-01-07,15:21:21
443616.00759162277,4425075.483246079,39820.6419444444,39820.6623842593,85.98418459214423,2009-01-07,15:24:24,2009-01-07,15:53:50
442974.3060000001,4425135.665999999,39822.0147569444,39822.0175694444,197.64220197113133,2009-01-09,00:21:15,2009-01-09,00:25:18
443109.85022935754,4425079.025458715,39822.154212963,39822.1762847222,198.04830218895316,2009-01-09,03:42:04,2009-01-09,04:13:51
443079.929618768,4425119.834604106,39822.1869560185,39822.2106018519,197.28601065420955,2009-01-09,04:29:13,2009-01-09,05:03:16
443102.7682870366,4425099.921527778,39822.2313194444,39822.2547337963,190.8444654689518,2009-01-09,05:33:06,2009-01-09,06:06:49
443096.0775862069,4425099.077298853,39822.2852893519,39822.3104398148,199.0628041598932,2009-01-09,06:50:49,2009-01-09,07:27:02
443108.3868596883,4425214.22427617,39822.4201736111,39822.4410185185,199.97272313992767,2009-01-09,10:05:03,2009-01-09,10:35:04
443107.6177033491,4425027.044976082,39822.4410763889,39822.4892939815,189.27704562378955,2009-01-09,10:35:09,2009-01-09,11:44:35
443102.13726315845,4425078.300000003,39822.50375,39822.5253819444,193.49552966448763,2009-01-09,12:05:24,2009-01-09,12:36:33
445492.337012987,4422535.3251082245,39822.5833564815,39822.6134490741,196.21197720834022,2009-01-09,14:00:02,2009-01-09,14:43:22
445483.8931081079,4422546.507702699,39822.6135069444,39822.6699884259,192.62162391598602,2009-01-09,14:43:27,2009-01-09,16:04:47
445481.682577566,4422532.222315039,39822.6719907407,39822.7469560185,192.11080136211223,2009-01-09,16:07:40,2009-01-09,17:55:37
445478.84522173577,4422542.715490311,39822.7470023148,39822.8916203704,196.79715445071272,2009-01-09,17:55:41,2009-01-09,21:23:56
445489.19409780775,4422537.403541313,39822.8930671296,39824.8358912037,199.10040180809213,2009-01-09,21:26:01,2009-01-11,20:03:41
445479.3297701766,4422533.512239448,39824.8549074074,39824.9936574074,191.24732677867152,2009-01-11,20:31:04,2009-01-11,23:50:52
442970.19615384605,4424251.861538461,39825.0249189815,39825.025787037,189.7622986793466,2009-01-12,00:35:53,2009-01-12,00:37:08
443099.67258883256,4425046.139593911,39825.0718171296,39825.079837963,109.40223946556819,2009-01-12,01:43:25,2009-01-12,01:54:58
445261.49069767416,4422544.46899225,39825.5469444444,39825.5762268519,191.49979112265288,2009-01-12,13:07:36,2009-01-12,13:49:46
445496.4563535907,4422565.066850828,39825.5762731481,39825.6132986111,31.975146598562343,2009-01-12,13:49:50,2009-01-12,14:43:09
445492.2368778284,4422545.516063348,39825.6136921296,39825.6480092593,8.88425573695017,2009-01-12,14:43:43,2009-01-12,15:33:08
445478.10406504036,4422527.772764226,39825.6536458333,39825.8339814815,60.04040306366368,2009-01-12,15:41:15,2009-01-12,20:00:56
445210.96190476185,4422657.557142858,39825.834375,39825.835150463,186.4923590927411,2009-01-12,20:01:30,2009-01-12,20:02:37
441972.98333333316,4426305.7761904765,39827.0264814815,39827.0287384259,197.70427410656583,2009-01-14,00:38:08,2009-01-14,00:41:23
441898.8805653711,4426287.293462899,39827.1165277778,39827.1511342593,199.17309055173664,2009-01-14,02:47:48,2009-01-14,03:37:38
443086.1705592109,4425038.092598681,39827.173599537,39827.2032638889,194.6519457902435,2009-01-14,04:09:59,2009-01-14,04:52:42
443117.0722666664,4425046.1351999985,39827.2288194444,39827.25125,78.43678983759786,2009-01-14,05:29:30,2009-01-14,06:01:48
443103.4457326895,4425095.140096625,39827.2534490741,39827.2915393518,199.63426559567952,2009-01-14,06:04:58,2009-01-14,06:59:49
443113.16416184907,4425094.485317918,39827.2925231481,39827.3441087963,185.88797701841082,2009-01-14,07:01:14,2009-01-14,08:15:31
443104.2044289041,4425166.183682988,39827.3441435185,39827.3684722222,198.21576627522302,2009-01-14,08:15:34,2009-01-14,08:50:36
443112.6153347732,4425036.137580992,39827.3685300926,39827.4046412037,196.66540112568677,2009-01-14,08:50:41,2009-01-14,09:42:41
443101.90140562225,4425035.547590364,39827.4080439815,39827.4426851852,197.43132983407818,2009-01-14,09:47:35,2009-01-14,10:37:28
443581.92142857134,4425115.233333332,39827.4477430556,39827.4500925926,198.34071694940053,2009-01-14,10:44:45,2009-01-14,10:48:08
443551.51208053686,4424998.958389262,39827.4729050926,39827.4806944444,124.31930662630687,2009-01-14,11:20:59,2009-01-14,11:32:12
454134.7226890753,4418180.490756304,39828.0541550926,39828.0724421296,177.22889154988064,2009-01-15,01:17:59,2009-01-15,01:44:19
454066.03333333327,4418033.966666666,39828.0750115741,39828.0960416667,88.51446209520859,2009-01-15,01:48:01,2009-01-15,02:18:18
449288.5198979591,4426579.176020411,39828.1585763889,39828.1866550926,119.36372983462913,2009-01-15,03:48:21,2009-01-15,04:28:47
449301.7730769232,4426582.576442307,39828.3092939815,39828.3246296296,182.96141669772143,2009-01-15,07:25:23,2009-01-15,07:47:28
449290.17857142846,4426623.869047617,39828.3499421296,39828.4085532407,189.83534971123663,2009-01-15,08:23:55,2009-01-15,09:48:19
474217.90555555536,4426316.204761907,39828.5096064815,39828.5494675926,191.18203367473936,2009-01-15,12:13:50,2009-01-15,13:11:14
474481.2361266293,4425663.211359408,39828.5503703704,39828.6078819444,179.74061867034604,2009-01-15,13:12:32,2009-01-15,14:35:21
451311.4888268164,4423381.109217878,39828.9001736111,39828.9238773148,199.26876323184203,2009-01-15,21:36:15,2009-01-15,22:10:23
470577.6272435897,4421778.0775641,39828.945775463,39828.9690972222,196.80256603993507,2009-01-15,22:41:55,2009-01-15,23:15:30
470542.1257240202,4421806.696592843,39828.9691319444,39829.0265856481,193.44973507309862,2009-01-15,23:15:33,2009-01-16,00:38:17
470570.45755102066,4421695.75918367,39829.0265972222,39829.0738310185,197.1650323969745,2009-01-16,00:38:18,2009-01-16,01:46:19
474472.1053837343,4425645.50134592,39829.1170486111,39829.5785648148,42.36224734357306,2009-01-16,02:48:33,2009-01-16,13:53:08
454865.7404761903,4425582.693809526,39831.1668287037,39831.1995486111,199.63038345902973,2009-01-18,04:00:14,2009-01-18,04:47:21
441080.8577464791,4426150.683098592,39831.2271875,39831.2308217593,198.8004024144065,2009-01-18,05:27:09,2009-01-18,05:32:23
465604.71818181843,4432825.305882351,39831.3675578704,39831.3999421296,199.2903911381233,2009-01-18,08:49:17,2009-01-18,09:35:55
474446.09137931047,4425664.8068965515,39831.4147337963,39831.5855208333,148.74464696265306,2009-01-18,09:57:13,2009-01-18,14:03:09
474473.659559318,4425638.693660971,39831.5855902778,39831.9445138889,190.5678356909583,2009-01-18,14:03:15,2009-01-18,22:40:06
