436471.2802259885,4425210.9598870035,39833.5033101852,39833.5148263889,166.62700861508506,2009-01-20,12:04:46,2009-01-20,12:21:21
437036.2,4423612.6,39834.0340625,39834.0340625,0.0,2009-01-21,00:49:03,2009-01-21,00:49:03
454526.5,4417915.1,39834.1083449074,39834.1083449074,0.0,2009-01-21,02:36:01,2009-01-21,02:36:01
452233.93636363646,4419142.058181815,39834.1930671296,39834.2406944444,198.88270412477192,2009-01-21,04:38:01,2009-01-21,05:46:36
440786.19166666665,4425551.758333334,39834.2734837963,39834.2737384259,189.5003166229676,2009-01-21,06:33:49,2009-01-21,06:34:11
441469.3,4425904.3,39834.4414351852,39834.4414351852,0.0,2009-01-21,10:35:40,2009-01-21,10:35:40
440573.88,4414986.193333333,39835.0084259259,39835.0088773148,174.64718720829782,2009-01-22,00:12:08,2009-01-22,00:12:47
454408.4,4401435.2,39835.0774074074,39835.0774074074,0.0,2009-01-22,01:51:28,2009-01-22,01:51:28
484456.8,4379543.9,39835.1141666667,39835.1141666667,0.0,2009-01-22,02:44:24,2009-01-22,02:44:24
492228.8,4327022.4,39835.1373263889,39835.1373263889,0.0,2009-01-22,03:17:45,2009-01-22,03:17:45
482102.8,4252166.1,39835.1874189815,39835.1874189815,0.0,2009-01-22,04:29:53,2009-01-22,04:29:53
450471.2,4163210.2,39835.2236342593,39835.2236342593,0.0,2009-01-22,05:22:02,2009-01-22,05:22:02
493030.05000000005,3972519.5500000003,39835.3474305556,39835.3475462963,125.29022308230839,2009-01-22,08:20:18,2009-01-22,08:20:28
479595.9402877702,3962479.9172661905,39847.4994675926,39847.5683101852,54.04488875006426,2009-02-03,11:59:14,2009-02-03,13:38:22
479717.00869565207,3962498.260869566,39847.5772106481,39847.5801388889,80.86216667883934,2009-02-03,13:51:11,2009-02-03,13:55:24
479395.99259927764,3962531.8341155215,39852.298275463,39852.4199537037,172.4188214781223,2009-02-08,07:09:31,2009-02-08,10:04:44
479733.95491803245,3962427.9823770495,39852.4598263889,39852.4941203704,197.9627490211705,2009-02-08,11:02:09,2009-02-08,11:51:32
473469.5,3970308.1,39852.5047916667,39852.5047916667,0.0,2009-02-08,12:06:54,2009-02-08,12:06:54
479624.1412776418,3962508.0262899254,39853.1188078704,39856.5289699074,88.9027558627493,2009-02-09,02:51:05,2009-02-12,12:41:43
441794.1,4425094.5,39858.0374074074,39858.0374074074,0.0,2009-02-14,00:53:52,2009-02-14,00:53:52
440901.486440678,4426131.229661017,39858.1788078704,39858.4065509259,145.50879698546836,2009-02-14,04:17:29,2009-02-14,09:45:26
425716.3,4437930.2,39858.4330439815,39858.4330439815,0.0,2009-02-14,10:23:35,2009-02-14,10:23:35
437550.99682539667,4424134.43015873,39860.0036458333,39860.0083101852,195.83771342621552,2009-02-16,00:05:15,2009-02-16,00:11:58
450479.4642857144,4420947.735714286,39860.0900925926,39860.1481944444,187.94025646446858,2009-02-16,02:09:44,2009-02-16,03:33:24
452231.7,4420543.9,39860.1637731481,39860.1637731481,0.0,2009-02-16,03:55:50,2009-02-16,03:55:50
452568.48333333334,4420262.316666666,39860.2165509259,39860.2167361111,179.84020685041486,2009-02-16,05:11:50,2009-02-16,05:12:06
440785.84210526315,4425539.142105263,39860.2832175926,39860.2838657407,199.77389719381054,2009-02-16,06:47:50,2009-02-16,06:48:46
437682.15,4423400.4,39861.01625,39861.0162731481,21.932852071600866,2009-02-17,00:23:24,2009-02-17,00:23:26
452143.79999999993,4419178.611666667,39861.1412152778,39861.1680555556,198.91518292991887,2009-02-17,03:23:21,2009-02-17,04:02:00
441064.83157894725,4426092.606578949,39861.2011689815,39861.2047916667,178.23504144802254,2009-02-17,04:49:41,2009-02-17,04:54:54
440938.13488372095,4425907.955813954,39861.3138541667,39861.3157060185,193.96064033700966,2009-02-17,07:31:57,2009-02-17,07:34:37
453242.7511904763,4417474.241666667,39861.3735532407,39861.4006481481,23.90585702305567,2009-02-17,08:57:55,2009-02-17,09:36:56
431145.4,4418485.5,39861.4591435185,39861.4591435185,0.0,2009-02-17,11:01:10,2009-02-17,11:01:10
436235.03333333327,4425376.166666667,39861.9964583333,39861.9965740741,92.01418368877302,2009-02-17,23:54:54,2009-02-17,23:55:04
443883.33333333343,4425853.698039217,39863.0889236111,39863.1105555556,193.2082813960004,2009-02-19,02:08:03,2009-02-19,02:39:12
440966.456,4425953.94,39863.1194675926,39863.1209606482,107.94725563934735,2009-02-19,02:52:02,2009-02-19,02:54:11
440899.6774193549,4426057.690322581,39864.0132986111,39864.0146643519,85.8722888944562,2009-02-20,00:19:09,2009-02-20,00:21:07
448585.3808510637,4412735.009574468,39864.1120833333,39864.147025463,185.0838188496909,2009-02-20,02:41:24,2009-02-20,03:31:43
440774.9941176471,4425549.594117648,39864.1707060185,39864.1710763889,194.23833298313716,2009-02-20,04:05:49,2009-02-20,04:06:21
440434.41199999995,4425930.680000001,39864.368912037,39864.3696180556,182.2361105818493,2009-02-20,08:51:14,2009-02-20,08:52:15
436451.1775910364,4425930.374509808,39866.2420023148,39866.3670833333,67.53169626170737,2009-02-22,05:48:29,2009-02-22,08:48:36
436462.86384180794,4425929.520903952,39866.3764814815,39866.4158912037,158.49725549675856,2009-02-22,09:02:08,2009-02-22,09:58:53
436454.5133333333,4425940.982222221,39866.4666435185,39866.47875,2.0,2009-02-22,11:11:58,2009-02-22,11:29:24
442628.039090909,4427412.055454545,39867.0716087963,39867.107025463,199.64300638908256,2009-02-23,01:43:07,2009-02-23,02:34:07
440992.02571428573,4426054.571428572,39867.1164699074,39867.1175347222,198.2595521025725,2009-02-23,02:47:43,2009-02-23,02:49:15
436725.7,4416260.4,39867.4134143519,39867.4134143519,0.0,2009-02-23,09:55:19,2009-02-23,09:55:19
436491.6580246912,4425883.834567903,39867.4394907407,39867.4450347222,80.530242766356,2009-02-23,10:32:52,2009-02-23,10:40:51
437580.04351145047,4424108.575572519,39867.9966435185,39868.0046527778,157.0184702512889,2009-02-23,23:55:10,2009-02-24,00:06:42
446112.21355932206,4410659.671186441,39868.1218171296,39868.1500115741,190.17549789632338,2009-02-24,02:55:25,2009-02-24,03:36:01
440855.3857142857,4426167.2,39868.1775115741,39868.178125,191.22311575740676,2009-02-24,04:15:37,2009-02-24,04:16:30
436046.3350000001,4426389.225,39869.002025463,39869.0026273148,183.9602130896647,2009-02-25,00:02:55,2009-02-25,00:03:47
440744.2750000001,4425643.7125,39869.2020023148,39869.202349537,193.40754897348998,2009-02-25,04:50:53,2009-02-25,04:51:23
440455.8774193548,4425916.529032258,39869.3356018519,39869.3366782407,190.93530317881562,2009-02-25,08:03:16,2009-02-25,08:04:49
436442.58972973,4425922.217477479,39870.4465393518,39870.9917824074,195.78176626064516,2009-02-26,10:43:01,2009-02-26,23:48:10
437833.19999999995,4424655.5,39871.0037962963,39871.0038194444,53.862788638980376,2009-02-27,00:05:28,2009-02-27,00:05:30
440843.60526315786,4426179.968421052,39871.1839930556,39871.1844097222,190.40758913471524,2009-02-27,04:24:57,2009-02-27,04:25:33
440772.6250000001,4425582.525,39871.3147453704,39871.3151851852,198.3669579338449,2009-02-27,07:33:14,2009-02-27,07:33:52
436432.9945054946,4425873.530769231,39872.4322685185,39872.4484606481,183.17052164598405,2009-02-28,10:22:28,2009-02-28,10:45:47
440711.536,4425604.975999999,39874.1675115741,39874.1681018519,183.0201081848467,2009-03-02,04:01:13,2009-03-02,04:02:04
446964.5229007633,4425290.480916031,39874.2581597222,39874.2831712963,190.3695616425547,2009-03-02,06:11:45,2009-03-02,06:47:46
440974.7749999999,4425744.3875,39874.3115277778,39874.3120949074,199.32679197750744,2009-03-02,07:28:36,2009-03-02,07:29:25
436451.75,4425203.000000001,39874.4249189815,39874.426412037,164.24968797546708,2009-03-02,10:11:53,2009-03-02,10:14:02
437587.8575342467,4424054.973972602,39875.9956944444,39876.0000347222,32.244379355400035,2009-03-03,23:53:48,2009-03-04,00:00:03
436012.7942028985,4425993.252173913,39876.4443634259,39876.4466087963,64.22935465965392,2009-03-04,10:39:53,2009-03-04,10:43:07
436448.80352112686,4425920.234507042,39876.5221875,39876.532974537,15.580115532298965,2009-03-04,12:31:57,2009-03-04,12:47:29
438871.4271739131,4405212.579347827,39877.2990509259,39877.3218634259,196.30002547111502,2009-03-05,07:10:38,2009-03-05,07:43:29
440986.18888888886,4425734.066666666,39877.3715972222,39877.3719907407,196.88661711755722,2009-03-05,08:55:06,2009-03-05,08:55:40
446129.80434782617,4410681.317391304,39878.0942708333,39878.1621527778,197.95797533837916,2009-03-06,02:15:45,2009-03-06,03:53:30
440877.144680851,4426193.108510639,39878.1837037037,39878.1858333333,132.49135820878467,2009-03-06,04:24:32,2009-03-06,04:27:36
440951.7351351352,4426090.518918919,39881.0162962963,39881.0753125,196.94367215010743,2009-03-09,00:23:28,2009-03-09,01:48:27
457769.4602564104,4430407.269230768,39881.1010648148,39881.1383680556,198.3987903188276,2009-03-09,02:25:32,2009-03-09,03:19:15
459062.5158878505,4430546.006542057,39881.1414699074,39881.1694444444,194.49023111711568,2009-03-09,03:23:43,2009-03-09,04:04:00
441001.0863636363,4425727.095454545,39881.1979513889,39881.1984722222,196.5287256357839,2009-03-09,04:45:03,2009-03-09,04:45:48
446424.2439999999,4423529.828000001,39881.2883680556,39881.3375578704,195.94950880224013,2009-03-09,06:55:15,2009-03-09,08:06:05
440746.68888888886,4425583.238888889,39881.3513194444,39881.351712963,185.3164320829047,2009-03-09,08:25:54,2009-03-09,08:26:28
440866.0210526316,4426023.368421053,39884.0340509259,39884.0346527778,189.4919523355716,2009-03-12,00:49:02,2009-03-12,00:49:54
436356.69999999984,4425777.805504587,39884.4550578704,39885.0046412037,198.55983984658897,2009-03-12,10:55:17,2009-03-13,00:06:41
410013.1,4445038.3,39885.0386921296,39885.0386921296,0.0,2009-03-13,00:55:43,2009-03-13,00:55:43
442494.4696721313,4420111.172950818,39885.105474537,39885.1451273148,193.2308722749605,2009-03-13,02:31:53,2009-03-13,03:28:59
440931.42000000004,4425918.15,39885.2108217593,39885.2112731481,196.3104938611962,2009-03-13,05:03:35,2009-03-13,05:04:14
440613.8190476191,4425541.814285715,39885.3493402778,39885.3502546296,199.164504869954,2009-03-13,08:23:03,2009-03-13,08:24:22
440734.27142857143,4426203.414285713,39888.0246296296,39888.0264236111,199.2793265744757,2009-03-16,00:35:28,2009-03-16,00:38:03
443645.81875000003,4417594.526041667,39888.0863194444,39888.1170833333,183.52452152239445,2009-03-16,02:04:18,2009-03-16,02:48:36
440772.70769230765,4425514.346153846,39888.1347106481,39888.1349884259,196.93394831752144,2009-03-16,03:13:59,2009-03-16,03:14:23
441885.9,4427348.9,39888.3860069444,39888.3860069444,0.0,2009-03-16,09:15:51,2009-03-16,09:15:51
440930.1583333333,4426109.170238094,39889.0177546296,39889.0468634259,196.43179477865343,2009-03-17,00:25:34,2009-03-17,01:07:29
441014.0,4425406.725,39889.0575231481,39889.0575925926,143.38636615838408,2009-03-17,01:22:50,2009-03-17,01:22:56
463168.5729166667,4440928.220833332,39889.1464467593,39889.1558217593,198.70500748599687,2009-03-17,03:30:53,2009-03-17,03:44:23
452367.13981481467,4426303.23148148,39889.2005439815,39889.2362615741,199.20735428228753,2009-03-17,04:48:47,2009-03-17,05:40:13
440422.1590909091,4425936.581818182,39889.2574884259,39889.2581828704,194.9875893490004,2009-03-17,06:10:47,2009-03-17,06:11:47
440087.2775193796,4426412.4899224825,39889.2953587963,39889.3267939815,193.98631395005114,2009-03-17,07:05:19,2009-03-17,07:50:35
440763.29999999993,4425512.257894737,39889.3451736111,39889.3458680556,189.38030520657833,2009-03-17,08:17:03,2009-03-17,08:18:03
443228.5181818183,4425520.468181818,39890.2346759259,39890.2633796296,198.80749482889573,2009-03-18,05:37:56,2009-03-18,06:19:16
440900.85270270274,4426104.164864865,39890.2768402778,39890.3016782407,197.91008059206737,2009-03-18,06:38:39,2009-03-18,07:14:25
439006.5088709677,4405195.481451614,39890.3486921296,39890.3753587963,198.27380058875193,2009-03-18,08:22:07,2009-03-18,09:00:31
440986.4666666666,4425879.079166666,39890.4234143518,39890.4241087963,199.47170225372008,2009-03-18,10:09:43,2009-03-18,10:10:43
440988.93043478264,4425749.491304347,39891.1636921296,39891.1642592593,199.26637950242488,2009-03-19,03:55:43,2009-03-19,03:56:32
436376.3469798659,4425790.6181208035,39891.4415393519,39891.9930439815,197.52278349536996,2009-03-19,10:35:49,2009-03-19,23:49:59
426545.3,4469337.9,39892.0193402778,39892.0193402778,0.0,2009-03-20,00:27:51,2009-03-20,00:27:51
441221.1399999999,4424924.756,39892.0795949074,39892.1013888889,195.41476402767353,2009-03-20,01:54:37,2009-03-20,02:26:00
440800.8620689655,4425377.434482759,39892.1522106482,39892.1529513889,199.0030401777824,2009-03-20,03:39:11,2009-03-20,03:40:15
440744.7476190476,4425489.961904762,39892.3409490741,39892.3414930556,192.89919647355188,2009-03-20,08:10:58,2009-03-20,08:11:45
436403.6349206351,4425826.244444444,39892.4375925926,39892.4397569444,199.15124905491157,2009-03-20,10:30:08,2009-03-20,10:33:15
436436.4283636362,4425938.35272727,39892.4596990741,39892.4934722222,33.86118722095369,2009-03-20,11:01:58,2009-03-20,11:50:36
439755.9,4425020.6,39892.4955787037,39892.4955787037,0.0,2009-03-20,11:53:38,2009-03-20,11:53:38
440807.336,4425969.18,39895.0266435185,39895.0274768519,195.9396845975869,2009-03-23,00:38:22,2009-03-23,00:39:34
453582.2391489365,4420488.03829787,39895.0842939815,39895.1134722222,187.48322591632603,2009-03-23,02:01:23,2009-03-23,02:43:24
453633.8322580647,4420555.4822580675,39895.1142013889,39895.1543402778,199.86495440703416,2009-03-23,02:44:27,2009-03-23,03:42:15
440916.1857142857,4425747.914285714,39895.2099189815,39895.2103009259,184.18145943608909,2009-03-23,05:02:17,2009-03-23,05:02:50
440422.01935483876,4425931.59032258,39895.3444907407,39895.3454513889,181.74171232754986,2009-03-23,08:16:04,2009-03-23,08:17:27
440768.0055555555,4425521.694444444,39897.1136574074,39897.1140509259,191.00204187408403,2009-03-25,02:43:40,2009-03-25,02:44:14
429108.3,4419974.0,39897.2235532407,39897.2235532407,0.0,2009-03-25,05:21:55,2009-03-25,05:21:55
440955.8166666667,4426212.2,39897.2972800926,39897.3197569444,170.7474450760472,2009-03-25,07:08:05,2009-03-25,07:40:27
440992.26818181813,4426131.268181819,39897.3211689815,39897.3246527778,138.1202736748158,2009-03-25,07:42:29,2009-03-25,07:47:30
461451.646511628,4438413.406976744,39898.1418055556,39898.1688425926,58.721801743502,2009-03-26,03:24:12,2009-03-26,04:03:08
440425.37058823527,4425911.435294118,39898.2087384259,39898.2091087963,181.40752465098444,2009-03-26,05:00:35,2009-03-26,05:01:07
441050.4830000001,4426140.835999999,39898.4036921296,39898.4261458333,199.5659790653125,2009-03-26,09:41:19,2009-03-26,10:13:39
436410.92784810124,4425845.140506329,39898.4547916667,39898.4573842593,189.55632408388124,2009-03-26,10:54:54,2009-03-26,10:58:38
447110.6160377361,4425944.938207544,39899.0976041667,39899.1184490741,195.36839560169253,2009-03-27,02:20:33,2009-03-27,02:50:34
441072.36666666664,4425742.045098038,39899.1333333333,39899.3026157407,193.56120479044537,2009-03-27,03:12:00,2009-03-27,07:15:46
440629.27142857143,4425833.042857142,39899.3088078704,39899.3089583333,157.41982086120885,2009-03-27,07:24:41,2009-03-27,07:24:54
439876.2826086957,4426274.117391304,39899.4094444444,39899.4100694444,184.66012022067426,2009-03-27,09:49:36,2009-03-27,09:50:30
470803.7359375,4411641.629687502,39900.1815393518,39900.2064236111,198.43288537945176,2009-03-28,04:21:25,2009-03-28,04:57:15
470872.510989011,4414300.7890109895,39900.2115046296,39900.2416666667,197.32838113155285,2009-03-28,05:04:34,2009-03-28,05:48:00
440418.2359999999,4425934.72,39900.3072569444,39900.307974537,199.47293049482715,2009-03-28,07:22:27,2009-03-28,07:23:29
439995.37826086936,4430160.543478261,39900.3836805556,39900.409224537,186.20163801660743,2009-03-28,09:12:30,2009-03-28,09:49:17
440438.9071428572,4425899.9,39900.4315856481,39900.4320833333,145.32656329799227,2009-03-28,10:21:29,2009-03-28,10:22:12
440944.72075471695,4425790.973584906,39900.6963194444,39900.7414467593,189.95325740840698,2009-03-28,16:42:42,2009-03-28,17:47:41
438805.87843137234,4432532.65784314,39900.7697569444,39900.8336111111,181.73970397205028,2009-03-28,18:28:27,2009-03-28,20:00:24
435353.8612903225,4436139.751612904,39900.8496643519,39900.8905324074,189.58019411329644,2009-03-28,20:23:31,2009-03-28,21:22:22
438539.5456790123,4433185.901234568,39900.9228703704,39900.9514583333,195.09264465888262,2009-03-28,22:08:56,2009-03-28,22:50:06
439604.2279569892,4432358.447311831,39900.9555555556,39901.0077199074,183.7643327741731,2009-03-28,22:56:00,2009-03-29,00:11:07
447266.9657142856,4424787.804761904,39901.0404398148,39901.0621412037,199.68425075606686,2009-03-29,00:58:14,2009-03-29,01:29:29
442971.20795454533,4424606.063636362,39901.0765740741,39901.1081365741,173.73327257591777,2009-03-29,01:50:16,2009-03-29,02:35:43
446684.56538461545,4424697.815384615,39902.0923148148,39902.0929398148,151.26460260069652,2009-03-30,02:12:56,2009-03-30,02:13:50
440836.12857142853,4425869.214285715,39902.148275463,39902.1484143519,193.12941257046737,2009-03-30,03:33:31,2009-03-30,03:33:43
438619.8,4408389.5,39902.2651273148,39902.2651273148,0.0,2009-03-30,06:21:47,2009-03-30,06:21:47
440978.84074074076,4426078.8740740735,39902.3116087963,39902.3994212963,197.63099453271695,2009-03-30,07:28:43,2009-03-30,09:35:10
436441.70303030306,4425926.718181819,39902.4350462963,39902.4366203704,199.07056537820924,2009-03-30,10:26:28,2009-03-30,10:28:44
444232.9,4426814.1,39903.1045601852,39903.1045601852,0.0,2009-03-31,02:30:34,2009-03-31,02:30:34
440966.45362318854,4425940.972463768,39903.2254166667,39903.272349537,197.7535081863524,2009-03-31,05:24:36,2009-03-31,06:32:11
452225.76546762575,4419141.761870504,39903.3014351852,39903.3340856481,192.8862099788488,2009-03-31,07:14:04,2009-03-31,08:01:05
440755.3684210525,4425562.394736841,39903.3641666667,39903.3645833333,197.29422191184148,2009-03-31,08:44:24,2009-03-31,08:45:00
434062.4,4427488.1,39903.4400115741,39903.4400115741,0.0,2009-03-31,10:33:37,2009-03-31,10:33:37
439195.4,4424646.4,39904.018125,39904.018125,0.0,2009-04-01,00:26:06,2009-04-01,00:26:06
442557.48750000005,4432806.856249998,39904.2653703704,39904.2675925926,194.04816412426248,2009-04-01,06:22:08,2009-04-01,06:25:20
435843.1,4426208.4,39904.4538078704,39904.4538078704,0.0,2009-04-01,10:53:29,2009-04-01,10:53:29
436466.17625,4425929.003749998,39904.5309027778,39904.53625,75.01713137659341,2009-04-01,12:44:30,2009-04-01,12:52:12
435635.8,4424714.6,39905.0220833333,39905.0220833333,0.0,2009-04-02,00:31:48,2009-04-02,00:31:48
440977.7578947368,4425764.236842105,39905.1612037037,39905.20875,196.6845443846654,2009-04-02,03:52:08,2009-04-02,05:00:36
514133.5,4436995.8,39905.3030439815,39905.3030439815,0.0,2009-04-02,07:16:23,2009-04-02,07:16:23
436435.1247933887,4424521.13140496,39905.4540393518,39905.4585069444,101.10276949687297,2009-04-02,10:53:49,2009-04-02,11:00:15
440635.4,4425801.875,39906.0214467593,39906.0215162037,136.28811393460612,2009-04-03,00:30:53,2009-04-03,00:30:59
441538.77333333343,4432383.653333334,39906.1342824074,39906.1351388889,190.36071023180077,2009-04-03,03:13:22,2009-04-03,03:14:36
440419.86190476187,4425930.828571428,39906.3522685185,39906.3528009259,186.04421517428742,2009-04-03,08:27:16,2009-04-03,08:28:02
436444.90454545466,4425909.249999994,39906.4336921296,39906.5204861111,189.4560898994561,2009-04-03,10:24:31,2009-04-03,12:29:30
437944.6,4425726.7,39906.5215972222,39906.5215972222,0.0,2009-04-03,12:31:06,2009-04-03,12:31:06
440787.81363636366,4425503.581818182,39907.1721180556,39907.1726736111,195.09689900185938,2009-04-04,04:07:51,2009-04-04,04:08:39
452108.2107142858,4419401.535714286,39907.2498726852,39907.250625,187.44625896476182,2009-04-04,05:59:49,2009-04-04,06:00:54
440834.4874999999,4426176.408333333,39907.3928472222,39907.3933912037,190.75161860381078,2009-04-04,09:25:42,2009-04-04,09:26:29
440832.0975,4430903.132500001,39907.5033912037,39907.5247569444,182.7536593342516,2009-04-04,12:04:53,2009-04-04,12:35:39
438596.92833333334,4432352.931666668,39907.5344444444,39908.0194328704,181.28943708886854,2009-04-04,12:49:36,2009-04-05,00:27:59
440978.39999999985,4426081.459999999,39908.0326041667,39908.0332638889,199.29438025186099,2009-04-05,00:46:57,2009-04-05,00:47:54
441042.14347826084,4426080.9202898545,39910.1518171296,39910.1539351852,193.9532160080261,2009-04-07,03:38:37,2009-04-07,03:41:40
441932.5374999999,4423620.1674999995,39910.2488888889,39910.2817824074,189.0564465972367,2009-04-07,05:58:24,2009-04-07,06:45:46
446965.2592920355,4416652.767256638,39910.3030671296,39910.396099537,199.00907014506,2009-04-07,07:16:25,2009-04-07,09:30:23
438520.0,4425210.1,39910.4794791667,39910.4794791667,0.0,2009-04-07,11:30:27,2009-04-07,11:30:27
436456.39462809917,4425914.332644632,39910.5267592593,39910.5725462963,76.6550715869472,2009-04-07,12:38:32,2009-04-07,13:44:28
438829.4235294117,4425640.947058823,39911.0209490741,39911.0213773148,185.70325791462997,2009-04-08,00:30:10,2009-04-08,00:30:47
449045.4,4420097.8,39911.0523726852,39911.0523726852,0.0,2009-04-08,01:15:25,2009-04-08,01:15:25
442361.13333333336,4427127.515740739,39911.2219328704,39911.2440277778,199.77747620806824,2009-04-08,05:19:35,2009-04-08,05:51:24
452651.7704545455,4419662.589772726,39911.2856481481,39911.3117939815,191.23851599487895,2009-04-08,06:51:20,2009-04-08,07:28:59
440743.12142857147,4425552.382142859,39911.3631018519,39911.3637268519,194.9493523972961,2009-04-08,08:42:52,2009-04-08,08:43:46
446103.9,4420855.6,39911.4281134259,39911.4281134259,0.0,2009-04-08,10:16:29,2009-04-08,10:16:29
440988.959375,4425742.91875,39912.2000347222,39912.20125,197.56644451939795,2009-04-09,04:48:03,2009-04-09,04:49:48
440431.7038461539,4425915.538461538,39912.3900462963,39912.3911921296,191.9599176911561,2009-04-09,09:21:40,2009-04-09,09:23:19
439761.6,4426524.0,39912.430787037,39912.430787037,0.0,2009-04-09,10:20:20,2009-04-09,10:20:20
436353.0881355932,4425931.948305086,39912.479212963,39912.5042361111,101.67698854704706,2009-04-09,11:30:04,2009-04-09,12:06:06
436455.4171875005,4425932.592968747,39912.5127777778,39912.5534606481,80.93120535370156,2009-04-09,12:18:24,2009-04-09,13:16:59
436443.8325648416,4425945.731412098,39912.5542476852,39912.6579976852,186.94162190362258,2009-04-09,13:18:07,2009-04-09,15:47:31
436382.65714285715,4426001.257142857,39912.6581712963,39912.6583796296,63.541246446538736,2009-04-09,15:47:46,2009-04-09,15:48:04
436160.28,4425605.1883333335,39913.008275463,39913.0110648148,190.80890964461994,2009-04-10,00:11:55,2009-04-10,00:15:56
443836.83387978125,4419107.701639342,39913.0827546296,39913.116724537,197.76369737632834,2009-04-10,01:59:10,2009-04-10,02:48:05
440855.88421052636,4426172.95263158,39913.1864699074,39913.1869097222,184.30010851876975,2009-04-10,04:28:31,2009-04-10,04:29:09
437679.8,4423223.8,39916.0050925926,39916.0050925926,0.0,2009-04-13,00:07:20,2009-04-13,00:07:20
442713.44999999995,4427083.5,39916.0682175926,39916.0683333333,143.1113203073021,2009-04-13,01:38:14,2009-04-13,01:38:24
452118.6679245284,4419417.569811322,39916.1286921296,39916.1301388889,195.72953277414297,2009-04-13,03:05:19,2009-04-13,03:07:24
440790.15,4425238.65,39916.1803472222,39916.180462963,179.50002785569615,2009-04-13,04:19:42,2009-04-13,04:19:52
440507.9285714285,4425892.571428572,39916.2289930556,39916.2293171296,196.9009903479411,2009-04-13,05:29:45,2009-04-13,05:30:13
452093.39285714296,4419316.919047619,39916.3077314815,39916.3089814815,109.97913438464887,2009-04-13,07:23:08,2009-04-13,07:24:56
440670.7625,4425572.156250001,39916.3778819444,39916.3782986111,187.275198571514,2009-04-13,09:04:09,2009-04-13,09:04:45
444034.6256578947,4432060.109210524,39916.4501273148,39916.4776273148,56.97016763220049,2009-04-13,10:48:11,2009-04-13,11:27:47
444004.6581196582,4432068.902564105,39916.5355439815,39916.5660763889,180.54639292990598,2009-04-13,12:51:11,2009-04-13,13:35:09
444017.1162790696,4432046.701860467,39916.5661342593,39916.6779861111,65.40221708762041,2009-04-13,13:35:14,2009-04-13,16:16:18
431305.5,4425306.0,39918.023900463,39918.023900463,0.0,2009-04-15,00:34:25,2009-04-15,00:34:25
452110.081081081,4419392.913513513,39918.1404050926,39918.1613773148,197.78943348981076,2009-04-15,03:22:11,2009-04-15,03:52:23
440778.07333333325,4425580.286666666,39918.1939583333,39918.1942824074,189.8997893628873,2009-04-15,04:39:18,2009-04-15,04:39:46
459188.9311111113,4434079.982222222,39918.2756597222,39918.3245486111,168.42719495387138,2009-04-15,06:36:57,2009-04-15,07:47:21
454095.0933333333,4429010.826666666,39918.3379976852,39918.3392708333,154.83081088706436,2009-04-15,08:06:43,2009-04-15,08:08:33
440427.05000000005,4425927.994444446,39918.3872916667,39918.3878703704,178.55833780521797,2009-04-15,09:17:42,2009-04-15,09:18:32
440787.04166666657,4425515.695833334,39918.4157407407,39918.416712963,190.36811707811583,2009-04-15,09:58:40,2009-04-15,10:00:04
437555.2142857144,4424136.314285713,39919.0112731481,39919.0139467593,189.37285972406983,2009-04-16,00:16:14,2009-04-16,00:20:05
441000.0095238095,4425940.695238095,39919.1626041667,39919.1630671296,194.30041173380732,2009-04-16,03:54:09,2009-04-16,03:54:49
450876.17770270276,4417764.462162164,39919.2996875,39919.3618518518,197.42099685712174,2009-04-16,07:11:33,2009-04-16,08:41:04
440781.9058823529,4425573.694117647,39919.3857523148,39919.3861226852,197.90947425563502,2009-04-16,09:15:29,2009-04-16,09:16:01
436449.4751219514,4425800.517560974,39919.4719907407,39919.9681828704,197.83844419140075,2009-04-16,11:19:40,2009-04-16,23:14:11
439058.66627358506,4420474.5995283,39920.0048842593,39920.0318865741,197.73962678231362,2009-04-17,00:07:02,2009-04-17,00:45:55
440789.8848837208,4404350.527906976,39920.1078703704,39920.153125,198.47946997077588,2009-04-17,02:35:20,2009-04-17,03:40:30
440817.744390244,4404349.911219511,39920.1531481481,39920.1900810185,134.48040749424715,2009-04-17,03:40:32,2009-04-17,04:33:43
440836.6320754716,4404392.015723272,39920.2070717593,39920.2344907407,111.61742695445672,2009-04-17,04:58:11,2009-04-17,05:37:40
435384.4972762645,4422266.11011673,39920.2655671296,39920.3221296296,140.86965606544163,2009-04-17,06:22:25,2009-04-17,07:43:52
435397.2296296296,4422272.477366256,39920.3224884259,39920.3533449074,59.50142855456553,2009-04-17,07:44:23,2009-04-17,08:28:49
440823.27407407394,4426177.070370371,39920.371087963,39920.3717013889,186.7008837685787,2009-04-17,08:54:22,2009-04-17,08:55:15
438194.32499999995,4424833.325,39921.0427546296,39921.0428240741,81.14875230120296,2009-04-18,01:01:34,2009-04-18,01:01:40
437128.79433962255,4424794.699999999,39921.1473958333,39921.1681944444,198.21082210631263,2009-04-18,03:32:15,2009-04-18,04:02:12
440777.4666666667,4425555.64,39921.2369444444,39921.2372685185,196.95039984674943,2009-04-18,05:41:12,2009-04-18,05:41:40
452102.8803571429,4419325.771428571,39921.326712963,39921.3289583333,141.41944703612444,2009-04-18,07:50:28,2009-04-18,07:53:42
440932.48448275874,4426135.816379311,39921.4378819444,39921.4613773148,193.78433889297864,2009-04-18,10:30:33,2009-04-18,11:04:23
440858.77614035085,4426129.624912279,39921.461400463,39921.4826273148,187.12479792908954,2009-04-18,11:04:25,2009-04-18,11:34:59
435567.6,4426870.3,39921.5018402778,39921.5018402778,0.0,2009-04-18,12:02:39,2009-04-18,12:02:39
436453.7440386685,4425924.697529542,39922.5263425926,39922.9977083333,198.3095812106295,2009-04-19,12:37:56,2009-04-19,23:56:42
437572.15306122444,4424048.24897959,39923.0080439815,39923.0120138889,105.12473543332126,2009-04-20,00:11:35,2009-04-20,00:17:18
452093.71034482756,4419326.372413793,39923.163275463,39923.1640393519,155.91385441952173,2009-04-20,03:55:07,2009-04-20,03:56:13
441402.1,4426937.6,39923.1996064815,39923.1996064815,0.0,2009-04-20,04:47:26,2009-04-20,04:47:26
442762.1951807229,4425177.627710843,39923.2559490741,39923.2930208333,194.5065808655296,2009-04-20,06:08:34,2009-04-20,07:01:57
442779.47142857144,4425213.085714285,39923.2947222222,39923.2948611111,80.81212780275352,2009-04-20,07:04:24,2009-04-20,07:04:36
450313.0857142858,4422119.783809523,39924.0985648148,39924.1263773148,198.74128911722838,2009-04-21,02:21:56,2009-04-21,03:01:59
440941.8242424242,4425896.166666667,39924.1628819444,39924.1640972222,193.9236963343963,2009-04-21,03:54:33,2009-04-21,03:56:18
436447.6835858591,4425920.830639731,39932.5071527778,39932.7273032407,187.98704742579187,2009-04-29,12:10:18,2009-04-29,17:27:19
436421.07674418605,4425994.630232558,39932.7510416667,39932.7875694444,199.84356381857717,2009-04-29,18:01:30,2009-04-29,18:54:06
436450.6466666666,4425915.263333334,39932.8205902778,39932.8433333333,192.88566561548728,2009-04-29,19:41:39,2009-04-29,20:14:24
434509.1,4424716.1,39932.8681828704,39932.8681828704,0.0,2009-04-29,20:50:11,2009-04-29,20:50:11
440808.446875,4426183.899999999,39933.1053472222,39933.1063194444,189.76198249398635,2009-04-30,02:31:42,2009-04-30,02:33:06
453354.07328767126,4414934.930821921,40004.3911689815,40004.3990046296,198.83110923593745,2009-07-10,09:23:17,2009-07-10,09:34:34
454602.6,4428275.0,40005.1918865741,40005.1918865741,0.0,2009-07-11,04:36:19,2009-07-11,04:36:19
450234.4015384616,4423236.746153845,40005.2461574074,40005.271724537,188.64241304704194,2009-07-11,05:54:28,2009-07-11,06:31:17
450067.0,4418150.3,40005.275775463,40005.275775463,0.0,2009-07-11,06:37:07,2009-07-11,06:37:07
451254.18999999994,4415596.5600000005,40005.354375,40005.3546064815,184.30800308151,2009-07-11,08:30:18,2009-07-11,08:30:38
453970.86799999996,4414473.636,40005.3836921296,40005.3853935185,193.46692223773908,2009-07-11,09:12:31,2009-07-11,09:14:58
453887.456779661,4415042.982203391,40007.1239699074,40007.1756828704,197.49293658251796,2009-07-13,02:58:31,2009-07-13,04:12:59
453928.2496575344,4414965.410273973,40007.1757175926,40007.2307060185,195.69795604452105,2009-07-13,04:13:02,2009-07-13,05:32:13
453837.4714285714,4415111.8,40007.2307407407,40007.2312268519,27.57263135809378,2009-07-13,05:32:16,2009-07-13,05:32:58
447761.28750000015,4411578.184523806,40008.0785648148,40008.1163425926,199.0138186158663,2009-07-14,01:53:08,2009-07-14,02:47:32
444274.5472527473,4411704.527472528,40008.165462963,40008.1686226852,188.44802997076036,2009-07-14,03:58:16,2009-07-14,04:02:49
445266.2396694217,4410526.969421488,40008.3566435185,40008.3704861111,115.21050299345679,2009-07-14,08:33:34,2009-07-14,08:53:30
444212.45,4411176.65,40008.3951041667,40008.3952199074,199.43445038389217,2009-07-14,09:28:57,2009-07-14,09:29:07
451973.97017543856,4412875.515789473,40009.0430439815,40009.0690509259,196.10328911035043,2009-07-15,01:01:59,2009-07-15,01:39:26
450039.7094594595,4412937.753378378,40009.0984837963,40009.1205439815,196.55770145177146,2009-07-15,02:21:49,2009-07-15,02:53:35
444248.790625,4411718.009374999,40009.2012037037,40009.2094675926,62.79530237210409,2009-07-15,04:49:44,2009-07-15,05:01:38
444282.6203125,4411843.046874999,40009.4666203704,40009.4687615741,198.1389916195213,2009-07-15,11:11:56,2009-07-15,11:15:01
443090.4,4411731.1,40009.5090509259,40009.5090509259,0.0,2009-07-15,12:13:02,2009-07-15,12:13:02
365530.8,4388556.7,40009.5396527778,40009.5396527778,0.0,2009-07-15,12:57:06,2009-07-15,12:57:06
445048.78085106384,4412977.516312056,40010.0840509259,40010.155150463,199.92248497844741,2009-07-16,02:01:02,2009-07-16,03:43:25
453331.7,4415592.6,40010.231712963,40010.231712963,0.0,2009-07-16,05:33:40,2009-07-16,05:33:40
444276.0349999995,4411753.800833335,40010.4062847222,40010.4211921296,36.99621602281211,2009-07-16,09:45:03,2009-07-16,10:06:31
444219.62217391335,4411789.635652172,40011.3289814815,40013.9407175926,20.17349746550065,2009-07-17,07:53:44,2009-07-19,22:34:38
450132.73095238116,4423454.630158732,40014.0201967593,40014.0458101852,192.71432224980828,2009-07-20,00:29:05,2009-07-20,01:05:58
450085.2853846155,4423419.7376923105,40014.0458333333,40014.1322453704,62.47463485277729,2009-07-20,01:06:00,2009-07-20,03:10:26
444274.15599999996,4411703.221,40014.1938078704,40014.1974537037,194.90223190120062,2009-07-20,04:39:05,2009-07-20,04:44:20
446586.42678571434,4411930.988392859,40014.3985532407,40014.4371759259,142.85184633048115,2009-07-20,09:33:55,2009-07-20,10:29:32
444287.3545454545,4411706.2250000015,40014.4623726852,40014.9806134259,199.2988961328795,2009-07-20,11:05:49,2009-07-20,23:32:05
449364.1,4409060.7,40015.0083101852,40015.0083101852,0.0,2009-07-21,00:11:58,2009-07-21,00:11:58
450029.70958904113,4412893.575799089,40015.0879282407,40015.1098148148,196.06001632168474,2009-07-21,02:06:37,2009-07-21,02:38:08
450122.6544502618,4423403.161780105,40015.2338773148,40015.2626967593,169.8839603964825,2009-07-21,05:36:47,2009-07-21,06:18:17
450089.97915831604,4423457.520240484,40015.2629282407,40015.3065277778,198.33733889475434,2009-07-21,06:18:37,2009-07-21,07:21:24
449935.4428571429,4422651.699999999,40015.3069791667,40015.3071412037,185.83662179434347,2009-07-21,07:22:03,2009-07-21,07:22:17
444269.196875,4411773.9171875,40015.4605787037,40015.4641550926,180.75984067301823,2009-07-21,11:03:14,2009-07-21,11:08:23
444265.1520833333,4411637.958333333,40016.1008912037,40016.3349884259,199.80010010082012,2009-07-22,02:25:17,2009-07-22,08:02:23
446617.68686868687,4411944.8575757565,40016.3417708333,40016.3912037037,184.9468301975378,2009-07-22,08:12:09,2009-07-22,09:23:20
440395.8,4410489.1,40016.4033101852,40016.4033101852,0.0,2009-07-22,09:40:46,2009-07-22,09:40:46
444252.3693877551,4411789.69387755,40018.8295486111,40018.8396875,33.81419820190126,2009-07-24,19:54:33,2009-07-24,20:09:09
445001.19154929585,4413002.377464789,40019.0924537037,40019.127025463,150.88064819534998,2009-07-25,02:13:08,2009-07-25,03:02:55
444249.77187500003,4411782.606249999,40019.1396296296,40019.1407175926,197.4949366439555,2009-07-25,03:21:04,2009-07-25,03:22:38
453400.08571428567,4414609.2,40019.2520949074,40019.252337963,29.06630351490606,2009-07-25,06:03:01,2009-07-25,06:03:22
452014.83767123293,4413863.591780818,40019.3540046296,40019.3749305556,199.84839253780544,2009-07-25,08:29:46,2009-07-25,08:59:54
444263.4928571429,4411688.717857144,40019.5378819444,40019.5427430556,121.84875871304949,2009-07-25,12:54:33,2009-07-25,13:01:33
