453324.21250000014,4415909.125,39855.4164699074,39855.4182638889,193.56768841981653,2009-02-11,09:59:43,2009-02-11,10:02:18
445173.6885304658,4427749.5781362,39855.473275463,39855.4963078704,67.57521735037193,2009-02-11,11:21:31,2009-02-11,11:54:41
445291.7333333334,4427340.433333334,39855.4979282407,39855.4980439815,43.81346824925967,2009-02-11,11:57:01,2009-02-11,11:57:11
445611.9020000001,4425145.752000001,39856.0037268519,39856.0065046296,158.32311896874765,2009-02-12,00:05:22,2009-02-12,00:09:22
453296.5733333333,4416174.35,39856.0342013889,39856.0358796296,199.30785232956364,2009-02-12,00:49:15,2009-02-12,00:51:40
453393.0199999999,4416271.279999999,39856.1956944444,39856.1965625,32.67537298934533,2009-02-12,04:41:48,2009-02-12,04:43:03
445625.120967742,4425183.646774195,39857.0095949074,39857.0129513889,152.80693701559076,2009-02-13,00:13:49,2009-02-13,00:18:39
453304.49062499986,4416165.59375,39857.0380555556,39857.0397916667,195.54950779789144,2009-02-13,00:54:48,2009-02-13,00:57:18
453305.03333333327,4416227.041666666,39857.1984259259,39857.412349537,82.22657721201274,2009-02-13,04:45:44,2009-02-13,09:53:47
445604.30624999973,4425144.104166666,39858.1107523148,39858.1133564815,171.34494448335093,2009-02-14,02:39:29,2009-02-14,02:43:14
450483.83954248385,4417110.412745098,39858.3352083333,39858.3538194444,123.09224183499626,2009-02-14,08:02:42,2009-02-14,08:29:30
445161.69615384616,4427795.815384617,39858.4575925926,39858.4706712963,83.90113229309164,2009-02-14,10:58:56,2009-02-14,11:17:46
441256.0156862747,4425738.675980393,39859.2722916667,39859.2983912037,196.95829507828105,2009-02-15,06:32:06,2009-02-15,07:09:41
444516.1279069769,4428012.227906976,39859.3346527778,39859.3369097222,195.4739113026872,2009-02-15,08:01:54,2009-02-15,08:05:09
444397.50876288646,4427999.48642612,39859.3675810185,39859.4054861111,198.09215027363913,2009-02-15,08:49:19,2009-02-15,09:43:54
445147.77288888866,4427801.637333333,39859.4617939815,39859.4747569444,75.04325419382766,2009-02-15,11:04:59,2009-02-15,11:23:39
445622.40434782614,4425129.033333333,39860.009537037,39860.0134143519,120.86504871133914,2009-02-16,00:13:44,2009-02-16,00:19:19
445179.27832512325,4427762.616256159,39860.5153356481,39860.5387152778,173.76489864182457,2009-02-16,12:22:05,2009-02-16,12:55:45
445527.69999999995,4428160.5,39860.541724537,39860.5417824074,33.80946612974025,2009-02-16,13:00:05,2009-02-16,13:00:10
445227.5220588239,4427738.924509805,39861.4696990741,39862.0053356481,194.50578397550726,2009-02-17,11:16:22,2009-02-18,00:07:41
445619.85820895527,4425153.016417909,39862.0144212963,39862.0180092593,165.08064695818007,2009-02-18,00:20:46,2009-02-18,00:25:56
445611.51875,4425127.574999998,39863.0178009259,39863.0213888889,122.59502436898003,2009-02-19,00:25:38,2009-02-19,00:30:48
445606.4282608695,4425140.067391304,39864.0038657407,39864.0062962963,153.41036470838972,2009-02-20,00:05:34,2009-02-20,00:09:04
445191.1814159293,4427741.211504425,39864.4624884259,39864.471400463,95.63623790170593,2009-02-20,11:05:59,2009-02-20,11:18:49
442971.8632727273,4431045.84290909,39865.1487962963,39865.1696875,192.41156410206324,2009-02-21,03:34:16,2009-02-21,04:04:21
442982.88543046353,4431032.44701987,39865.1697453704,39865.1990277778,195.2478681059734,2009-02-21,04:04:26,2009-02-21,04:46:36
442989.4810526317,4431056.640701754,39865.2003009259,39865.2273842593,195.61237179743682,2009-02-21,04:48:26,2009-02-21,05:27:26
442981.4813672924,4431020.041554956,39865.2274421296,39865.2945138889,197.27919302330696,2009-02-21,05:27:31,2009-02-21,07:04:06
444638.01032110106,4427979.869036696,39865.3227546296,39865.3974652778,199.35929875483293,2009-02-21,07:44:46,2009-02-21,09:32:21
445200.20845070423,4427839.794366198,39865.4015740741,39865.4594444444,187.98949438715363,2009-02-21,09:38:16,2009-02-21,11:01:36
443968.1094339622,4425737.038679246,39865.4949768518,39865.5528240741,199.33780374031656,2009-02-21,11:52:46,2009-02-21,13:16:04
445219.3488372096,4427744.855813954,39865.5676388889,39865.5700115741,185.9942203399916,2009-02-21,13:37:24,2009-02-21,13:40:49
445441.3523131672,4427980.249466194,39866.1882523148,39866.2211805556,198.81217266554933,2009-02-22,04:31:05,2009-02-22,05:18:30
441079.2903846155,4425872.7269230755,39866.2518518518,39866.2546875,197.6036689942764,2009-02-22,06:02:40,2009-02-22,06:06:45
445219.2790322581,4427747.130645162,39866.3624537037,39866.9917824074,189.1629191993194,2009-02-22,08:41:56,2009-02-22,23:48:10
445623.4771428571,4425151.930000002,39867.0041087963,39867.0078703704,139.1504581378254,2009-02-23,00:05:55,2009-02-23,00:11:20
453287.8085714285,4416259.425714286,39867.0332175926,39867.0351273148,162.3515321759815,2009-02-23,00:47:50,2009-02-23,00:50:35
453362.5964285714,4416473.346428571,39867.1992013889,39867.2006481481,14.81890684208798,2009-02-23,04:46:51,2009-02-23,04:48:56
445222.8987096773,4427749.430967742,39867.4646412037,39867.9966550926,179.50835635145233,2009-02-23,11:09:05,2009-02-23,23:55:11
445621.8153846153,4425124.076923075,39868.0052199074,39868.0080555556,164.36572027032622,2009-02-24,00:07:31,2009-02-24,00:11:36
453313.16206896555,4416176.531034482,39868.0344444444,39868.0360069444,195.41148891487344,2009-02-24,00:49:36,2009-02-24,00:51:51
445198.9937238497,4427739.9313807525,39868.4681944444,39868.9968981481,178.68925541303662,2009-02-24,11:14:12,2009-02-24,23:55:32
445620.3313432836,4425170.726865671,39869.0093981481,39869.0129861111,151.17572556406543,2009-02-25,00:13:32,2009-02-25,00:18:42
445233.08292682923,4427736.929268293,39869.4742939815,39869.476724537,179.4752350599276,2009-02-25,11:22:59,2009-02-25,11:26:29
445610.7806451614,4425170.093548387,39870.0068981481,39870.0101967593,152.9988562053483,2009-02-26,00:09:56,2009-02-26,00:14:41
453315.83793103445,4416178.1931034485,39870.0360648148,39870.0375810185,142.8246477335126,2009-02-26,00:51:56,2009-02-26,00:54:07
453357.574074074,4416487.407407408,39870.2004398148,39870.2017708333,11.649892703276224,2009-02-26,04:48:38,2009-02-26,04:50:33
453365.95022935804,4415751.64036697,39870.4112152778,39870.4498032407,134.11189358162758,2009-02-26,09:52:09,2009-02-26,10:47:43
445188.23055555567,4427740.584444442,39870.4863194444,39870.5163541667,102.82572635287703,2009-02-26,11:40:18,2009-02-26,12:23:33
445611.1500000001,4425144.412499999,39871.0051273148,39871.0077893519,191.17899989274454,2009-02-27,00:07:23,2009-02-27,00:11:13
453215.984269663,4416331.314044942,39871.2033680556,39871.2205555556,185.0602604560415,2009-02-27,04:52:51,2009-02-27,05:17:36
445418.63249299716,4427981.623809526,39872.2000925926,39872.2297800926,198.95318544857494,2009-02-28,04:48:08,2009-02-28,05:30:53
443796.08765432076,4425684.574074077,39872.2567476852,39872.4717013889,199.57339502044297,2009-02-28,06:09:43,2009-02-28,11:19:15
443252.8458333334,4425527.3875,39872.5030902778,39872.5057407407,196.0108160279895,2009-02-28,12:04:27,2009-02-28,12:08:16
445147.9396226417,4427948.646226413,39872.5685300926,39873.2036226852,199.03693124644266,2009-02-28,13:38:41,2009-03-01,04:53:13
444990.9872844828,4428200.336206898,39873.2080208333,39873.4162384259,195.73382436343954,2009-03-01,04:59:33,2009-03-01,09:59:23
444767.7785714286,4428289.825,39873.4162962963,39873.4594097222,196.591454545003,2009-03-01,09:59:28,2009-03-01,11:01:33
445223.71304347814,4427841.845652174,39873.4661805556,39873.4687268519,198.36242083676441,2009-03-01,11:11:18,2009-03-01,11:14:58
445623.49850746273,4425189.9,39874.0068402778,39874.0100810185,175.32133355682927,2009-03-02,00:09:51,2009-03-02,00:14:31
453352.4928571427,4416339.984415585,39874.1963888889,39874.2081944444,105.57390776149754,2009-03-02,04:42:48,2009-03-02,04:59:48
445194.5917127071,4427736.722099449,39874.4742824074,39875.0011921296,164.3483191270357,2009-03-02,11:22:58,2009-03-03,00:01:43
445623.4458333333,4425114.020833332,39875.0109143518,39875.0135763889,133.08527341519422,2009-03-03,00:15:43,2009-03-03,00:19:33
453243.83849999984,4416351.729500001,39875.1992939815,39876.1959375,194.58625336850946,2009-03-03,04:46:59,2009-03-04,04:42:09
453330.23846153857,4416309.446153847,39876.1961689815,39876.1976157407,188.53805981829635,2009-03-04,04:42:29,2009-03-04,04:44:34
453443.0409282702,4415785.792405064,39876.4093171296,39876.4429398148,145.7603512620279,2009-03-04,09:49:25,2009-03-04,10:37:50
445216.46507936524,4427723.242857143,39876.4781944444,39876.484212963,124.98195869819949,2009-03-04,11:28:36,2009-03-04,11:37:16
445632.82048192766,4425157.679518071,39877.0094675926,39877.4654513889,199.52455989138744,2009-03-05,00:13:38,2009-03-05,11:10:15
445213.9542857143,4427777.645714285,39877.4743055556,39877.4762152778,170.6751592942599,2009-03-05,11:23:00,2009-03-05,11:25:45
445610.076,4425142.397999999,39878.0022916667,39878.0050694444,159.85174381270167,2009-03-06,00:03:18,2009-03-06,00:07:18
453318.625,4416134.1477272725,39878.0314583333,39878.0339467593,196.95951360585562,2009-03-06,00:45:18,2009-03-06,00:48:53
453377.0351851851,4416373.083333335,39878.1926851852,39878.1956365741,162.53990279279182,2009-03-06,04:37:28,2009-03-06,04:41:43
453451.2042519684,4415675.54346457,39878.4187847222,39878.4612152778,89.93002835543649,2009-03-06,10:03:03,2009-03-06,11:04:09
453394.9975490197,4415627.432843138,39878.4624305556,39878.4800231481,55.37084070156123,2009-03-06,11:05:54,2009-03-06,11:31:14
454075.03866666654,4415372.5506666675,39878.4851736111,39878.49125,30.314682910942082,2009-03-06,11:38:39,2009-03-06,11:47:24
445232.8088888889,4427725.586666667,39878.5561574074,39878.5586458333,190.1831748602716,2009-03-06,13:20:52,2009-03-06,13:24:27
445315.00558823533,4427348.434705883,39879.2029050926,39879.2265046296,199.88899419426863,2009-03-07,04:52:11,2009-03-07,05:26:10
445328.01638888847,4427346.064999997,39879.2265625,39879.2529513889,117.50063829539714,2009-03-07,05:26:15,2009-03-07,06:04:15
443831.1203703703,4425705.748148147,39879.2908333333,39879.2936805556,196.77936883710353,2009-03-07,06:58:48,2009-03-07,07:02:54
442604.3022831055,4427032.1488584485,39880.1986921296,39880.230150463,157.9352398929034,2009-03-08,04:46:07,2009-03-08,05:31:25
442724.2900621118,4423272.798136648,39880.2488425926,39880.3203472222,183.72860419581687,2009-03-08,05:58:20,2009-03-08,07:41:18
438869.49030303035,4434902.080606062,39880.3791435185,39880.3905439815,197.920489085589,2009-03-08,09:05:58,2009-03-08,09:22:23
445343.1404255319,4427822.363829788,39880.6003009259,39880.9934722222,196.7228761483353,2009-03-08,14:24:26,2009-03-08,23:50:36
445616.9999999999,4425115.930769233,39881.0148958333,39881.0177314815,179.78000444980867,2009-03-09,00:21:27,2009-03-09,00:25:32
453304.1790697674,4416187.881395348,39881.0434837963,39881.1622106481,153.18371323380615,2009-03-09,01:02:37,2009-03-09,03:53:35
453354.17647058825,4416455.023529411,39881.1625694444,39881.1634375,12.528367810702695,2009-03-09,03:54:06,2009-03-09,03:55:21
453377.8,4415917.325,39881.4368518519,39881.4372569444,39.024351371826704,2009-03-09,10:29:04,2009-03-09,10:29:39
445229.9854166666,4427739.491666665,39881.492662037,39881.4952083333,177.88886980394557,2009-03-09,11:49:26,2009-03-09,11:53:06
445608.1692307694,4425135.412820512,39882.008599537,39882.0107407407,159.96177668415527,2009-03-10,00:12:23,2009-03-10,00:15:28
453343.3416666666,4416262.533333333,39882.0399652778,39882.0462731481,115.31734474934781,2009-03-10,00:57:33,2009-03-10,01:06:38
453382.55830815696,4416504.079758307,39882.1727083333,39882.1937731481,199.47022334186153,2009-03-10,04:08:42,2009-03-10,04:39:02
453245.8983606557,4416381.132786886,39882.1938310185,39882.1973032407,115.21423523139973,2009-03-10,04:39:07,2009-03-10,04:44:07
445201.0195121952,4427728.0723577235,39882.4660532407,39882.4822106481,142.64042204088608,2009-03-10,11:11:07,2009-03-10,11:34:23
445618.0250000001,4425160.18392857,39883.0046064815,39883.0076736111,149.3969544531599,2009-03-11,00:06:38,2009-03-11,00:11:03
453373.1666666669,4416263.17063492,39883.1878703704,39883.4211226852,197.4145891259793,2009-03-11,04:30:32,2009-03-11,10:06:25
453369.3959183673,4416031.028571429,39883.4376041667,39883.4402662037,186.72292307070003,2009-03-11,10:30:09,2009-03-11,10:33:59
445232.6074074074,4427684.438888888,39883.4746990741,39884.0031134259,195.93886801773843,2009-03-11,11:23:34,2009-03-12,00:04:29
445623.57540983596,4425192.270491804,39884.0109259259,39884.0143402778,170.47947090532483,2009-03-12,00:15:44,2009-03-12,00:20:39
453346.16193771636,4416292.630795849,39884.0617824074,39884.0777199074,41.59086438167831,2009-03-12,01:28:58,2009-03-12,01:51:55
453372.8361702129,4416355.0063829785,39884.1976388889,39884.2003009259,196.90589122743853,2009-03-12,04:44:36,2009-03-12,04:48:26
445237.8608695652,4427764.004347825,39884.45625,39884.4585648148,193.78441629792434,2009-03-12,10:57:00,2009-03-12,11:00:20
445613.67692307703,4425130.773076924,39885.0092476852,39885.0120833333,116.72497590464316,2009-03-13,00:13:19,2009-03-13,00:17:24
453533.5,4416728.325,39885.0518402778,39885.0520138889,56.86791714136807,2009-03-13,01:14:39,2009-03-13,01:14:54
453257.1490566037,4416341.318867926,39885.1845833333,39885.1900231481,199.28765641623886,2009-03-13,04:25:48,2009-03-13,04:33:38
443048.7999999996,4415090.296835443,39885.4757523148,39885.5130787037,178.53417039901095,2009-03-13,11:25:05,2009-03-13,12:18:50
443214.66171874997,4415381.83359375,39885.5183449074,39885.5390625,81.9005494490791,2009-03-13,12:26:25,2009-03-13,12:56:15
443220.041935484,4415343.287096774,39885.5579282407,39885.5784722222,38.01394481011866,2009-03-13,13:23:25,2009-03-13,13:53:00
446052.6764976955,4416258.323502303,39886.1237152778,39886.2394560185,117.372058003781,2009-03-14,02:58:09,2009-03-14,05:44:49
445196.9859649124,4427879.928947369,39886.5787037037,39887.072037037,194.9601241279417,2009-03-14,13:53:20,2009-03-15,01:43:44
440170.7678571426,4424876.904719393,39887.0941435185,39887.1655787037,193.11926366940392,2009-03-15,02:15:34,2009-03-15,03:58:26
443704.37560975604,4425724.451219511,39887.1917361111,39887.1939930556,196.0495090530991,2009-03-15,04:36:06,2009-03-15,04:39:21
443782.07738095254,4425602.463095238,39887.317037037,39887.410150463,29.7880848663243,2009-03-15,07:36:32,2009-03-15,09:50:37
445632.7886363638,4425167.842045456,39888.0108796296,39888.4561574074,195.22666313782048,2009-03-16,00:15:40,2009-03-16,10:56:52
445224.21400000004,4427736.721999999,39888.4657060185,39888.4684259259,199.88929435994257,2009-03-16,11:10:37,2009-03-16,11:14:32
445218.48437499994,4427763.028124999,39889.4883912037,39889.4903009259,186.62288176980337,2009-03-17,11:43:17,2009-03-17,11:46:02
445609.6510204082,4425119.485714286,39890.0092476852,39890.0119675926,129.59822529638444,2009-03-18,00:13:19,2009-03-18,00:17:14
453299.3854166669,4416169.931250001,39890.0383564815,39890.0409027778,136.71506866471373,2009-03-18,00:55:14,2009-03-18,00:58:54
453342.4662790699,4416093.773255816,39890.1880324074,39890.1958912037,123.20146103054769,2009-03-18,04:30:46,2009-03-18,04:42:05
445627.67500000005,4425151.463235296,39891.0086805556,39891.0124421296,136.87958211542752,2009-03-19,00:12:30,2009-03-19,00:17:55
453342.18461538455,4416229.646153846,39891.0399884259,39891.0406828704,180.19900110694155,2009-03-19,00:57:35,2009-03-19,00:58:35
453359.15555555566,4416362.919999999,39891.1806828704,39891.1830208333,193.19301229599935,2009-03-19,04:20:11,2009-03-19,04:23:33
453375.92674698774,4415747.085060242,39891.4130092593,39891.437662037,184.75878869489964,2009-03-19,09:54:44,2009-03-19,10:30:14
453377.1788461537,4415889.432692308,39891.4433912037,39891.4463425926,94.78929264426169,2009-03-19,10:38:29,2009-03-19,10:42:44
445206.3972222222,4427766.36388889,39891.4843171296,39891.4861689815,148.7080697203309,2009-03-19,11:37:25,2009-03-19,11:40:05
445612.8666666667,4425101.527450981,39892.0039236111,39892.0067013889,106.24019954808062,2009-03-20,00:05:39,2009-03-20,00:09:39
453312.84374999994,4416300.375,39892.1871990741,39892.1880671296,104.11248724286715,2009-03-20,04:29:34,2009-03-20,04:30:49
453479.19999999995,4415505.311111111,39892.4246412037,39892.4471412037,192.15839820244506,2009-03-20,10:11:29,2009-03-20,10:43:53
453390.5739495798,4415756.42983193,39892.4577893519,39892.4703472222,190.54805168250422,2009-03-20,10:59:13,2009-03-20,11:17:18
445222.19166666677,4427798.5183333345,39892.5076736111,39893.2160416667,199.27614006680926,2009-03-20,12:11:03,2009-03-21,05:11:06
444987.2192982458,4428207.515789475,39893.3108912037,39893.3327083333,198.84315426981746,2009-03-21,07:27:41,2009-03-21,07:59:06
445011.96089552215,4428194.050746268,39893.3327662037,39893.3780208333,195.61518345984828,2009-03-21,07:59:11,2009-03-21,09:04:21
445212.67910447763,4427862.4910447765,39893.4023263889,39893.4066087963,184.86714148275257,2009-03-21,09:39:21,2009-03-21,09:45:31
445352.2281553397,4427947.936893204,39894.1712847222,39894.2066666667,199.99062477990967,2009-03-22,04:06:39,2009-03-22,04:57:36
442645.65869565203,4427028.066304347,39894.2134375,39894.239537037,190.31815467789718,2009-03-22,05:07:21,2009-03-22,05:44:56
443775.2375000001,4425581.14875,39894.2546990741,39894.2613541667,69.18916100049749,2009-03-22,06:06:46,2009-03-22,06:16:21
445213.11463414633,4427766.309756097,39894.593900463,39894.5961574074,138.88560040550004,2009-03-22,14:15:13,2009-03-22,14:18:28
453386.3040983606,4415823.826229509,39895.4143055556,39895.4452083333,104.73012938038865,2009-03-23,09:56:36,2009-03-23,10:41:06
445242.67142857146,4427601.891836734,39895.4817824074,39895.9933564815,193.96620839740572,2009-03-23,11:33:46,2009-03-23,23:50:26
445617.7186666664,4425151.037333332,39896.0026157407,39896.0066087963,134.30115412767762,2009-03-24,00:03:46,2009-03-24,00:09:31
453295.4275862068,4416177.144827586,39896.0339814815,39896.0354861111,117.12454909171248,2009-03-24,00:48:56,2009-03-24,00:51:06
445231.5296296296,4427744.520370371,39896.5559375,39896.9943981481,191.25062091439824,2009-03-24,13:20:33,2009-03-24,23:51:56
445609.51071428566,4425127.764285713,39897.0066666667,39897.0097916667,105.69489107806697,2009-03-25,00:09:36,2009-03-25,00:14:06
453335.7166666667,4416350.783333334,39897.0557986111,39897.197025463,53.922258854747014,2009-03-25,01:20:21,2009-03-25,04:43:43
445612.46800000005,4425125.674000001,39898.0066203704,39898.0093981481,131.96063807087822,2009-03-26,00:09:32,2009-03-26,00:13:32
453324.36315789475,4416254.263157895,39898.0381597222,39905.1870833333,120.96482959953676,2009-03-26,00:54:57,2009-04-02,04:29:24
453315.1777777778,4416254.088888889,39905.1917708333,39905.1928125,194.4358506035573,2009-04-02,04:36:09,2009-04-02,04:37:39
453378.3070422535,4415847.561267607,39905.4120717593,39905.4580324074,39.41674770944065,2009-04-02,09:53:23,2009-04-02,10:59:34
442450.78288288286,4427073.389189187,39905.4941203704,39905.5185416667,194.93950343688033,2009-04-02,11:51:32,2009-04-02,12:26:42
444989.1655555553,4428219.141111111,39905.5473263889,39905.5983333333,199.7492678333654,2009-04-02,13:08:09,2009-04-02,14:21:36
445204.85806451616,4427796.704838709,39905.6054513889,39905.6106018518,173.31041515154246,2009-04-02,14:31:51,2009-04-02,14:39:16
453377.55172413785,4415630.175862067,39906.4410416667,39906.4443402778,153.22832636242458,2009-04-03,10:35:06,2009-04-03,10:39:51
448311.62876712315,4414212.841780823,39908.1181712963,39908.1404513889,199.34816277055816,2009-04-05,02:50:10,2009-04-05,03:22:15
448319.6053097339,4414219.108141597,39908.1699652778,39908.3312615741,153.42131533772948,2009-04-05,04:04:45,2009-04-05,07:57:01
453375.01954022975,4415567.908045977,39908.3457291667,39908.3503587963,151.01923718551774,2009-04-05,08:17:51,2009-04-05,08:24:31
460555.61600338685,4357702.418035569,39911.0304976852,39911.1548032407,142.40294940729615,2009-04-08,00:43:55,2009-04-08,03:42:55
453355.1959183668,4415541.93106576,39911.4300810185,39911.4892824074,189.6091242525687,2009-04-08,10:19:19,2009-04-08,11:44:34
453331.8816143499,4415575.431838567,39911.4893402778,39911.5337268518,35.66020190667294,2009-04-08,11:44:39,2009-04-08,12:48:34
445220.47499999986,4427728.857692308,39911.5938310185,39911.5964351852,176.78353995825802,2009-04-08,14:15:07,2009-04-08,14:18:52
453390.19279588264,4415745.989193826,39912.4114930556,39912.4805324074,20.20222759995438,2009-04-09,09:52:33,2009-04-09,11:31:58
445277.57682926825,4427888.529268292,39912.5146759259,39912.5191898148,139.4745854985636,2009-04-09,12:21:08,2009-04-09,12:27:38
445610.50600000017,4425163.6280000005,39913.0089814815,39913.0117013889,158.67532889546305,2009-04-10,00:12:56,2009-04-10,00:16:51
453316.3382352941,4416247.570588236,39913.0391319444,39913.1895486111,160.50501549796562,2009-04-10,00:56:21,2009-04-10,04:32:57
453347.2798701297,4415759.372077921,39913.413912037,39913.4625925926,79.97530868924977,2009-04-10,09:56:02,2009-04-10,11:06:08
445220.94800000003,4427767.308000001,39913.4977546296,39913.4991435185,179.9451027396927,2009-04-10,11:56:46,2009-04-10,11:58:46
443839.8422222222,4425670.437777779,39914.2553703704,39914.2578587963,199.6643433363879,2009-04-11,06:07:44,2009-04-11,06:11:19
443735.02370129863,4425494.168831164,39914.5409837963,39914.5635532407,192.54116442978903,2009-04-11,12:59:01,2009-04-11,13:31:31
445217.6599999998,4427730.067272727,39914.5821875,39914.5871643518,137.01346649144386,2009-04-11,13:58:21,2009-04-11,14:05:31
440240.29999999993,4424739.123529412,39915.0826967593,39915.0836226852,181.46481752688942,2009-04-12,01:59:05,2009-04-12,02:00:25
441275.51416666654,4418821.879166666,39915.1510069444,39915.1714583333,193.6718100297144,2009-04-12,03:37:27,2009-04-12,04:06:54
445608.8999999999,4425147.287755101,39917.0093055556,39917.0118518519,158.00079113738036,2009-04-14,00:13:24,2009-04-14,00:17:04
453360.1036144581,4417300.679518072,39917.4220023148,39917.4515740741,191.2725019440436,2009-04-14,10:07:41,2009-04-14,10:50:16
453167.96333333344,4417346.569,39917.453599537,39917.480162037,199.89197082417633,2009-04-14,10:53:11,2009-04-14,11:31:26
453380.4196428571,4417351.8071428565,39917.5075347222,39917.5104282407,152.04558526967307,2009-04-14,12:10:51,2009-04-14,12:15:01
445234.88684210513,4427740.031578948,39917.5509375,39917.5530787037,173.97729736933883,2009-04-14,13:13:21,2009-04-14,13:16:26
445615.4142857144,4425128.985714287,39918.009224537,39918.0118865741,141.9643969451604,2009-04-15,00:13:17,2009-04-15,00:17:07
453199.91333333333,4415970.913333333,39918.4171064815,39918.4179166667,187.240620592987,2009-04-15,10:00:38,2009-04-15,10:01:48
453381.40638297884,4415896.870212766,39918.454375,39918.4568981482,193.87428916696504,2009-04-15,10:54:18,2009-04-15,10:57:56
445230.43404255324,4427738.491489362,39918.4916898148,39918.4940046296,172.07236849633557,2009-04-15,11:48:02,2009-04-15,11:51:22
445616.53636363643,4425209.772727274,39919.0094560185,39919.0129282407,195.06865458071343,2009-04-16,00:13:37,2009-04-16,00:18:37
453374.0921787711,4415794.572625701,39919.4145601852,39919.4467361111,196.76178490759912,2009-04-16,09:56:58,2009-04-16,10:43:18
453201.6257485028,4415901.852694614,39919.4467939815,39919.4595833333,174.8707236790206,2009-04-16,10:43:23,2009-04-16,11:01:48
445254.0429999999,4427897.623,39919.500787037,39919.5098958333,71.73520753432072,2009-04-16,12:01:08,2009-04-16,12:14:15
445619.6559322035,4425196.647457627,39920.0137268519,39920.0168518518,185.9621466854188,2009-04-17,00:19:46,2009-04-17,00:24:16
453377.2848214285,4415797.183035715,39920.4130324074,39920.5078472222,19.811612756341695,2009-04-17,09:54:46,2009-04-17,12:11:18
445229.589230769,4427812.784615385,39920.5435763889,39921.1455092593,191.69019275830314,2009-04-17,13:02:45,2009-04-18,03:29:32
441182.7036585366,4425692.951829269,39921.1704513889,39921.1955671296,195.1537342704709,2009-04-18,04:05:27,2009-04-18,04:41:37
442589.45086206915,4427053.286206895,39921.213275463,39921.2353819444,196.18460693932212,2009-04-18,05:07:07,2009-04-18,05:38:57
444245.7500000003,4428346.98333333,39921.2467824074,39921.2677314815,193.53929833499683,2009-04-18,05:55:22,2009-04-18,06:25:32
444658.11971830996,4428117.456338028,39921.2692939815,39921.2731134259,174.96471072780105,2009-04-18,06:27:47,2009-04-18,06:33:17
445203.26198830426,4427811.79590643,39921.6493402778,39921.66125,135.39693497287962,2009-04-18,15:35:03,2009-04-18,15:52:12
445620.0812500001,4425156.773437501,39922.1215509259,39922.1249652778,128.78664527061153,2009-04-19,02:55:02,2009-04-19,02:59:57
444938.235,4428182.9825,39922.4139236111,39922.4184953704,189.78830311688773,2009-04-19,09:56:03,2009-04-19,10:02:38
445028.8960992908,4428194.609574469,39922.4546064815,39922.4692476852,22.083930809717057,2009-04-19,10:54:38,2009-04-19,11:15:43
445616.35200000013,4425126.018,39923.0116782407,39923.0143981481,148.58869405156534,2009-04-20,00:16:49,2009-04-20,00:20:44
453366.1800000002,4416117.876533332,39923.0418287037,39923.42375,39.6224683733977,2009-04-20,01:00:14,2009-04-20,10:10:12
453435.45000000024,4415745.9151898725,39923.4238078704,39923.4556365741,198.68802178307476,2009-04-20,10:10:17,2009-04-20,10:56:07
453370.3499999999,4415889.845000001,39923.4556944444,39923.4566782407,49.28813244557946,2009-04-20,10:56:12,2009-04-20,10:57:37
445211.61090909096,4427761.95090909,39923.4904513889,39923.4935763889,192.26981042207532,2009-04-20,11:46:15,2009-04-20,11:50:45
453346.9562130177,4415739.474556212,39925.4134837963,39925.4493055556,199.35721707541137,2009-04-22,09:55:25,2009-04-22,10:47:00
453397.5400000001,4415824.198,39925.4728009259,39925.4755787037,195.1730001818899,2009-04-22,11:20:50,2009-04-22,11:24:50
445163.103125,4427784.21328125,39925.5151851852,39925.5231134259,138.60710659995647,2009-04-22,12:21:52,2009-04-22,12:33:17
442937.13315363845,4425158.76495957,39926.4403819444,39926.4669444444,198.56938334015612,2009-04-23,10:34:09,2009-04-23,11:12:24
445224.78596491244,4427750.905263159,39926.4897453704,39926.4928125,142.13831292057017,2009-04-23,11:45:14,2009-04-23,11:49:39
445623.9897058824,4425173.438235295,39927.01375,39927.017337963,179.23375798114864,2009-04-24,00:19:48,2009-04-24,00:24:58
453290.82499999995,4416066.15625,39927.0432638889,39927.0448842593,68.01154313782706,2009-04-24,01:02:18,2009-04-24,01:04:38
456300.19068716106,4424942.736075953,39930.045474537,39930.1520138889,187.1214846030916,2009-04-27,01:05:29,2009-04-27,03:38:54
456307.1906666663,4424955.249333338,39930.1534027778,39930.2148032407,190.60747624372004,2009-04-27,03:40:54,2009-04-27,05:09:19
456310.5620488932,4424951.561117581,39930.2148611111,39930.3883564815,192.78280524983126,2009-04-27,05:09:24,2009-04-27,09:19:14
450257.8626760563,4435949.013380284,39930.4770833333,39930.4929976852,112.07256577772111,2009-04-27,11:27:00,2009-04-27,11:49:55
449735.3,4427135.25,39931.0216203704,39931.0216782407,119.52928511531438,2009-04-28,00:31:08,2009-04-28,00:31:13
453318.26888888894,4416112.0200000005,39931.237974537,39931.2404050926,191.24894770989422,2009-04-28,05:42:41,2009-04-28,05:46:11
453398.85277777776,4415801.849999998,39931.4108912037,39931.4409837963,197.80204751196675,2009-04-28,09:51:41,2009-04-28,10:35:01
453372.68382352917,4415889.7029411765,39931.4410416667,39931.4445717593,49.02948092730162,2009-04-28,10:35:06,2009-04-28,10:40:11
453115.78518518514,4417493.34074074,39931.4633796296,39931.4647685185,136.42026975508642,2009-04-28,11:07:16,2009-04-28,11:09:16
453358.097826087,4417437.886956522,39931.5539583333,39931.5565046296,188.65039093566114,2009-04-28,13:17:42,2009-04-28,13:21:22
450201.43984374974,4435947.018593751,39931.6018171296,39931.6510069444,196.48562288345497,2009-04-28,14:26:37,2009-04-28,15:37:27
450227.90552147245,4435902.494785273,39931.687349537,39931.7089351852,195.44421198902768,2009-04-28,16:29:47,2009-04-28,17:00:52
450257.7622222222,4435926.097777778,39931.7194097222,39931.7221875,71.33954022834163,2009-04-28,17:15:57,2009-04-28,17:19:57
509527.95,4487078.779999999,39932.0800115741,39932.1351041667,176.08830171251122,2009-04-29,01:55:13,2009-04-29,03:14:33
450313.5735426011,4435843.064125558,39932.2725810185,39932.29625,187.48439935086233,2009-04-29,06:32:31,2009-04-29,07:06:36
450257.23525641055,4435938.400641028,39932.2967708333,39932.3226967593,192.4434982019526,2009-04-29,07:07:21,2009-04-29,07:44:41
450214.4150000001,4435871.873333334,39932.3387847222,39932.9962152778,163.93635960326964,2009-04-29,08:07:51,2009-04-29,23:54:33
449778.3333333333,4427141.133333334,39933.0180902778,39933.0182060185,169.7035650780167,2009-04-30,00:26:03,2009-04-30,00:26:13
453332.36511627905,4416023.193023257,39933.2417013889,39933.2440277778,150.14126681179422,2009-04-30,05:48:03,2009-04-30,05:51:24
444626.48333333345,4427941.047916666,39933.3051967593,39933.3076273148,190.97937061356345,2009-04-30,07:19:29,2009-04-30,07:22:59
445372.03750000003,4428309.362499999,39933.4411921296,39933.4416550926,98.85752373974522,2009-04-30,10:35:19,2009-04-30,10:35:59
449497.0461352659,4436041.3642512085,39933.5384837963,39933.5598958333,199.92223488129918,2009-04-30,12:55:25,2009-04-30,13:26:15
449508.77045454533,4436063.118939395,39933.5721643518,39933.6084490741,54.910199416507126,2009-04-30,13:43:55,2009-04-30,14:36:10
449498.74045584054,4435999.548433049,39933.6093171296,39933.6322916667,199.91223074143429,2009-04-30,14:37:25,2009-04-30,15:10:30
450411.842519685,4435929.528346456,39933.6524884259,39934.137962963,97.29809864482145,2009-04-30,15:39:35,2009-05-01,03:18:40
450445.13118279574,4436049.502150538,39934.1518518519,39934.1728009259,197.49349356352778,2009-05-01,03:38:40,2009-05-01,04:08:50
450262.30000000005,4435926.433333333,39934.1859953704,39934.1865740741,174.1709792127868,2009-05-01,04:27:50,2009-05-01,04:28:40
444656.65284090984,4427992.839204553,39934.4225578704,39934.5278472222,191.14732537998094,2009-05-01,10:08:29,2009-05-01,12:40:06
450244.5337552739,4435909.584177215,39934.5762847222,39934.6109490741,63.8599248355308,2009-05-01,13:49:51,2009-05-01,14:39:46
406185.6500000001,4470197.688888889,39935.0170949074,39935.0180208333,174.49312307419675,2009-05-02,00:24:37,2009-05-02,00:25:57
449604.8416666666,4435021.058333334,39935.2019444444,39935.2025810185,199.58005912383103,2009-05-02,04:50:48,2009-05-02,04:51:43
397480.0785714286,4477830.100000001,39935.4071643518,39935.4079166667,190.41512544959244,2009-05-02,09:46:19,2009-05-02,09:47:24
441561.1491124256,4422684.557100593,39936.2181597222,39936.2446064815,172.25135703366556,2009-05-03,05:14:09,2009-05-03,05:52:14
441329.51436170214,4425727.682446807,39936.2538078704,39936.2749305556,196.7915140446353,2009-05-03,06:05:29,2009-05-03,06:35:54
440891.4089403974,4426193.573841058,39936.3059490741,39936.3301388889,199.75064455450791,2009-05-03,07:20:34,2009-05-03,07:55:24
443673.8898148148,4425789.939814817,39936.3655555556,39936.5615856481,192.3437027820983,2009-05-03,08:46:24,2009-05-03,13:28:41
450228.5383333334,4435971.365000001,39936.6169097222,39936.620150463,126.67849067621124,2009-05-03,14:48:21,2009-05-03,14:53:01
425800.32053571515,4451627.498363094,39937.0160300926,39937.1845486111,167.40657095817645,2009-05-04,00:23:05,2009-05-04,04:25:45
442387.86283524905,4432329.623563218,39937.2092013889,39937.2361111111,198.90040221178427,2009-05-04,05:01:15,2009-05-04,05:40:00
442186.37534246576,4432374.605479455,39937.2365162037,39937.2407407407,174.76498505142985,2009-05-04,05:40:35,2009-05-04,05:46:40
453409.34374999994,4415966.309375,39937.4334490741,39937.4350694444,167.20684794578236,2009-05-04,10:24:10,2009-05-04,10:26:30
449523.4129807692,4436037.611057695,39937.4696759259,39937.490625,197.40253291185016,2009-05-04,11:16:20,2009-05-04,11:46:30
450252.32430555555,4435899.620138889,39937.4953703704,39937.5037037037,147.2220092239055,2009-05-04,11:53:20,2009-05-04,12:05:20
473040.9926229508,4468420.194262295,39938.0119212963,39938.0967013889,176.12748223942617,2009-05-05,00:17:10,2009-05-05,02:19:15
462996.9027894012,4434983.593723853,39938.1318865741,39938.2241898148,182.83528105922002,2009-05-05,03:09:55,2009-05-05,05:22:50
514255.5743589744,4446277.676923077,39938.2799768519,39938.3771412037,167.8010727022184,2009-05-05,06:43:10,2009-05-05,09:03:05
452244.1837528606,4436476.983981694,39938.4700810185,39938.5658796296,199.33200947163505,2009-05-05,11:16:55,2009-05-05,13:34:52
452254.9311643839,4436479.314554795,39938.5659375,39938.5953356481,189.90168508946073,2009-05-05,13:34:57,2009-05-05,14:17:17
450309.7461538461,4435853.705128204,39938.6040162037,39938.9845486111,199.3565900588199,2009-05-05,14:29:47,2009-05-05,23:37:45
449714.65,4426857.4,39939.0126157407,39939.0126736111,142.820621760489,2009-05-06,00:18:10,2009-05-06,00:18:15
473062.1151209675,4468709.302822577,39939.0658796296,39939.1433680556,196.90589122733687,2009-05-06,01:34:52,2009-05-06,03:26:27
473054.99330922257,4468705.187703437,39939.1434259259,39939.2048263889,188.93575627730155,2009-05-06,03:26:32,2009-05-06,04:54:57
442198.4315789474,4432361.050000001,39939.2787847222,39939.2808101852,194.14061914021104,2009-05-06,06:41:27,2009-05-06,06:44:22
453390.0633333332,4415826.205,39939.4065162037,39939.4428009259,86.24731879905349,2009-05-06,09:45:23,2009-05-06,10:37:38
450276.06356589135,4435880.087596898,39939.4972569444,39939.5078472222,196.46948872532934,2009-05-06,11:56:03,2009-05-06,12:11:18
436042.05744680867,4414626.580851063,39940.0176967593,39940.0792708333,199.43680703421902,2009-05-07,00:25:29,2009-05-07,01:54:09
459115.8405286331,4404237.871145368,39940.1112152778,39940.3430439815,193.48302251116488,2009-05-07,02:40:09,2009-05-07,08:13:59
459104.9531938332,4404234.993612336,39940.3431018519,39940.4127199074,173.60233293366997,2009-05-07,08:14:04,2009-05-07,09:54:19
453380.3249999999,4415898.804166666,39940.4689930556,39940.4716550926,188.46516919525754,2009-05-07,11:15:21,2009-05-07,11:19:11
449662.5419642857,4435010.983035716,39940.5133217593,39940.6036574074,197.35131111806115,2009-05-07,12:19:11,2009-05-07,14:29:16
450261.29437984474,4435898.89137597,39940.6244907407,39940.7138425926,138.49350165316807,2009-05-07,14:59:16,2009-05-07,17:07:56
450251.7850806453,4435916.76612903,39940.7140162037,39941.0099305556,198.64440591177996,2009-05-07,17:08:11,2009-05-08,00:14:18
449670.45,4426957.45,39941.030474537,39941.0305324074,111.19541357485141,2009-05-08,00:43:53,2009-05-08,00:43:58
434274.07,4450832.590000001,39941.0559143518,39941.1506481481,199.04496979344285,2009-05-08,01:20:31,2009-05-08,03:36:56
473729.0300000012,4468692.071739129,39941.2181828704,39941.3905787037,197.48058132379074,2009-05-08,05:14:11,2009-05-08,09:22:26
440810.75562913914,4431008.041059606,39941.449375,39941.4828819444,195.42724989145358,2009-05-08,10:47:06,2009-05-08,11:35:21
442227.75316455704,4432342.646835443,39941.505162037,39942.0214583333,191.33185829852525,2009-05-08,12:07:26,2009-05-09,00:30:54
448425.2739130436,4415772.878260869,39942.0634722222,39942.1103472222,189.4755920955379,2009-05-09,01:31:24,2009-05-09,02:38:54
447715.57826086984,4412751.210434784,39942.1208217593,39942.2454976852,190.8646117020431,2009-05-09,02:53:59,2009-05-09,05:53:31
442184.78941176465,4432382.712941177,39942.3015740741,39942.3063194444,172.35280676553376,2009-05-09,07:14:16,2009-05-09,07:21:06
443533.5550295861,4425797.66015779,39942.4152083333,39942.442349537,89.44299860836273,2009-05-09,09:57:54,2009-05-09,10:36:59
443778.3142755168,4425634.704496767,39942.4628356481,39942.5869675926,199.8712085316727,2009-05-09,11:06:29,2009-05-09,14:05:14
443508.67783088336,4425401.295624996,39942.5996412037,39943.0428240741,58.57132404200856,2009-05-09,14:23:29,2009-05-10,01:01:40
443516.3168262652,4425431.771682631,39943.0456018519,39943.1240740741,62.013708162354284,2009-05-10,01:05:40,2009-05-10,02:58:40
442150.9208333332,4432426.916666666,39943.1864930556,39943.1879398148,64.26460923401517,2009-05-10,04:28:33,2009-05-10,04:30:38
432951.15731707314,4401179.189024391,39944.0293055556,39944.2056365741,180.56923879775314,2009-05-11,00:42:12,2009-05-11,04:56:07
455454.0872093028,4420317.827674415,39944.2635648148,39944.2865972222,188.89650605560126,2009-05-11,06:19:32,2009-05-11,06:52:42
443176.950303031,4432162.0650505,39944.3094560185,39944.3374074074,162.04348181924738,2009-05-11,07:25:37,2009-05-11,08:05:52
441972.27954545466,4432467.948863637,39944.3678472222,39944.3725347222,193.1951603947825,2009-05-11,08:49:42,2009-05-11,08:56:27
453488.5142857143,4415910.699999999,39944.4301967593,39944.4312962963,199.8945972255555,2009-05-11,10:19:29,2009-05-11,10:21:04
450255.76648936135,4435900.367952131,39944.4741203704,39944.5396875,115.61371026017225,2009-05-11,11:22:44,2009-05-11,12:57:09
450240.48200371047,4435889.191651205,39944.540787037,39944.592349537,115.34318358725521,2009-05-11,12:58:44,2009-05-11,14:12:59
449687.89999999997,4426811.3,39945.0200115741,39945.0201273148,198.79056818690876,2009-05-12,00:28:49,2009-05-12,00:28:59
453355.94137931033,4416096.6948275855,39945.0451273148,39945.4131365741,198.71955112667314,2009-05-12,01:04:59,2009-05-12,09:54:55
453659.49000000005,4415766.2700000005,39945.4234375,39945.4239583333,36.88970045931722,2009-05-12,10:09:45,2009-05-12,10:10:30
453396.4888888889,4415831.666666667,39945.4907986111,39945.4928240741,193.03642143387552,2009-05-12,11:46:45,2009-05-12,11:49:40
449753.8666666667,4427183.5,39946.0195023148,39946.0196180556,193.9631408285367,2009-05-13,00:28:05,2009-05-13,00:28:15
453301.68235294125,4416197.547058824,39946.0436921296,39946.0446180556,168.65449890233725,2009-05-13,01:02:55,2009-05-13,01:04:15
453388.9226277373,4415757.832116786,39946.4163773148,39946.4627893518,110.40018115871288,2009-05-13,09:59:35,2009-05-13,11:06:25
450226.936746988,4435923.668072288,39946.5038194444,39947.0,193.14670589992014,2009-05-13,12:05:30,2009-05-14,00:00:00
449682.8,4426744.3,39947.0199652778,39947.0200810185,182.42466938475152,2009-05-14,00:28:45,2009-05-14,00:28:55
452552.0,4416205.4,39947.0480902778,39947.0480902778,0.0,2009-05-14,01:09:15,2009-05-14,01:09:15
453304.0923240939,4415770.319189772,39947.4231828704,39947.5250347222,195.21559876270052,2009-05-14,10:09:23,2009-05-14,12:36:03
453441.07803030283,4416002.453787878,39947.5250925926,39947.5323842593,9.22008676750629,2009-05-14,12:36:08,2009-05-14,12:46:38
450218.5796460178,4435902.1172566395,39947.5765393519,39947.5988194444,166.45942448553123,2009-05-14,13:50:13,2009-05-14,14:22:18
450255.0000000003,4435917.352694606,39947.6254398148,39948.0008333333,195.781229948168,2009-05-14,15:00:38,2009-05-15,00:01:12
449675.05,4426865.85,39948.0207986111,39948.0208564815,107.72901187721031,2009-05-15,00:29:57,2009-05-15,00:30:02
453459.39069767436,4416045.600000001,39948.4622222222,39948.4643634259,167.5971956802264,2009-05-15,11:05:36,2009-05-15,11:08:41
450252.00270270265,4435943.875675676,39948.5340393518,39948.5395949074,108.47253108505677,2009-05-15,12:49:01,2009-05-15,12:57:01
449684.25,4426802.4,39949.0686458333,39949.0687037037,101.20834945812435,2009-05-16,01:38:51,2009-05-16,01:38:56
443546.78333333327,4414450.783333334,39949.110775463,39949.111412037,188.81377068424317,2009-05-16,02:39:31,2009-05-16,02:40:26
445060.6794117647,4416642.802941175,39950.5781481481,39950.5799421296,135.15124860723466,2009-05-17,13:52:32,2009-05-17,13:55:07
450241.2605128205,4435917.817435895,39950.62875,39950.6402199074,132.00924210057713,2009-05-17,15:05:24,2009-05-17,15:21:55
449681.89999999997,4426767.433333333,39951.0213078704,39951.0214236111,185.40002696908687,2009-05-18,00:30:41,2009-05-18,00:30:51
450247.3952802356,4435908.1008849535,39951.5078472222,39951.534525463,193.61699305588954,2009-05-18,12:11:18,2009-05-18,12:49:43
450211.4534825873,4435909.567164181,39951.5345833333,39952.0022800926,199.76498692182807,2009-05-18,12:49:48,2009-05-19,00:03:17
449719.3666666667,4426808.666666667,39952.0236342593,39952.02375,195.93840869008025,2009-05-19,00:34:02,2009-05-19,00:34:12
453292.37200000003,4416168.712,39952.048287037,39952.0496759259,186.04593518805555,2009-05-19,01:09:32,2009-05-19,01:11:32
450372.3010989011,4435846.6,39952.4794560185,39952.4846064815,181.71584961131435,2009-05-19,11:30:25,2009-05-19,11:37:50
449473.1337078653,4436043.720224718,39953.0104282407,39953.015462963,159.07108473870287,2009-05-20,00:15:01,2009-05-20,00:22:16
453359.7886792452,4416176.635849056,39953.2052893518,39953.2079513889,102.3818831630753,2009-05-20,04:55:37,2009-05-20,04:59:27
453365.75841209834,4415585.3379962165,39953.4298611111,39953.4692013889,197.88809969290506,2009-05-20,10:19:00,2009-05-20,11:15:39
453136.8838383839,4415415.158585859,39953.472037037,39953.4995833333,198.98909517811967,2009-05-20,11:19:44,2009-05-20,11:59:24
453384.5719999999,4415842.664000002,39953.5036342593,39953.5063541667,164.42797815456368,2009-05-20,12:05:14,2009-05-20,12:09:09
450215.55,4435886.528125001,39953.568900463,39953.5705787037,166.21702680543524,2009-05-20,13:39:13,2009-05-20,13:41:38
449689.5333333334,4426766.833333333,39954.0234837963,39954.023599537,162.20998736131654,2009-05-21,00:33:49,2009-05-21,00:33:59
453300.75454545463,4416170.066666667,39954.0463078704,39954.0481597222,198.63446327398233,2009-05-21,01:06:41,2009-05-21,01:09:21
450357.67297297315,4435912.516891894,39954.479837963,39954.9990162037,199.53147621362592,2009-05-21,11:30:58,2009-05-21,23:58:35
449722.39999999997,4426651.866666666,39955.0203703704,39955.0204861111,193.04965682379253,2009-05-22,00:29:20,2009-05-22,00:29:30
453288.1000000001,4416097.450819672,39955.0436921296,39955.4134143519,130.03730234069073,2009-05-22,01:02:55,2009-05-22,09:55:19
453386.8807999999,4415791.470400002,39955.415150463,39955.4860416667,26.297528400667364,2009-05-22,09:57:49,2009-05-22,11:39:54
450258.4491525424,4435953.118644068,39955.5263888889,39955.5304861111,165.88007716441106,2009-05-22,12:38:00,2009-05-22,12:43:54
443752.2142857143,4425557.847619046,39956.2946180556,39956.425462963,196.11613906051636,2009-05-23,07:04:15,2009-05-23,10:12:40
444602.922551254,4425730.940318901,39956.438599537,39956.4889467593,194.12235832084718,2009-05-23,10:31:35,2009-05-23,11:44:05
450221.6399082569,4435919.697706423,39957.4167013889,39957.4390393518,198.33164144926883,2009-05-24,10:00:03,2009-05-24,10:32:13
450254.0039923951,4435902.408745252,39957.4609722222,39957.4972569444,131.9065199297814,2009-05-24,11:03:48,2009-05-24,11:56:03
450146.0746835443,4435950.821518988,39957.5028703704,39958.0021527778,199.44763723847066,2009-05-24,12:04:08,2009-05-25,00:03:06
449699.7333333334,4426769.233333333,39958.021712963,39958.0218287037,197.9009095476289,2009-05-25,00:31:16,2009-05-25,00:31:26
453335.2400000001,4416173.776666666,39958.0464236111,39958.4203703704,136.0009191144495,2009-05-25,01:06:51,2009-05-25,10:05:20
453374.802777778,4415771.767361109,39958.4230324074,39958.4659722222,140.10581715260992,2009-05-25,10:09:10,2009-05-25,11:11:00
450224.2864022667,4435892.208073655,39958.5065393519,39958.5697337963,195.9421598331232,2009-05-25,12:09:25,2009-05-25,13:40:25
450237.5344339627,4435895.169811313,39958.5747106481,39958.6269675926,181.30650843267688,2009-05-25,13:47:35,2009-05-25,15:02:50
450112.9199999999,4435800.64,39958.6568287037,39958.6570601852,175.38315198444803,2009-05-25,15:45:50,2009-05-25,15:46:10
450111.83999999997,4436008.100000001,39960.0028240741,39960.0030555556,24.20020661082224,2009-05-27,00:04:04,2009-05-27,00:04:24
406202.23125000007,4470056.7,39960.199525463,39960.2513194444,193.3246233664693,2009-05-27,04:47:19,2009-05-27,06:01:54
405988.34766839375,4468511.298618298,39960.2595949074,39960.2875462963,190.17257951664098,2009-05-27,06:13:49,2009-05-27,06:54:04
405972.07302631583,4468561.549013159,39960.2876041667,39960.3734259259,186.74252327698719,2009-05-27,06:54:09,2009-05-27,08:57:44
406176.66686143534,4470190.43138564,39960.3774189815,39960.5374884259,192.43474218569,2009-05-27,09:03:29,2009-05-27,12:53:59
406828.3413043479,4469520.878260869,39960.5392824074,39961.0324884259,199.39368094299184,2009-05-27,12:56:34,2009-05-28,00:46:47
397409.6855263157,4477831.300000001,39961.0678472222,39961.0949305556,196.62288778271397,2009-05-28,01:37:42,2009-05-28,02:16:42
416334.2735294116,4478283.598039215,39961.1537847222,39961.2190740741,139.36158007130308,2009-05-28,03:41:27,2009-05-28,05:15:28
483779.78536585363,4422287.424390244,39961.2620949074,39962.021099537,196.5227976597347,2009-05-28,06:17:25,2009-05-29,00:30:23
480285.2627516773,4425512.382885908,39962.0647800926,39962.0887384259,194.60447065816427,2009-05-29,01:33:17,2009-05-29,02:07:47
406168.8500000002,4470222.567695476,39962.128900463,39962.2255439815,195.37169702898902,2009-05-29,03:05:37,2009-05-29,05:24:47
397582.5,4477831.076470588,39962.3539583333,39962.3897222222,190.92053320682598,2009-05-29,08:29:42,2009-05-29,09:21:12
397387.2088397795,4477831.223756894,39962.3898958333,39962.4106712963,190.85117238286284,2009-05-29,09:21:27,2009-05-29,09:51:22
397225.132280701,4477659.24,39962.4107291667,39962.4346875,191.09539502549543,2009-05-29,09:51:27,2009-05-29,10:25:57
406166.5481818175,4470207.780909082,39962.4660532407,39962.4964351852,161.16268178459,2009-05-29,11:11:07,2009-05-29,11:54:52
406837.903030303,4469504.345454545,39962.4984606481,39963.3009722222,174.9056031125894,2009-05-29,11:57:47,2009-05-30,07:13:24
445674.6692307691,4428102.98076923,39963.3578009259,39963.3606365741,181.45095756168064,2009-05-30,08:35:14,2009-05-30,08:39:19
454704.2923076923,4417601.461538462,39963.5110069444,39963.5143055556,51.06515445980996,2009-05-30,12:15:51,2009-05-30,12:20:36
450242.23310886655,4435914.351851852,39963.5667361111,39963.6360069444,42.16123812241037,2009-05-30,13:36:06,2009-05-30,15:15:51
449324.7,4435191.4,39963.6424305556,39963.6424305556,0.0,2009-05-30,15:25:06,2009-05-30,15:25:06
436019.18514851504,4414662.331683165,39964.0115393519,39964.1451157407,189.255911400413,2009-05-31,00:16:37,2009-05-31,03:28:58
434667.462945369,4415916.4219715,39964.1676851852,39964.2143865741,179.68511346226794,2009-05-31,04:01:28,2009-05-31,05:08:43
463105.584070796,4434942.850442481,39964.2549537037,39964.3037962963,186.99532079723028,2009-05-31,06:07:08,2009-05-31,07:17:28
471298.9064748202,4466251.882014388,39964.3395023148,39964.3607407407,179.20379460276507,2009-05-31,08:08:53,2009-05-31,08:39:28
442393.1603773585,4432308.956603772,39964.4168171296,39964.4195949074,173.0024566300268,2009-05-31,10:00:13,2009-05-31,10:04:13
449457.09534883715,4436030.541860466,39964.4500694444,39964.4522685185,158.76082640256317,2009-05-31,10:48:06,2009-05-31,10:51:16
450380.22500000027,4435873.182812502,39964.484212963,39965.0087152778,194.30401436925106,2009-05-31,11:37:16,2009-06-01,00:12:33
449689.89999999997,4426795.399999999,39965.0283333333,39965.0284490741,185.60269394559367,2009-06-01,00:40:48,2009-06-01,00:40:58
453326.0882352941,4416175.894117647,39965.0538541667,39965.0557060185,192.33369439577714,2009-06-01,01:17:33,2009-06-01,01:20:13
442781.52075471706,4425207.043396222,39965.3087847222,39965.3319907407,196.99809643750368,2009-06-01,07:24:39,2009-06-01,07:58:04
442039.55,4426295.278571429,39965.3395138889,39965.3774768518,189.82065219568324,2009-06-01,08:08:54,2009-06-01,09:03:34
453374.8465753427,4415736.339726025,39965.4148842593,39965.424837963,196.24933120890546,2009-06-01,09:57:26,2009-06-01,10:11:46
453387.2702127661,4415852.855319149,39965.4510532407,39965.4560300926,171.09447682530808,2009-06-01,10:49:31,2009-06-01,10:56:41
450360.26728971954,4435854.3841121495,39965.5046412037,39966.0005671296,194.94966016861076,2009-06-01,12:06:41,2009-06-02,00:00:49
449713.75,4427177.55,39966.0234837963,39966.0235416667,103.60666001758555,2009-06-02,00:33:49,2009-06-02,00:33:54
453332.7515151515,4416186.633333333,39966.0453587963,39966.0471527778,194.83513543487757,2009-06-02,01:05:19,2009-06-02,01:07:54
462980.61874999997,4434986.871875001,39966.1509027778,39966.2228356482,198.71268203109386,2009-06-02,03:37:18,2009-06-02,05:20:53
459131.7651162792,4431099.325581395,39966.2334837963,39966.2356828704,138.38254947804293,2009-06-02,05:36:13,2009-06-02,05:39:23
453296.32436149335,4415727.620825146,39966.4090162037,39966.4697800926,199.49919799287906,2009-06-02,09:48:59,2009-06-02,11:16:29
453494.6616666668,4415847.869999999,39966.4856944444,39966.4889930556,193.47485624782595,2009-06-02,11:39:24,2009-06-02,11:44:09
450424.7437499999,4435832.609375001,39966.5366782407,39966.5402662037,151.64095752817954,2009-06-02,12:52:49,2009-06-02,12:57:59
442096.0333333333,4426306.34,39966.9843171296,39967.0050925926,182.91577296640816,2009-06-02,23:37:25,2009-06-03,00:07:20
442189.57268195396,4427704.769391822,39967.0096643518,39967.0986689815,198.0426721690371,2009-06-03,00:13:55,2009-06-03,02:22:05
442177.42469512136,4427705.442987802,39967.0987268519,39967.1335648148,195.3290812963426,2009-06-03,02:22:10,2009-06-03,03:12:20
442438.75625000003,4432287.531249998,39967.1450810185,39967.2392939815,172.62783668919,2009-06-03,03:28:55,2009-06-03,05:44:35
448922.1522240529,4420308.873476108,39967.265162037,39967.2998842593,191.3232082107676,2009-06-03,06:21:50,2009-06-03,07:11:50
441899.84858757065,4426500.331638419,39967.3294560185,39967.3539930556,199.13706335124914,2009-06-03,07:54:25,2009-06-03,08:29:45
441898.9237668161,4426505.327802691,39967.3540509259,39967.3803240741,193.61327433867157,2009-06-03,08:29:50,2009-06-03,09:07:40
453347.04540540586,4415764.494594597,39967.4070601852,39967.4218171296,191.41577782408638,2009-06-03,09:46:10,2009-06-03,10:07:25
453303.1685990338,4415752.039130432,39967.4289930556,39967.4849537037,150.30136393291392,2009-06-03,10:17:45,2009-06-03,11:38:20
450402.07619047636,4435837.202380951,39967.5328125,39967.5374421296,157.8698831319535,2009-06-03,12:47:15,2009-06-03,12:53:55
472982.43728070176,4468386.900877197,39968.0370601852,39968.0916319444,193.71796509336272,2009-06-04,00:53:22,2009-06-04,02:11:57
472445.2526178014,4468981.86099477,39968.0922685185,39968.113275463,185.08562883162452,2009-06-04,02:12:52,2009-06-04,02:43:07
508951.10195530736,4443738.974581005,39968.1609606481,39968.1930208333,181.81100076726867,2009-06-04,03:51:47,2009-06-04,04:37:57
514284.8212121213,4446263.581818182,39968.2003703704,39968.2573726852,154.8582900590201,2009-06-04,04:48:32,2009-06-04,06:10:37
442017.08235294116,4426294.688235294,39968.3458564815,39968.3780902778,187.85379953564114,2009-06-04,08:18:02,2009-06-04,09:04:27
453347.6029255322,4415746.229122345,39968.4086805556,39968.4678240741,197.57864257086965,2009-06-04,09:48:30,2009-06-04,11:13:40
447680.02692307695,4422048.113461539,39968.5391203704,39968.5418981481,169.75102356061763,2009-06-04,12:56:20,2009-06-04,13:00:20
450370.591111111,4435865.341111111,39968.6013888889,39969.0016666667,149.86827549551037,2009-06-04,14:26:00,2009-06-05,00:02:24
449704.44999999995,4426762.7,39969.0304282407,39969.0304861111,99.06911728687243,2009-06-05,00:43:49,2009-06-05,00:43:54
472828.1571428571,4468412.6,39969.063587963,39969.1352893518,198.9088736080719,2009-06-05,01:31:34,2009-06-05,03:14:49
472340.0551282057,4469408.58076922,39969.1369675926,39969.1592476852,161.57190349791682,2009-06-05,03:17:14,2009-06-05,03:49:19
472572.8596153836,4469019.178589752,39969.1597685185,39969.2045023148,194.5546966794799,2009-06-05,03:50:04,2009-06-05,04:54:29
472337.3263803681,4469391.773006136,39969.2087268519,39969.265150463,165.0374805918911,2009-06-05,05:00:34,2009-06-05,06:21:49
473049.7670133735,4468434.193907872,39969.2666550926,39969.3906712963,163.17184193362846,2009-06-05,06:23:59,2009-06-05,09:22:34
453496.2095238094,4415846.293650793,39969.4576273148,39969.461099537,181.77527334613205,2009-06-05,10:58:59,2009-06-05,11:03:59
450255.209375,4435907.631250002,39969.5092476852,39969.5446643519,149.66860058140668,2009-06-05,12:13:19,2009-06-05,13:04:19
450238.1164335665,4435903.841841492,39969.5584953704,39969.6186226852,82.2344210171301,2009-06-05,13:24:14,2009-06-05,14:50:49
449675.6,4435484.7,39969.6190277778,39969.6190277778,0.0,2009-06-05,14:51:24,2009-06-05,14:51:24
473039.07000000007,4468433.072,39970.0917361111,39970.3941087963,195.49079262207326,2009-06-06,02:12:06,2009-06-06,09:27:31
442466.3352941176,4432316.6823529415,39970.4514583333,39970.4531944444,168.83530436491787,2009-06-06,10:50:06,2009-06-06,10:52:36
443813.93526077096,4425467.000680268,39970.5013888889,39970.5766782407,195.76317324768115,2009-06-06,12:02:00,2009-06-06,13:50:25
443580.41666666674,4425400.23125,39970.5767361111,39970.5794560185,183.78000435302582,2009-06-06,13:50:30,2009-06-06,13:54:25
459110.18823529413,4431085.929411764,39971.0509722222,39971.0517824074,136.25887127096266,2009-06-07,01:13:24,2009-06-07,01:14:34
468122.49600000016,4466465.011999998,39971.2596875,39971.4006597222,128.60832010485012,2009-06-07,06:13:57,2009-06-07,09:36:57
442185.9777777779,4432372.102222224,39971.4452777778,39971.4479398148,172.2440419872927,2009-06-07,10:41:12,2009-06-07,10:45:02
443390.82954545453,4425334.290909093,39971.4764814815,39971.4838310185,119.24718026015225,2009-06-07,11:26:08,2009-06-07,11:36:43
450286.23187499994,4435935.695937502,39971.5518287037,39972.0110648148,198.1331370563499,2009-06-07,13:14:38,2009-06-08,00:15:56
449681.73333333334,4426656.833333333,39972.0324768518,39972.0325925926,198.4461891798371,2009-06-08,00:46:46,2009-06-08,00:46:56
473028.84705882357,4468427.088235295,39972.0726388889,39972.3525,153.80019505839385,2009-06-08,01:44:36,2009-06-08,08:27:36
462997.4754106271,4434989.423913031,39972.3904050926,39972.5093287037,163.97072909551974,2009-06-08,09:22:11,2009-06-08,12:13:26
442480.2244444444,4432318.442222222,39972.5435300926,39972.5459606481,167.048885061259,2009-06-08,13:02:41,2009-06-08,13:06:11
450226.2711864409,4435898.7076271195,39972.5794097222,39972.6011111111,184.66456075814872,2009-06-08,13:54:21,2009-06-08,14:25:36
449960.8,4435649.166666667,39972.6250115741,39972.6251273148,142.07329094538127,2009-06-08,15:00:01,2009-06-08,15:00:11
472976.4987341772,4468389.289873418,39973.0294675926,39973.0339814815,198.2042633244909,2009-06-09,00:42:26,2009-06-09,00:48:56
473091.7854987422,4468435.432103937,39973.078599537,39973.4566087963,181.40099227955727,2009-06-09,01:53:11,2009-06-09,10:57:31
442437.3950231481,4432312.411805553,39973.5221180556,39973.7479282407,196.9426820168325,2009-06-09,12:31:51,2009-06-09,17:57:01
442427.7474317833,4432307.2397271255,39973.7479861111,39974.0382060185,190.3898369135871,2009-06-09,17:57:06,2009-06-10,00:55:01
439874.04035433085,4433289.5944881905,39974.0454976852,39974.0747222222,194.9326550375814,2009-06-10,01:05:31,2009-06-10,01:47:36
439863.4451127821,4433287.76842105,39974.0807986111,39974.156724537,188.91717761954484,2009-06-10,01:56:21,2009-06-10,03:45:41
442451.9260528894,4432306.510479917,39974.1648842593,39974.265462963,195.52130318712585,2009-06-10,03:57:26,2009-06-10,06:22:16
462996.6057142861,4434980.712653064,39974.2939351852,39974.3439930556,196.02145290758907,2009-06-10,07:03:16,2009-06-10,08:15:21
453521.79041095887,4415869.635616438,39974.4490509259,39974.4531018519,161.1126934785351,2009-06-10,10:46:38,2009-06-10,10:52:28
448341.7,4434587.533333333,39974.5015277778,39974.5016435185,67.51962677676305,2009-06-10,12:02:12,2009-06-10,12:02:22
439190.7884012543,4437810.347648897,39975.0270601852,39975.0845833333,192.1370604544061,2009-06-11,00:38:58,2009-06-11,02:01:48
434259.9021097043,4450871.488607594,39975.093900463,39975.325474537,157.30003178620592,2009-06-11,02:15:13,2009-06-11,07:48:41
453343.3669724775,4415715.402064221,39975.4163773148,39975.4487847222,197.16503239726492,2009-06-11,09:59:35,2009-06-11,10:46:15
450225.8947242206,4435888.965707433,39975.4959490741,39975.53375,187.35327592557098,2009-06-11,11:54:10,2009-06-11,12:48:36
450292.0739130434,4435915.186956522,39975.5365856481,39976.0036226852,174.90091480591994,2009-06-11,12:52:41,2009-06-12,00:05:13
449674.85,4426996.85,39976.0279282407,39976.0279861111,107.90041705146187,2009-06-12,00:40:13,2009-06-12,00:40:18
453318.96875000006,4416179.746875,39976.050150463,39976.0518865741,196.56835961096735,2009-06-12,01:12:13,2009-06-12,01:14:43
453293.19818181836,4415952.725454545,39976.5071759259,39976.5101851852,199.1763289148894,2009-06-12,12:10:20,2009-06-12,12:14:40
450231.5046391754,4435868.761340204,39976.5588541667,39977.1721759259,198.66869406127663,2009-06-12,13:24:45,2009-06-13,04:07:56
443672.9969696969,4425731.457575756,39977.3309259259,39977.4452777778,199.41940727993807,2009-06-13,07:56:32,2009-06-13,10:41:12
450202.3875,4435955.8,39977.6305092593,39977.6309143519,30.03764305002852,2009-06-13,15:07:56,2009-06-13,15:08:31
450406.9579881659,4435900.6112426035,39978.4958796296,39979.0068634259,198.76116320851014,2009-06-14,11:54:04,2009-06-15,00:09:53
449419.8480000001,4436053.1000000015,39979.0131134259,39979.0158912037,196.36588298380104,2009-06-15,00:18:53,2009-06-15,00:22:53
453384.1244444444,4415864.602222224,39979.4094675926,39979.4120138889,198.18905116038718,2009-06-15,09:49:38,2009-06-15,09:53:18
453385.4,4415730.6,39979.4425,39979.4425231481,0.20000000018626451,2009-06-15,10:37:12,2009-06-15,10:37:14
449705.5333333334,4426840.133333334,39980.0304861111,39980.0306018519,198.0202514899619,2009-06-16,00:43:54,2009-06-16,00:44:04
453251.5564102563,4416291.753846154,39980.0576851852,39980.060462963,92.29387845361941,2009-06-16,01:23:04,2009-06-16,01:27:04
453365.9848958336,4415738.659895832,39980.4064699074,39980.4338425926,195.82951769313743,2009-06-16,09:45:19,2009-06-16,10:24:44
453354.5422336328,4415604.968421054,39980.433900463,39980.4935069444,192.1127012977829,2009-06-16,10:24:49,2009-06-16,11:50:39
453364.97941176465,4415915.205882355,39980.5016087963,39980.5033449074,197.1481169063654,2009-06-16,12:02:19,2009-06-16,12:04:49
450245.4237668162,4435914.27040359,39980.5670138889,39980.5839699074,115.51207729065382,2009-06-16,13:36:30,2009-06-16,14:00:55
449876.0833333333,4435639.483333333,39980.5941550926,39980.5945023148,58.18934610404587,2009-06-16,14:15:35,2009-06-16,14:16:05
449711.93333333335,4426621.966666666,39981.0258680556,39981.0259837963,177.95375803861575,2009-06-17,00:37:15,2009-06-17,00:37:25
453333.3706666667,4416027.941333334,39981.0474537037,39981.4137152778,195.35987305555486,2009-06-17,01:08:20,2009-06-17,09:55:45
453363.71460317465,4415725.691746035,39981.4138310185,39981.4450462963,193.50568467064411,2009-06-17,09:55:55,2009-06-17,10:40:52
453363.5815789476,4416331.3776315795,39981.463275463,39981.4942361111,197.1748969823482,2009-06-17,11:07:07,2009-06-17,11:51:42
453310.73142857145,4416035.734285715,39981.4942939815,39981.4962615741,172.67672107130232,2009-06-17,11:51:47,2009-06-17,11:54:37
450256.3366847829,4435897.915489129,39981.5453935185,39981.9827083333,196.93138398969774,2009-06-17,13:05:22,2009-06-17,23:35:06
449426.81338028156,4421209.953169015,39982.0256597222,39982.0471875,196.92447790970928,2009-06-18,00:36:57,2009-06-18,01:07:57
449795.1215686276,4424360.105882352,39982.0574305556,39982.0600925926,153.09924885529023,2009-06-18,01:22:42,2009-06-18,01:26:32
453228.5904761904,4415967.360317463,39982.4406828704,39982.4441550926,195.23616468274102,2009-06-18,10:34:35,2009-06-18,10:39:35
450228.04833333305,4435877.096666666,39982.4898148148,39982.5177662037,177.8919334877271,2009-06-18,11:45:20,2009-06-18,12:25:35
450242.8467576793,4435907.994539247,39982.5289351852,39982.5747106481,63.920106382837176,2009-06-18,12:41:40,2009-06-18,13:47:35
453328.63958333316,4416008.493749999,39983.4052662037,39983.4079282407,176.9051723389087,2009-06-19,09:43:35,2009-06-19,09:47:25
449437.2821428571,4436063.526190476,39983.4409722222,39983.4619791667,195.68392882391862,2009-06-19,10:35:00,2009-06-19,11:05:15
450208.09493087576,4435852.006451614,39983.4773726852,39983.4992476852,183.53686278202676,2009-06-19,11:27:25,2009-06-19,11:58:55
450247.02371638146,4435874.687775062,39983.5241898148,39983.5506365741,188.8116786640356,2009-06-19,12:34:50,2009-06-19,13:12:55
450241.53011542495,4435905.805561386,39983.5517361111,39984.0027199074,198.12453154506542,2009-06-19,13:14:30,2009-06-20,00:03:55
450257.14625954203,4435929.851908393,39984.0027777778,39984.0463541667,131.0645642418688,2009-06-20,00:04:00,2009-06-20,01:06:45
450237.8218934911,4435912.552958582,39984.0466435185,39984.086400463,73.47060636670135,2009-06-20,01:07:10,2009-06-20,02:04:25
450229.2089763782,4435856.032283465,39984.0872106481,39984.1978009259,111.60219531903832,2009-06-20,02:05:35,2009-06-20,04:44:50
449790.60000000003,4435357.933333334,39984.1986111111,39984.1987268519,37.000135134889874,2009-06-20,04:46:00,2009-06-20,04:46:10
450211.91151079163,4435837.853956832,39984.4931134259,39985.2993865741,196.2606684997811,2009-06-20,11:50:05,2009-06-21,07:11:07
443772.45444444416,4425617.349999995,39985.3452199074,39985.3528009259,186.45160229967084,2009-06-21,08:17:07,2009-06-21,08:28:02
443770.16738544416,4425702.821563345,39985.3795949074,39985.401875,108.3878683246931,2009-06-21,09:06:37,2009-06-21,09:38:42
450304.85625000007,4435849.737500001,39985.6158217593,39986.0019444444,198.8820001911598,2009-06-21,14:46:47,2009-06-22,00:02:48
449701.85,4426600.0,39986.0254976852,39986.0255555556,98.22693113323666,2009-06-22,00:36:43,2009-06-22,00:36:48
453323.18909090915,4416072.930909092,39986.0483564815,39986.4112384259,193.59682332088582,2009-06-22,01:09:38,2009-06-22,09:52:11
453368.6955128206,4415751.441025642,39986.4112962963,39986.4507060185,155.7187528849949,2009-06-22,09:52:16,2009-06-22,10:49:01
453496.13148148137,4415861.224074074,39986.4602546296,39986.4633217593,195.14878938936948,2009-06-22,11:02:46,2009-06-22,11:07:11
450231.40251989383,4435896.873474795,39986.5138541667,39986.5753125,195.28363986783106,2009-06-22,12:19:57,2009-06-22,13:48:27
450225.9441860465,4435847.188372093,39986.5808101852,39986.5834722222,100.13510872816546,2009-06-22,13:56:22,2009-06-22,14:00:12
453368.78116591956,4415718.767713002,39987.4142476852,39987.4365856481,199.59944889703442,2009-06-23,09:56:31,2009-06-23,10:28:41
453503.54411764705,4415853.747058824,39987.4428356481,39987.4495486111,194.70634298910701,2009-06-23,10:37:41,2009-06-23,10:47:21
450246.19818652817,4435916.520466324,39987.4972916667,39987.531087963,166.29747442460203,2009-06-23,11:56:06,2009-06-23,12:44:46
450219.60990825685,4435888.590091747,39987.5313194444,39987.5746643519,177.38954309619305,2009-06-23,12:45:06,2009-06-23,13:47:31
450250.6568181817,4435850.245454546,39987.5758796296,39988.0033333333,198.15574682588664,2009-06-23,13:49:16,2009-06-24,00:04:48
449209.4,4434195.2,39988.0187268518,39988.0187268518,0.0,2009-06-24,00:26:58,2009-06-24,00:26:58
453327.21898734185,4416057.668354431,39988.0507291667,39988.4088425926,196.02923251421186,2009-06-24,01:13:03,2009-06-24,09:48:44
453389.84829931974,4415768.532653061,39988.4093055556,39988.4431597222,46.3415580230006,2009-06-24,09:49:24,2009-06-24,10:38:09
450211.86222222226,4435927.551111111,39988.5141550926,39989.0057523148,193.59682332115943,2009-06-24,12:20:23,2009-06-25,00:08:17
449697.65,4426533.15,39989.0261805556,39989.0262384259,105.27687305442674,2009-06-25,00:37:42,2009-06-25,00:37:47
453310.58100000006,4416094.871000001,39989.0514699074,39989.4141203704,194.62643705258265,2009-06-25,01:14:07,2009-06-25,09:56:20
453328.51400000014,4415975.162,39989.414525463,39989.429224537,110.54953640798402,2009-06-25,09:56:55,2009-06-25,10:18:05
450258.4112462004,4435911.074164137,39989.5058449074,39989.5273148148,80.6714943459075,2009-06-25,12:08:25,2009-06-25,12:39:20
450269.12025316467,4435881.745569619,39989.5282407407,39989.5327546296,197.01492329270224,2009-06-25,12:40:40,2009-06-25,12:47:10
449666.8333333333,4426733.266666667,39990.0259606481,39990.0260763889,179.08327671728503,2009-06-26,00:37:23,2009-06-26,00:37:33
453311.35217391304,4416258.330434782,39990.0513078704,39990.0551851852,99.71820295187533,2009-06-26,01:13:53,2009-06-26,01:19:28
453500.47058823536,4415859.945098038,39990.4622222222,39990.4651157407,197.94648266587674,2009-06-26,11:05:36,2009-06-26,11:09:46
450321.01849710965,4435863.491329483,39990.5146527778,39990.8912731481,185.81759873578147,2009-06-26,12:21:06,2009-06-26,21:23:26
449689.93333333335,4426714.5,39990.9140740741,39990.9141898148,186.99951871632976,2009-06-26,21:56:16,2009-06-26,21:56:26
506640.13063829823,4496385.081914894,39991.1116550926,39991.1470138889,198.1476722043436,2009-06-27,02:40:47,2009-06-27,03:31:42
506898.89999999997,4495630.55,39991.1931944444,39991.2537268519,134.93868978240033,2009-06-27,04:38:12,2009-06-27,06:05:22
442572.92644628073,4425524.129752067,39992.2492708333,39992.2559837963,77.17674520216566,2009-06-28,05:58:57,2009-06-28,06:08:37
441355.58382352954,4425728.349509802,39992.4620717593,39992.4982986111,199.43061450027386,2009-06-28,11:05:23,2009-06-28,11:57:33
441367.1364678896,4425735.067431186,39992.4983564815,39992.5207523148,197.4236561306916,2009-06-28,11:57:38,2009-06-28,12:29:53
441071.24210526317,4425549.508421055,39992.5232986111,39992.5425115741,198.9537886042816,2009-06-28,12:33:33,2009-06-28,13:01:13
450393.82898550713,4435854.433333333,39992.5952893518,39992.5990740741,182.78547535288786,2009-06-28,14:17:13,2009-06-28,14:22:40
449871.8,4431089.2,39993.0118402778,39993.0119560185,172.76692391811275,2009-06-29,00:17:03,2009-06-29,00:17:13
453316.35431034496,4416069.134482758,39993.0393865741,39993.4116898148,196.5715391397838,2009-06-29,00:56:43,2009-06-29,09:52:50
453307.93167420797,4415762.612217199,39993.4118634259,39993.4424189815,187.8106759480039,2009-06-29,09:53:05,2009-06-29,10:37:05
453500.39074074075,4415845.359259259,39993.4555555556,39993.4585648148,193.77765609052415,2009-06-29,10:56:00,2009-06-29,11:00:20
450378.44578313245,4435847.150602408,39993.5033564815,39994.0014467593,87.55489706466486,2009-06-29,12:04:50,2009-06-30,00:02:05
449793.05,4428305.275,39994.0268518519,39994.027025463,194.75856848947265,2009-06-30,00:38:40,2009-06-30,00:38:55
453359.84473684215,4415859.144736843,39994.4059375,39994.4100578704,187.932674114956,2009-06-30,09:44:33,2009-06-30,09:50:29
453388.56388888875,4415804.924074074,39994.4307175926,39994.4390277778,149.51123703587498,2009-06-30,10:20:14,2009-06-30,10:32:12
450263.453846154,4435874.941420117,39994.4906597222,39994.5114814815,198.7252374514246,2009-06-30,11:46:33,2009-06-30,12:16:32
450319.2066666665,4435826.9088888895,39994.5129861111,39995.002650463,199.36163121320752,2009-06-30,12:18:42,2009-07-01,00:03:49
449726.875,4428285.95,39995.0264930556,39995.0266666667,194.29390108857518,2009-07-01,00:38:09,2009-07-01,00:38:24
453257.66521739116,4416165.817391303,39995.0509722222,39995.0521296296,62.13420957894961,2009-07-01,01:13:24,2009-07-01,01:15:04
453294.3080263159,4415755.181184206,39995.4113657407,39995.4897800926,197.15455865868472,2009-07-01,09:52:22,2009-07-01,11:45:17
453287.59910313884,4417353.073094171,39995.524849537,39995.5386805556,160.13197681912254,2009-07-01,12:35:47,2009-07-01,12:55:42
450395.23988764046,4435878.871348314,39995.5898958333,39996.0068171296,193.95527835042736,2009-07-01,14:09:27,2009-07-02,00:09:49
449697.1333333333,4426735.0,39996.028287037,39996.0284027778,191.66629855074498,2009-07-02,00:40:44,2009-07-02,00:40:54
453290.5734693877,4416130.02857143,39996.0509722222,39996.0534606481,198.78656896260662,2009-07-02,01:13:24,2009-07-02,01:16:59
449459.00769230776,4436034.096153846,39996.4378125,39996.4392013889,73.75703356289809,2009-07-02,10:30:27,2009-07-02,10:32:27
450428.5773333334,4435830.425333334,39996.4677314815,39996.4718402778,148.21241513466487,2009-07-02,11:13:32,2009-07-02,11:19:27
453297.7178571429,4415985.075000001,39997.4014930556,39997.4029976852,129.30030935734803,2009-07-03,09:38:09,2009-07-03,09:40:19
445287.6237885465,4427341.503524226,39997.4404976852,39997.4613310185,199.80382879270098,2009-07-03,10:34:19,2009-07-03,11:04:19
445303.83389544714,4427389.8006745335,39997.4613888889,39997.5110416667,198.60576527364753,2009-07-03,11:04:24,2009-07-03,12:15:54
444411.5219399541,4429084.172979214,39997.5308333333,39997.5685648148,188.10085060962584,2009-07-03,12:44:24,2009-07-03,13:38:44
444420.3610526317,4429116.684210525,39997.5686226852,39997.5768981481,64.71305896049168,2009-07-03,13:38:49,2009-07-03,13:50:44
444287.0131249996,4428139.054374999,39998.122974537,39998.1559027778,176.21932357224907,2009-07-04,02:57:05,2009-07-04,03:44:30
450393.20677966106,4435867.109604519,39998.6323032407,39999.2351388889,198.54382387789028,2009-07-04,15:10:31,2009-07-05,05:38:36
449660.9,4429251.449999999,39999.2684143518,39999.2684722222,107.89295621142165,2009-07-05,06:26:31,2009-07-05,06:26:36
453344.305,4415908.64,40000.4713194444,40000.4723611111,121.43002099975112,2009-07-06,11:18:42,2009-07-06,11:20:12
450268.6036231882,4435911.805797102,40000.5235763889,40000.9830092593,197.73530286742417,2009-07-06,12:33:57,2009-07-06,23:35:32
449392.2666666666,4435161.533333334,40001.0083564815,40001.0084722222,144.26992063490343,2009-07-07,00:12:02,2009-07-07,00:12:12
450265.0714285713,4435883.782142858,40001.4854166667,40001.4918981481,76.79407529217667,2009-07-07,11:39:00,2009-07-07,11:48:20
449362.9999999999,4435238.7,40002.0124537037,40002.0126851852,198.13066395633814,2009-07-08,00:17:56,2009-07-08,00:18:16
453500.4812499999,4415858.017187501,40002.4506481481,40002.4542361111,197.1515660602222,2009-07-08,10:48:56,2009-07-08,10:54:06
450328.6679738563,4435909.479084967,40002.5003935185,40002.9916203704,193.79053124465258,2009-07-08,12:00:34,2009-07-08,23:47:56
449742.80000000005,4426560.300000001,40003.0122800926,40003.012337963,132.40196373184372,2009-07-09,00:17:41,2009-07-09,00:17:46
453401.63333333324,4415896.445555556,40003.4311805556,40003.4359837963,116.49892703315977,2009-07-09,10:20:54,2009-07-09,10:27:49
450279.8566037737,4435871.2792452825,40003.5154166667,40003.9873148148,183.94034359006497,2009-07-09,12:22:12,2009-07-09,23:41:44
449704.8333333333,4426757.533333334,40004.0145138889,40004.0146296296,195.01476867150302,2009-07-10,00:20:54,2009-07-10,00:21:04
453228.2111111111,4416210.535555556,40004.0389930556,40004.4056597222,173.3066646149822,2009-07-10,00:56:09,2009-07-10,09:44:09
453402.2953271028,4415672.1228971975,40004.4240046296,40004.4455324074,196.97781600981256,2009-07-10,10:10:34,2009-07-10,10:41:34
453530.15625,4415881.340624999,40004.4455902778,40004.4472685185,104.10096061038149,2009-07-10,10:41:39,2009-07-10,10:44:04
450268.4358381502,4435906.0670520235,40004.5034027778,40004.5137037037,162.75902432737792,2009-07-10,12:04:54,2009-07-10,12:19:44
443744.1833333333,4425742.1083333315,40005.2511226852,40005.2551736111,197.10314558645547,2009-07-11,06:01:37,2009-07-11,06:07:27
443783.7444685478,4425615.153145342,40005.3205092593,40005.3731712963,194.47128322729273,2009-07-11,07:41:32,2009-07-11,08:57:22
443790.64429109177,4425473.476160598,40005.3732291667,40005.4188310185,199.20022590274138,2009-07-11,08:57:27,2009-07-11,10:03:07
443798.18133333325,4425734.8506666655,40005.4366203704,40005.5373263889,197.36554917210947,2009-07-11,10:28:44,2009-07-11,12:53:45
443264.6507812498,4425500.7992187515,40005.5477430556,40005.6158564815,198.82625581142563,2009-07-11,13:08:45,2009-07-11,14:46:50
443584.59999999986,4425712.306779661,40005.6210069444,40005.6240740741,196.61846301887624,2009-07-11,14:54:15,2009-07-11,14:58:40
443732.7691358025,4426341.809876545,40006.1993981482,40006.2039699074,69.77105417004964,2009-07-12,04:47:08,2009-07-12,04:53:43
449492.255714286,4436020.992857139,40006.9980787037,40007.4850231481,195.48856744075653,2009-07-12,23:57:14,2009-07-13,11:38:26
450311.32564102544,4435902.471794873,40007.4977314815,40008.0041319444,198.65673912548664,2009-07-13,11:56:44,2009-07-14,00:05:57
449667.85,4426489.699999999,40008.026412037,40008.0264699074,131.80003793607537,2009-07-14,00:38:02,2009-07-14,00:38:07
453310.84411764704,4416183.414705883,40008.0484606481,40008.0503703704,186.3077561453909,2009-07-14,01:09:47,2009-07-14,01:12:32
450385.4058823531,4435884.15098039,40008.4978703704,40008.9899421296,197.45470366647046,2009-07-14,11:56:56,2009-07-14,23:45:31
449769.80000000005,4427327.766666667,40009.0118171296,40009.0119328704,198.6430466943206,2009-07-15,00:17:01,2009-07-15,00:17:11
