442572.878787879,4436760.215151517,39847.4773032407,39847.9741666667,142.95656683044632,2009-02-03,11:27:19,2009-02-03,23:22:48
442978.96,4425114.457142858,39847.9955787037,39848.2474189815,68.62106090704528,2009-02-03,23:53:38,2009-02-04,05:56:17
442562.7140625,4425398.6125,39848.2504282407,39848.2552893519,198.8030432364494,2009-02-04,06:00:37,2009-02-04,06:07:37
442595.3085714285,4425623.942857143,39848.2971875,39848.2990972222,198.9810292466834,2009-02-04,07:07:57,2009-02-04,07:10:42
448312.79007421155,4424451.306679042,39859.1065277778,39859.27875,188.11190818232944,2009-02-15,02:33:24,2009-02-15,06:41:24
441458.87326732697,4424598.0891089095,39859.3478472222,39859.3691435185,150.72322316086593,2009-02-15,08:20:54,2009-02-15,08:51:34
442654.36150306766,4425580.146625769,39859.376087963,39859.4484837963,195.98737204199665,2009-02-15,09:01:34,2009-02-15,10:45:49
442029.86,4425808.640000001,39859.4502199074,39859.4507407407,172.97543178138676,2009-02-15,10:48:19,2009-02-15,10:49:04
442759.8861538461,4425987.23769231,39859.5576273148,39859.564224537,106.31594424166488,2009-02-15,13:22:59,2009-02-15,13:32:29
442366.8969696971,4425703.439393939,39859.5986574074,39859.6004513889,59.03736105212051,2009-02-15,14:22:04,2009-02-15,14:24:39
442480.3922535212,4436798.950704225,39861.3275231481,39861.9719560185,195.92062168132387,2009-02-17,07:51:38,2009-02-17,23:19:37
443062.564,4425066.108,39862.0095717593,39862.0111921296,1.8357559747743342,2009-02-18,00:13:47,2009-02-18,00:16:07
443097.90534979437,4424969.700411525,39863.2533449074,39863.2811226852,191.2580717252748,2009-02-19,06:04:49,2009-02-19,06:44:49
443077.7877675841,4425067.203058108,39863.2843055556,39863.3067013889,196.50356230849795,2009-02-19,06:49:24,2009-02-19,07:21:39
443077.63046875043,4424957.78046875,39863.3068171296,39863.3289236111,155.7459790813063,2009-02-19,07:21:49,2009-02-19,07:53:39
443110.6445255475,4425102.598540145,39863.4215162037,39863.4334375,38.22211401812046,2009-02-19,10:06:59,2009-02-19,10:24:09
442596.28571428574,4436747.548214285,39863.4878356481,39863.9856365741,185.4398285156971,2009-02-19,11:42:29,2009-02-19,23:39:19
441940.8021610992,4434837.299214141,39864.0159027778,39864.0913657407,143.4034867082193,2009-02-20,00:22:54,2009-02-20,02:11:34
442492.8918918919,4436744.21081081,39864.5567476852,39864.5587962963,196.46037768392893,2009-02-20,13:21:43,2009-02-20,13:24:40
440230.66340425535,4426035.705106385,39866.4549537037,39866.5047222222,196.50529254968862,2009-02-22,10:55:08,2009-02-22,12:06:48
442530.76872852276,4436757.739862542,39866.5520601852,39866.9371875,136.73554768251307,2009-02-22,13:14:58,2009-02-22,22:29:33
442518.49642857135,4436748.274675322,39866.9381712963,39866.9629398148,111.77249214362212,2009-02-22,22:30:58,2009-02-22,23:06:38
442546.43749999994,4436658.0125,39866.96375,39866.9650810185,136.54962467890084,2009-02-22,23:07:48,2009-02-22,23:09:43
442539.36639004154,4436788.474688798,39868.5542476852,39868.9708333333,183.40995065698633,2009-02-24,13:18:07,2009-02-24,23:18:00
443065.7521628497,4425057.881170481,39869.0541087963,39869.0758101852,199.33933380079,2009-02-25,01:17:55,2009-02-25,01:49:10
443077.987134503,4425062.603118913,39869.0922453704,39869.1225115741,196.1871810292495,2009-02-25,02:12:50,2009-02-25,02:56:25
443082.09688385285,4425093.2144475905,39869.1399884259,39869.1642939815,145.58440850529772,2009-02-25,03:21:35,2009-02-25,03:56:35
443194.81724137923,4426713.9206896555,39869.16875,39869.1702546296,99.32623017164654,2009-02-25,04:03:00,2009-02-25,04:05:10
443075.9000000001,4425125.336842105,39869.2380902778,39869.2391319444,174.83826812174365,2009-02-25,05:42:51,2009-02-25,05:44:21
442560.5876404494,4436765.247191011,39869.5022685185,39869.9781365741,199.1439931304136,2009-02-25,12:03:16,2009-02-25,23:28:31
443096.32645631116,4424988.51796116,39870.0314351852,39870.0542361111,185.5492656957605,2009-02-26,00:45:16,2009-02-26,01:18:06
443084.8240000002,4425027.719999997,39870.0564930556,39870.0855439815,188.38537628945636,2009-02-26,01:21:21,2009-02-26,02:03:11
443103.84615384607,4425287.923076923,39870.1148611111,39870.1155555556,170.26488187545755,2009-02-26,02:45:24,2009-02-26,02:46:24
443054.5,4425172.760869566,39870.4061805556,39870.5575115741,198.7018872582507,2009-02-26,09:44:54,2009-02-26,13:22:49
443047.93333333335,4425474.500000001,39870.5919444444,39870.5920601852,16.3783393541592,2009-02-26,14:12:24,2009-02-26,14:12:34
440195.2013157896,4426153.781578947,39871.4336574074,39871.4870486111,195.33184584179557,2009-02-27,10:24:28,2009-02-27,11:41:21
442565.9082644628,4436750.45950413,39871.5448958333,39872.3207407407,174.1820025149828,2009-02-27,13:04:39,2009-02-28,07:41:52
441056.9793333333,4425980.924666667,39872.3696412037,39872.3954861111,176.89152042990509,2009-02-28,08:52:17,2009-02-28,09:29:30
442777.9333333333,4426459.858333333,39872.4015046296,39872.4021412037,199.0849316246364,2009-02-28,09:38:10,2009-02-28,09:39:05
443030.76956521743,4425023.465217391,39872.4396412037,39872.4697337963,198.38308899713167,2009-02-28,10:33:05,2009-02-28,11:16:25
442537.89915966406,4436787.837815126,39872.5020833333,39873.9718518518,187.9001064394064,2009-02-28,12:03:00,2009-03-01,23:19:28
443163.02,4424830.220000001,39874.0174537037,39874.0176851852,81.55488949174283,2009-03-02,00:25:08,2009-03-02,00:25:28
443727.185231317,4425796.225978646,39874.0972569444,39874.156400463,197.5282511439587,2009-03-02,02:20:03,2009-03-02,03:45:13
443113.55333333364,4425007.175238094,39874.2263657407,39874.253275463,104.81345333495348,2009-03-02,05:25:58,2009-03-02,06:04:43
443111.85833333334,4424822.708333335,39874.3551851852,39874.3565162037,77.22622611541091,2009-03-02,08:31:28,2009-03-02,08:33:23
442574.5828767124,4436799.382876711,39874.5410763889,39874.9761226852,171.74763462653576,2009-03-02,12:59:09,2009-03-02,23:25:37
443061.7444444445,4424923.422222223,39875.005,39875.005462963,83.01867259878075,2009-03-03,00:07:12,2009-03-03,00:07:52
442508.72000000003,4436748.5725,39876.4607638889,39876.4630208333,143.3320620098384,2009-03-04,11:03:30,2009-03-04,11:06:45
443024.6794392523,4425121.8588785045,39876.9944097222,39877.0026851852,140.86255712572992,2009-03-04,23:51:57,2009-03-05,00:03:52
443098.00907173,4425059.244514773,39877.2302893519,39877.2595138889,104.76664545520488,2009-03-05,05:31:37,2009-03-05,06:13:42
443075.6313793102,4425059.818620692,39877.2808101852,39877.3168055556,177.93338641169606,2009-03-05,06:44:22,2009-03-05,07:36:12
443060.82729658805,4424792.257217849,39877.3692361111,39877.3905324074,46.254621390735096,2009-03-05,08:51:42,2009-03-05,09:22:22
443074.5421568629,4424819.324509804,39877.3917476852,39877.3975925926,129.40247292828192,2009-03-05,09:24:07,2009-03-05,09:32:32
443008.65384615393,4424561.846153846,39877.4350115741,39877.4462384259,68.98405612858983,2009-03-05,10:26:25,2009-03-05,10:42:35
442548.71527777775,4436757.8513888875,39877.4872453704,39877.9755324074,180.2612825865044,2009-03-05,11:41:38,2009-03-05,23:24:46
443123.38499999995,4424937.69,39878.0027314815,39878.0037731482,170.90143358032142,2009-03-06,00:03:56,2009-03-06,00:05:26
442557.1703703703,4436751.175308643,39878.4879398148,39880.9739814815,187.155550278193,2009-03-06,11:42:38,2009-03-08,23:22:32
443075.7555555555,4424847.705555555,39880.9996180556,39881.4422222222,185.31662094912048,2009-03-08,23:59:27,2009-03-09,10:36:48
442621.6071428572,4426743.728571429,39881.4761921296,39881.4768287037,96.59259806028638,2009-03-09,11:25:43,2009-03-09,11:26:38
442537.6589743589,4436483.738461539,39881.5742824074,39881.5785069444,105.06402809770344,2009-03-09,13:46:58,2009-03-09,13:53:03
443061.2722560976,4425012.603048782,39882.0165740741,39882.0379282407,197.86149195893802,2009-03-10,00:23:52,2009-03-10,00:54:37
443098.75999999995,4424985.02,39882.0771064815,39882.077337963,31.653751751805153,2009-03-10,01:51:02,2009-03-10,01:51:22
442816.3157894737,4425083.915789473,39882.2935185185,39882.2947337963,127.61461515046228,2009-03-10,07:02:40,2009-03-10,07:04:25
442558.76,4436757.366666666,39882.4854050926,39882.975775463,189.76988696871962,2009-03-10,11:38:59,2009-03-10,23:25:07
442810.1652173913,4435710.589130434,39882.9775694444,39882.9803009259,178.5206430645825,2009-03-10,23:27:42,2009-03-10,23:31:38
442537.76290322567,4436751.622580647,39883.5866666667,39883.978587963,185.0729856033499,2009-03-11,14:04:48,2009-03-11,23:29:10
441515.42000000004,4435697.74,39883.9836226852,39883.9838541667,182.63953569802482,2009-03-11,23:36:25,2009-03-11,23:36:45
442548.305,4436751.709999999,39884.500150463,39884.9747222222,186.1831893593821,2009-03-12,12:00:13,2009-03-12,23:23:36
442805.89444444445,4435708.8,39884.9761689815,39884.9783680556,132.06153868616346,2009-03-12,23:25:41,2009-03-12,23:28:51
443097.9,4423403.0,39885.5242476852,39885.5242476852,0.0,2009-03-13,12:34:55,2009-03-13,12:34:55
442566.2656862746,4436757.581372548,39885.5895138889,39886.213912037,150.49774084627163,2009-03-13,14:08:54,2009-03-14,05:08:02
443089.17833333334,4425056.773333334,39886.2358680556,39886.2391087963,195.04296962409327,2009-03-14,05:39:39,2009-03-14,05:44:19
442992.9466666667,4424935.215555556,39886.4458796296,39886.4484259259,198.53407767956475,2009-03-14,10:42:04,2009-03-14,10:45:44
442548.4826086956,4436690.569565218,39886.5559143518,39886.5599074074,50.448092134413535,2009-03-14,13:20:31,2009-03-14,13:26:16
442530.5249999999,4436733.117857144,39888.6472106481,39888.9729513889,196.27332982386272,2009-03-16,15:31:59,2009-03-16,23:21:03
443074.1112704919,4424914.679098358,39889.0382175926,39889.0727083333,189.11025884370082,2009-03-17,00:55:02,2009-03-17,01:44:42
443071.8728971961,4425028.94579439,39889.0824884259,39889.0885069444,35.78058132562969,2009-03-17,01:58:47,2009-03-17,02:07:27
443111.91428571433,4425104.171428571,39892.050150463,39892.0504976852,177.72689723261726,2009-03-20,01:12:13,2009-03-20,01:12:43
442977.45217391296,4424937.258695651,39892.2185185185,39892.2319444444,109.79298702574438,2009-03-20,05:14:40,2009-03-20,05:34:00
442632.4860248447,4427054.027329195,39894.4104976852,39894.4628125,199.83355574073857,2009-03-22,09:51:07,2009-03-22,11:06:27
442708.80000000005,4436244.95,39894.5069097222,39894.5069675926,104.60635735938062,2009-03-22,12:09:57,2009-03-22,12:10:02
443111.3582089552,4425102.988059701,39894.9962731482,39895.0002083333,194.86808358514065,2009-03-22,23:54:38,2009-03-23,00:00:18
442978.484090909,4424917.161363636,39895.2092361111,39895.211724537,198.62109656262518,2009-03-23,05:01:18,2009-03-23,05:04:53
442521.9578313251,4428158.451807229,39895.4465625,39895.451087963,199.43432503010703,2009-03-23,10:43:03,2009-03-23,10:49:34
442683.75,4424903.9,39896.2122916667,39896.212349537,50.703550171509306,2009-03-24,05:05:42,2009-03-24,05:05:47
442609.0385826772,4436756.167716533,39896.5786342593,39896.5877777778,193.9863139503776,2009-03-24,13:53:14,2009-03-24,14:06:24
442145.8549295775,4429090.139436623,39896.6396759259,39896.6434375,196.18710457128887,2009-03-24,15:21:08,2009-03-24,15:26:33
441995.18333333335,4429144.816666666,39897.2215162037,39897.2218055556,68.25195967894574,2009-03-25,05:18:59,2009-03-25,05:19:24
442550.6,4428058.003703703,39897.2842476852,39897.2857523148,197.22233646334723,2009-03-25,06:49:19,2009-03-25,06:51:29
443446.2666666666,4425308.353968253,39897.3929861111,39897.482337963,187.3422536431389,2009-03-25,09:25:54,2009-03-25,11:34:34
443202.8,4427684.8,39897.5081481481,39897.5081481481,0.0,2009-03-25,12:11:44,2009-03-25,12:11:44
442545.30434782594,4436732.434782608,39898.5041782407,39898.9777430556,199.92318524855366,2009-03-26,12:06:01,2009-03-26,23:27:57
443075.58019093086,4425203.314797138,39899.0165509259,39899.0451388889,109.9258386367715,2009-03-27,00:23:50,2009-03-27,01:05:00
443166.2935714286,4425086.433571429,39899.046412037,39899.0548611111,124.77760215658985,2009-03-27,01:06:50,2009-03-27,01:19:00
443259.05357142864,4425385.903571429,39904.6010300926,39904.6025925926,183.47547520055133,2009-04-01,14:25:29,2009-04-01,14:27:44
442146.8961538461,4429153.011538462,39904.669375,39904.6708217593,183.21258144622627,2009-04-01,16:03:54,2009-04-01,16:05:59
442301.39999999997,4428811.66923077,39905.0534143519,39905.0548611111,177.28101985309274,2009-04-02,01:16:55,2009-04-02,01:19:00
442543.25454545446,4436750.116883117,39908.4774189815,39908.4817592593,157.48425318120533,2009-04-05,11:27:29,2009-04-05,11:33:44
443070.76987951813,4425124.536144578,39909.0805555556,39909.0864583333,54.50146787014106,2009-04-06,01:56:00,2009-04-06,02:04:30
442546.6690476191,4436783.8488095235,39910.4964236111,39910.5010532407,165.20060532530206,2009-04-07,11:54:51,2009-04-07,12:01:31
442155.8483870968,4429163.093548387,39910.5750347222,39910.5767708333,139.04963142656203,2009-04-07,13:48:03,2009-04-07,13:50:33
443111.8459574465,4425011.6578723425,39911.1234953704,39911.1486111111,98.88806803670015,2009-04-08,02:57:50,2009-04-08,03:34:00
443093.4095238095,4425123.221428571,39911.1515625,39911.1543981481,149.23176605572513,2009-04-08,03:38:15,2009-04-08,03:42:20
443069.40769230766,4424992.996153846,39911.2106828704,39911.2120138889,174.4195516562555,2009-04-08,05:03:23,2009-04-08,05:05:18
443104.48605150246,4424910.90171674,39911.2895601852,39911.3162384259,62.410896484283555,2009-04-08,06:56:58,2009-04-08,07:35:23
443107.7441558441,4424951.535064935,39911.3366666667,39911.3417592593,151.88429806944293,2009-04-08,08:04:48,2009-04-08,08:12:08
442121.0035714284,4429010.1839285735,39911.5894560185,39912.0445601852,199.31582977747124,2009-04-08,14:08:49,2009-04-09,01:04:10
442568.7919999999,4428056.562000001,39912.0527314815,39912.0547222222,177.89614948070556,2009-04-09,01:15:56,2009-04-09,01:18:48
442540.6338842976,4436760.447933883,39912.5463541667,39912.9731134259,174.9420761282582,2009-04-09,13:06:45,2009-04-09,23:21:17
443074.306451613,4424962.45483871,39913.0015277778,39913.0031481481,92.67793696414978,2009-04-10,00:02:12,2009-04-10,00:04:32
443085.74000000005,4424821.2,39913.3177199074,39913.3179513889,119.84122829774567,2009-04-10,07:37:31,2009-04-10,07:37:51
443022.2080000001,4425079.944000001,39913.5159837963,39913.5220601852,129.8878362280183,2009-04-10,12:23:01,2009-04-10,12:31:46
442540.50777777756,4436778.836666668,39913.5650578704,39913.570787037,113.04724675982709,2009-04-10,13:33:41,2009-04-10,13:41:56
442536.74223002576,4436744.406760322,39914.5304513889,39915.9738888889,193.78142325845369,2009-04-11,12:43:51,2009-04-12,23:22:24
443077.65115207346,4425031.330414747,39916.0159606481,39916.0457638889,172.68540760603491,2009-04-13,00:22:59,2009-04-13,01:05:54
443100.73022071284,4425005.906960943,39916.1056018519,39916.1411921296,175.58274402652023,2009-04-13,02:32:04,2009-04-13,03:23:19
443085.8626666667,4424998.818,39916.1672337963,39916.1863310185,46.10878441216942,2009-04-13,04:00:49,2009-04-13,04:28:19
443085.94617737044,4425077.237920487,39916.1926967593,39916.2157291667,197.73932335273943,2009-04-13,04:37:29,2009-04-13,05:10:39
443108.91965255165,4424945.159066231,39916.2745833333,39916.3271875,115.26404469726502,2009-04-13,06:35:24,2009-04-13,07:51:09
442516.96342182887,4436762.991740415,39916.5344212963,39916.5615046296,187.80527149158976,2009-04-13,12:49:34,2009-04-13,13:28:34
442549.2240837695,4436723.063612565,39916.5617361111,39916.5873148148,193.37810113867056,2009-04-13,13:28:54,2009-04-13,14:05:44
442525.9742459391,4436764.41183295,39916.5873726852,39916.6236574074,188.94509784572594,2009-04-13,14:05:49,2009-04-13,14:58:04
442488.64464285725,4436793.828571429,39916.6246990741,39916.6278240741,58.28353112143613,2009-04-13,14:59:34,2009-04-13,15:04:04
443250.12499999994,4425492.879545455,39917.4187615741,39917.4235648148,153.88008318175184,2009-04-14,10:03:01,2009-04-14,10:09:56
431517.8,4425145.016666667,39995.5372453704,39995.5541203704,47.23409785360252,2009-07-01,12:53:38,2009-07-01,13:17:56
441421.40833333327,4424534.841666666,40000.3151041667,40000.3157407407,182.7376534818771,2009-07-06,07:33:45,2009-07-06,07:34:40
441463.64739970316,4424424.784992569,40000.3436342593,40000.4131944444,171.3292152551472,2009-07-06,08:14:50,2009-07-06,09:55:00
439697.7777777778,4426481.911111111,40000.4213541667,40000.4218171296,176.49002804710312,2009-07-06,10:06:45,2009-07-06,10:07:25
441445.17475728167,4424483.211326862,40001.2779050926,40001.316099537,189.99031554214164,2009-07-07,06:40:11,2009-07-07,07:35:11
450107.03421461926,4423446.0048211515,40001.3384953704,40001.4062615741,187.03935414809854,2009-07-07,08:07:26,2009-07-07,09:45:01
431541.2444444446,4425123.192063492,40001.486412037,40001.4898263889,166.08142581276792,2009-07-07,11:40:26,2009-07-07,11:45:21
438750.44244897924,4423140.777142855,40002.0816087963,40002.1450347222,191.71155416415309,2009-07-08,01:57:31,2009-07-08,03:28:51
442579.1263888889,4426975.187499999,40002.1699768519,40002.202037037,190.9278397719923,2009-07-08,04:04:46,2009-07-08,04:50:56
439446.44444444444,4424998.066666666,40002.2659259259,40002.2663888889,197.40124113081578,2009-07-08,06:22:56,2009-07-08,06:23:36
441665.60873563256,4425754.583218386,40003.2747222222,40003.3494328704,187.27255538386223,2009-07-09,06:35:36,2009-07-09,08:23:11
441432.50700934586,4426184.145794387,40003.3504166667,40003.3747222222,199.48556338751987,2009-07-09,08:24:36,2009-07-09,08:59:36
441087.57720000006,4426690.4059999995,40003.3890740741,40003.4481597222,190.71009412175619,2009-07-09,09:20:16,2009-07-09,10:45:21
431511.53584229364,4425123.026523299,40003.4839814815,40003.5148842593,172.9002602658768,2009-07-09,11:36:56,2009-07-09,12:21:26
442575.9657762939,4427056.047746241,40007.0638194444,40007.1397453704,192.62588091952253,2009-07-13,01:31:54,2009-07-13,03:21:14
446473.7194357363,4426724.026959249,40007.1657291667,40007.2011458333,187.64927391242452,2009-07-13,03:58:39,2009-07-13,04:49:39
443379.24242424255,4424978.115151514,40007.2451851852,40007.2468634259,190.26100493756945,2009-07-13,05:53:04,2009-07-13,05:55:29
442485.72006172873,4427086.498148149,40008.1125578704,40008.1507523148,186.2624492480151,2009-07-14,02:42:05,2009-07-14,03:37:05
441066.8346938775,4426271.307050094,40008.1587962963,40008.2169560185,195.3845950938744,2009-07-14,03:48:40,2009-07-14,05:12:25
442566.82090395485,4427110.975988698,40008.2273726852,40008.2702546296,171.22724666373256,2009-07-14,05:27:25,2009-07-14,06:29:10
442408.86412698426,4426965.231428571,40008.279849537,40008.3050810185,186.72766265303432,2009-07-14,06:42:59,2009-07-14,07:19:19
442386.93028571416,4426976.148285716,40008.3074537037,40008.3340740741,197.62401169932542,2009-07-14,07:22:44,2009-07-14,08:01:04
442544.4137096779,4427140.289032266,40008.3341319444,40008.4096527778,165.12907072897937,2009-07-14,08:01:09,2009-07-14,09:49:54
