442762.24583333335,4425301.020833333,39294.490150463,39294.5139236111,159.97152871678094,2007-07-31,11:45:49,2007-07-31,12:20:03
438455.2916666667,4419301.858333333,39294.5404166667,39294.5431481482,189.7245371583036,2007-07-31,12:58:12,2007-07-31,13:02:08
442742.9263157896,4425669.063157895,39295.0258449074,39295.0354513889,71.1034457677384,2007-08-01,00:37:13,2007-08-01,00:51:03
438481.15,4419318.26,39295.5719907407,39295.991400463,117.34006136072954,2007-08-01,13:43:40,2007-08-01,23:47:37
442725.7023255812,4425691.272093024,39296.0282060185,39296.189837963,187.15902329302747,2007-08-02,00:40:37,2007-08-02,04:33:22
442692.35,4425699.800000001,39296.1955787037,39296.1982407407,195.6254073473351,2007-08-02,04:41:38,2007-08-02,04:45:28
442763.7052631579,4425204.968421051,39296.5086226852,39296.5464699074,157.97601083709475,2007-08-02,12:12:25,2007-08-02,13:06:55
438470.425,4419251.70625,39296.5736805556,39296.9924421296,198.63244951432827,2007-08-02,13:46:06,2007-08-02,23:49:07
442756.97500000003,4425637.040625,39297.0351851852,39297.4535185185,102.98359092630541,2007-08-03,00:50:40,2007-08-03,10:53:04
445510.6,4426379.9,39297.4671527778,39297.4671527778,0.0,2007-08-03,11:12:42,2007-08-03,11:12:42
714103.8333333334,4412888.183333334,39297.6382060185,39298.0658217593,32.658842600335376,2007-08-03,15:19:01,2007-08-04,01:34:47
697193.9199999999,4388195.18,39298.1488773148,39298.4131597222,157.97002880349726,2007-08-04,03:34:23,2007-08-04,09:54:57
714071.1142857142,4411187.239285715,39298.4932291667,39298.5295486111,188.39835455702186,2007-08-04,11:50:15,2007-08-04,12:42:33
713948.2486486486,4411034.883783785,39298.5308796296,39298.5654166667,188.86834038557123,2007-08-04,12:44:28,2007-08-04,13:34:12
714639.794871795,4411547.420512819,39298.5771759259,39298.5999884259,180.99969613230755,2007-08-04,13:51:08,2007-08-04,14:23:59
714099.0571428571,4412883.385714286,39298.6195717593,39299.029837963,11.72902382952497,2007-08-04,14:52:11,2007-08-05,00:42:58
716537.3,4410885.486206897,39299.0602199074,39299.0839814815,196.07225708907933,2007-08-05,01:26:43,2007-08-05,02:00:56
716597.4384615384,4410848.638461539,39299.0844444444,39299.1316782407,199.87846307188363,2007-08-05,02:01:36,2007-08-05,03:09:37
716368.97,4411082.1,39299.1333333333,39299.1431365741,161.63693884766644,2007-08-05,03:12:00,2007-08-05,03:26:07
527793.7,4401398.0,39299.4043634259,39299.4043634259,0.0,2007-08-05,09:42:17,2007-08-05,09:42:17
442745.9318181818,4425686.922727273,39300.0259953704,39300.0340625,67.70118167344782,2007-08-06,00:37:26,2007-08-06,00:49:03
438400.4916666667,4419262.225,39300.5183680556,39300.5206365741,186.14899945996058,2007-08-06,12:26:27,2007-08-06,12:29:43
442750.6037037037,4425639.466666667,39301.0284837963,39301.5440277778,186.25928164756414,2007-08-07,00:41:01,2007-08-07,13:03:24
438407.4285714285,4419254.042857143,39301.5729282407,39301.5749189815,192.4811679100062,2007-08-07,13:45:01,2007-08-07,13:47:53
439430.5199999999,4419407.78,39301.9921180556,39301.9935416667,95.6077925693873,2007-08-07,23:48:39,2007-08-07,23:50:42
442743.0647058824,4425680.44117647,39303.0314699074,39303.038912037,78.51401148854062,2007-08-09,00:45:19,2007-08-09,00:56:02
438420.6565217391,4419214.473913043,39303.5464351852,39303.9879050926,194.73122502573943,2007-08-09,13:06:52,2007-08-09,23:42:35
