440340.13595505635,4426473.905617977,39675.347974537,39675.3500115741,198.55208384702476,2008-08-15,08:21:05,2008-08-15,08:24:01
447752.9932835823,4423892.912686568,39676.0369212963,39676.041087963,117.92476415070755,2008-08-16,00:53:10,2008-08-16,00:59:10
448924.87327044015,4426882.087106917,39676.2640856481,39676.2938425926,194.6643521555567,2008-08-16,06:20:17,2008-08-16,07:03:08
447566.00330275256,4427750.582935783,39676.3203009259,39676.3536111111,198.97610409275617,2008-08-16,07:41:14,2008-08-16,08:29:12
447704.7949152541,4423821.289830509,39676.4115046296,39676.4145138889,176.8283065574181,2008-08-16,09:52:34,2008-08-16,09:56:54
440243.3864779875,4426613.235849057,39676.5196759259,39676.9959143519,192.4455247597781,2008-08-16,12:28:20,2008-08-16,23:54:07
447727.572727273,4423775.410227271,39677.0139351852,39677.0392708333,162.38183395936733,2008-08-17,00:20:04,2008-08-17,00:56:33
451148.77425742574,4414806.705940594,39677.2705787037,39677.2910416667,192.39012448722718,2008-08-17,06:29:38,2008-08-17,06:59:06
447724.33828125003,4423852.304687499,39677.3524768518,39677.3574537037,65.41444794496583,2008-08-17,08:27:34,2008-08-17,08:34:44
440871.9063492062,4426064.912698412,39677.4796643518,39677.4820717593,162.06474015052288,2008-08-17,11:30:43,2008-08-17,11:34:11
440264.42549019615,4426608.15490196,39677.5684837963,39677.5696412037,194.54883705640597,2008-08-17,13:38:37,2008-08-17,13:40:17
447744.3467005076,4423936.115736045,39678.0219097222,39678.4438541667,199.4837838022725,2008-08-18,00:31:33,2008-08-18,10:39:09
440241.06033057865,4426602.719008265,39678.4812384259,39678.4895949074,146.81229512582033,2008-08-18,11:32:59,2008-08-18,11:45:01
447765.357142857,4423804.471428571,39680.0158101852,39680.0165972222,191.09311866189935,2008-08-20,00:22:46,2008-08-20,00:23:54
439493.4000000001,4433656.701369862,39680.2756018518,39680.2782638889,184.68635574910783,2008-08-20,06:36:52,2008-08-20,06:40:42
439690.1944558528,4432937.086652977,39680.305,39680.3272222222,199.95889577645792,2008-08-20,07:19:12,2008-08-20,07:51:12
447749.44977777783,4423927.575111111,39680.3481481481,39680.4525810185,198.95190373554465,2008-08-20,08:21:20,2008-08-20,10:51:43
440235.6272614619,4426615.165799265,39680.4838078704,39680.5211921296,197.63058973736452,2008-08-20,11:36:41,2008-08-20,12:30:31
440911.9576853526,4426113.704701627,39680.5610300926,39680.5847800926,62.25793122147625,2008-08-20,13:27:53,2008-08-20,14:02:05
440257.9649350651,4426665.038961039,39681.4994212963,39681.5033101852,162.3922719836138,2008-08-21,11:59:10,2008-08-21,12:04:46
440908.1954022986,4426032.27816092,39683.5023263889,39683.5043171296,161.39048918694706,2008-08-23,12:03:21,2008-08-23,12:06:13
440808.0319444444,4426039.872222223,39683.5788425926,39683.5805092593,169.3655513969825,2008-08-23,13:53:32,2008-08-23,13:55:56
415421.72720306495,4467796.827969346,39684.0687962963,39684.0878935185,168.2984254237655,2008-08-24,01:39:04,2008-08-24,02:06:34
415653.6409742114,4467552.574498571,39684.1459953704,39684.1586574074,199.59030537579832,2008-08-24,03:30:14,2008-08-24,03:48:28
423197.7132958799,4477365.6582397,39684.2021875,39684.2749884259,191.97650897886987,2008-08-24,04:51:09,2008-08-24,06:35:59
447673.83571428567,4424341.978571428,39684.3540625,39684.3543865741,51.32562712765268,2008-08-24,08:29:51,2008-08-24,08:30:19
440339.87327586196,4426543.642241379,39684.4544097222,39684.5024189815,196.94854658019034,2008-08-24,10:54:21,2008-08-24,12:03:29
440882.41666666657,4426110.348958333,39684.5066319444,39685.2741782407,199.56778297103824,2008-08-24,12:09:33,2008-08-25,06:34:49
440766.59782608686,4426090.243478261,39685.2759143518,39685.2769560185,28.57271425694388,2008-08-25,06:37:19,2008-08-25,06:38:49
442718.95339805837,4425241.073786406,39685.3727199074,39685.4225347222,195.6245638972483,2008-08-25,08:56:43,2008-08-25,10:08:27
440342.29734042514,4426600.86542553,39685.435775463,39685.444849537,168.76969514696427,2008-08-25,10:27:31,2008-08-25,10:40:35
440601.25090909074,4426094.40181818,39685.494849537,39685.496099537,193.2109986517775,2008-08-25,11:52:35,2008-08-25,11:54:23
440857.41707317065,4426099.451219514,39686.0234259259,39686.0578009259,195.46155632270785,2008-08-26,00:33:44,2008-08-26,01:23:14
442761.72142857127,4425252.571428571,39686.0703472222,39686.0712962963,199.09989954794895,2008-08-26,01:41:18,2008-08-26,01:42:40
440210.9558139534,4426482.966279072,39686.4406712963,39686.4426388889,196.9921825856377,2008-08-26,10:34:34,2008-08-26,10:37:24
442774.34642857144,4425236.451785717,39687.0372453704,39687.4312962963,178.62284288391066,2008-08-27,00:53:38,2008-08-27,10:21:04
440400.23435582843,4426582.0214723945,39687.4462962963,39687.4513888889,168.74137015003953,2008-08-27,10:42:40,2008-08-27,10:50:00
440911.19473684207,4426210.678947368,39687.5259375,39687.5263310185,148.10945277057112,2008-08-27,12:37:21,2008-08-27,12:37:55
442692.7147727274,4425256.465909092,39688.0410763889,39688.4321990741,197.3622557633203,2008-08-28,00:59:09,2008-08-28,10:22:22
440251.1113325033,4426588.498505596,39688.4453935185,39688.4805092593,181.52820717453272,2008-08-28,10:41:22,2008-08-28,11:31:56
440914.25724052236,4426135.813175887,39688.5854166667,39688.6634259259,32.98484500489046,2008-08-28,14:03:00,2008-08-28,15:55:20
440229.8151709402,4426572.697008547,39688.6692361111,39688.7015972222,134.21005923569334,2008-08-28,16:03:42,2008-08-28,16:50:18
442817.86666666676,4425298.9819444455,39689.0464930556,39689.3990972222,196.86068678120827,2008-08-29,01:06:57,2008-08-29,09:34:42
441151.2166666665,4425290.979761904,39689.4364583333,39689.4383796296,174.09020650263187,2008-08-29,10:28:30,2008-08-29,10:31:16
447381.0273437499,4417415.505468749,39689.4754166667,39689.4783564815,115.05568217175,2008-08-29,11:24:36,2008-08-29,11:28:50
447308.5798136642,4417252.984627329,39689.5649305556,39689.5923148148,199.74926783381937,2008-08-29,13:33:30,2008-08-29,14:12:56
447352.2059859155,4417413.063380284,39689.592337963,39689.6020138889,97.8289323259418,2008-08-29,14:12:58,2008-08-29,14:26:54
440235.04562955967,4426587.944449629,39689.6663194444,39689.9661805556,192.1875386178534,2008-08-29,15:59:30,2008-08-29,23:11:18
440226.0605755396,4426592.070647484,39689.9662037037,39689.9946064815,63.126856408691744,2008-08-29,23:11:20,2008-08-29,23:52:14
440241.6811198844,4426569.312132088,39689.9953703704,39690.0559722222,102.05449524673045,2008-08-29,23:53:20,2008-08-30,01:20:36
442702.9929577464,4425239.619718309,39690.0780324074,39690.6343981481,198.10002523981626,2008-08-30,01:52:22,2008-08-30,15:13:32
440202.64767441864,4426512.160465117,39690.6611111111,39690.6642592593,197.45878050909215,2008-08-30,15:52:00,2008-08-30,15:56:32
442725.62761904765,4425237.604761906,39691.5017361111,39691.6788425926,195.5874484725075,2008-08-31,12:02:30,2008-08-31,16:17:32
