441910.415923567,4393788.407643315,39941.526412037,39941.5307986111,198.8740807645014,2009-05-08,12:38:02,2009-05-08,12:44:21
442826.0221238937,4393747.385840707,39941.5885416667,39941.5916666667,110.52352690735664,2009-05-08,14:07:30,2009-05-08,14:12:00
374703.6,4527416.2,39941.6251041667,39941.6251041667,0.0,2009-05-08,15:00:09,2009-05-08,15:00:09
440066.7466666667,4397990.79,39941.6776388889,39941.6783333333,190.82277117772853,2009-05-08,16:15:48,2009-05-08,16:16:48
443945.68000000005,4414476.42,39941.7627777778,39941.7628935185,187.86133183795417,2009-05-08,18:18:24,2009-05-08,18:18:34
453861.82372093067,4418353.082093026,39946.5596643519,39946.5934259259,155.68509883750912,2009-05-13,13:25:55,2009-05-13,14:14:32
453846.22695924784,4418335.438244514,39946.5936111111,39946.6144328704,195.41476402786967,2009-05-13,14:14:48,2009-05-13,14:44:47
453750.1771028036,4418168.646261679,39946.6144791667,39946.6537152778,199.20584830769712,2009-05-13,14:44:51,2009-05-13,15:41:21
453337.4065217387,4418124.923188408,39946.693125,39946.6995486111,151.19685843298353,2009-05-13,16:38:06,2009-05-13,16:47:21
452491.18,4417914.420000001,39948.6919097222,39948.6939236111,68.73376171853245,2009-05-15,16:36:21,2009-05-15,16:39:15
453218.12592592597,4418121.085185186,39948.7659490741,39948.7674305556,189.1004494972712,2009-05-15,18:22:58,2009-05-15,18:25:06
451285.2274509805,4421270.726470591,39960.7382407407,39960.7406481481,197.508987137279,2009-05-27,17:43:04,2009-05-27,17:46:32
436971.60991501453,4417269.910198302,39960.7886689815,39960.8008796296,47.80596197129792,2009-05-27,18:55:41,2009-05-27,19:13:16
456285.7045936392,4403689.208480565,40043.5556365741,40043.5837037037,193.4062046574413,2009-08-18,13:20:07,2009-08-18,14:00:32
456305.11582568707,4403716.898623859,40043.5844212963,40043.6520023148,173.2310884341008,2009-08-18,14:01:34,2009-08-18,15:38:53
452379.9,4417482.5,40043.7009143519,40043.7009143519,0.0,2009-08-18,16:49:19,2009-08-18,16:49:19
456230.83893805346,4403774.22831859,40044.5720601852,40044.6347222222,184.9727547508881,2009-08-19,13:43:46,2009-08-19,15:14:00
456099.82,4403573.5600000005,40044.6347453704,40044.634837963,22.68832298780471,2009-08-19,15:14:02,2009-08-19,15:14:10
456267.2752151474,4403721.128915668,40044.6586111111,40044.706087963,103.72584056076124,2009-08-19,15:48:24,2009-08-19,16:56:46
484916.35,4432147.95,40044.7811921296,40044.78125,154.98135371687053,2009-08-19,18:44:55,2009-08-19,18:45:00
443261.62342569215,4419357.503778337,40045.4565162037,40045.5106018518,194.8495060295832,2009-08-20,10:57:23,2009-08-20,12:15:16
456231.7108922339,4403865.007879504,40045.5780787037,40045.6628125,196.28329017027522,2009-08-20,13:52:26,2009-08-20,15:54:27
456296.7997566905,4403707.704075432,40045.6628587963,40045.7695023148,198.93056577642963,2009-08-20,15:54:31,2009-08-20,18:28:05
437001.6836065574,4417189.349180329,40045.8636342593,40045.8651157407,195.54569798339188,2009-08-20,20:43:38,2009-08-20,20:45:46
434531.0971530249,4413837.333096081,40046.6149537037,40046.6379050926,197.82421489761157,2009-08-21,14:45:32,2009-08-21,15:18:35
436934.04285714286,4417229.104761903,40046.7059722222,40046.7083912037,199.54387988608235,2009-08-21,16:56:36,2009-08-21,17:00:05
434571.698175598,4414057.448004567,40047.5920833333,40047.6543981481,196.43566376830609,2009-08-22,14:12:36,2009-08-22,15:42:20
434501.25872020045,4413837.096235883,40047.6544212963,40047.6814814815,195.4622469943216,2009-08-22,15:42:22,2009-08-22,16:21:20
438353.1,4417760.6,40047.701875,40047.7019328704,178.94546655348574,2009-08-22,16:50:42,2009-08-22,16:50:47
437262.2621621622,4417559.066216218,40047.7258449074,40047.7278009259,197.08285059801455,2009-08-22,17:25:13,2009-08-22,17:28:02
445033.95446428563,4414317.335714285,40047.7949652778,40047.7980092593,198.16366972783595,2009-08-22,19:04:45,2009-08-22,19:09:08
431042.15,4419128.9,40048.8390972222,40048.8391550926,181.3215100312035,2009-08-23,20:08:18,2009-08-23,20:08:23
453384.6256249997,4418260.497500002,40051.388587963,40051.4207638889,159.57647069647845,2009-08-26,09:19:34,2009-08-26,10:05:54
452791.48640776734,4418184.141100325,40051.4374421296,40051.4593171296,196.19505600294826,2009-08-26,10:29:55,2009-08-26,11:01:25
451605.5013888889,4419656.78333333,40051.4800694444,40051.4818518519,199.0904317140035,2009-08-26,11:31:18,2009-08-26,11:33:52
457331.3,4433249.0,40051.5592708333,40051.5592708333,0.0,2009-08-26,13:25:21,2009-08-26,13:25:21
442925.2127272726,4424938.927272727,40051.641712963,40051.6446990741,179.84095751487732,2009-08-26,15:24:04,2009-08-26,15:28:22
453677.9845833333,4425230.913333337,40074.6984143518,40074.7275462963,197.2921184435267,2009-09-18,16:45:43,2009-09-18,17:27:40
443144.92368421063,4425181.199122808,40074.7721990741,40074.7753587963,196.5108648393853,2009-09-18,18:31:58,2009-09-18,18:36:31
442902.24857142847,4425316.147142857,40086.5643055556,40086.5921296296,196.05111578362286,2009-09-30,13:32:36,2009-09-30,14:12:40
444241.0222222221,4421294.171111111,40086.599224537,40086.6047337963,189.0708332875706,2009-09-30,14:22:53,2009-09-30,14:30:49
463634.7,4358813.1,40086.6832291667,40086.6832291667,0.0,2009-09-30,16:23:51,2009-09-30,16:23:51
504727.85,3955291.45,40086.9019328704,40086.9019907407,167.21178188132092,2009-09-30,21:38:47,2009-09-30,21:38:52
493499.0,3815905.85,40086.9427777778,40086.9428356481,174.63026656350138,2009-09-30,22:37:36,2009-09-30,22:37:41
518205.81363636366,3791710.0090909093,40086.9809259259,40086.9822569444,174.30329887871903,2009-09-30,23:32:32,2009-09-30,23:34:27
757415.602083333,3742498.0,40087.4253587963,40087.4281712963,82.08465142766484,2009-10-01,10:12:31,2009-10-01,10:16:34
758232.675,3741353.325,40087.524849537,40087.5249189815,8.297590011210042,2009-10-01,12:35:47,2009-10-01,12:35:53
739912.5,3736749.4,40088.4755208333,40088.4755208333,0.0,2009-10-02,11:24:45,2009-10-02,11:24:45
758228.2575757573,3741373.4560606047,40088.6669907407,40088.671724537,196.56492566066535,2009-10-02,16:00:28,2009-10-02,16:07:17
757438.828125,3742482.50625,40088.7617013889,40088.821724537,195.11740055677996,2009-10-02,18:16:51,2009-10-02,19:43:17
758167.4026315789,3741376.1,40088.8276157407,40089.2178356481,184.32802282880783,2009-10-02,19:51:46,2009-10-03,05:13:41
757414.6476190478,3742548.156462585,40089.2288657407,40089.2583912037,163.02469138165952,2009-10-03,05:29:34,2009-10-03,06:12:05
757717.6,3742664.3,40089.2584490741,40089.2584490741,0.0,2009-10-03,06:12:10,2009-10-03,06:12:10
318073.6229206635,3464916.3750863466,40089.5157175926,40089.8155092593,198.59952165094577,2009-10-03,12:22:38,2009-10-03,19:34:20
317709.2924999999,3464828.2559999973,40089.8179166667,40089.8254861111,198.59571999414308,2009-10-03,19:37:48,2009-10-03,19:48:42
318046.1195652168,3464894.854347828,40090.8134953704,40090.8781944444,196.3289077033706,2009-10-04,19:31:26,2009-10-04,21:04:36
317693.75,3466285.9499999997,40090.9500578704,40090.9502430556,189.8299502185376,2009-10-04,22:48:05,2009-10-04,22:48:21
269432.8,3509406.5,40093.5127199074,40093.5127199074,0.0,2009-10-07,12:18:19,2009-10-07,12:18:19
531765.9,3674072.5999999996,40093.7704050926,40093.770462963,158.37095693348593,2009-10-07,18:29:23,2009-10-07,18:29:28
499185.66000000003,3721607.7399999998,40093.8079050926,40093.8080092593,141.70564561822454,2009-10-07,19:23:23,2009-10-07,19:23:32
515446.42303370766,3791497.1949438183,40093.8668402778,40093.8780555556,135.55227773818544,2009-10-07,20:48:15,2009-10-07,21:04:24
517939.8483333333,3791640.04,40093.8968865741,40093.9147337963,142.84764611265814,2009-10-07,21:31:31,2009-10-07,21:57:13
518415.6399999997,3791729.022857143,40094.2277662037,40094.2320486111,195.12921359960768,2009-10-08,05:27:59,2009-10-08,05:34:09
482821.2,4230175.8,40094.4818171296,40094.4818171296,0.0,2009-10-08,11:33:49,2009-10-08,11:33:49
500276.0,4331645.6,40094.5179513889,40094.5180092593,122.72000651920253,2009-10-08,12:25:51,2009-10-08,12:25:56
