443214.07826086954,4425220.091304347,39226.447037037,39226.4767939815,185.19646324917812,2007-05-24,10:43:44,2007-05-24,11:26:35
442933.325,4425229.124999999,39226.4769907407,39226.4785416667,121.00334706114815,2007-05-24,11:26:52,2007-05-24,11:29:06
443783.9555555556,4424424.066666667,39239.5041550926,39239.5898958333,192.40509348804477,2007-06-06,12:05:59,2007-06-06,14:09:27
442917.63000000006,4425184.760000001,39239.6057060185,39239.6074768519,187.5425285103421,2007-06-06,14:32:13,2007-06-06,14:34:46
442807.72857142857,4425425.05,39240.0154050926,39240.6339583333,194.1488089066609,2007-06-07,00:22:11,2007-06-07,15:12:54
442655.08947368414,4425732.24736842,39240.6394212963,39241.0579166667,192.2854388662916,2007-06-07,15:20:46,2007-06-08,01:23:24
442725.1111111112,4425487.677777778,39241.0585069444,39245.529525463,145.55579686155627,2007-06-08,01:24:15,2007-06-12,12:42:31
442629.8727272727,4425825.545454546,39245.5312152778,39245.5339351852,137.18899372707497,2007-06-12,12:44:57,2007-06-12,12:48:52
570417.7448275861,3872017.975862069,39247.2224768519,39247.256400463,190.94009531778295,2007-06-14,05:20:22,2007-06-14,06:09:13
569321.9,3873836.023076922,39247.3177314815,39247.3260763889,178.53229399737353,2007-06-14,07:37:32,2007-06-14,07:49:33
570000.2230769232,3873782.2076923074,39247.3670833333,39247.3721990741,195.47378340841516,2007-06-14,08:48:36,2007-06-14,08:55:58
570057.4545454546,3873265.4090909082,39247.389837963,39247.3922685185,188.34290536162075,2007-06-14,09:21:22,2007-06-14,09:24:52
568417.5621621623,3874771.2756756763,39248.1533912037,39248.1741435185,197.9828527928426,2007-06-15,03:40:53,2007-06-15,04:10:46
568272.66,3874830.5300000003,39248.1744907407,39248.1791087963,152.05081387469752,2007-06-15,04:11:16,2007-06-15,04:17:55
442832.35000000003,4425398.7,39252.0368634259,39252.0378240741,105.94583521809784,2007-06-19,00:53:05,2007-06-19,00:54:28
442751.7772727273,4425449.254545455,39253.5944212963,39253.644849537,171.90186153733183,2007-06-20,14:15:58,2007-06-20,15:28:35
442669.9315789474,4425703.310526316,39253.6458680556,39254.0823263889,171.52865649726166,2007-06-20,15:30:03,2007-06-21,01:58:33
442759.91363636364,4425457.181818181,39254.082662037,39255.6158333333,174.19741674319062,2007-06-21,01:59:02,2007-06-22,14:46:48
442656.6692307693,4425735.853846153,39255.6163310185,39256.5283564815,193.35563089737857,2007-06-22,14:47:31,2007-06-23,12:40:50
442765.55185185187,4425399.051851852,39256.5290625,39256.6080902778,176.90893137393627,2007-06-23,12:41:51,2007-06-23,14:35:39
442656.0363636363,4425725.445454546,39256.60875,39258.0452314815,182.92547662933052,2007-06-23,14:36:36,2007-06-25,01:05:08
442793.95999999996,4425397.32,39258.0456481481,39258.0472106481,147.16823706222368,2007-06-25,01:05:44,2007-06-25,01:07:59
442628.78571428574,4425765.195238096,39258.584224537,39259.0615162037,180.88062361634908,2007-06-25,14:01:17,2007-06-26,01:28:35
442752.79090909084,4425428.7272727275,39259.0619097222,39259.063912037,184.55245866689506,2007-06-26,01:29:09,2007-06-26,01:32:02
432242.6,4424394.8,39414.5502893519,39414.5502893519,0.0,2007-11-28,13:12:25,2007-11-28,13:12:25
442836.45,4425374.2,39414.7630439815,39414.7634722222,38.23885458546704,2007-11-28,18:18:47,2007-11-28,18:19:24
431525.6015873015,4426796.514285717,39584.2523958333,39584.2560069444,199.88899419426863,2008-05-16,06:03:27,2008-05-16,06:08:39
442776.07674418605,4425238.23488372,39584.4297569444,39584.431724537,198.8270102375166,2008-05-16,10:18:51,2008-05-16,10:21:41
443144.7125,4425284.6375,39659.5868518518,39659.587025463,64.49573629337397,2008-07-30,14:05:04,2008-07-30,14:05:19
448927.01702127664,4433708.875531915,39659.6106828704,39659.6131597222,189.26621462907005,2008-07-30,14:39:23,2008-07-30,14:42:57
442809.575,4425337.3930555545,39660.4713310185,39660.4746412037,190.50766388819673,2008-07-31,11:18:43,2008-07-31,11:23:29
448972.51413043484,4433698.284782606,39660.5532291667,39660.5553356481,199.73064361782042,2008-07-31,13:16:39,2008-07-31,13:19:41
465011.66508875706,4436356.644082839,39661.2546296296,39661.2718981481,136.4469860423702,2008-08-01,06:06:40,2008-08-01,06:31:32
464899.5700265252,4436218.8670203425,39661.2899074074,39661.3447916667,198.1346259489484,2008-08-01,06:57:28,2008-08-01,08:16:30
684897.8,4713348.5,39661.3838425926,39661.3838425926,0.0,2008-08-01,09:12:44,2008-08-01,09:12:44
564823.2063829789,5275480.960106382,39661.8365972222,39662.7678356481,197.82785445965249,2008-08-01,20:04:42,2008-08-02,18:25:41
564683.8797297296,5275589.325225225,39662.7678587963,39662.7906134259,184.93198749792288,2008-08-02,18:25:43,2008-08-02,18:58:29
564433.6413636366,5275708.665454548,39662.8062847222,39662.8113541667,191.95416119498944,2008-08-02,19:21:03,2008-08-02,19:28:21
564794.8741379312,5275569.033620687,39662.8346180556,39662.8372800926,190.62387048843482,2008-08-02,20:01:51,2008-08-02,20:05:41
564453.3383673467,5275747.230000009,39663.0753935185,39663.1027777778,196.96705308282617,2008-08-03,01:48:34,2008-08-03,02:28:00
564830.8162601624,5275548.933333333,39663.1405324074,39663.1450231481,198.24784992529644,2008-08-03,03:22:22,2008-08-03,03:28:50
564610.9366538954,5275705.216475103,39663.7969328704,39663.8269791667,199.144821675059,2008-08-03,19:07:35,2008-08-03,19:50:51
564850.6924657534,5275482.169520553,39663.8275115741,39663.8389699074,114.32042687115273,2008-08-03,19:51:37,2008-08-03,20:08:07
564829.0863013697,5275545.717123289,39664.0164930556,39664.019849537,198.72418071250124,2008-08-04,00:23:45,2008-08-04,00:28:35
564825.9433942,5275792.369817397,39664.0586458333,39664.0801736111,199.96582207948242,2008-08-04,01:24:27,2008-08-04,01:55:27
564826.6110807117,5275796.333242134,39664.0801967593,39664.1056365741,196.79514729805732,2008-08-04,01:55:29,2008-08-04,02:32:07
564874.527659574,5275635.345390071,39664.134525463,39664.1377662037,198.8294998236463,2008-08-04,03:13:43,2008-08-04,03:18:23
564877.4999999999,5278138.914285716,39664.6727893518,39664.6786689815,182.2486488294897,2008-08-04,16:08:49,2008-08-04,16:17:17
564944.0933333334,5278039.0200000005,39665.6563541667,39665.6579282407,194.70010272285785,2008-08-05,15:45:09,2008-08-05,15:47:25
565391.629761905,5276244.726190473,39666.1600694444,39666.1619907407,84.21995013115868,2008-08-06,03:50:30,2008-08-06,03:53:16
564981.8742424241,5278156.378787879,39666.7088310185,39666.7326736111,179.22527723508802,2008-08-06,17:00:43,2008-08-06,17:35:03
564957.0098360656,5278095.1008196715,39666.8124421296,39666.8340393519,196.34668319109926,2008-08-06,19:29:55,2008-08-06,20:01:01
565000.1490666665,5278141.459466664,39666.9759837963,39666.9846643518,52.71546262702943,2008-08-06,23:25:25,2008-08-06,23:37:55
564831.0057522121,5275519.443805312,39668.2055671296,39668.2342013889,198.1461329422106,2008-08-08,04:56:01,2008-08-08,05:37:15
565144.731392931,5274708.260498963,39673.0635069444,39673.1205671296,199.68718035930988,2008-08-13,01:31:27,2008-08-13,02:53:37
565324.3876923077,5276133.7538461555,39673.1299652778,39673.1315856481,199.80302800508304,2008-08-13,03:07:09,2008-08-13,03:09:29
564876.4999999999,5275543.813362068,39673.2410416667,39673.2463888889,153.781565865552,2008-08-13,05:47:06,2008-08-13,05:54:48
565179.8404761903,5274649.276190476,39674.0782175926,39674.0805555556,120.10237299921123,2008-08-14,01:52:38,2008-08-14,01:56:00
565231.1946236559,5276142.541935485,39674.1314467593,39674.1335763889,198.57162435739014,2008-08-14,03:09:17,2008-08-14,03:12:21
564958.5734177214,5278140.508860761,39674.6948726852,39674.6966782407,167.11268653262124,2008-08-14,16:40:37,2008-08-14,16:43:13
564979.8736842105,5278156.242105263,39675.716099537,39675.7175578704,179.16394726644594,2008-08-15,17:11:11,2008-08-15,17:13:17
564492.15,5273214.407142856,39676.0440162037,39676.0461689815,184.84385302266327,2008-08-16,01:03:23,2008-08-16,01:06:29
595667.4336106488,5180922.702495832,39676.7751851852,39676.8090740741,193.77316635686347,2008-08-16,18:36:16,2008-08-16,19:25:04
595971.3133333337,5181972.633866667,39676.8131018518,39677.0634953704,181.57582438180737,2008-08-16,19:30:52,2008-08-17,01:31:26
564463.0451382715,5275819.981846543,39677.1959953704,39677.2478703704,198.71773952018944,2008-08-17,04:42:14,2008-08-17,05:56:56
564847.099801485,5275469.210421839,39677.2513194444,39677.2991087963,185.38255041956074,2008-08-17,06:01:54,2008-08-17,07:10:43
564848.2643835617,5275465.054794522,39677.2991435185,39677.3011458333,8.221921916593537,2008-08-17,07:10:46,2008-08-17,07:13:39
560601.2180555554,5326831.691666666,39677.8566435185,39677.9885069444,197.00568519696756,2008-08-17,20:33:34,2008-08-17,23:43:27
560596.9613636362,5325388.189772729,39677.9895949074,39678.0124074074,194.92124050496957,2008-08-17,23:45:01,2008-08-18,00:17:52
564847.5607843142,5275494.160784313,39678.0492013889,39678.0535300926,197.25224967048243,2008-08-18,01:10:51,2008-08-18,01:17:05
564851.55,5275463.75,39678.0736458333,39678.0736689815,0.14142135595742808,2008-08-18,01:46:03,2008-08-18,01:46:05
449039.890517241,4423250.314655173,39879.3944212963,39879.4189351852,199.65602921045888,2009-03-07,09:27:58,2009-03-07,10:03:16
449028.23765281035,4423255.406295851,39879.4189583333,39879.5715625,197.4094475956448,2009-03-07,10:03:18,2009-03-07,13:43:03
449372.1166666667,4433403.916666667,39879.6208796296,39879.6211689815,180.30321683235871,2009-03-07,14:54:04,2009-03-07,14:54:29
448898.3468749999,4433741.664453126,39880.0087268518,39880.0381828704,104.89904670697601,2009-03-08,00:12:34,2009-03-08,00:54:59
448902.8260309276,4433765.427706187,39880.0465162037,39880.1216898148,69.38306709856913,2009-03-08,01:06:59,2009-03-08,02:55:14
448899.91158301156,4433707.765637063,39881.5647569444,39882.0360532407,195.39196503401064,2009-03-09,13:33:15,2009-03-10,00:51:55
442943.552991453,4425278.492307693,39882.0600115741,39882.4509606481,199.14642853999612,2009-03-10,01:26:25,2009-03-10,10:49:23
442850.76201438846,4425503.116402872,39882.4528009259,39882.4756828704,199.127923707525,2009-03-10,10:52:02,2009-03-10,11:24:59
442886.74571428593,4425256.738571428,39882.4757175926,39882.5517476852,154.01509666273722,2009-03-10,11:25:02,2009-03-10,13:14:31
448835.7725178709,4433764.961477359,39882.6036574074,39883.0454282407,198.4106095955322,2009-03-10,14:29:16,2009-03-11,01:05:25
442895.45185185183,4425275.1259259265,39883.0714467593,39883.0722800926,88.03073326979086,2009-03-11,01:42:53,2009-03-11,01:44:05
448925.5507246375,4433704.076449273,39883.5582060185,39883.580150463,191.39177098341148,2009-03-11,13:23:49,2009-03-11,13:55:25
448876.45686695294,4433725.033047212,39883.5824421296,39883.6021296296,79.74873039744087,2009-03-11,13:58:43,2009-03-11,14:27:04
448852.39958677645,4433721.85661157,39883.6534837963,39883.6617476852,100.04743874783134,2009-03-11,15:41:01,2009-03-11,15:52:55
448762.89181415905,4433818.357743361,39883.6895601852,39883.7109837963,197.57636498293184,2009-03-11,16:32:58,2009-03-11,17:03:49
448880.5506329115,4433738.917811933,39883.8207060185,39883.8651851852,193.44086951840856,2009-03-11,19:41:49,2009-03-11,20:45:52
448664.54000000004,4433899.464615385,39883.8652199074,39883.8700462963,186.2248372263942,2009-03-11,20:45:55,2009-03-11,20:52:52
443036.2399999996,4425216.65105263,39884.074837963,39888.5889930556,140.30299355339233,2009-03-12,01:47:46,2009-03-16,14:08:09
448908.2840236686,4433704.628994081,39888.6210416667,39888.6467708333,193.74591608573348,2009-03-16,14:54:18,2009-03-16,15:31:21
448864.8215019766,4433711.955573124,39888.6468055556,39888.7067708333,199.1002260169832,2009-03-16,15:31:24,2009-03-16,16:57:45
448829.58407643315,4433691.181528667,39888.7071527778,39888.7284375,197.5401984406654,2009-03-16,16:58:18,2009-03-16,17:28:57
448828.3305263157,4433646.26578947,39888.7465277778,39888.7541319444,169.52324324440784,2009-03-16,17:55:00,2009-03-16,18:05:57
442888.99166666664,4425403.945000001,39889.0520717593,39889.0539467593,77.19922279415542,2009-03-17,01:14:59,2009-03-17,01:17:41
442982.34999999986,4425255.391666668,39890.0511921296,39890.0531712963,195.63905540567185,2009-03-18,01:13:43,2009-03-18,01:16:34
448932.36293103447,4433735.130172413,39890.6116203704,39891.0233796296,198.80628762687937,2009-03-18,14:40:44,2009-03-19,00:33:40
442994.48082191794,4425221.480821921,39891.0473842593,39891.5768287037,176.23600653597074,2009-03-19,01:08:14,2009-03-19,13:50:38
449092.50804597687,4433696.774712647,39891.5946759259,39892.0599768519,197.10476909495821,2009-03-19,14:16:20,2009-03-20,01:26:22
442995.3022222221,4425243.742222222,39892.0829976852,39892.0852777778,197.91579017346285,2009-03-20,01:59:31,2009-03-20,02:02:48
448933.67647058825,4433735.098039215,39892.5760300926,39892.5796064815,53.03291430814605,2009-03-20,13:49:29,2009-03-20,13:54:38
449327.675,4433103.466666667,39894.6296759259,39894.6299768519,128.92866244531777,2009-03-22,15:06:44,2009-03-22,15:07:10
443057.7409836065,4425251.963934426,39895.063287037,39895.5432986111,190.81428143597927,2009-03-23,01:31:08,2009-03-23,13:02:21
448839.583776091,4433772.210626183,39895.6125,39895.6856018519,186.79534255392318,2009-03-23,14:42:00,2009-03-23,16:27:16
448882.4088414635,4433717.012957314,39895.6862268519,39895.7209143518,189.95920614693185,2009-03-23,16:28:10,2009-03-23,17:18:07
448854.42844036693,4433754.958103981,39895.7211805556,39895.7488773148,194.1745863909471,2009-03-23,17:18:30,2009-03-23,17:58:23
448833.1569498069,4433783.199999995,39895.748900463,39895.7867361111,198.2727666623956,2009-03-23,17:58:25,2009-03-23,18:52:54
448887.2193277312,4433756.1784874005,39895.7867476852,39895.8301967593,53.09623338807343,2009-03-23,18:52:55,2009-03-23,19:55:29
448889.895039164,4433741.695822457,39895.8769791667,39895.9887037037,51.278553021717784,2009-03-23,21:02:51,2009-03-23,23:43:44
449183.6818181818,4433883.581818182,39895.9971180556,39896.0025347222,170.12471895623625,2009-03-23,23:55:51,2009-03-24,00:03:39
442983.43023255817,4425251.167441862,39896.0518287037,39896.0542476852,198.06163182203971,2009-03-24,01:14:38,2009-03-24,01:18:07
448868.51111111103,4433765.110000001,39897.5538888889,39897.5666087963,79.62794735499435,2009-03-25,13:17:36,2009-03-25,13:35:55
443292.9139534884,4425220.818604652,39899.5176157407,39899.5553587963,189.1609103381191,2009-03-27,12:25:22,2009-03-27,13:19:43
448838.1073852291,4433760.404291418,39899.5936805556,39899.6524305556,195.2306584530394,2009-03-27,14:14:54,2009-03-27,15:39:30
448860.4259776538,4433722.162011171,39899.6684259259,39899.6910648148,65.62537618928073,2009-03-27,16:02:32,2009-03-27,16:35:08
448885.5991304345,4433692.082826086,39899.6958449074,39899.7230208333,131.6781682739833,2009-03-27,16:42:01,2009-03-27,17:21:09
448844.65879396925,4433772.435510887,39899.7779398148,39899.8204976852,191.15255687527227,2009-03-27,18:40:14,2009-03-27,19:41:31
448879.6290322581,4433727.088172046,39899.8635763889,39899.8684143518,87.35611026138157,2009-03-27,20:43:33,2009-03-27,20:50:31
442937.95625,4425253.065625,39900.3329398148,39900.3346296296,182.40737375447443,2009-03-28,07:59:26,2009-03-28,08:01:52
443013.720652174,4425236.355434785,39902.0496527778,39902.5266203704,133.88778883838205,2009-03-30,01:11:30,2009-03-30,12:38:20
448851.78506329074,4433760.537468355,39902.5565277778,39902.5867708333,190.91581914558614,2009-03-30,13:21:24,2009-03-30,14:04:57
448840.11433251435,4433763.933005728,39902.5868518518,39902.6628009259,198.02949275313617,2009-03-30,14:05:04,2009-03-30,15:54:26
448865.1472515847,4433745.47758985,39902.6650347222,39902.7247800926,189.20824506374845,2009-03-30,15:57:39,2009-03-30,17:23:41
448869.4883509837,4433746.438653549,39902.7259953704,39902.8075462963,85.35016110155216,2009-03-30,17:25:26,2009-03-30,19:22:52
448864.4974522288,4433749.2002123175,39902.8536689815,39902.9551157407,192.98769390776803,2009-03-30,20:29:17,2009-03-30,22:55:22
449112.70333333337,4433655.893333334,39902.9690625,39902.970462963,149.43657517487765,2009-03-30,23:15:27,2009-03-30,23:17:28
442925.24666666664,4425258.546666666,39903.0391782407,39903.0407986111,197.66883922363866,2009-03-31,00:56:25,2009-03-31,00:58:45
448835.3312091504,4433756.9959150385,39904.5976388889,39904.6389467593,198.28998966213518,2009-04-01,14:20:36,2009-04-01,15:20:05
448843.02168458776,4433767.386200716,39904.6393055556,39904.6767708333,187.57931655662952,2009-04-01,15:20:36,2009-04-01,16:14:33
448899.656334841,4433710.382579184,39904.6767824074,39904.7009490741,195.27029984113275,2009-04-01,16:14:34,2009-04-01,16:49:22
448895.7730478587,4433735.971536521,39904.7288194444,39904.7562152778,190.0320499289044,2009-04-01,17:29:30,2009-04-01,18:08:57
448832.07243697526,4433751.270420164,39904.768287037,39904.8129166667,184.73324010568675,2009-04-01,18:26:20,2009-04-01,19:30:36
448823.9421052632,4433763.792105265,39904.8556365741,39904.8672569444,191.22912958032882,2009-04-01,20:32:07,2009-04-01,20:48:51
448873.73057757615,4433736.88856172,39905.5938657407,39905.6546527778,193.5138496335306,2009-04-02,14:15:10,2009-04-02,15:42:42
448863.92029761814,4433746.934880957,39905.6560532407,39905.7723726852,199.12973158207777,2009-04-02,15:44:43,2009-04-02,18:32:13
448826.70117370883,4433782.056572775,39905.7748726852,39905.8108217593,170.09926513701868,2009-04-02,18:35:49,2009-04-02,19:27:35
448866.40502793307,4433749.69106145,39905.8471064815,39905.942962963,195.61147716849277,2009-04-02,20:19:50,2009-04-02,22:37:52
448614.92935779825,4433832.921100917,39905.9555208333,39905.9610763889,72.0534523807941,2009-04-02,22:55:57,2009-04-02,23:03:57
448867.0975265022,4433707.351590107,39906.599212963,39906.6275810185,191.41632636738862,2009-04-03,14:22:52,2009-04-03,15:03:43
449046.65,4433502.949999999,39906.6734722222,39906.6734837963,67.29175283803716,2009-04-03,16:09:48,2009-04-03,16:09:49
450889.0573359071,4417973.388996137,39907.1448263889,39907.1875347222,190.63945027216042,2009-04-04,03:28:33,2009-04-04,04:30:03
454760.27770700614,4422108.313057324,39907.348599537,39907.3695601852,199.0029648018652,2009-04-04,08:21:59,2009-04-04,08:52:10
442714.598809524,4424396.880952381,39907.3940393519,39907.4239467593,189.0763073468124,2009-04-04,09:27:25,2009-04-04,10:10:29
442831.70375000016,4425309.084999999,39907.4271990741,39907.4406134259,198.89919557402962,2009-04-04,10:15:10,2009-04-04,10:34:29
448901.0137931036,4433713.90758621,39907.6082638889,39907.632962963,192.4470056926568,2009-04-04,14:35:54,2009-04-04,15:11:28
448886.1193939395,4433722.724242425,39907.6336921296,39911.0318171296,191.1711536817533,2009-04-04,15:12:31,2009-04-08,00:45:49
442974.3722222222,4424914.333333333,39911.0604976852,39911.0613773148,106.0027358135715,2009-04-08,01:27:07,2009-04-08,01:28:23
442953.5457142857,4425252.919999999,39912.0560185185,39912.0578125,193.80621765051978,2009-04-09,01:20:40,2009-04-09,01:23:15
449693.0,4426766.85,39914.2215393518,39914.2216435185,189.40065997810333,2009-04-11,05:19:01,2009-04-11,05:19:10
449241.5099337747,4414274.293377482,39914.2629282407,39914.2846759259,199.5268653593266,2009-04-11,06:18:37,2009-04-11,06:49:56
449047.97272727283,4414445.0712121185,39914.3051041667,39914.3633217593,197.98929263980932,2009-04-11,07:19:21,2009-04-11,08:43:11
446781.485009488,4415486.928083494,39914.4084953704,39914.4853703704,199.78118029496684,2009-04-11,09:48:14,2009-04-11,11:38:56
449639.62702702713,4415867.33783784,39914.4935069444,39914.4972800926,195.47595760089038,2009-04-11,11:50:39,2009-04-11,11:56:05
449412.6,4433546.15,39914.5652893518,39914.5653703704,194.9903074512531,2009-04-11,13:34:01,2009-04-11,13:34:08
443029.659375,4425243.592187502,39916.5124189815,39916.515625,155.2858654225003,2009-04-13,12:17:53,2009-04-13,12:22:30
448741.575,4433827.275,39916.5476388889,39916.5477546296,1.3038404808530282,2009-04-13,13:08:36,2009-04-13,13:08:46
442961.50285714277,4425269.262857143,39917.0433564815,39917.0452314815,198.11612756158948,2009-04-14,01:02:26,2009-04-14,01:05:08
448859.9552727273,4433752.3145454535,39917.735474537,39917.756875,194.80762305430667,2009-04-14,17:39:05,2009-04-14,18:09:54
448820.54166666657,4434110.883333334,39917.7963657407,39917.7968981481,49.45179470974036,2009-04-14,19:06:46,2009-04-14,19:07:32
448842.02700729924,4433761.809489049,39919.5880324074,39920.0087847222,16.720047846798376,2009-04-16,14:06:46,2009-04-17,00:12:39
443023.0833333332,4425296.559523807,39920.0352199074,39920.5554861111,191.41499418819154,2009-04-17,00:50:43,2009-04-17,13:19:54
448955.431111111,4433709.017777777,39920.5768402778,39920.5797222222,186.54289051046106,2009-04-17,13:50:39,2009-04-17,13:54:48
448468.0902834011,4420971.721052629,39921.2397222222,39921.2639467593,199.9012256094218,2009-04-18,05:45:12,2009-04-18,06:20:05
447467.9906249999,4420552.615625001,39921.3189467593,39921.3224768518,199.48558845223687,2009-04-18,07:39:17,2009-04-18,07:44:22
448332.8171539963,4420430.67290448,39921.3859375,39921.4123032407,196.81773294130392,2009-04-18,09:15:45,2009-04-18,09:53:43
448392.76073567144,4420422.372455091,39921.4151851852,39921.5171296296,196.68721361622679,2009-04-18,09:57:52,2009-04-18,12:24:40
449038.17840909085,4433700.1,39921.558125,39922.2388773148,194.8416023337932,2009-04-18,13:23:42,2009-04-19,05:43:59
443026.57500000007,4425248.452380953,39922.263599537,39923.5766319444,183.0189334466088,2009-04-19,06:19:35,2009-04-20,13:50:21
448971.4800000001,4433705.043636364,39923.5978240741,39923.6012037037,180.74982710918425,2009-04-20,14:20:52,2009-04-20,14:25:44
442944.13999999996,4425258.506666667,39926.0747106481,39926.0762962963,199.47115079626732,2009-04-23,01:47:35,2009-04-23,01:49:52
448887.39759999973,4433729.071600001,39927.5596412037,39927.5836342593,197.84511618941514,2009-04-24,13:25:53,2009-04-24,14:00:26
448875.611162791,4433712.26139535,39927.599224537,39927.6435185185,151.72026891618094,2009-04-24,14:22:53,2009-04-24,15:26:40
448874.6394088664,4433754.647660099,39927.6445138889,39927.6930671296,190.24271339526146,2009-04-24,15:28:06,2009-04-24,16:38:01
448768.17248322145,4433601.547651009,39927.7160416667,39927.725150463,161.56190763914617,2009-04-24,17:11:06,2009-04-24,17:24:13
448882.15935483883,4433739.838064517,39927.8662268519,39927.8966435185,76.85707514595993,2009-04-24,20:47:22,2009-04-24,21:31:10
449193.8261044179,4433896.715662652,39927.9015393518,39929.0791666667,198.4494394044143,2009-04-24,21:38:13,2009-04-26,01:54:00
449662.24166666664,4417715.695833333,39929.1078472222,39929.130625,79.0931729036869,2009-04-26,02:35:18,2009-04-26,03:08:06
449159.9553571433,4418277.517857143,39929.1431597222,39929.1528819444,54.23329235809991,2009-04-26,03:26:09,2009-04-26,03:40:09
442915.1724137931,4425267.589655172,39930.0578587963,39930.0598263889,186.07399065975997,2009-04-27,01:23:19,2009-04-27,01:26:09
442930.3333333333,4425261.65897436,39936.2628472222,39936.2652083333,199.36619573046175,2009-05-03,06:18:30,2009-05-03,06:21:54
442931.8485714287,4425261.888571427,39937.0618865741,39937.0642476852,185.51043097340656,2009-05-04,01:29:07,2009-05-04,01:32:31
449036.3,4433969.3533333335,39938.6196990741,39938.620162037,28.20443227598289,2009-05-05,14:52:22,2009-05-05,14:53:02
443040.9702127659,4425241.329787234,39939.064212963,39939.4928356481,189.68447485220068,2009-05-06,01:32:28,2009-05-06,11:49:41
443872.75155350973,4424345.156962024,39939.4978472222,39939.5726736111,134.2136356708204,2009-05-06,11:56:54,2009-05-06,13:44:39
449082.5614864864,4433712.535135138,39939.607337963,39939.6152777778,176.79267518762913,2009-05-06,14:34:34,2009-05-06,14:46:00
443038.84180327866,4425227.354918037,39940.0478009259,39943.5542824074,188.12732390572822,2009-05-07,01:08:50,2009-05-10,13:18:10
448384.24000000005,4434304.5200000005,39943.579849537,39943.5799074074,155.10931628978474,2009-05-10,13:54:59,2009-05-10,13:55:04
443030.05499999993,4425237.055000001,39944.0556018518,39946.499537037,196.48943992014887,2009-05-11,01:20:04,2009-05-13,11:59:20
443865.51674937946,4424340.03263027,39946.5047569444,39946.5809837963,199.96039607885842,2009-05-13,12:06:51,2009-05-13,13:56:37
448878.8748987851,4433740.563562754,39946.6109375,39946.6462615741,119.6389986584757,2009-05-13,14:39:45,2009-05-13,15:30:37
448863.47378640773,4433748.401213592,39946.6473263889,39946.6800578704,148.3658316462901,2009-05-13,15:32:09,2009-05-13,16:19:17
447473.84242424247,4434910.445454545,39946.6876967593,39946.6889236111,70.21602381222424,2009-05-13,16:30:17,2009-05-13,16:32:03
449019.46666666673,4433873.244444445,39946.8207407407,39946.8213888889,192.33522818245257,2009-05-13,19:41:52,2009-05-13,19:42:48
440791.02649999986,4425962.822500001,39948.5135185185,39948.5961689815,195.63131139980754,2009-05-15,12:19:28,2009-05-15,14:18:29
448854.0569506725,4433701.72959641,39948.6498842593,39948.6730439815,197.8234566475821,2009-05-15,15:35:50,2009-05-15,16:09:11
448832.35436320707,4433696.262617917,39948.6731018518,39948.7371180556,133.22991405834549,2009-05-15,16:09:16,2009-05-15,17:41:27
448841.10500782466,4433719.655712047,39948.7409606481,39948.7871875,192.9986787518318,2009-05-15,17:46:59,2009-05-15,18:53:33
448890.080054645,4433682.256010929,39948.7929861111,39948.8202893519,67.60029585731802,2009-05-15,19:01:54,2009-05-15,19:41:13
448876.13204508886,4433675.613204503,39948.8209606481,39948.8773148148,124.28439161860013,2009-05-15,19:42:11,2009-05-15,21:03:20
448840.5672058826,4433733.230000001,39948.8953009259,39948.9425462963,191.47221730633566,2009-05-15,21:29:14,2009-05-15,22:37:16
448862.6556846486,4433701.906929469,39948.9452430556,39949.1754861111,197.8524702902025,2009-05-15,22:41:09,2009-05-16,04:12:42
448811.0508143319,4433721.504885992,39949.178287037,39949.2004861111,199.51551318131746,2009-05-16,04:16:44,2009-05-16,04:48:42
