451317.28129032266,4420640.750967742,39651.0235069444,39651.3056481481,196.49246804904772,2008-07-22,00:33:51,2008-07-22,07:20:08
450305.52490118594,4426230.823715413,39651.3203703704,39651.3443287037,194.2849711125847,2008-07-22,07:41:20,2008-07-22,08:15:50
451355.84097560996,4420708.413658536,39651.381875,39651.4237615741,196.65281589627978,2008-07-22,09:09:54,2008-07-22,10:10:13
441124.5963099631,4425787.275645759,39651.472650463,39651.5107060185,197.57818705499173,2008-07-22,11:20:37,2008-07-22,12:15:25
442978.17630331736,4425125.592417061,39651.5251736111,39651.590775463,183.66570175184341,2008-07-22,12:36:15,2008-07-22,14:10:43
442585.9208333332,4425903.8875,39651.595150463,39651.6078125,154.77225203553482,2008-07-22,14:17:01,2008-07-22,14:35:15
451311.783168317,4420669.999009898,39652.0278935185,39652.0355324074,14.454411090687469,2008-07-23,00:40:10,2008-07-23,00:51:10
446051.361682243,4417653.609345795,39652.4704861111,39652.5184259259,165.42031314217485,2008-07-23,11:17:30,2008-07-23,12:26:32
445940.41509433975,4417776.550943396,39652.5184490741,39652.5877314815,199.1865457305459,2008-07-23,12:26:34,2008-07-23,14:06:20
445958.66681222775,4418032.025764194,39652.5879398148,39652.6088657407,199.97862385746558,2008-07-23,14:06:38,2008-07-23,14:36:46
442706.72142857156,4425212.564285715,39652.6261805556,39652.6277777778,188.79221382249852,2008-07-23,15:01:42,2008-07-23,15:04:00
448988.15526315785,4427518.709210525,39653.4696296296,39653.4891435185,125.65623740988576,2008-07-24,11:16:16,2008-07-24,11:44:22
442924.6980952383,4425265.5542857135,39653.5818287037,39653.5842361111,186.7628442704301,2008-07-24,13:57:50,2008-07-24,14:01:18
451307.9569176878,4420668.587040276,39654.13,39654.1576388889,197.50691127134854,2008-07-25,03:07:12,2008-07-25,03:47:00
442798.8266666665,4425205.815555556,39654.545150463,39654.5461689815,143.22447416552302,2008-07-25,13:05:01,2008-07-25,13:06:29
442613.0933593746,4425895.676757812,39655.5188078704,39655.5473032407,169.9836756866331,2008-07-26,12:27:05,2008-07-26,13:08:07
442600.3942583733,4425882.765550244,39656.5370486111,39660.976724537,199.54528308186804,2008-07-27,12:53:21,2008-07-31,23:26:29
451519.925,4420403.3125,39661.0513310185,39661.0514930556,12.427791437076387,2008-08-01,01:13:55,2008-08-01,01:14:09
453621.4578571428,4425192.992857143,39663.3553125,39663.3596180556,145.03964975136972,2008-08-03,08:31:39,2008-08-03,08:37:51
443424.4470588234,4425235.314705882,39663.4481134259,39663.4496643519,184.37098470207653,2008-08-03,10:45:17,2008-08-03,10:47:31
451334.89999999997,4420607.331034485,39679.0136689815,39679.0156597222,198.35011973834798,2008-08-19,00:19:41,2008-08-19,00:22:33
442559.5042682926,4425962.649390244,39679.496724537,39679.974849537,192.89170536857623,2008-08-19,11:55:17,2008-08-19,23:23:47
451355.0192857142,4420562.165000004,39680.0158796296,39680.4897453704,193.96651772945845,2008-08-20,00:22:52,2008-08-20,11:45:14
442560.59117647057,4425921.138235293,39680.5350694444,39680.5358333333,139.98814235479588,2008-08-20,12:50:30,2008-08-20,12:51:36
443133.11413043475,4425231.211956523,39681.009375,39681.0124537037,195.71900776371572,2008-08-21,00:13:30,2008-08-21,00:17:56
446296.43999999994,4412685.424000001,39681.0525347222,39681.0536574074,186.64375156965897,2008-08-21,01:15:39,2008-08-21,01:17:16
442576.0775862069,4425923.258620689,39682.332037037,39684.0094675926,196.16536391561635,2008-08-22,07:58:08,2008-08-24,00:13:38
442600.9834862386,4426000.604281349,39684.089212963,39684.1121296296,198.36937767659197,2008-08-24,02:08:28,2008-08-24,02:41:28
460300.8222222221,4423940.287179488,39684.1883101852,39684.1909953704,198.40362899903468,2008-08-24,04:31:10,2008-08-24,04:35:02
443339.83143418434,4425238.3161100205,39684.28875,39684.3238773148,196.63349155221084,2008-08-24,06:55:48,2008-08-24,07:46:23
442637.42371134035,4425800.455670103,39684.3341319444,39684.3408680556,195.19111147758562,2008-08-24,08:01:09,2008-08-24,08:10:51
451313.9757575757,4420579.437373738,39685.0234722222,39685.0257407407,187.76722291103948,2008-08-25,00:33:48,2008-08-25,00:37:04
442920.73309352517,4425254.690647481,39685.4611226852,39685.4643171296,192.30023400920606,2008-08-25,11:04:01,2008-08-25,11:08:37
442639.27910447755,4425827.217164179,39685.5866550926,39685.5925347222,73.92191826459435,2008-08-25,14:04:47,2008-08-25,14:13:15
442618.18333333335,4425890.633333333,39685.6265856481,39685.6282291667,100.23497393606675,2008-08-25,15:02:17,2008-08-25,15:04:39
464979.7918309858,4436846.712676053,39686.088275463,39686.1075925926,77.68790124594854,2008-08-26,02:07:07,2008-08-26,02:34:56
341497.4475543476,2018594.4758152184,39688.1970833333,39688.2406018519,199.3621077336413,2008-08-28,04:43:48,2008-08-28,05:46:28
309440.8371698108,2023321.469622642,39688.3434490741,39688.3662268519,199.46974707953478,2008-08-28,08:14:34,2008-08-28,08:47:22
309508.6601167317,2023290.776264592,39688.3759490741,39688.4048611111,199.14341565814757,2008-08-28,09:01:22,2008-08-28,09:43:00
309625.53191489354,2023438.4872340427,39688.4048842593,39688.4059490741,190.12966628065007,2008-08-28,09:43:02,2008-08-28,09:44:34
442583.91808510636,4425919.559574469,39691.3946759259,39692.0043171296,199.94849336719017,2008-08-31,09:28:20,2008-09-01,00:06:13
446362.60129870125,4412825.680519479,39692.0955324074,39692.097337963,138.38294692642515,2008-09-01,02:17:34,2008-09-01,02:20:10
513205.4812499998,4329637.248214285,39692.1931365741,39692.1967708333,192.75315821085218,2008-09-01,04:38:07,2008-09-01,04:43:21
514327.6300387602,4329424.390503878,39692.223912037,39692.2466087963,198.7067185574113,2008-09-01,05:22:26,2008-09-01,05:55:07
515901.45187499997,4332157.950625001,39692.2705324074,39692.3690046296,181.11590211758022,2008-09-01,06:29:34,2008-09-01,08:51:22
517571.6864705879,4331860.671764704,39692.379212963,39692.4065393518,187.21111078210495,2008-09-01,09:06:04,2008-09-01,09:45:25
442767.0797872338,4425271.79255319,39692.487037037,39692.4891898148,196.22907531770883,2008-09-01,11:41:20,2008-09-01,11:44:26
442630.6600840335,4425853.002100843,39692.5212152778,39692.5277777778,155.82971475263585,2008-09-01,12:30:33,2008-09-01,12:40:00
446797.69583333324,4426387.395833333,39692.9866782407,39692.9872106481,191.68854947544466,2008-09-01,23:40:49,2008-09-01,23:41:35
451278.8838983051,4420497.257627119,39699.9903587963,39699.9930671296,188.78919460606778,2008-09-08,23:46:07,2008-09-08,23:50:01
444217.1306636155,4417881.848283746,39700.0256365741,39700.0520023148,159.99431239903294,2008-09-09,00:36:55,2008-09-09,01:14:53
444571.54444444424,4417756.784444445,39700.0717013889,39700.0748032407,197.3172065484237,2008-09-09,01:43:15,2008-09-09,01:47:43
451335.2633663366,4420826.065346535,39700.0970601852,39700.099375,198.987562426084,2008-09-09,02:19:46,2008-09-09,02:23:06
442569.15,4425966.723404254,39701.5994560185,39701.6016087963,194.7813646115422,2008-09-10,14:23:13,2008-09-10,14:26:19
451319.2929824561,4420574.519298245,39702.0189583333,39703.4147916667,193.4353897302284,2008-09-11,00:27:18,2008-09-12,09:57:18
442886.563888889,4425429.832222223,39703.4790277778,39703.487337963,70.49886523910266,2008-09-12,11:29:48,2008-09-12,11:41:46
445159.02886597917,4425187.72886598,39704.1596296296,39704.1618518519,196.05940426308166,2008-09-13,03:49:52,2008-09-13,03:53:04
437974.05306122446,4427639.1068027215,39704.3108912037,39704.3319097222,199.85139479117424,2008-09-13,07:27:41,2008-09-13,07:57:57
442850.4785964915,4425368.408771933,39704.4696875,39704.4933912037,176.61964783161727,2008-09-13,11:16:21,2008-09-13,11:50:29
442805.8,4425223.3,39704.4943634259,39704.5090393518,121.34352063460166,2008-09-13,11:51:53,2008-09-13,12:13:01
371761.79941176483,4432260.836862746,39705.1743634259,39705.1962384259,185.00813495606033,2008-09-14,04:11:05,2008-09-14,04:42:35
443374.44679029856,4425226.903209704,39705.4604513889,39705.5265509259,148.8553996332804,2008-09-14,11:03:03,2008-09-14,12:38:14
442627.87448979594,4425906.645918367,39705.5413425926,39705.5446527778,106.6419242136975,2008-09-14,12:59:32,2008-09-14,13:04:18
442966.51438848913,4425153.274100719,39706.5108796296,39706.5140740741,195.15524589402725,2008-09-15,12:15:40,2008-09-15,12:20:16
451304.78834355844,4420596.825153373,39707.036875,39707.040625,197.94254216817566,2008-09-16,00:53:06,2008-09-16,00:58:30
442608.6393063587,4425897.824194877,39707.4462962963,39707.4962962963,68.97050094044693,2008-09-16,10:42:40,2008-09-16,11:54:40
442609.54789579153,4425902.041282566,39707.4978703704,39707.5218055556,170.80421540453992,2008-09-16,11:56:56,2008-09-16,12:31:24
442637.92978723405,4425856.539361704,39707.54625,39707.5516435185,102.35321196700089,2008-09-16,13:06:36,2008-09-16,13:14:22
442585.96956521744,4425963.439130435,39708.59,39708.592962963,199.41940728060905,2008-09-17,14:09:36,2008-09-17,14:13:52
450427.64627659565,4420763.468085107,39708.9826157407,39708.9895601852,135.82672785593414,2008-09-17,23:34:58,2008-09-17,23:44:58
450483.2000000002,4420727.451612905,39709.0541782407,39709.0581365741,187.1066540770981,2008-09-18,01:18:01,2008-09-18,01:23:43
442609.47557377064,4425893.697704921,39709.4944907407,39709.5244907407,198.9731891488598,2008-09-18,11:52:04,2008-09-18,12:35:16
442670.420379147,4425848.1969194375,39709.5256712963,39709.5477314815,195.9311103427404,2008-09-18,12:36:58,2008-09-18,13:08:44
442622.7121558095,4425891.3400268685,39709.5478472222,39709.6172685185,196.57314160383152,2008-09-18,13:08:54,2008-09-18,14:48:52
442677.16000000003,4426077.46,39709.6172916667,39709.6173842593,17.42871194359939,2008-09-18,14:48:54,2008-09-18,14:49:02
444280.22222222254,4417844.299999998,39710.0293865741,39710.1234259259,197.62454301024303,2008-09-19,00:42:19,2008-09-19,02:57:44
444501.7066037737,4417678.617924525,39710.1234490741,39710.1258796296,176.17338050909896,2008-09-19,02:57:46,2008-09-19,03:01:16
451342.26899224805,4420743.733333333,39710.1518981481,39710.155625,187.80910521058996,2008-09-19,03:38:44,2008-09-19,03:44:06
451309.4452173914,4420656.690652171,39710.3054513889,39710.3264236111,198.3544806652978,2008-09-19,07:19:51,2008-09-19,07:50:03
451306.11560509587,4420658.89745223,39710.3264467593,39710.3438541667,47.37193261868107,2008-09-19,07:50:05,2008-09-19,08:15:09
442625.6964824113,4425875.103768843,39710.4653472222,39710.488125,199.86495440599958,2008-09-19,11:10:06,2008-09-19,11:42:54
442602.94066390017,4425904.048132776,39710.4881481482,39710.9907407407,177.88097143895098,2008-09-19,11:42:56,2008-09-19,23:46:40
451323.7764227643,4420580.09105691,39711.0371180556,39711.3259953704,194.89917906447673,2008-09-20,00:53:27,2008-09-20,07:49:26
442926.6372340427,4425243.355319149,39711.3622453704,39711.3643981481,192.9038361461112,2008-09-20,08:41:38,2008-09-20,08:44:44
442629.70071428607,4425828.414999998,39711.3934027778,39711.3996990741,190.96389711183335,2008-09-20,09:26:30,2008-09-20,09:35:34
451348.91839080484,4420678.950574713,39713.0495138889,39713.0715162037,196.74717278728752,2008-09-22,01:11:18,2008-09-22,01:42:59
451290.9728971964,4420939.507476634,39713.0727430556,39713.0751967593,197.46303451514126,2008-09-22,01:44:45,2008-09-22,01:48:17
444168.6784810128,4417814.653887885,39713.1035185185,39713.1336111111,185.34306029622545,2008-09-22,02:29:04,2008-09-22,03:12:24
444557.99777777784,4417707.598888889,39713.1403009259,39713.1423611111,199.9727231399334,2008-09-22,03:22:02,2008-09-22,03:25:00
451342.94137931033,4420775.4431034485,39713.1681944444,39713.1695138889,156.1542826820081,2008-09-22,04:02:12,2008-09-22,04:04:06
442613.8301912564,4425887.194535524,39713.462962963,39713.5069907407,124.87373623000816,2008-09-22,11:06:40,2008-09-22,12:10:04
443196.645,4425236.111999999,39713.9815740741,39713.9838888889,196.33300792285553,2008-09-22,23:33:28,2008-09-22,23:36:48
451335.3304347825,4420795.641304349,39714.0166435185,39714.0176851852,157.5087299166382,2008-09-23,00:23:58,2008-09-23,00:25:28
451344.54210526304,4420709.761403508,39714.3278935185,39714.3312268518,52.688139082897024,2008-09-23,07:52:10,2008-09-23,07:56:58
442617.0092175073,4425886.008687001,39714.5131597222,39714.5691782407,71.5251703948973,2008-09-23,12:18:57,2008-09-23,13:39:37
451340.12765957456,4420760.231205671,39715.0197800926,39715.0239699074,193.07226626392224,2008-09-24,00:28:29,2008-09-24,00:34:31
442619.8633734941,4425877.166265061,39715.4746180556,39715.5064930556,169.16039725582746,2008-09-24,11:23:27,2008-09-24,12:09:21
442623.89223057684,4425878.658771929,39715.5072106481,39715.5292708333,150.44670152604908,2008-09-24,12:10:23,2008-09-24,12:42:09
442615.03390243906,4425896.876829269,39715.5293865741,39715.5487384259,180.31466939750848,2008-09-24,12:42:19,2008-09-24,13:10:11
451314.2352631577,4420671.110000002,39716.0536226852,39716.0757291667,46.683294656634864,2008-09-25,01:17:13,2008-09-25,01:49:03
312509.40336257307,3791501.090204679,39716.9736111111,39717.0077546296,66.99402958464239,2008-09-25,23:22:00,2008-09-26,00:11:10
312589.3917808219,3791458.3808219163,39717.0096527778,39717.0113194444,164.26506019238195,2008-09-26,00:13:54,2008-09-26,00:16:18
305266.72456140345,3789396.9000000004,39717.3211805556,39717.3223611111,184.16622926038391,2008-09-26,07:42:30,2008-09-26,07:44:12
308920.7147814912,3791160.179048842,39717.3680439815,39717.4029050926,80.70006195784487,2008-09-26,08:49:59,2008-09-26,09:40:11
312532.9862068967,3791474.640305257,39717.4459027778,39717.520625,32.32893440866534,2008-09-26,10:42:06,2008-09-26,12:29:42
307691.8089285715,3789328.783928572,39718.2309259259,39718.2348148148,182.10604053706993,2008-09-27,05:32:32,2008-09-27,05:38:08
312473.1973684211,3791459.727192982,39718.4084490741,39718.4110648148,157.2669704674283,2008-09-27,09:48:10,2008-09-27,09:51:56
308987.82250996033,3791307.8420318775,39719.03625,39719.0655324074,113.33004897216479,2008-09-28,00:52:12,2008-09-28,01:34:22
308922.155353319,3791159.319700212,39719.0671527778,39719.1218981481,198.15357680344763,2008-09-28,01:36:42,2008-09-28,02:55:32
308756.35000000003,3791557.8169014086,39719.1581481481,39719.161412037,195.75597053475713,2008-09-28,03:47:44,2008-09-28,03:52:26
310561.8036697249,3790559.4486238523,39719.2327893519,39719.2649189815,197.69828021507408,2008-09-28,05:35:13,2008-09-28,06:21:29
312548.19226519344,3791513.2055248623,39719.3269328704,39719.331099537,61.910903724587016,2008-09-28,07:50:47,2008-09-28,07:56:47
308699.47191780823,3786608.192465751,39721.1471180556,39721.1537152778,199.3204956847357,2008-09-30,03:31:51,2008-09-30,03:41:21
308700.85292841657,3786850.3852494555,39721.2405092593,39721.2616435185,198.8006539227428,2008-09-30,05:46:20,2008-09-30,06:16:46
308763.4805626598,3787739.115601022,39721.2675694444,39721.2818518518,198.66217556435868,2008-09-30,06:25:18,2008-09-30,06:45:52
308635.7484126985,3791306.8047619057,39721.3160416667,39721.3189351852,145.45439147737025,2008-09-30,07:35:06,2008-09-30,07:39:16
312499.92999999993,3791463.875,39721.408912037,39721.4098148148,191.47065049253254,2008-09-30,09:48:50,2008-09-30,09:50:08
451338.4516666667,4420621.733333333,39728.0386805556,39728.0400694444,178.18428662469447,2008-10-07,00:55:42,2008-10-07,00:57:42
442603.7629032258,4425855.206774188,39728.4064814815,39728.4167361111,117.42376250145722,2008-10-07,09:45:20,2008-10-07,10:00:06
442543.36363636353,4425898.990909091,39729.3091435185,39729.9871990741,197.87152397470757,2008-10-08,07:25:10,2008-10-08,23:41:34
451342.6241379309,4420620.709195401,39730.0360185185,39730.0380092593,194.92780714990016,2008-10-09,00:51:52,2008-10-09,00:54:44
442892.62886178837,4425241.621951221,39730.4306018518,39730.4584375,196.06634081350168,2008-10-09,10:20:04,2008-10-09,11:00:09
442519.5917431192,4425217.7889908245,39730.4592013889,39730.4630439815,188.87109360612595,2008-10-09,11:01:15,2008-10-09,11:06:47
442965.91035714303,4425142.332142856,39730.5064467593,39730.5334143518,195.9874485777249,2008-10-09,12:09:17,2008-10-09,12:48:07
442625.14000000054,4425854.583448275,39730.5404050926,39730.5487615741,196.95484254010344,2008-10-09,12:58:11,2008-10-09,13:10:13
451333.0623853211,4420604.284403669,39731.0433333333,39731.0458333333,197.059381912629,2008-10-10,01:02:24,2008-10-10,01:06:00
442884.08058252424,4425389.361165045,39731.4368171296,39731.4537615741,75.49304603792206,2008-10-10,10:29:01,2008-10-10,10:53:25
451351.93620689685,4420570.922413793,39732.0294444444,39732.253125,188.52111287595358,2008-10-11,00:42:24,2008-10-11,06:04:30
453551.62432432425,4421669.764864864,39732.2754282407,39732.2771180556,141.3331171378495,2008-10-11,06:36:37,2008-10-11,06:39:03
451302.66739130416,4420760.565217392,39734.0183912037,39734.0194328704,196.1869516555816,2008-10-13,00:26:29,2008-10-13,00:27:59
450429.5500000001,4420760.13137255,39734.1426273148,39734.1799421296,199.47694102304806,2008-10-13,03:25:23,2008-10-13,04:19:07
451307.97445414827,4420679.948908301,39734.188275463,39734.2144328704,183.47318605148024,2008-10-13,04:31:07,2008-10-13,05:08:47
451257.6537037037,4420649.333333333,39734.2144560185,39734.2156828704,49.98569795415014,2008-10-13,05:08:49,2008-10-13,05:10:35
453552.80882352946,4414951.567647059,39734.3062731481,39734.3080787037,192.15098230297966,2008-10-13,07:21:02,2008-10-13,07:23:38
442609.12888086675,4425861.045126358,39734.3493055556,39734.3731944444,41.307263283845565,2008-10-13,08:23:00,2008-10-13,08:57:24
442607.7573170731,4425845.424390244,39734.3860185185,39734.3878935185,159.3409238082278,2008-10-13,09:15:52,2008-10-13,09:18:34
451302.20024509664,4420667.602380955,39735.0304398148,39735.1828472222,30.36609951953997,2008-10-14,00:43:50,2008-10-14,04:23:18
451296.2432432432,4420662.787837839,39735.1991666667,39735.2008564815,24.292385638654903,2008-10-14,04:46:48,2008-10-14,04:49:14
443026.16753246734,4425266.76883117,39735.4695717593,39735.4713773148,192.76721712981086,2008-10-14,11:16:11,2008-10-14,11:18:47
451303.7436893201,4420573.304854371,39736.0225578704,39736.0249189815,189.26769402056465,2008-10-15,00:32:29,2008-10-15,00:35:53
442588.6015384615,4425924.9815384615,39736.4913657407,39736.4968981481,146.9412127343641,2008-10-15,11:47:34,2008-10-15,11:55:32
451328.3320754717,4420600.531132076,39737.0364351852,39737.0388657407,197.29825138571422,2008-10-16,00:52:28,2008-10-16,00:55:58
437459.8462686568,4417510.991044777,39737.1084953704,39737.1100231481,193.4323654409238,2008-10-16,02:36:14,2008-10-16,02:38:26
451346.03411764716,4420788.329411764,39737.1530324074,39737.1549768519,198.82778980817247,2008-10-16,03:40:22,2008-10-16,03:43:10
442600.4140776699,4425901.736407772,39737.4865625,39737.5285763889,190.29582233985064,2008-10-16,11:40:39,2008-10-16,12:41:09
442602.50338983064,4425872.964406779,39737.5483912037,39737.5497337963,24.871871662573092,2008-10-16,13:09:41,2008-10-16,13:11:37
451327.7826530612,4420620.5948979575,39738.0227893519,39738.0250347222,198.89477117381622,2008-10-17,00:32:49,2008-10-17,00:36:03
442615.5403846158,4425851.380494509,39738.6103356481,39738.6260300926,134.4290519190447,2008-10-17,14:38:53,2008-10-17,15:01:29
451321.23663366336,4420621.380198022,39739.0269097222,39739.0301736111,71.80006963784923,2008-10-18,00:38:45,2008-10-18,00:43:27
449335.3891891892,4417731.162162162,39739.6049537037,39739.6074421296,107.56993074277248,2008-10-18,14:31:08,2008-10-18,14:34:43
442585.78,4425846.996,39739.6478356481,39739.6504398148,175.29500848568347,2008-10-18,15:32:53,2008-10-18,15:36:38
442589.4000000001,4425859.739583335,39740.1647453704,39740.1674652778,107.26886780422781,2008-10-19,03:57:14,2008-10-19,04:01:09
442754.4597402596,4425228.32857143,39740.2983449074,39740.319537037,185.84337491565853,2008-10-19,07:09:37,2008-10-19,07:40:08
443095.95374999987,4425173.579999999,39740.3946064815,39740.4002777778,198.76543965189302,2008-10-19,09:28:14,2008-10-19,09:36:24
442619.39539347397,4425892.527063341,39740.4663657407,39740.5253356481,32.825752085637745,2008-10-19,11:11:34,2008-10-19,12:36:29
444283.3666666665,4421258.124999999,39740.9969791667,39741.0009722222,87.7601845941196,2008-10-19,23:55:39,2008-10-20,00:01:24
451309.3936507935,4420665.074999999,39741.0250462963,39741.0458217593,78.72515481073603,2008-10-20,00:36:04,2008-10-20,01:05:59
442638.99846153846,4425886.221538461,39741.5218981481,39741.5313310185,160.784731862383,2008-10-20,12:31:32,2008-10-20,12:45:07
444151.31666666665,4417685.2,39742.0363888889,39742.0366782407,114.30004374506494,2008-10-21,00:52:24,2008-10-21,00:52:49
444559.19750000007,4417688.674999999,39742.0964467593,39742.0985185185,196.69461100960402,2008-10-21,02:18:53,2008-10-21,02:21:52
451334.807070707,4420713.052525252,39742.123599537,39742.130150463,191.392580838069,2008-10-21,02:57:59,2008-10-21,03:07:25
442568.04851485137,4425951.0762376245,39742.5716550926,39742.981412037,186.04155449791617,2008-10-21,13:43:11,2008-10-21,23:33:14
451322.0464285714,4420646.174999998,39743.0321064815,39743.0357523148,161.22189677602253,2008-10-22,00:46:14,2008-10-22,00:51:29
442618.25000000006,4425864.620000001,39743.5220717593,39743.5253703704,94.14802175267278,2008-10-22,12:31:47,2008-10-22,12:36:32
450450.54999999993,4420750.773913044,39744.0074537037,39744.0607523148,133.69401632085172,2008-10-23,00:10:44,2008-10-23,01:27:29
451311.8714285717,4420700.248660714,39744.06625,39744.0794444444,185.40895339687302,2008-10-23,01:35:24,2008-10-23,01:54:24
442608.15948717913,4425898.523076924,39744.5894097222,39744.6101273148,184.4076462615988,2008-10-23,14:08:45,2008-10-23,14:38:35
442605.3421052634,4425856.576315789,39744.610474537,39744.6186921296,39.71208883936139,2008-10-23,14:39:05,2008-10-23,14:50:55
442619.6125,4426015.025,39744.644212963,39744.6446180556,89.49262539458023,2008-10-23,15:27:40,2008-10-23,15:28:15
451282.37472527474,4420661.678021979,39745.0316435185,39745.0455902778,152.03673898072796,2008-10-24,00:45:34,2008-10-24,01:05:39
442623.63026775245,4425866.267636785,39745.559224537,39745.622037037,165.76347607375024,2008-10-24,13:25:17,2008-10-24,14:55:44
442611.44461538456,4425914.358461538,39745.6430439815,39745.6481365741,70.84948835401794,2008-10-24,15:25:59,2008-10-24,15:33:19
451339.28947368433,4420593.139473684,39746.0406828704,39746.0428240741,194.73327912862737,2008-10-25,00:58:35,2008-10-25,01:01:40
442861.0004385964,4425178.488596492,39746.4610416667,39746.5885416667,199.2800040149631,2008-10-25,11:03:54,2008-10-25,14:07:30
442624.37513227464,4425861.697883594,39746.5920138889,39746.6112268518,171.81292151622014,2008-10-25,14:12:30,2008-10-25,14:40:10
442618.635371179,4425882.38165939,39746.6133680556,39746.6495949074,74.966459166653,2008-10-25,14:43:15,2008-10-25,15:35:25
442553.70571428555,4425962.891428572,39747.2587847222,39747.2622569444,199.41940728058415,2008-10-26,06:12:39,2008-10-26,06:17:39
442803.3459459459,4425316.913513515,39747.3565393519,39747.3858217593,159.54074714616038,2008-10-26,08:33:25,2008-10-26,09:15:35
442952.8375,4425150.9359375,39747.3899884259,39747.4283564815,197.04083333160867,2008-10-26,09:21:35,2008-10-26,10:16:50
442644.32672811055,4425874.982488479,39747.4359375,39747.4583912037,176.50283283845616,2008-10-26,10:27:45,2008-10-26,11:00:05
442619.78039215686,4425879.817647059,39747.4618634259,39747.4652777778,69.39870315772673,2008-10-26,11:05:05,2008-10-26,11:10:00
451824.2578947369,4422343.357894736,39748.407349537,39748.4083796296,185.57340865487797,2008-10-27,09:46:35,2008-10-27,09:48:04
442635.5299401196,4425890.964670659,39748.451400463,39748.4761689815,12.554282138332967,2008-10-27,10:50:01,2008-10-27,11:25:41
451346.10833333334,4420625.294444444,39749.0305439815,39749.0325694444,196.0848795800741,2008-10-28,00:43:59,2008-10-28,00:46:54
442621.6570512824,4425876.9698717985,39749.564212963,39749.5779861111,126.77105347830536,2008-10-28,13:32:28,2008-10-28,13:52:18
451316.90571428573,4420669.72857143,39750.0324074074,39750.0445023148,121.56315231214762,2008-10-29,00:46:40,2008-10-29,01:04:05
442610.1809917352,4425896.346694212,39750.531400463,39750.9773611111,198.19215423414846,2008-10-29,12:45:13,2008-10-29,23:27:24
451299.26468085096,4420670.931489363,39751.0229282407,39751.04625,149.9640290197499,2008-10-30,00:33:01,2008-10-30,01:06:36
444417.7079999999,4422517.849333335,39751.1018634259,39751.1484953704,197.77006851354673,2008-10-30,02:26:41,2008-10-30,03:33:50
451418.9564516129,4420695.430645163,39751.1670138889,39751.4741898148,64.10117003615802,2008-10-30,04:00:30,2008-10-30,11:22:50
442624.79083333345,4425866.921666667,39751.5172685185,39751.5306944444,117.38091838094925,2008-10-30,12:24:52,2008-10-30,12:44:12
451342.75,4420686.88,39752.0338078704,39752.0384375,106.30301030537468,2008-10-31,00:48:41,2008-10-31,00:55:21
451438.14545454533,4420760.321818182,39752.1751736111,39752.1788194444,196.31854217075767,2008-10-31,04:12:15,2008-10-31,04:17:30
442638.32812499994,4425798.589062501,39752.4338773148,39752.440474537,196.73324579183398,2008-10-31,10:24:47,2008-10-31,10:34:17
442947.76800000004,4425253.734,39752.5670601852,39752.6297337963,167.95630384097967,2008-10-31,13:36:34,2008-10-31,15:06:49
442621.2400000001,4425903.419999999,39752.634537037,39753.0050810185,186.38481697753053,2008-10-31,15:13:44,2008-11-01,00:07:19
451368.8464285713,4420717.094642857,39753.0493518518,39753.2892939815,124.40052250693174,2008-11-01,01:11:04,2008-11-01,06:56:35
442888.4720930233,4425543.527906977,39753.4591666667,39753.4615393518,191.80805509637756,2008-11-01,11:01:12,2008-11-01,11:04:37
443822.26428571425,4424250.228571429,39753.5066319444,39753.5073842593,191.56032992247293,2008-11-01,12:09:33,2008-11-01,12:10:38
442862.8773913042,4425458.62173913,39754.1082060185,39754.1145138889,185.6648862875157,2008-11-02,02:35:49,2008-11-02,02:44:54
436952.7870967742,4424516.4451612905,39754.2053703704,39754.2131828704,194.26180787794644,2008-11-02,04:55:44,2008-11-02,05:06:59
435981.7570469797,4424970.638926174,39754.2442939815,39754.2653587963,198.69989934575088,2008-11-02,05:51:47,2008-11-02,06:22:07
432313.12978723407,4427028.088563831,39754.2799768519,39754.302662037,198.5231724508343,2008-11-02,06:43:10,2008-11-02,07:15:50
448922.5496932514,4433710.266871165,39754.4102083333,39754.4243287037,184.12501188056643,2008-11-02,09:50:42,2008-11-02,10:11:02
442632.10249999986,4425803.574999999,39754.55875,39754.5610069444,198.6924507876396,2008-11-02,13:24:36,2008-11-02,13:27:51
451359.3000000001,4420660.999999999,39755.0314351852,39755.0329976852,187.3242376199113,2008-11-03,00:45:16,2008-11-03,00:47:31
451341.2348314605,4420823.622471911,39755.1827893518,39755.4156018518,190.72377932497344,2008-11-03,04:23:13,2008-11-03,09:58:28
451419.23333333334,4421080.55,39755.4156597222,39755.4159490741,37.72002120880826,2008-11-03,09:58:33,2008-11-03,09:58:58
443050.8004255322,4425177.830638298,39755.4660416667,39755.517662037,194.87331782466225,2008-11-03,11:11:06,2008-11-03,12:25:26
442620.1021024965,4425863.8130092,39755.5320138889,39755.5920833333,116.1251480086247,2008-11-03,12:46:06,2008-11-03,14:12:36
442565.13184079586,4425895.862686567,39755.5948611111,39755.9890162037,197.28279195178763,2008-11-03,14:16:36,2008-11-03,23:44:11
451307.24696531746,4420657.597543352,39756.0350810185,39756.0921412037,16.012495121147516,2008-11-04,00:50:31,2008-11-04,02:12:41
451327.6763975156,4420637.360869564,39756.0933564815,39756.1110648148,183.66169987188087,2008-11-04,02:14:26,2008-11-04,02:39:56
443332.36626506015,4425232.595180723,39756.436724537,39756.4411805556,191.15504178545748,2008-11-04,10:28:53,2008-11-04,10:35:18
442624.9752442997,4425886.34006515,39756.4759027778,39756.5209259259,117.8923237541739,2008-11-04,11:25:18,2008-11-04,12:30:08
442593.4656250001,4425855.239062501,39756.5831944444,39756.5869560185,190.7635447353802,2008-11-04,13:59:48,2008-11-04,14:05:13
451351.0526315789,4420785.531578946,39757.0247453704,39757.0268287037,190.9906018630072,2008-11-05,00:35:38,2008-11-05,00:38:38
451274.2578616353,4420638.950314464,39757.2027430556,39757.2245023148,188.98280345039146,2008-11-05,04:51:57,2008-11-05,05:23:17
451450.44423076935,4420738.688461537,39757.2314467593,39757.2343981481,184.39484808391785,2008-11-05,05:33:17,2008-11-05,05:37:32
442578.91627906973,4425942.302325579,39757.4241666667,39757.9938194444,66.90440942157447,2008-11-05,10:10:48,2008-11-05,23:51:06
451315.4024793391,4420655.028099172,39758.0412268518,39758.0787268518,172.97918949996532,2008-11-06,00:59:22,2008-11-06,01:53:22
451307.24247787625,4420669.737168139,39758.1067824074,39758.1341087963,193.6048811366273,2008-11-06,02:33:46,2008-11-06,03:13:07
451393.0138888888,4420805.466666665,39758.1381018519,39758.1401273148,196.98918752071876,2008-11-06,03:18:52,2008-11-06,03:21:47
473760.76470588235,4376507.1669934625,39758.4051736111,39758.4364814815,192.6547689521061,2008-11-06,09:43:27,2008-11-06,10:28:32
473801.2572802202,4376510.671703293,39758.436712963,39758.5167476852,46.14108797972842,2008-11-06,10:28:52,2008-11-06,12:24:07
473752.537649063,4376535.471124359,39758.519525463,39758.619525463,70.99753516813486,2008-11-06,12:28:07,2008-11-06,14:52:07
473754.0396570202,4376449.038049307,39758.6293634259,39758.7017013889,193.46506144502263,2008-11-06,15:06:17,2008-11-06,16:50:27
473697.5,4376190.011111111,39758.7225347222,39758.7229976852,130.73591702287158,2008-11-06,17:20:27,2008-11-06,17:21:07
462776.3909677418,4373008.629677421,39760.1996180556,39760.2284375,178.8775279345676,2008-11-08,04:47:27,2008-11-08,05:28:57
456929.4120253166,4373600.815822787,39760.370625,39760.385150463,198.05176091131378,2008-11-08,08:53:42,2008-11-08,09:14:37
473754.7538432549,4376505.603428795,39760.4190046296,39760.666400463,179.8765131972607,2008-11-08,10:03:22,2008-11-08,15:59:37
473746.2795312496,4376539.533437495,39760.6709722222,39760.7100347222,196.49582692770275,2008-11-08,16:06:12,2008-11-08,17:02:27
473717.0,4376292.8,39760.7100925926,39760.7100925926,0.0,2008-11-08,17:02:32,2008-11-08,17:02:32
443405.9750000001,4425225.487500001,39778.5086805556,39778.5335648148,157.00458592028593,2008-11-26,12:12:30,2008-11-26,12:48:20
442601.81612903223,4425882.869892472,39778.5353009259,39778.5405671296,154.6382229590809,2008-11-26,12:50:50,2008-11-26,12:58:25
451311.86692307703,4420672.0307692345,39779.0134143519,39779.0212847222,129.34419198347325,2008-11-27,00:19:19,2008-11-27,00:30:39
444563.4632653062,4417713.144897958,39779.3581365741,39779.3607986111,197.74336904179773,2008-11-27,08:35:43,2008-11-27,08:39:33
451311.9075471699,4420677.698113209,39779.3852777778,39779.3881712963,189.53482529585122,2008-11-27,09:14:48,2008-11-27,09:18:58
442638.86315789475,4425804.20526316,39779.4692361111,39779.4713773148,199.90570277008402,2008-11-27,11:15:42,2008-11-27,11:18:47
442608.3491404391,4425881.759746105,39779.4911689815,39779.8363657407,24.86543786076419,2008-11-27,11:47:17,2008-11-27,20:04:22
442623.0553477497,4425877.241671536,39779.8395486111,39779.9850925926,174.9208964078454,2008-11-27,20:08:57,2008-11-27,23:38:32
451364.4935483872,4420671.819354838,39780.0100347222,39780.0115972222,195.3057602838865,2008-11-28,00:14:27,2008-11-28,00:16:42
444528.82830188674,4417702.866037736,39780.3019560185,39780.3047916667,193.24815652438448,2008-11-28,07:14:49,2008-11-28,07:18:54
451338.11348314607,4420714.671910113,39780.329849537,39780.3541319444,129.91212414549292,2008-11-28,07:54:59,2008-11-28,08:29:57
442632.4589519649,4425819.39563319,39780.6184606481,39780.6373611111,22.118318200051064,2008-11-28,14:50:35,2008-11-28,15:17:48
446902.2671232876,4424321.74109589,39781.4403240741,39781.5220949074,189.05441015751487,2008-11-29,10:34:04,2008-11-29,12:31:49
449476.8714003946,4425990.096844184,39781.5391087963,39781.5981828704,193.9452500063366,2008-11-29,12:56:19,2008-11-29,14:21:23
442636.45263157884,4425792.578947368,39781.6533912037,39781.6554166667,193.0126679780344,2008-11-29,15:40:53,2008-11-29,15:43:48
442908.7148514851,4425303.27029703,39782.5367708333,39782.6274537037,198.108884203243,2008-11-30,12:52:57,2008-11-30,15:03:32
442596.83241106727,4425891.4256917015,39782.6359027778,39782.662349537,51.804729513810365,2008-11-30,15:15:42,2008-11-30,15:53:47
442610.9696498054,4425885.068482487,39783.7074189815,39783.7353125,135.41617333243664,2008-12-01,16:58:41,2008-12-01,17:38:51
442612.6991786446,4425886.70020534,39783.7365856481,39783.774375,193.77628853906356,2008-12-01,17:40:41,2008-12-01,18:35:06
442596.7893732973,4425898.373297003,39783.7785416667,39783.8046990741,53.48439024612965,2008-12-01,18:41:06,2008-12-01,19:18:46
442652.5338383836,4425903.681313136,39783.8300462963,39783.8501273148,72.86789416477168,2008-12-01,19:55:16,2008-12-01,20:24:11
444559.77142857155,4417693.354285715,39784.0727777778,39784.0746875,179.76990849452343,2008-12-02,01:44:48,2008-12-02,01:47:33
451313.86315789475,4420628.813157895,39784.1120138889,39784.1251388889,160.70448033505653,2008-12-02,02:41:18,2008-12-02,03:00:12
451348.71333333344,4420677.876666666,39785.031087963,39785.0343865741,193.52811165288088,2008-12-03,00:44:46,2008-12-03,00:49:31
444555.48888888885,4417686.744444447,39785.0684143519,39785.0702662037,194.00000000018338,2008-12-03,01:38:31,2008-12-03,01:41:11
451321.668212365,4420662.5262768855,39785.0932407407,39785.2084027778,70.601982974986,2008-12-03,02:14:16,2008-12-03,05:00:06
451424.9020833335,4420592.05,39785.2162152778,39785.2189930556,138.1495566403294,2008-12-03,05:11:21,2008-12-03,05:15:21
442922.2575,4425289.212499999,39785.547349537,39785.5497222222,112.1655918722568,2008-12-03,13:08:11,2008-12-03,13:11:36
442801.01639344264,4426062.939344262,39785.640162037,39785.6446180556,113.98618337349006,2008-12-03,15:21:50,2008-12-03,15:28:15
444234.13928571425,4417662.007142857,39786.0710069444,39786.0726273148,15.63105882516324,2008-12-04,01:42:15,2008-12-04,01:44:35
444542.76944444445,4417703.166666666,39786.1235532407,39786.1255208333,194.19693612377137,2008-12-04,02:57:55,2008-12-04,03:00:45
451291.6714007782,4421053.477042806,39786.1478587963,39786.1935763889,109.17618788010557,2008-12-04,03:32:55,2008-12-04,04:38:45
451287.11333333346,4420431.306666667,39786.2271412037,39786.2280092593,151.24496685854677,2008-12-04,05:27:05,2008-12-04,05:28:20
451375.9339285712,4421079.509999999,39786.4610416667,39786.4814699074,171.53498185501405,2008-12-04,11:03:54,2008-12-04,11:33:19
442563.13846153853,4425944.584615383,39786.5477893518,39786.9811689815,177.49332381736556,2008-12-04,13:08:49,2008-12-04,23:32:53
451299.175541796,4420669.006965945,39787.0463888889,39787.0993981481,195.77992746951202,2008-12-05,01:06:48,2008-12-05,02:23:08
451308.3009463721,4420667.453943217,39787.0996296296,39787.1270023148,198.8431542700712,2008-12-05,02:23:28,2008-12-05,03:02:53
451338.6608863197,4420667.435452798,39787.1270601852,39787.252349537,134.37715579691312,2008-12-05,03:02:58,2008-12-05,06:03:23
451322.55938716035,4420665.215710117,39787.2526967593,39787.4607986111,31.13149530587453,2008-12-05,06:03:53,2008-12-05,11:03:33
451316.7120350107,4420675.376367616,39788.0229513889,39788.0503819444,181.383709301731,2008-12-06,00:33:03,2008-12-06,01:12:33
451254.70238095213,4420660.1839285735,39788.0511921296,39788.0684953704,97.7605237301982,2008-12-06,01:13:43,2008-12-06,01:38:38
463332.86386138585,4417609.619801983,39788.2540509259,39788.2816550926,196.20889378430206,2008-12-06,06:05:50,2008-12-06,06:45:35
463443.7886792452,4417627.575471698,39788.281712963,39788.3060185185,198.72845795205075,2008-12-06,06:45:40,2008-12-06,07:20:40
456070.575,4417566.575,39788.3222800926,39788.3224537037,134.05017717272366,2008-12-06,07:44:05,2008-12-06,07:44:20
451329.0214030908,4420668.543995242,39789.0926851852,39789.1667013889,38.30326356927137,2008-12-07,02:13:28,2008-12-07,04:00:03
445057.45,4425200.56875,39789.1968865741,39789.1985648148,157.80811132509993,2008-12-07,04:43:31,2008-12-07,04:45:56
451833.7,4421165.3,39790.0406134259,39790.0406134259,0.0,2008-12-08,00:58:29,2008-12-08,00:58:29
442537.5545454546,4425994.781818182,39790.6355439815,39790.6363541667,114.4505133234514,2008-12-08,15:15:11,2008-12-08,15:16:21
451293.69862258993,4420654.343526169,39791.0344444444,39791.0706134259,194.8748316227611,2008-12-09,00:49:36,2008-12-09,01:41:41
451328.4017857143,4420673.288214286,39791.070787037,39791.1490277778,147.68456249707,2008-12-09,01:41:56,2008-12-09,03:34:36
451409.3583333332,4420471.658333333,39791.1533680556,39791.1541203704,80.6132743415114,2008-12-09,03:40:51,2008-12-09,03:41:56
442625.2822085893,4425863.385276073,39791.5764930556,39791.6071064815,186.39753217250305,2008-12-09,13:50:09,2008-12-09,14:34:14
442543.9258064516,4426031.4451612905,39791.6295601852,39792.0241782407,176.07293943117517,2008-12-09,15:06:34,2008-12-10,00:34:49
437472.741025641,4417514.776923078,39792.0617592593,39792.0637847222,166.7009298120021,2008-12-10,01:28:56,2008-12-10,01:31:51
451325.36222222226,4421000.113333332,39792.102650463,39792.1050231481,90.97746973803397,2008-12-10,02:27:49,2008-12-10,02:31:14
451381.25714285707,4421063.752380952,39831.0911342593,39832.036724537,71.61005516043154,2009-01-18,02:11:14,2009-01-19,00:52:53
450836.62542372884,4418000.750847457,39907.1450115741,39907.2097916667,197.6369651661787,2009-04-04,03:28:49,2009-04-04,05:02:06
455459.80250000005,4420745.208749999,39907.2358912037,39907.3347222222,184.95891435677842,2009-04-04,05:39:41,2009-04-04,08:02:00
454504.7666666667,4421960.047619048,39907.3402199074,39907.3800578704,182.5335585584196,2009-04-04,08:09:55,2009-04-04,09:07:17
442731.53095238097,4424323.040476191,39907.3933101852,39907.4238657407,178.3149180522836,2009-04-04,09:26:22,2009-04-04,10:10:22
442691.7775,4425787.275,39907.442962963,39907.4452199074,196.38495359931935,2009-04-04,10:37:52,2009-04-04,10:41:07
441502.7748062017,4418155.431395346,39908.2247685185,39908.2467708333,198.6672846744793,2009-04-05,05:23:40,2009-04-05,05:55:21
440904.41214953264,4425509.4,39908.3948032407,39908.4005324074,104.81001860512363,2009-04-05,09:28:31,2009-04-05,09:36:46
443170.7216981132,4425231.509433962,39908.4226967593,39908.4291203704,148.9552953069947,2009-04-05,10:08:41,2009-04-05,10:17:56
451314.2944444445,4421088.533333333,39909.3975694444,39909.3985532407,184.07981964338722,2009-04-06,09:32:30,2009-04-06,09:33:55
443146.8971428571,4425104.451428572,39910.4903240741,39910.492349537,27.36457564130237,2009-04-07,11:46:04,2009-04-07,11:48:59
451274.74285714293,4421012.677142856,39911.5051273148,39911.5069791667,184.86622190076315,2009-04-08,12:07:23,2009-04-08,12:10:03
442870.4421052632,4425251.605263158,39912.0414583333,39912.0425,107.69257170304435,2009-04-09,00:59:42,2009-04-09,01:01:12
451284.9375,4420975.0,39913.519837963,39913.5211689815,123.71164051975333,2009-04-10,12:28:34,2009-04-10,12:30:29
415329.85042735015,4489175.668091168,39914.250162037,39914.2831481481,199.650219133184,2009-04-11,06:00:14,2009-04-11,06:47:44
415290.6733146066,4489196.951966287,39914.2832060185,39914.3051388889,52.60769905669007,2009-04-11,06:47:49,2009-04-11,07:19:24
440587.4046153846,4425476.716923076,39914.4476736111,39914.4509143519,123.39732574075269,2009-04-11,10:44:39,2009-04-11,10:49:19
442873.9166666667,4425247.694444444,39916.9211226852,39917.4441898148,175.1073956177727,2009-04-13,22:06:25,2009-04-14,10:39:38
451377.075,4420698.215000001,39917.4607986111,39917.4644560185,197.25339033811332,2009-04-14,11:03:33,2009-04-14,11:08:49
451465.3826923078,4420694.686538463,39918.4969097222,39918.4996296296,199.95209426264572,2009-04-15,11:55:33,2009-04-15,11:59:28
435684.14444444445,4417612.977777777,39920.436875,39920.4628587963,195.99183656479698,2009-04-17,10:29:06,2009-04-17,11:06:31
441575.67303370783,4425218.4033707855,39920.5008796296,39920.5443981481,189.7797144059295,2009-04-17,12:01:16,2009-04-17,13:03:56
435682.0909090909,4417566.036363637,39920.5632060185,39920.5637847222,192.22395792392413,2009-04-17,13:31:01,2009-04-17,13:31:51
451409.30000000005,4420741.854929578,39920.6313194444,39920.9159490741,198.21362213531194,2009-04-17,15:09:06,2009-04-17,21:58:58
435670.9727272727,4417556.481818182,39920.9419328704,39921.0257638889,199.7488422993821,2009-04-17,22:36:23,2009-04-18,00:37:06
416211.97500000015,4487551.130681818,39921.1946064815,39921.2333101852,187.12180524952615,2009-04-18,04:40:14,2009-04-18,05:35:58
412642.0,4479105.727272727,39921.2474884259,39921.2720833333,199.12119425113943,2009-04-18,05:56:23,2009-04-18,06:31:48
418617.3,4459114.9,39921.3033333333,39921.3033912037,126.8550353749978,2009-04-18,07:16:48,2009-04-18,07:16:53
451576.67567567574,4421061.710810809,39929.6832638889,39930.0004861111,191.72482885634773,2009-04-26,16:23:54,2009-04-27,00:00:42
442871.3105263158,4425235.910526316,39930.0247916667,39930.0258333333,138.02191854920818,2009-04-27,00:35:42,2009-04-27,00:37:12
451453.57777777786,4420703.528888889,39930.4920023148,39930.4944328704,193.71641644412352,2009-04-27,11:48:29,2009-04-27,11:51:59
442851.8105263158,4425257.289473685,39930.9549305556,39931.600162037,172.50437675603467,2009-04-27,22:55:06,2009-04-28,14:24:14
451546.36842105276,4421045.910526317,39931.6201851852,39931.6211111111,177.94957150777654,2009-04-28,14:53:04,2009-04-28,14:54:24
450475.18400000007,4417921.984,39934.1892013889,39934.190474537,191.5818623982963,2009-05-01,04:32:27,2009-05-01,04:34:17
440584.60000000015,4425480.561538462,39934.2840740741,39934.2847685185,81.54569271245498,2009-05-01,06:49:04,2009-05-01,06:50:04
450859.24418604653,4417998.458139534,39934.3871759259,39934.3903472222,123.9956854087457,2009-05-01,09:17:32,2009-05-01,09:22:06
442896.59166666673,4425249.845833332,39934.5204166667,39934.5216898148,147.24163813295914,2009-05-01,12:29:24,2009-05-01,12:31:14
712739.0575,4410480.795,39935.2250925926,39935.2272337963,175.3076438723582,2009-05-02,05:24:08,2009-05-02,05:27:13
712605.8087962965,4409756.893055555,39935.2759027778,39935.3037962963,195.15524589449504,2009-05-02,06:37:18,2009-05-02,07:17:28
706718.9362162161,4413926.01081081,39935.4848611111,39935.4952777778,51.96162045216476,2009-05-02,11:38:12,2009-05-02,11:53:12
451392.10909090895,4420681.200000001,39936.6340625,39936.6357407407,175.75192744333899,2009-05-03,15:13:03,2009-05-03,15:15:28
451394.91724137944,4420694.510344828,39937.4630671296,39937.4645717593,164.86309471800274,2009-05-04,11:06:49,2009-05-04,11:08:59
447741.55333333334,4420402.819999999,39938.5061342593,39938.5997685185,151.44827499842634,2009-05-05,12:08:50,2009-05-05,14:23:40
451547.6413043479,4421018.810869565,39938.6456597222,39938.9487847222,178.90290662814843,2009-05-05,15:29:45,2009-05-05,22:46:15
442859.7206896551,4425258.551724138,39938.9622685185,39939.6629282407,161.86166933525647,2009-05-05,23:05:40,2009-05-06,15:54:37
451537.4625,4421058.639999999,39939.6745023148,39939.6765277778,192.35501033227723,2009-05-06,16:11:17,2009-05-06,16:14:12
442873.994117647,4425254.376470588,39939.9551967593,39939.9561226852,162.16118524464378,2009-05-06,22:55:29,2009-05-06,22:56:49
442897.21527777787,4425224.559722222,39941.0767592593,39942.3980902778,192.72540050552098,2009-05-08,01:50:32,2009-05-09,09:33:15
449500.33125000005,4416812.2,39942.4474537037,39942.4482638889,198.0057827438497,2009-05-09,10:44:20,2009-05-09,10:45:30
449623.9133333333,4422352.663333332,39942.9909606481,39942.9925231481,178.64772598605614,2009-05-09,23:46:59,2009-05-09,23:49:14
445774.7285714285,4421218.666666667,39943.1921180556,39943.1942013889,158.90012586521868,2009-05-10,04:36:39,2009-05-10,04:39:39
378688.6357142856,4388254.621428572,39949.0587152778,39949.223125,187.96622036966997,2009-05-16,01:24:33,2009-05-16,05:21:18
451422.7111111111,4412902.395555557,39949.5522800926,39949.554537037,157.39837991542353,2009-05-16,13:15:17,2009-05-16,13:18:32
451483.1588235293,4420693.9333333345,39949.6052430556,39950.2485300926,199.35902287090104,2009-05-16,14:31:33,2009-05-17,05:57:53
449554.0904761905,4422373.2238095235,39950.2828472222,39950.2840046296,196.20593772868403,2009-05-17,06:47:18,2009-05-17,06:48:58
452963.7632352939,4421086.45147059,39950.3128125,39950.3486921296,197.32503642466367,2009-05-17,07:30:27,2009-05-17,08:22:07
450038.44166666665,4412287.812500001,39950.3638541667,39950.3650115741,184.6197443391755,2009-05-17,08:43:57,2009-05-17,08:45:37
448964.235,4433722.2700000005,39950.5862847222,39950.6356481481,185.4995956867222,2009-05-17,14:04:15,2009-05-17,15:15:20
451547.5800000001,4421063.4799999995,39950.6546875,39950.6557291667,199.23556409435872,2009-05-17,15:42:45,2009-05-17,15:44:15
442900.3309278351,4425256.890721649,39950.9628935185,39951.0333912037,198.46705016210913,2009-05-17,23:06:34,2009-05-18,00:48:05
463679.3074074074,4456966.85925926,39951.0755208333,39951.0769791667,169.0726766811417,2009-05-18,01:48:45,2009-05-18,01:50:51
443068.1714285714,4424303.285714285,39951.4174652778,39951.4178125,198.69745846372027,2009-05-18,10:01:09,2009-05-18,10:01:39
451441.8923076922,4421072.123076922,39951.5584953704,39951.5606365741,173.57894457599923,2009-05-18,13:24:14,2009-05-18,13:27:19
442880.16,4425236.359999999,39952.0305902778,39952.0322685185,158.84964589193407,2009-05-19,00:44:03,2009-05-19,00:46:28
442861.30000000005,4425243.88,39956.0793287037,39957.1562847222,194.1335622709342,2009-05-23,01:54:14,2009-05-24,03:45:03
449542.5362318842,4422334.442028985,39957.1676273148,39957.234537037,176.95437264968658,2009-05-24,04:01:23,2009-05-24,05:37:44
442500.17272727285,4426989.863636363,39957.2521875,39957.3093634259,190.44211719006265,2009-05-24,06:03:09,2009-05-24,07:25:29
442630.58995535754,4425842.341294642,39957.3232523148,39957.3469791667,194.1222552932076,2009-05-24,07:45:29,2009-05-24,08:19:39
451485.5594594594,4420688.27837838,39957.3674652778,39957.3694328704,196.55798126760075,2009-05-24,08:49:09,2009-05-24,08:51:59
449588.54629629635,4422302.483333333,39958.6089814815,39958.6328819444,166.02288998793014,2009-05-25,14:36:56,2009-05-25,15:11:21
451548.3567595457,4421014.89917441,39958.6360069444,39958.7834027778,198.1039373665909,2009-05-25,15:15:51,2009-05-25,18:48:06
451545.25879350275,4421012.519071934,39958.7834606481,39958.9279050926,194.61030291291826,2009-05-25,18:48:11,2009-05-25,22:16:11
442855.6807692308,4425293.096153845,39958.9395949074,39958.9408680556,116.82850679514607,2009-05-25,22:33:01,2009-05-25,22:34:51
446757.95000000007,4415502.075,39962.1421296296,39962.1424768518,180.31597267019245,2009-05-29,03:24:40,2009-05-29,03:25:10
446870.40952380945,4420933.690476191,39962.2375925926,39962.2397337963,188.34744489875627,2009-05-29,05:42:08,2009-05-29,05:45:13
451391.95428571425,4420716.8285714295,39962.6028819444,39964.0568171296,174.38362881950812,2009-05-29,14:28:09,2009-05-31,01:21:49
440599.58571428555,4425500.335714285,39964.0833796296,39964.0856365741,189.3982576474424,2009-05-31,02:00:04,2009-05-31,02:03:19
442871.04500000004,4425252.6450000005,39965.9494791667,39966.4717013889,186.6734314248676,2009-06-01,22:47:15,2009-06-02,11:19:15
451385.0961538461,4420698.453846153,39966.4865740741,39966.4879050926,178.42659555162084,2009-06-02,11:40:40,2009-06-02,11:42:35
449538.0016129032,4422347.540322581,39967.4602777778,39967.5101967593,185.2142813070018,2009-06-03,11:02:48,2009-06-03,12:14:41
451382.31935483875,4420706.780645161,39967.5146527778,39967.5162731481,187.5185324171958,2009-06-03,12:21:06,2009-06-03,12:23:26
451346.88749999995,4420701.8875,39969.5512962963,39969.5525115741,189.80042149555334,2009-06-05,13:13:52,2009-06-05,13:15:37
451387.067647059,4420724.444117647,39969.5873263889,39970.0684490741,181.09933738117252,2009-06-05,14:05:45,2009-06-06,01:38:34
449527.90285714285,4422345.058571429,39970.0730787037,39970.1028587963,169.08001064606188,2009-06-06,01:45:14,2009-06-06,02:28:07
442846.3137931034,4425248.634482758,39970.1221875,39970.4968402778,191.30261367789922,2009-06-06,02:55:57,2009-06-06,11:55:27
451351.54375,4420710.83125,39970.5103240741,39970.5111921296,189.6421103023996,2009-06-06,12:14:52,2009-06-06,12:16:07
451449.11487455165,4420703.110573479,39970.5864236111,39970.7731712963,199.0570772413661,2009-06-06,14:04:27,2009-06-06,18:33:22
451436.8346573979,4420674.804965236,39970.7749074074,39970.8296875,96.81910968385031,2009-06-06,18:35:52,2009-06-06,19:54:45
566067.3287878791,5280274.454545458,39978.0899421296,39978.1395486111,163.7528931041933,2009-06-14,02:09:31,2009-06-14,03:20:57
566786.0624242423,5280193.157575755,39978.1402430556,39978.1642013889,193.9285693239035,2009-06-14,03:21:57,2009-06-14,03:56:27
568240.3315068494,5279250.956164387,39978.1725925926,39978.8386689815,170.7419690641901,2009-06-14,04:08:32,2009-06-14,20:07:41
559489.6536585368,5280586.43902439,39978.8554513889,39978.857650463,157.44033790579041,2009-06-14,20:31:51,2009-06-14,20:35:01
568238.5142857146,5279259.32653061,39978.9548148148,39984.6996180556,159.37744507928213,2009-06-14,22:54:56,2009-06-20,16:47:27
566725.0127450979,5280112.669607844,39984.7261226852,39984.7606134259,191.70127803485116,2009-06-20,17:25:37,2009-06-20,18:15:17
560560.6,5326877.666666667,39984.7896064815,39984.7905902778,160.31300633452085,2009-06-20,18:57:02,2009-06-20,18:58:27
568272.2857142854,5279276.604761905,39985.098900463,39986.6020949074,167.2044556821908,2009-06-21,02:22:25,2009-06-22,14:27:01
551858.4390804598,5278794.58045977,39986.6193981481,39986.74625,173.40602642353056,2009-06-22,14:51:56,2009-06-22,17:54:36
565724.9705882354,5276849.941176471,39986.7635532407,39986.7644212963,165.20075665677564,2009-06-22,18:19:31,2009-06-22,18:20:46
446985.20399999997,4421557.561333332,39997.5393055556,39997.6746990741,199.3005017555036,2009-07-03,12:56:36,2009-07-03,16:11:34
451341.8181818183,4420706.881818182,39997.6809490741,39997.6814699074,147.38371687574266,2009-07-03,16:20:34,2009-07-03,16:21:19
451340.64626865677,4421042.723880599,39998.2328819444,39998.2362384259,156.30866898526133,2009-07-04,05:35:21,2009-07-04,05:40:11
446126.86000000004,4427280.573333333,39999.3538310185,39999.4199189815,177.5387281692287,2009-07-05,08:29:31,2009-07-05,10:04:41
442900.40742857126,4425284.157714287,39999.4295833333,39999.4531944444,176.77216975493693,2009-07-05,10:18:36,2009-07-05,10:52:36
451397.3978260871,4420692.797826089,39999.4758217593,39999.4782523148,165.6021738988923,2009-07-05,11:25:11,2009-07-05,11:28:41
451430.0039473685,4420707.894736842,40005.3724652778,40011.991400463,177.87017737627798,2009-07-11,08:56:21,2009-07-17,23:47:37
416754.3130434781,4435934.421739129,40012.0944675926,40012.1555208333,191.84128856930994,2009-07-18,02:16:02,2009-07-18,03:43:57
417890.3127162631,4435294.158044981,40012.1593981481,40012.2203935185,188.38667681141246,2009-07-18,03:49:32,2009-07-18,05:17:22
415695.8653846153,4433929.788461537,40012.2260648148,40012.2396643519,135.29737617541815,2009-07-18,05:25:32,2009-07-18,05:45:07
451421.35945945955,4420722.512162163,40013.1855324074,40018.5011689815,163.6257009157882,2009-07-19,04:27:10,2009-07-24,12:01:41
442025.4657142857,4425975.051428571,40018.5245486111,40018.526400463,156.96525093153338,2009-07-24,12:35:21,2009-07-24,12:38:01
449575.66052631586,4422335.410526315,40018.9906712963,40019.0447569444,189.14452146452902,2009-07-24,23:46:34,2009-07-25,01:04:27
441296.7655172412,4473006.305747123,40019.1423263889,40019.2793171296,174.29288568381807,2009-07-25,03:24:57,2009-07-25,06:42:13
450474.3545454545,4417939.527272726,40019.3859143518,40019.4094791667,195.25657479345548,2009-07-25,09:15:43,2009-07-25,09:49:39
451461.6047619049,4420690.166666667,40019.4230208333,40019.425162037,194.9351174109233,2009-07-25,10:09:09,2009-07-25,10:12:14
452018.86874999997,4421840.256250001,40021.4429398148,40021.4436921296,172.0451103637489,2009-07-27,10:37:50,2009-07-27,10:38:55
451328.1641891893,4421097.004054053,40021.4847800926,40021.5125578704,185.2182496408018,2009-07-27,11:38:05,2009-07-27,12:18:05
443582.4658536587,4420894.641463414,40021.5697337963,40021.571875,167.86143094777188,2009-07-27,13:40:25,2009-07-27,13:43:30
568604.1,4501112.866666666,40024.0750810185,40024.0751967593,152.1257703347296,2009-07-30,01:48:07,2009-07-30,01:48:17
578863.1742753627,4537833.454166671,40024.2617824074,40024.2986458333,194.20221419946077,2009-07-30,06:16:58,2009-07-30,07:10:03
579765.6476923076,4535036.495384614,40024.3775231481,40024.390775463,139.3526820695514,2009-07-30,09:03:38,2009-07-30,09:22:43
449281.21875,4431123.306249999,40026.0803356481,40026.0819560185,175.88405271655424,2009-08-01,01:55:41,2009-08-01,01:58:01
451460.38048780494,4420702.263414634,40026.2120949074,40026.2141203704,192.84358947069546,2009-08-01,05:05:25,2009-08-01,05:08:20
447341.5120535717,4419197.341517859,40027.1713541667,40027.2171875,196.01890214980142,2009-08-02,04:06:45,2009-08-02,05:12:45
442873.62222222215,4425253.383333333,40027.2342013889,40027.2351851852,153.0911166593168,2009-08-02,05:37:15,2009-08-02,05:38:40
448963.0000000001,4433708.973684211,40032.5931481481,40032.5940740741,177.62108545991052,2009-08-07,14:14:08,2009-08-07,14:15:28
416225.83999999985,4487672.966666669,40033.1858680556,40033.1874305556,193.31063085130725,2009-08-08,04:27:39,2009-08-08,04:29:54
451270.1133333333,4424308.066666667,40033.4393634259,40033.4401736111,175.67361782596234,2009-08-08,10:32:41,2009-08-08,10:33:51
448781.30333333334,4433841.946666667,40033.5541087963,40033.9031018519,195.04896821069633,2009-08-08,13:17:55,2009-08-08,21:40:28
451289.08181818185,4421145.209090908,40033.9260185185,40033.9265393519,183.6964888066483,2009-08-08,22:13:28,2009-08-08,22:14:13
442869.7016666666,4425266.775,40038.0539467593,40041.2020023148,178.24154958935188,2009-08-13,01:17:41,2009-08-16,04:50:53
455239.8333333333,4427182.744444444,40041.228912037,40041.229375,199.20404112373902,2009-08-16,05:29:38,2009-08-16,05:30:18
451419.64769230766,4420687.156923077,40041.4778819444,40044.5294675926,173.879182193067,2009-08-16,11:28:09,2009-08-19,12:42:26
446818.4673076923,4421613.842307692,40044.6109490741,40044.6331944444,190.44295733909087,2009-08-19,14:39:46,2009-08-19,15:11:48
451362.66800000006,4420731.915999999,40044.6439583333,40044.6452893519,160.5538227516235,2009-08-19,15:27:18,2009-08-19,15:29:13
650766.96,3276125.5799999996,40046.1165393519,40046.1167708333,187.6689905128299,2009-08-21,02:47:49,2009-08-21,02:48:09
652619.0583333335,3271632.2020833343,40046.4170949074,40046.4260648148,41.64804917399445,2009-08-21,10:00:37,2009-08-21,10:13:32
449213.4142857143,4435262.285714286,40047.1601736111,40047.1605208333,76.74073233966804,2009-08-22,03:50:39,2009-08-22,03:51:09
451602.03980582504,4423355.113592234,40054.2175115741,40054.2517708333,156.61277087137861,2009-08-29,05:13:13,2009-08-29,06:02:33
442875.5214285715,4425337.2,40054.2925810185,40054.3377314815,160.3118211494019,2009-08-29,07:01:19,2009-08-29,08:06:20
447357.5799999999,4419183.253333334,40054.3618171296,40054.3633912037,103.18468878659948,2009-08-29,08:41:01,2009-08-29,08:43:17
451366.3784313725,4421006.170588236,40054.5051273148,40054.5090046296,137.72334587907153,2009-08-29,12:07:23,2009-08-29,12:12:58
452022.25,4421826.994736843,40055.2192013889,40055.2211921296,189.25897600938606,2009-08-30,05:15:39,2009-08-30,05:18:31
451359.60943396244,4421049.428301886,40055.3593287037,40055.3656365741,141.23547712975648,2009-08-30,08:37:26,2009-08-30,08:46:31
442867.15789473685,4425249.2,40057.9620601852,40057.9631018518,116.04503436171099,2009-09-01,23:05:22,2009-09-01,23:06:52
451429.65714285726,4420716.316666668,40059.4334606482,40059.4929398148,172.4909852718801,2009-09-03,10:24:11,2009-09-03,11:49:50
452939.6750000001,4420752.98,40059.5017592593,40059.5028587963,127.72071092836713,2009-09-03,12:02:32,2009-09-03,12:04:07
451120.2,4421180.5,40059.6232523148,40059.6232523148,0.0,2009-09-03,14:57:29,2009-09-03,14:57:29
442875.94444444444,4425244.11111111,40059.9482523148,40059.9492361111,149.0121136013887,2009-09-03,22:45:29,2009-09-03,22:46:54
451425.7897435899,4420706.556410256,40060.5169791667,40061.2463773148,148.06336481422343,2009-09-04,12:24:27,2009-09-05,05:54:47
449633.76697530836,4422773.9191358015,40061.2623148148,40061.2933333333,199.6479401344732,2009-09-05,06:17:44,2009-09-05,07:02:24
451444.28285714285,4420686.008571428,40061.3230439815,40061.324837963,190.54374825745555,2009-09-05,07:45:11,2009-09-05,07:47:46
447836.09310344834,4420456.651724137,40061.5335185185,40061.5350231482,91.6661878776974,2009-09-05,12:48:16,2009-09-05,12:50:26
451355.0532467533,4420917.296103896,40061.5897337963,40062.0803125,198.85102463889888,2009-09-05,14:09:13,2009-09-06,01:55:39
431110.00723684224,4427113.483552632,40062.1348032407,40062.2591087963,189.85857894756492,2009-09-06,03:14:07,2009-09-06,06:13:07
449565.5363636364,4422336.631818182,40062.3257175926,40062.3605787037,112.21662087266053,2009-09-06,07:49:02,2009-09-06,08:39:14
451398.33802816895,4420716.005633804,40062.3671875,40063.0351157407,174.44087823728438,2009-09-06,08:48:45,2009-09-07,00:50:34
442898.10000000003,4425237.981481481,40063.0549652778,40063.056412037,141.32703209218698,2009-09-07,01:19:09,2009-09-07,01:21:14
442897.36315789464,4425255.889473685,40064.0264814815,40064.0275231482,98.35873118332862,2009-09-08,00:38:08,2009-09-08,00:39:38
451379.7689655171,4420702.313793103,40064.5290393519,40064.5305439815,186.69600959907626,2009-09-08,12:41:49,2009-09-08,12:43:59
450644.01666666666,4432367.65,40067.5349884259,40067.5371875,184.01483635839955,2009-09-11,12:50:23,2009-09-11,12:53:33
