442760.675,4425263.725,39184.5738541667,39184.6007986111,171.4482137556527,2007-04-12,13:46:21,2007-04-12,14:25:09
441115.19999999995,4424414.65,39184.6077546296,39184.6080324074,100.33010515290931,2007-04-12,14:35:10,2007-04-12,14:35:34
441353.75,4424618.15,39187.6306828704,39187.6309953704,100.79216239370324,2007-04-15,15:08:11,2007-04-15,15:08:38
442724.69999999995,4425231.279999999,39188.0383680556,39188.1456944444,131.90125094189503,2007-04-16,00:55:15,2007-04-16,03:29:48
442682.89999999997,4425237.949999999,39188.1654050926,39188.1660648148,183.6296816966286,2007-04-16,03:58:11,2007-04-16,03:59:08
442767.4333333333,4425233.766666667,39188.4213078704,39188.6293634259,45.08713785539156,2007-04-16,10:06:41,2007-04-16,15:06:17
441342.70999999996,4424566.8100000005,39188.6347222222,39189.0292361111,187.956431122056,2007-04-16,15:14:00,2007-04-17,00:42:06
442769.01428571437,4425225.257142858,39189.0356134259,39189.0366898148,154.5790736160507,2007-04-17,00:51:17,2007-04-17,00:52:50
441695.1,4424489.7,39189.166087963,39189.166087963,0.0,2007-04-17,03:59:10,2007-04-17,03:59:10
442825.08181818196,4425339.209090909,39189.4137152778,39189.4155324074,165.1736056399752,2007-04-17,09:55:45,2007-04-17,09:58:22
441341.64444444445,4424614.144444444,39189.6446412037,39190.0746296296,167.15337268474087,2007-04-17,15:28:17,2007-04-18,01:47:28
442784.34285714285,4425233.085714286,39190.0807638889,39190.0817361111,164.26761701556018,2007-04-18,01:56:18,2007-04-18,01:57:42
442690.26875,4425271.074999999,39190.5096412037,39191.4071643518,193.18014908401997,2007-04-18,12:13:53,2007-04-19,09:46:19
442786.4,4425233.45,39191.4274305556,39191.4280208333,129.5038609463054,2007-04-19,10:15:30,2007-04-19,10:16:21
441344.4111111111,4424544.233333332,39191.6437152778,39191.6447800926,145.47920813694208,2007-04-19,15:26:57,2007-04-19,15:28:29
442369.5928571428,4425924.8,39192.175462963,39192.400150463,157.96012155000068,2007-04-20,04:12:40,2007-04-20,09:36:13
442759.35714285716,4425240.957142857,39192.4449537037,39192.6055092593,9.270382947935774,2007-04-20,10:40:44,2007-04-20,14:31:56
441348.5222222222,4424542.144444445,39192.611724537,39192.6129282407,139.75782625688652,2007-04-20,14:40:53,2007-04-20,14:42:37
442817.02,4425245.279999999,39193.1647800926,39193.1658680556,151.1259408573635,2007-04-21,03:57:17,2007-04-21,03:58:51
442698.5777777778,4425241.033333333,39193.4189236111,39193.6558217593,178.00115168169077,2007-04-21,10:03:15,2007-04-21,15:44:23
441337.46428571426,4424627.0,39193.6607407407,39194.0415046296,190.1083112337326,2007-04-21,15:51:28,2007-04-22,00:59:46
442806.75,4425239.8,39194.0475694444,39194.0483680556,150.8398156987133,2007-04-22,01:08:30,2007-04-22,01:09:39
442729.725,4425216.775,39195.0677662037,39246.5653935185,152.52606334659464,2007-04-23,01:37:35,2007-06-13,13:34:10
442122.1933333333,4425170.233333332,39246.5664236111,39247.007037037,184.6910934507699,2007-06-13,13:35:39,2007-06-14,00:10:08
442712.39230769227,4425358.746153846,39247.0084606481,39247.3948148148,198.52156054160466,2007-06-14,00:12:11,2007-06-14,09:28:32
442553.54482758616,4425500.937931034,39247.3959606481,39247.4165046296,176.2675806835758,2007-06-14,09:30:11,2007-06-14,09:59:46
442791.31666666665,4425396.516666667,39247.4168518518,39247.4182175926,107.34602927006229,2007-06-14,10:00:16,2007-06-14,10:02:14
442097.95625,4425183.29375,39247.586712963,39248.0373842593,145.78758520513506,2007-06-14,14:04:52,2007-06-15,00:53:50
442684.53571428574,4425321.314285715,39248.0390509259,39248.1366898148,175.4666065094457,2007-06-15,00:56:14,2007-06-15,03:16:50
442569.9250000001,4425483.128571428,39248.1371296296,39248.1593981481,193.62657358947402,2007-06-15,03:17:28,2007-06-15,03:49:32
442802.57999999996,4425405.58,39248.1595833333,39248.160625,61.191911230000265,2007-06-15,03:49:48,2007-06-15,03:51:18
441815.44999999995,4425150.175000001,39248.5422916667,39248.5440856481,114.24084208406158,2007-06-15,13:00:54,2007-06-15,13:03:29
442763.11,4425247.890000001,39250.1819560185,39250.3963541667,177.54526183443303,2007-06-17,04:22:01,2007-06-17,09:30:45
442793.7,4425240.516666667,39250.4116203704,39250.4125462963,157.87187843314845,2007-06-17,09:52:44,2007-06-17,09:54:04
441951.0833333333,4425142.508333333,39250.6252893518,39250.6273611111,163.22466112695713,2007-06-17,15:00:25,2007-06-17,15:03:24
442738.3933333333,4425237.2266666675,39251.0581365741,39251.5989351852,111.03085156835733,2007-06-18,01:23:43,2007-06-18,14:22:28
442121.22142857144,4425172.8285714295,39251.5999189815,39252.0405902778,104.08616622781709,2007-06-18,14:23:53,2007-06-19,00:58:27
442745.6058823529,4425248.74117647,39252.1505671296,39252.5931365741,111.30247077216113,2007-06-19,03:36:49,2007-06-19,14:14:07
442438.55,4425206.5,39252.5935416667,39252.5936689815,45.13280403421434,2007-06-19,14:14:42,2007-06-19,14:14:53
442698.13999999996,4425408.959999999,39253.0246759259,39253.0252893518,188.25772228522715,2007-06-20,00:35:32,2007-06-20,00:36:25
441364.2047619047,4424489.899999999,39255.5430555556,39255.5478009259,24.719627828550415,2007-06-22,13:02:00,2007-06-22,13:08:50
443059.67000000004,4425223.67,39256.3519328704,39256.353912037,188.6436057756811,2007-06-23,08:26:47,2007-06-23,08:29:38
442005.65263157885,4425150.426315789,39256.6096527778,39257.0434606481,87.0933407328023,2007-06-23,14:37:54,2007-06-24,01:02:35
442790.9117647059,4425217.711764706,39257.0452083333,39257.126087963,175.32073465506613,2007-06-24,01:05:06,2007-06-24,03:01:34
442973.5294117646,4425170.585294118,39257.1262847222,39257.1431944444,64.49751933196305,2007-06-24,03:01:51,2007-06-24,03:26:12
