446100.9666666667,4417721.066666666,39228.4482407407,39228.4508449074,163.6199559955233,2007-05-26,10:45:28,2007-05-26,10:49:13
448741.38000000006,4416588.62,39228.4833217593,39228.5656712963,146.83821028602134,2007-05-26,11:35:59,2007-05-26,13:34:34
440792.22000000003,4426263.0600000005,39228.5866666667,39228.5882291667,62.615652995100255,2007-05-26,14:04:48,2007-05-26,14:07:03
441797.4090909092,4424346.509090909,39230.4201041667,39230.4550115741,189.31278350918728,2007-05-28,10:04:57,2007-05-28,10:55:13
440800.93333333335,4426284.316666666,39230.4691782407,39230.4706944444,113.90561882508014,2007-05-28,11:15:37,2007-05-28,11:17:48
446151.0499999999,4417948.116666666,39231.466087963,39231.4683101852,174.52684607274244,2007-05-29,11:11:10,2007-05-29,11:14:22
443113.30000000005,4421607.688888889,39233.3928703704,39233.5466666667,193.72237867584488,2007-05-31,09:25:44,2007-05-31,13:07:12
442885.48333333334,4426978.9416666655,39233.5664236111,39233.6296875,141.20849832852798,2007-05-31,13:35:39,2007-05-31,15:06:45
442546.25,4426173.2,39233.6444560185,39233.6448263889,105.51383795540164,2007-05-31,15:28:01,2007-05-31,15:28:33
441087.94000000006,4425814.828,39235.0866319444,39235.1786458333,190.27558960578742,2007-06-02,02:04:45,2007-06-02,04:17:15
440885.124,4426321.743999999,39235.2009490741,39235.4054282407,189.19294384291476,2007-06-02,04:49:22,2007-06-02,09:43:49
442744.1846153847,4427009.815384616,39235.4224537037,39235.4284143519,179.38196676372993,2007-06-02,10:08:20,2007-06-02,10:16:55
442894.63125000003,4427007.34375,39235.4498263889,39235.4803356482,127.7141339086925,2007-06-02,10:47:45,2007-06-02,11:31:41
454602.84210526326,4420704.210526316,39235.5027777778,39235.5303587963,148.00121621121892,2007-06-02,12:04:00,2007-06-02,12:43:43
442887.35000000003,4427008.781250001,39237.4524189815,39237.5663541667,74.3452083188318,2007-06-04,10:51:29,2007-06-04,13:35:33
