443504.2428571429,4425115.257142858,39357.3883449074,39361.3209953704,163.5450090956688,2007-10-02,09:19:13,2007-10-06,07:42:14
443544.625,4424940.575,39361.3432407407,39361.3460300926,158.14199315805558,2007-10-06,08:14:16,2007-10-06,08:18:17
443470.025,4425103.025,39361.5316435185,39361.5333217593,162.98889532651538,2007-10-06,12:45:34,2007-10-06,12:47:59
