450413.2,4420737.4,39185.6547916667,39185.6547916667,0.0,2007-04-13,15:42:54,2007-04-13,15:42:54
442924.0,4425352.6899999995,39186.1628125,39186.1646064815,181.4389704554458,2007-04-14,03:54:27,2007-04-14,03:57:02
439395.4555555556,4454043.966666667,39187.2280787037,39187.2764930556,144.1407992205674,2007-04-15,05:28:26,2007-04-15,06:38:09
442926.5,4425328.922222223,39187.377037037,39187.3798263889,177.76754484475407,2007-04-15,09:02:56,2007-04-15,09:06:57
450404.2333333334,4420671.466666667,39187.4600231481,39187.4605324074,85.23526265541183,2007-04-15,11:02:26,2007-04-15,11:03:10
450361.79999999993,4420653.9428571435,39188.6286458333,39188.6344560185,133.5099247248739,2007-04-16,15:05:15,2007-04-16,15:13:37
449768.65,4424499.75,39189.0932060185,39189.0936574074,197.4155515656394,2007-04-17,02:14:13,2007-04-17,02:14:52
450387.8333333333,4420703.666666667,39189.6207407407,39189.6209722222,124.00491925763298,2007-04-17,14:53:52,2007-04-17,14:54:12
442888.3444444444,4425240.411111113,39190.0638541667,39190.5670949074,190.90010476685802,2007-04-18,01:31:57,2007-04-18,13:36:37
450337.86363636365,4420638.8545454545,39190.5946643518,39191.0324768518,199.4006268796216,2007-04-18,14:16:19,2007-04-19,00:46:46
443024.1222222222,4425210.622222222,39191.0730787037,39191.0747453704,139.35221562648948,2007-04-19,01:45:14,2007-04-19,01:47:38
450366.1,4420633.36,39191.5857523148,39191.5864351852,71.75862317519967,2007-04-19,14:03:29,2007-04-19,14:04:28
442969.85000000003,4425226.850000001,39192.0600347222,39192.0618171296,188.93525346001474,2007-04-20,01:26:27,2007-04-20,01:29:01
442803.4083333334,4425336.166666667,39192.3309259259,39192.3544328704,138.83688270754413,2007-04-20,07:56:32,2007-04-20,08:30:23
442797.9166666667,4425360.416666667,39192.3550231481,39192.3583449074,94.0410548639889,2007-04-20,08:31:14,2007-04-20,08:36:01
416612.50588235306,4417012.690196079,39193.1565162037,39193.2048958333,71.93309391337253,2007-04-21,03:45:23,2007-04-21,04:55:03
416683.3378378378,4417546.940540541,39193.2256365741,39193.2528472222,193.97613255225846,2007-04-21,05:24:55,2007-04-21,06:04:06
416570.4824561404,4417614.789473684,39193.2585300926,39193.3612731481,188.83625181603588,2007-04-21,06:12:17,2007-04-21,08:40:14
416663.6818181818,4417124.518181818,39193.3651388889,39193.3719675926,150.46255348110935,2007-04-21,08:45:48,2007-04-21,08:55:38
441851.6,4421117.9,39193.4779282407,39193.4779282407,0.0,2007-04-21,11:28:13,2007-04-21,11:28:13
450379.2,4421633.0,39195.6059722222,39195.6059722222,0.0,2007-04-23,14:32:36,2007-04-23,14:32:36
442878.1,4425312.325,39199.2608449074,39199.2613194444,174.1944028951846,2007-04-27,06:15:37,2007-04-27,06:16:18
399779.58749999997,4430188.675,39242.1406365741,39242.1651273148,155.61388112886914,2007-06-09,03:22:31,2007-06-09,03:57:47
391073.5299999999,4426533.129999999,39242.1855902778,39242.1940046296,156.72986314037283,2007-06-09,04:27:15,2007-06-09,04:39:22
398847.5999999999,4429970.233333333,39242.2737152778,39242.2739699074,114.04779699748462,2007-06-09,06:34:09,2007-06-09,06:34:31
442848.125,4425255.225000001,39243.4187962963,39243.4199189815,55.94729662786568,2007-06-10,10:03:04,2007-06-10,10:04:41
414198.3117647059,4605581.882352941,39249.2275347222,39250.0259143518,142.52192813739225,2007-06-16,05:27:39,2007-06-17,00:37:19
401773.8666666667,4612374.983333333,39250.0443981481,39250.0452777778,158.03407860295337,2007-06-17,01:03:56,2007-06-17,01:05:12
424060.1333333333,4600172.9,39250.1253703704,39250.1256018518,140.3119738299847,2007-06-17,03:00:32,2007-06-17,03:00:52
414214.64999999997,4605544.783333333,39250.2043634259,39250.2052430556,193.52139416630837,2007-06-17,04:54:17,2007-06-17,04:55:33
470576.15,4560520.050000001,39250.340775463,39250.3408796296,128.3866815523585,2007-06-17,08:10:43,2007-06-17,08:10:52
442778.375,4425917.075,39311.6346296296,39311.636412037,162.49704612698724,2007-08-17,15:13:52,2007-08-17,15:16:26
442764.1,4425364.75,39312.1202199074,39312.3894097222,188.95345987834872,2007-08-18,02:53:07,2007-08-18,09:20:45
442671.94000000006,4425635.2,39312.3913194444,39313.0981481481,160.4374644528481,2007-08-18,09:23:30,2007-08-19,02:21:20
442779.39999999997,4425457.066666667,39313.0983912037,39313.0993634259,100.34440691960067,2007-08-19,02:21:41,2007-08-19,02:23:05
442806.26666666666,4425427.266666667,39314.0360763889,39314.0375115741,150.6454446707559,2007-08-20,00:51:57,2007-08-20,00:54:01
463471.6,4437878.8,39330.0218402778,39330.0218402778,0.0,2007-09-05,00:31:27,2007-09-05,00:31:27
272128.5333333334,2766752.2333333334,39330.1487962963,39330.1726736111,29.124731758421397,2007-09-05,03:34:16,2007-09-05,04:08:39
273080.55,2767457.05,39330.1919212963,39330.1942476852,158.7529527283187,2007-09-05,04:36:22,2007-09-05,04:39:43
623813.7,2950721.7,39330.2204513889,39330.2207986111,174.6056127390858,2007-09-05,05:17:27,2007-09-05,05:17:57
622224.3571428572,2973061.1571428576,39330.4065740741,39330.4370486111,198.97587793500253,2007-09-05,09:45:28,2007-09-05,10:29:21
621169.9400000001,2976199.46,39330.467025463,39330.4696875,164.636387229597,2007-09-05,11:12:31,2007-09-05,11:16:21
622480.8200000001,2972648.09,39332.2510416667,39332.2718981481,144.6586672133577,2007-09-07,06:01:30,2007-09-07,06:31:32
621149.8,2976180.533333333,39332.4040856481,39332.4044444444,71.52286347744128,2007-09-07,09:41:53,2007-09-07,09:42:24
624213.5,2998346.1,39333.0247453704,39333.0247453704,0.0,2007-09-08,00:35:38,2007-09-08,00:35:38
621336.8500000001,2999498.55,39333.0491319444,39333.0502662037,91.1527289772325,2007-09-08,01:10:45,2007-09-08,01:12:23
618712.25,2998665.925,39333.0994212963,39333.1138773148,178.50011204478244,2007-09-08,02:23:10,2007-09-08,02:43:59
618569.4,2998610.5,39333.1207523148,39333.1207523148,0.0,2007-09-08,02:53:53,2007-09-08,02:53:53
624232.8666666667,2998609.6999999997,39333.1921412037,39333.1937615741,112.90850277965336,2007-09-08,04:36:41,2007-09-08,04:39:01
450654.39743589744,4434960.1,40008.9009490741,40008.9524189815,24.298559627744684,2009-07-14,21:37:22,2009-07-14,22:51:29
450732.16,4435057.119999999,40008.9524884259,40008.9529282407,116.55972717846493,2009-07-14,22:51:35,2009-07-14,22:52:13
450666.6666666667,4434946.522222222,40008.9874421296,40009.0174189815,184.1316105396791,2009-07-14,23:41:55,2009-07-15,00:25:05
449415.65,4435083.699999999,40009.0286574074,40009.0562962963,35.97068250670036,2009-07-15,00:41:16,2009-07-15,01:21:04
749674.1900000002,4056008.2099999995,40012.4634953704,40012.4660416667,175.77181230236212,2009-07-18,11:07:26,2009-07-18,11:11:06
676413.7666666667,4030019.5333333337,40013.3575347222,40013.3790972222,42.304136913748884,2009-07-19,08:34:51,2009-07-19,09:05:54
637676.1,4047236.5500000003,40013.4971296296,40013.5010300926,112.60870303851466,2009-07-19,11:55:52,2009-07-19,12:01:29
606645.2666666667,4053580.3333333335,40014.1266782407,40014.1282291667,89.53775739876717,2009-07-20,03:02:25,2009-07-20,03:04:39
582501.6,4059859.1,40014.1834953704,40014.2226967593,157.29621737348728,2009-07-20,04:24:14,2009-07-20,05:20:41
569545.85,4064961.0999999996,40014.2572222222,40014.3496990741,193.3635436169387,2009-07-20,06:10:24,2009-07-20,08:23:34
565791.0789473683,4099260.778947369,40014.5321527778,40014.5444444444,190.05622852234322,2009-07-20,12:46:18,2009-07-20,13:04:00
565821.2,4099289.875,40015.1422800926,40015.1430324074,151.39237100987384,2009-07-21,03:24:53,2009-07-21,03:25:58
565837.6684210526,4099270.8631578945,40015.1669560185,40015.2058680556,195.544368366779,2009-07-21,04:00:25,2009-07-21,04:56:27
571367.0700000001,4116923.8950000005,40015.2880208333,40015.3100810185,187.18771327217104,2009-07-21,06:54:45,2009-07-21,07:26:31
600543.5666666667,4131608.8238095245,40015.4128009259,40015.4203240741,35.42950747640422,2009-07-21,09:54:26,2009-07-21,10:05:16
648667.6125,4106990.6374999997,40016.219224537,40016.2500925926,196.35727641234544,2009-07-22,05:15:41,2009-07-22,06:00:08
668413.3769230769,4090186.4230769225,40016.3429513889,40016.3483449074,45.169126624266,2009-07-22,08:13:51,2009-07-22,08:21:37
669560.1000000001,4091262.3,40016.4463194444,40016.446412037,10.401922899174581,2009-07-22,10:42:42,2009-07-22,10:42:50
668536.9,4090189.3000000003,40016.5275115741,40016.5281597222,186.5073725082927,2009-07-22,12:39:37,2009-07-22,12:40:33
648121.285,4081283.2349999994,40017.1860185185,40017.2101041667,168.6350200876644,2009-07-23,04:27:52,2009-07-23,05:02:33
676500.6428571428,4029950.3000000003,40017.4707523148,40017.4856365741,128.98077376078203,2009-07-23,11:17:53,2009-07-23,11:39:19
692398.6833333332,4038482.766666666,40018.0996412037,40018.1002893519,196.10002549728682,2009-07-24,02:23:29,2009-07-24,02:24:25
731003.9,4040997.45,40018.3701736111,40018.370775463,133.3180032853386,2009-07-24,08:53:03,2009-07-24,08:53:55
304922.24999999994,4024734.483333333,40019.288287037,40019.3129166667,174.56030476626051,2009-07-25,06:55:08,2009-07-25,07:30:36
383400.66000000003,3993265.66,40019.5427546296,40019.5436458333,163.06274865829297,2009-07-25,13:01:34,2009-07-25,13:02:51
457024.10000000003,3952506.3249999997,40020.5180092593,40020.5400347222,183.65296077103758,2009-07-26,12:25:56,2009-07-26,12:57:39
498903.9714285714,3907714.9285714286,40021.2928819444,40021.335787037,190.793736794557,2009-07-27,07:01:45,2009-07-27,08:03:32
522172.7842105263,3896325.289473684,40021.4306712963,40021.4485648148,83.5945572390972,2009-07-27,10:20:10,2009-07-27,10:45:56
560476.3444444444,3857931.5555555555,40022.2241087963,40022.251087963,141.08586038295712,2009-07-28,05:22:43,2009-07-28,06:01:34
583149.9260869565,3824090.07826087,40022.4269328704,40022.4425231481,120.53932968107232,2009-07-28,10:14:47,2009-07-28,10:37:14
638805.28,3818367.7600000002,40023.1864351852,40023.2071412037,23.00543414069567,2009-07-29,04:28:28,2009-07-29,04:58:17
652513.3666666667,3805795.4333333336,40023.2755092593,40023.280150463,190.07540608932257,2009-07-29,06:36:44,2009-07-29,06:43:25
697413.9363636364,3805695.659090909,40023.4751273148,40023.485775463,187.6168968936844,2009-07-29,11:24:11,2009-07-29,11:39:31
697810.3857142857,3803449.742857143,40023.5287384259,40023.5339583333,106.57438716683545,2009-07-29,12:41:23,2009-07-29,12:48:54
242667.9,3783688.266666667,40024.2484490741,40024.2685069444,189.39192168623643,2009-07-30,05:57:46,2009-07-30,06:26:39
