442802.6,4425200.457142857,39471.2326736111,39471.2363194444,73.82370892874408,2008-01-24,05:35:03,2008-01-24,05:40:18
442915.64,4425261.159999999,39471.3056134259,39471.3956018519,91.76938487297191,2008-01-24,07:20:05,2008-01-24,09:29:40
442759.60000000003,4425260.475,39474.2030092593,39474.2053125,185.2702080744027,2008-01-27,04:52:20,2008-01-27,04:55:39
442646.93333333335,4425874.3,39474.4194212963,39474.422037037,96.56852489279042,2008-01-27,10:03:58,2008-01-27,10:07:44
440980.9,4435709.8,39474.531400463,39474.531400463,0.0,2008-01-27,12:45:13,2008-01-27,12:45:13
442821.075,4425347.0,39475.0448726852,39475.046412037,143.70859403696863,2008-01-28,01:04:37,2008-01-28,01:06:50
441435.9117647059,4416458.811764707,39480.4398148148,39480.4405208333,29.913207785936084,2008-02-02,10:33:20,2008-02-02,10:34:21
441407.17142857146,4416198.028571429,39480.5018171296,39480.5157638889,92.41309431037998,2008-02-02,12:02:37,2008-02-02,12:22:42
252047.4785714286,3378536.064285714,39480.9704398148,39480.9787037037,88.55083285886653,2008-02-02,23:17:26,2008-02-02,23:29:20
442949.521875,4425434.915624999,39492.9691319444,39492.9705787037,173.66522392181307,2008-02-14,23:15:33,2008-02-14,23:17:38
442947.66415094334,4425228.7830188675,39497.5685648148,39501.5656828704,97.72256648277877,2008-02-19,13:38:44,2008-02-23,13:34:35
449162.63999999996,4417839.2299999995,39501.6847800926,39501.7031597222,32.36495017763608,2008-02-23,16:26:05,2008-02-23,16:52:33
443022.72058823536,4425249.485294118,39501.8315162037,39501.8333333333,166.4878674259036,2008-02-23,19:57:23,2008-02-23,20:00:00
443336.23636363633,4425195.495454546,39503.5451851852,39503.546400463,121.08393782813312,2008-02-25,13:05:04,2008-02-25,13:06:49
442863.41538461525,4425328.815384616,39503.5758449074,39503.7200925926,174.45102464590542,2008-02-25,13:49:13,2008-02-25,17:16:56
442914.93,4425257.656666667,39503.8098726852,39503.9634837963,97.25764751439382,2008-02-25,19:26:13,2008-02-25,23:07:25
442949.10000000003,4425579.033333333,39503.9662615741,39503.966400463,20.22770377450496,2008-02-25,23:11:25,2008-02-25,23:11:37
441952.5447761195,4429033.888059701,39504.7982986111,39504.8336921296,197.4726563353808,2008-02-26,19:09:33,2008-02-26,20:00:31
442154.9,4429190.58,39504.8337268519,39504.8709259259,59.82783633076735,2008-02-26,20:00:34,2008-02-26,20:54:08
442926.0368421052,4425252.418421052,39504.8975347222,39504.9177546296,188.6196702362686,2008-02-26,21:32:27,2008-02-26,22:01:34
402449.2,4443729.7,39505.5617824074,39505.5617824074,0.0,2008-02-27,13:28:58,2008-02-27,13:28:58
442734.3857142857,4425230.399999999,39505.6992939815,39505.7023148148,146.79816075137953,2008-02-27,16:46:59,2008-02-27,16:51:20
445901.07500000007,4420574.449999999,39505.7290162037,39505.7516435185,43.27135311069092,2008-02-27,17:29:47,2008-02-27,18:02:22
442749.9,4425251.7299999995,39505.7822569444,39508.5933796296,92.98069692143916,2008-02-27,18:46:27,2008-03-01,14:14:28
442863.9,4425264.3,39508.8155671296,39508.815625,0.0,2008-03-01,19:34:25,2008-03-01,19:34:30
415408.6413793103,4466860.941379311,39545.6347453704,39545.6554166667,67.28870633293778,2008-04-07,15:14:02,2008-04-07,15:43:48
414503.0,4468931.9,39545.7555439815,39545.7555439815,0.0,2008-04-07,18:07:59,2008-04-07,18:07:59
444337.1,4425774.4,39545.8600810185,39545.8600810185,0.0,2008-04-07,20:38:31,2008-04-07,20:38:31
442556.76511627913,4425061.220930233,39546.5075925926,39547.5163078704,170.31996359811444,2008-04-08,12:10:56,2008-04-09,12:23:29
442618.57500000007,4424676.5,39547.5400694444,39547.5401388889,76.75942938820474,2008-04-09,12:57:42,2008-04-09,12:57:48
442844.44347826083,4425267.395652174,39547.5765856481,39547.5770949074,68.5656619601163,2008-04-09,13:50:17,2008-04-09,13:51:01
442888.90217391297,4425137.645652174,39547.7904861111,39547.8547106481,120.3362788191519,2008-04-09,18:58:18,2008-04-09,20:30:47
442890.0140625,4425517.232812501,39547.8574884259,39547.8589467593,174.6804224863514,2008-04-09,20:34:47,2008-04-09,20:36:53
442644.74615384615,4424785.373076922,39548.3967939815,39548.3980555556,155.4289548314452,2008-04-10,09:31:23,2008-04-10,09:33:12
442627.4,4424309.922222222,39549.978900463,39550.5416550926,67.39562300278773,2008-04-11,23:29:37,2008-04-12,12:59:59
442785.6162162163,4424456.454054054,39550.5641898148,39550.5907986111,27.999999999906866,2008-04-12,13:32:26,2008-04-12,14:10:45
441479.4,4424364.3,39550.5945833333,39550.5945833333,0.0,2008-04-12,14:16:12,2008-04-12,14:16:12
442700.68333333335,4425217.133333334,39550.6457291667,39550.6458449074,20.863365020368054,2008-04-12,15:29:51,2008-04-12,15:30:01
443417.29166666674,4425231.672916667,39550.7782175926,39550.8143402778,119.46367648791185,2008-04-12,18:40:38,2008-04-12,19:32:39
443153.81000000006,4425214.02,39550.8171180556,39550.8173263889,14.235167719431008,2008-04-12,19:36:39,2008-04-12,19:36:57
444190.0,4421179.25,39551.6226388889,39551.622662037,21.982947936980608,2008-04-13,14:56:36,2008-04-13,14:56:38
449160.75,4417623.25,39551.6489236111,39551.6529398148,115.17577870370606,2008-04-13,15:34:27,2008-04-13,15:40:14
442589.2258064517,4424380.825806451,39552.5096412037,39552.5362037037,192.8673119011217,2008-04-14,12:13:53,2008-04-14,12:52:08
442786.04583333334,4424502.704166667,39552.5389814815,39552.5650231481,199.43931407807025,2008-04-14,12:56:08,2008-04-14,13:33:38
442878.1818181817,4425286.886363636,39552.6013425926,39552.6018287037,57.31352370954472,2008-04-14,14:25:56,2008-04-14,14:26:38
444916.3424242424,4427939.053030303,39552.8222800926,39552.831099537,198.2640915547315,2008-04-14,19:44:05,2008-04-14,19:56:47
445196.34594594606,4427965.919819819,39552.8656481481,39552.8874537037,87.38558233477524,2008-04-14,20:46:32,2008-04-14,21:17:56
442493.18125000014,4424280.00625,39552.9160763889,39552.9574305556,176.35243122773846,2008-04-14,21:59:09,2008-04-14,22:58:42
442536.55000000005,4420106.9,39552.9735185185,39552.9735763889,180.2311016450717,2008-04-14,23:21:52,2008-04-14,23:21:57
443056.525,4425197.625,39553.3725694444,39553.3963310185,142.33966418410216,2008-04-15,08:56:30,2008-04-15,09:30:43
442941.80000000005,4425504.25,39553.3991087963,39553.3991319444,1.2369316878772953,2008-04-15,09:34:43,2008-04-15,09:34:45
444499.1,4421166.5,39553.5712384259,39553.5712384259,0.0,2008-04-15,13:42:35,2008-04-15,13:42:35
450631.00833333324,4416905.854166665,39553.5963425926,39553.6055787037,36.444615514175524,2008-04-15,14:18:44,2008-04-15,14:32:02
442930.7999999998,4425014.423577236,39553.7671643518,39553.7895601852,168.8342382338369,2008-04-15,18:24:43,2008-04-15,18:56:58
443039.68378378375,4425239.981081082,39553.792337963,39553.7931712963,100.63895865913096,2008-04-15,19:00:58,2008-04-15,19:02:10
442549.1666666667,4425182.333333333,39554.4977662037,39554.4978703704,11.42015761684318,2008-04-16,11:56:47,2008-04-16,11:56:56
442479.9199999999,4424832.8,39554.5251736111,39554.5609722222,181.51112913538978,2008-04-16,12:36:15,2008-04-16,13:27:48
442777.73894736846,4425246.10842105,39554.5705787037,39554.5727546296,196.93961003319077,2008-04-16,13:41:38,2008-04-16,13:44:46
443009.48269230756,4425170.05576923,39554.7384606482,39554.7964814815,141.54073618557757,2008-04-16,17:43:23,2008-04-16,19:06:56
442703.02692307683,4425224.097435898,39554.7992592593,39554.8774305556,185.96709386342465,2008-04-16,19:10:56,2008-04-16,21:03:30
442858.1857142857,4425253.066666667,39555.5785532407,39555.5790162037,32.64751139060764,2008-04-17,13:53:07,2008-04-17,13:53:47
442353.7875,4424830.900000001,39556.5568171296,39556.5570023148,84.72124881054972,2008-04-18,13:21:49,2008-04-18,13:22:05
442833.61086956534,4425258.658695652,39556.6058564815,39556.6068981481,95.27628246296952,2008-04-18,14:32:26,2008-04-18,14:33:56
448376.30000000005,4426602.031578948,39560.5619212963,39560.5632175926,173.52593466107595,2008-04-22,13:29:10,2008-04-22,13:31:02
442448.9421052632,4424912.836842105,39562.9732175926,39563.324537037,190.8886586469124,2008-04-24,23:21:26,2008-04-25,07:47:20
448401.5605633803,4426598.35774648,39563.3609259259,39563.3625578704,95.04630450441869,2008-04-25,08:39:44,2008-04-25,08:42:05
442492.52,4424935.779999999,39564.0578819444,39564.0634837963,199.59301089960388,2008-04-26,01:23:21,2008-04-26,01:31:25
442596.09375,4424318.685416668,39564.5794212963,39564.5832638889,198.49211571227735,2008-04-26,13:54:22,2008-04-26,13:59:54
448449.0,4428452.633333333,39565.3971180556,39565.3971643519,11.96327714256588,2008-04-27,09:31:51,2008-04-27,09:31:55
442821.6,4425834.6,39565.8495833333,39565.8495833333,0.0,2008-04-27,20:23:24,2008-04-27,20:23:24
442339.48809523816,4424854.233333332,39566.0035300926,39566.3654976852,112.9216542563397,2008-04-28,00:05:05,2008-04-28,08:46:19
441186.86470588244,4424516.555882352,39566.3908680556,39566.3924189815,197.29006563939126,2008-04-28,09:22:51,2008-04-28,09:25:05
442643.5413793103,4425234.365517241,39566.553287037,39566.5567592593,199.03710709300702,2008-04-28,13:16:44,2008-04-28,13:21:44
442474.45423728804,4424925.869491525,39566.9717361111,39567.0331712963,198.45331944819117,2008-04-28,23:19:18,2008-04-29,00:47:46
442347.75,4424908.6,39567.0331944444,39567.0332638889,4.4553338820413515,2008-04-29,00:47:48,2008-04-29,00:47:54
441164.9341463414,4424497.475609757,39567.3847337963,39567.3856597222,196.37548217631624,2008-04-29,09:14:01,2008-04-29,09:15:21
442730.77150837955,4425244.781005585,39567.6023611111,39568.7758333333,198.99932160693152,2008-04-29,14:27:24,2008-04-30,18:37:12
442378.30693069304,4424895.736633663,39568.7783912037,39569.4354166667,198.22363633059405,2008-04-30,18:40:53,2008-05-01,10:27:00
442792.6432835821,4425212.96119403,39569.4411574074,39570.0559606481,175.8326477078702,2008-05-01,10:35:16,2008-05-02,01:20:35
442582.16967213113,4424965.5237704925,39570.0581134259,39570.1400694444,199.91878350935613,2008-05-02,01:23:41,2008-05-02,03:21:42
442466.5813397131,4424919.942105261,39570.1401388889,39572.4350231481,198.11827275661753,2008-05-02,03:21:48,2008-05-04,10:26:26
442798.85903614474,4425236.397590361,39572.4370601852,39573.0538773148,199.4781692315741,2008-05-04,10:29:22,2008-05-05,01:17:35
442433.73125,4424921.405468754,39573.0596064815,39573.3775578704,199.50644099928945,2008-05-05,01:25:50,2008-05-05,09:03:41
442732.9487179485,4425224.192307692,39573.3794675926,39573.5047337963,179.8498262439877,2008-05-05,09:06:26,2008-05-05,12:06:49
441742.1310344828,4422624.013793104,39573.5093865741,39573.5111226852,195.22850714021834,2008-05-05,12:13:31,2008-05-05,12:16:01
442702.6042194093,4425218.770042193,39574.5196527778,39575.1009375,194.78321282903207,2008-05-06,12:28:18,2008-05-07,02:25:21
442370.5020979021,4424893.431468531,39575.1029513889,39575.5104282407,131.40292995216635,2008-05-07,02:28:15,2008-05-07,12:15:01
442753.97000000003,4425253.163333332,39575.5151736111,39576.0519212963,196.86442035074333,2008-05-07,12:21:51,2008-05-08,01:14:46
442375.52117647044,4424889.237647058,39576.0669791667,39576.0690625,151.93584172287783,2008-05-08,01:36:27,2008-05-08,01:39:27
442694.0182978721,4425207.139999998,39576.408287037,39577.078599537,198.7133110789265,2008-05-08,09:47:56,2008-05-09,01:53:11
442359.23151260527,4424880.842857142,39577.0799652778,39577.0871643518,133.7882655544489,2008-05-09,01:55:09,2008-05-09,02:05:31
442784.22463768115,4425245.152173911,39577.3713657407,39577.3730208333,195.19518436685078,2008-05-09,08:54:46,2008-05-09,08:57:09
447301.0,4422761.4,39577.8993981481,39577.8993981481,0.0,2008-05-09,21:35:08,2008-05-09,21:35:08
442449.9709859157,4424908.335211272,39578.4785416667,39578.5073263889,196.28053902479772,2008-05-10,11:29:06,2008-05-10,12:10:33
442802.68358208967,4425241.2447761195,39578.5214236111,39578.5730555556,178.5242000402101,2008-05-10,12:30:51,2008-05-10,13:45:12
443231.58290993085,4425535.191916865,39578.7921296296,39578.8830092593,198.56691567363765,2008-05-10,19:00:40,2008-05-10,21:11:32
442790.06619718316,4425230.645070421,39578.9610532407,39578.9627893518,198.83118467680615,2008-05-10,23:03:55,2008-05-10,23:06:25
447694.80000000005,4422309.5,39579.7758796296,39579.7759375,165.6408162264114,2008-05-11,18:37:16,2008-05-11,18:37:21
442759.0816326531,4425429.675510204,39579.8086111111,39579.8115509259,183.7324141246305,2008-05-11,19:24:24,2008-05-11,19:28:38
442377.48902439047,4424896.709756098,39580.0765277778,39580.0787152778,154.5908147335156,2008-05-12,01:50:12,2008-05-12,01:53:21
442503.47500000003,4424578.9,39580.9692592593,39580.9693287037,96.64434799839259,2008-05-12,23:15:44,2008-05-12,23:15:50
442418.45964125555,4424910.659641257,39581.7008333333,39581.7821064815,173.38491860613487,2008-05-13,16:49:12,2008-05-13,18:46:14
442661.37142857135,4425550.642857144,39581.7868865741,39581.7870601852,123.63126627191983,2008-05-13,18:53:07,2008-05-13,18:53:22
442369.4846846846,4424885.187387388,39582.0958101852,39582.3990162037,198.4526391863386,2008-05-14,02:17:58,2008-05-14,09:34:35
442932.69375000027,4425245.125520834,39582.4074074074,39583.0264467593,189.78263882657484,2008-05-14,09:46:40,2008-05-15,00:38:05
442433.46381322946,4424909.214007783,39583.0307986111,39584.0998263889,198.34157405846068,2008-05-15,00:44:21,2008-05-16,02:23:45
442325.27777777775,4424889.266666667,39584.099849537,39584.1007175926,47.942986974116096,2008-05-16,02:23:47,2008-05-16,02:25:02
442379.9409937888,4424883.106211179,39584.7198726852,39584.7251273148,185.08635822229922,2008-05-16,17:16:37,2008-05-16,17:24:11
441752.07999999996,4433988.12,39585.3369675926,39585.3370601852,120.44226832796278,2008-05-17,08:05:14,2008-05-17,08:05:22
442154.69999999995,4424402.9,39585.7234490741,39585.7234722222,39.184690888150584,2008-05-17,17:21:46,2008-05-17,17:21:48
448519.5831325302,4428375.2180722905,39586.0639930556,39586.0661226852,192.18454672532238,2008-05-18,01:32:09,2008-05-18,01:35:13
442742.79545454565,4425267.795129873,39586.2216435185,39586.6851736111,198.74438356861845,2008-05-18,05:19:10,2008-05-18,16:26:39
442426.4468354429,4424910.05443038,39586.6889930556,39587.0963657407,196.77484595344345,2008-05-18,16:32:09,2008-05-19,02:18:46
442789.24454545445,4425238.368181817,39587.0981134259,39587.7168865741,198.0907115433855,2008-05-19,02:21:17,2008-05-19,17:12:19
442662.9166666667,4425904.475000001,39587.7202083333,39587.7472569444,179.99269429652324,2008-05-19,17:17:06,2008-05-19,17:56:03
442589.4624999999,4426128.275,39587.7474652778,39587.7476273148,105.32354912363449,2008-05-19,17:56:21,2008-05-19,17:56:35
442525.89577464806,4425213.8704225365,39588.4854861111,39588.5645601852,118.27971085528394,2008-05-20,11:39:06,2008-05-20,13:32:58
442213.0,4425955.8,39588.7325694444,39588.7325694444,0.0,2008-05-20,17:34:54,2008-05-20,17:34:54
442793.7939759037,4425248.985542169,39589.116875,39589.1187847222,198.71711048625002,2008-05-21,02:48:18,2008-05-21,02:51:03
442314.00769230764,4424842.288461538,39589.6735532407,39589.6742824074,44.26511041459513,2008-05-21,16:09:55,2008-05-21,16:10:58
442703.5534653467,4425222.9777227715,39590.0680439815,39590.6644907407,198.26409155426884,2008-05-22,01:37:59,2008-05-22,15:56:52
442378.73247863236,4424886.317948718,39590.667037037,39590.6697800926,153.1646499686207,2008-05-22,16:00:32,2008-05-22,16:04:29
442456.2769230768,4424933.06968326,39591.5520023148,39592.0300347222,199.83197942303642,2008-05-23,13:14:53,2008-05-24,00:43:15
438181.7103030297,4427610.649090909,39592.0639699074,39592.1195601852,198.96504718164795,2008-05-24,01:32:07,2008-05-24,02:52:10
437512.85179856105,4427842.078417266,39592.1336226852,39592.1421643518,199.8564735003249,2008-05-24,03:12:25,2008-05-24,03:24:43
437445.6496240603,4427872.981203008,39592.2265740741,39592.254525463,104.16933329920087,2008-05-24,05:26:16,2008-05-24,06:06:31
437820.3931818185,4426811.2363636345,39592.3502199074,39592.3811226852,197.9245310721894,2008-05-24,08:24:19,2008-05-24,09:08:49
438073.81412213756,4427293.247328245,39592.3922569444,39592.4107407407,178.3117775132472,2008-05-24,09:24:51,2008-05-24,09:51:28
440935.5577319588,4424672.648453609,39592.4855671296,39592.4878356481,197.37578372237905,2008-05-24,11:39:13,2008-05-24,11:42:29
442421.31651376147,4424895.783027523,39593.6200462963,39594.0576388889,199.60305608905372,2008-05-25,14:52:52,2008-05-26,01:23:00
442704.0410126578,4425226.466835445,39594.0632523148,39595.4711458333,199.57316953921696,2008-05-26,01:31:05,2008-05-27,11:18:27
442512.2038834953,4424940.4199029105,39595.4711689815,39595.5042708333,170.82681288306745,2008-05-27,11:18:29,2008-05-27,12:06:09
442433.71769436984,4424888.0498659555,39595.5044907407,39596.0648958333,149.76368051030607,2008-05-27,12:06:28,2008-05-28,01:33:27
442811.10625,4425516.69375,39596.0687731481,39596.069375,134.14536891013512,2008-05-28,01:39:02,2008-05-28,01:39:54
442328.40800000005,4424842.834000002,39596.6670486111,39596.6695949074,199.82344707317583,2008-05-28,16:00:33,2008-05-28,16:04:13
442438.089353612,4424916.599239543,39597.6727430556,39598.0707175926,195.84749168677487,2008-05-29,16:08:45,2008-05-30,01:41:50
442760.6718592961,4425258.462311557,39598.0733796296,39598.2918634259,182.95772735815976,2008-05-30,01:45:40,2008-05-30,07:00:17
461035.14580896683,4429449.563352829,39598.3237731481,39598.3932407407,199.06775228509042,2008-05-30,07:46:14,2008-05-30,09:26:16
460940.3133333335,4429650.422222224,39598.4022569444,39598.4278703704,199.86167716698665,2008-05-30,09:39:15,2008-05-30,10:16:08
460712.76430678467,4429775.363126842,39598.4310069444,39598.5055092593,193.31748498270727,2008-05-30,10:20:39,2008-05-30,12:07:56
442896.2666666667,4425264.178571428,39598.5333333333,39598.5350347222,191.85755132383179,2008-05-30,12:48:00,2008-05-30,12:50:27
442739.31882352935,4425218.636470588,39598.7105439815,39598.7408333333,195.84925325367425,2008-05-30,17:03:11,2008-05-30,17:46:48
443667.94999999995,4426448.550000001,39598.7474537037,39598.7475347222,174.93936092240355,2008-05-30,17:56:20,2008-05-30,17:56:27
442704.89485714294,4425228.867428572,39599.1375115741,39599.6819097222,199.6398006408913,2008-05-31,03:18:01,2008-05-31,16:21:57
442369.74845360825,4424898.151546392,39599.6841782407,39599.686412037,174.74123726241612,2008-05-31,16:25:13,2008-05-31,16:28:26
442701.60305343504,4425217.505343512,39600.1858680556,39600.6371064815,199.73432354037047,2008-06-01,04:27:39,2008-06-01,15:17:26
442378.1923728813,4424888.073728814,39600.6389583333,39600.6417013889,146.18936349822275,2008-06-01,15:20:06,2008-06-01,15:24:03
442419.6454258676,4424910.530914825,39601.6380902778,39602.0747106481,198.31742233078592,2008-06-02,15:18:51,2008-06-03,01:47:35
442779.9679012346,4425244.506172838,39602.0773958333,39602.0793055556,186.32149634431192,2008-06-03,01:51:27,2008-06-03,01:54:12
442379.15288461535,4424893.813461538,39602.6562268519,39602.6586689815,163.7047647442444,2008-06-03,15:44:58,2008-06-03,15:48:29
442756.00984848506,4425292.545454545,39603.640625,39603.6691550926,196.20206420924947,2008-06-04,15:22:30,2008-06-04,16:03:35
442363.59553571435,4424891.644642858,39603.6735069444,39603.6762152778,134.77778006796834,2008-06-04,16:09:51,2008-06-04,16:13:45
442752.3751295336,4425249.759585492,39604.0554398148,39604.6893171296,199.3987963854292,2008-06-05,01:19:50,2008-06-05,16:32:37
442433.89175627223,4424926.13799283,39604.6948611111,39605.0730787037,199.57407146219424,2008-06-05,16:40:36,2008-06-06,01:45:14
442696.2454545456,4425228.0947368415,39605.0752314815,39605.735162037,199.4704238729455,2008-06-06,01:48:20,2008-06-06,17:38:38
442425.56703703717,4424922.088518517,39605.7370023148,39606.0642013889,198.6057652738208,2008-06-06,17:41:17,2008-06-07,01:32:27
442711.18860294094,4425225.758455883,39606.0660532407,39606.6620949074,198.54583853594497,2008-06-07,01:35:07,2008-06-07,15:53:25
442374.2618705038,4424884.784892087,39606.664224537,39607.032650463,199.64493482169547,2008-06-07,15:56:29,2008-06-08,00:47:01
448619.858041958,4428373.131468534,39607.0634027778,39607.1884606481,199.83693352336584,2008-06-08,01:31:18,2008-06-08,04:31:23
442787.4430894309,4425302.573983741,39607.2119560185,39607.2232407407,194.89127738359718,2008-06-08,05:05:13,2008-06-08,05:21:28
442779.3765957447,4425251.470212767,39608.0842708333,39608.4705092593,198.9767825652259,2008-06-09,02:01:21,2008-06-09,11:17:32
442579.96575342445,4425206.892237443,39608.4705324074,39608.5022685185,198.57676097688037,2008-06-09,11:17:34,2008-06-09,12:03:16
442709.50038461527,4425198.897692304,39608.5075810185,39608.6359606481,199.20426702271624,2008-06-09,12:10:55,2008-06-09,15:15:47
442377.2291338581,4424886.775590552,39608.6376736111,39609.070474537,194.3615188250374,2008-06-09,15:18:15,2008-06-10,01:41:29
442662.1538071066,4425201.951269038,39609.0756944444,39609.6330092593,199.96624715154363,2008-06-10,01:49:00,2008-06-10,15:11:32
442431.0756944443,4424921.444444443,39609.6345138889,39610.0564814815,197.89211707392948,2008-06-10,15:13:42,2008-06-11,01:21:20
442689.2214035084,4425225.726315788,39610.0581018519,39610.6726273148,197.18014605936628,2008-06-11,01:23:40,2008-06-11,16:08:35
442380.1269503546,4424895.943262413,39610.6746527778,39611.0605787037,173.87731306857296,2008-06-11,16:11:30,2008-06-12,01:27:14
442702.905098039,4425226.53254902,39611.0684490741,39611.763900463,199.75297244346578,2008-06-12,01:38:34,2008-06-12,18:20:01
442362.29729729716,4424887.832432432,39611.7658217593,39611.7684027778,167.47552059924726,2008-06-12,18:22:47,2008-06-12,18:26:30
442375.3893203884,4424900.513592233,39612.6873032407,39613.1613078704,130.31227877683523,2008-06-13,16:29:43,2008-06-14,03:52:17
442689.0372549021,4425200.851764709,39613.1851967593,39613.6782060185,198.33935565068205,2008-06-14,04:26:41,2008-06-14,16:16:37
442387.48709677433,4424898.049193547,39613.6834722222,39614.0280439815,198.9379048849633,2008-06-14,16:24:12,2008-06-15,00:40:23
448603.9503875974,4428351.92635659,39614.060474537,39614.2673611111,199.90010004996523,2008-06-15,01:27:05,2008-06-15,06:25:00
442983.6755555555,4425259.218888891,39614.2908449074,39614.2930208333,190.607502475641,2008-06-15,06:58:49,2008-06-15,07:01:57
442375.97456647415,4424909.439884392,39614.6532060185,39615.0592708333,107.59079886369973,2008-06-15,15:40:37,2008-06-16,01:25:21
442403.02159090934,4424904.037500001,39615.6823148148,39616.0692013889,199.7947947267202,2008-06-16,16:22:32,2008-06-17,01:39:39
442703.5886597938,4425216.812371134,39616.0755671296,39616.6590509259,199.00040200915166,2008-06-17,01:48:49,2008-06-17,15:49:02
442379.3475903615,4424893.054216871,39616.660787037,39617.0570717593,199.54072266085166,2008-06-17,15:51:32,2008-06-18,01:22:11
442690.7854961835,4425210.176717559,39617.0632523148,39617.5354050926,197.0575804174955,2008-06-18,01:31:05,2008-06-18,12:50:59
442490.8449122806,4424282.658245615,39617.5430671296,39617.5934490741,197.59668519468087,2008-06-18,13:02:01,2008-06-18,14:14:34
442396.31925925915,4424883.2370370375,39617.6005092593,39617.6057638889,114.3425117795403,2008-06-18,14:24:44,2008-06-18,14:32:18
442379.1393442624,4424876.222950818,39618.6783912037,39618.9604861111,199.06694853751182,2008-06-19,16:16:53,2008-06-19,23:03:06
456700.43826366594,4412472.128938906,39619.0133912037,39619.0592708333,197.71504747995183,2008-06-20,00:19:17,2008-06-20,01:25:21
456588.33290322585,4412874.871612905,39619.0597337963,39619.0912268519,197.99090888208346,2008-06-20,01:26:01,2008-06-20,02:11:22
456339.7618618621,4413046.209609611,39619.1196064815,39619.1499305556,199.514009532597,2008-06-20,02:52:14,2008-06-20,03:35:54
456238.17881944485,4413076.264930562,39619.1499537037,39619.2659606481,193.08860660328332,2008-06-20,03:35:56,2008-06-20,06:22:59
456242.52166246815,4413177.699244334,39619.2797916667,39619.3337268519,197.83518392825042,2008-06-20,06:42:54,2008-06-20,08:00:34
455993.1503370777,4412949.487640452,39619.3449652778,39619.3705787037,89.49061403306031,2008-06-20,08:16:45,2008-06-20,08:53:38
456292.5623595502,4413019.846254679,39619.3896527778,39619.4177430556,198.2643941808796,2008-06-20,09:21:06,2008-06-20,10:01:33
455668.19000000006,4423201.569999999,39619.4405787037,39619.440787037,198.0549671182107,2008-06-20,10:34:26,2008-06-20,10:34:44
442868.3067193679,4425254.9027668005,39619.4693055556,39619.523599537,199.96499693696396,2008-06-20,11:15:48,2008-06-20,12:33:59
442561.20222222223,4425000.570000001,39619.5312037037,39619.533287037,193.37574822162895,2008-06-20,12:44:56,2008-06-20,12:47:56
442449.20394088665,4424928.177832515,39619.5564814815,39620.0706597222,198.47423006492934,2008-06-20,13:21:20,2008-06-21,01:41:45
442713.65843137243,4425214.758431373,39620.0728935185,39620.6862152778,199.88741831278185,2008-06-21,01:44:58,2008-06-21,16:28:09
442380.53684210527,4424887.298245614,39620.6880671296,39620.6907407407,171.25653272170942,2008-06-21,16:30:49,2008-06-21,16:34:40
448503.6,4427766.300000001,39621.0685069444,39621.0685763889,86.22279280988083,2008-06-22,01:38:39,2008-06-22,01:38:45
442942.0329545455,4425254.352272728,39621.2139814815,39621.2160185185,188.16955120326062,2008-06-22,05:08:08,2008-06-22,05:11:04
442474.9,4426175.4,39621.2980324074,39621.2980324074,0.0,2008-06-22,07:09:10,2008-06-22,07:09:10
444467.2,4422075.449999999,39621.3391666667,39621.339224537,167.076180229188,2008-06-22,08:08:24,2008-06-22,08:08:29
442650.2925925926,4425192.597685186,39621.532650463,39622.6654398148,198.57071788140055,2008-06-22,12:47:01,2008-06-23,15:58:14
442385.51379310334,4424897.943448277,39622.6696412037,39622.6733217593,150.72707122449253,2008-06-23,16:04:17,2008-06-23,16:09:35
442369.4031249999,4425273.953125,39623.0501736111,39623.0508912037,57.12241241458144,2008-06-24,01:12:15,2008-06-24,01:13:17
442390.89781021915,4424899.038686131,39623.6582291667,39624.0530555556,199.1322173833354,2008-06-24,15:47:51,2008-06-25,01:16:24
442717.03144329874,4425194.9345360845,39624.0603472222,39624.7296064815,196.38312045604474,2008-06-25,01:26:54,2008-06-25,17:30:38
442368.8281818185,4424894.689090909,39624.7319907407,39625.1351967593,170.38456502890241,2008-06-25,17:34:04,2008-06-26,03:14:41
442746.8286486486,4425236.335135136,39625.1415856481,39625.7088078704,199.6163570449237,2008-06-26,03:23:53,2008-06-26,17:00:41
442371.26222222234,4424897.981111111,39625.7112615741,39625.713587963,170.59437270907713,2008-06-26,17:04:13,2008-06-26,17:07:34
442671.17160493834,4425253.449382717,39626.1039814815,39626.4443171296,193.52173004603122,2008-06-27,02:29:44,2008-06-27,10:39:49
442985.42666666675,4425557.09,39626.4934837963,39626.4951851852,199.65900931300706,2008-06-27,11:50:37,2008-06-27,11:53:04
442350.5779661017,4424908.911864408,39627.0846064815,39627.1074074074,191.02905538170842,2008-06-28,02:01:50,2008-06-28,02:34:40
442551.88125,4424941.362500001,39627.1075347222,39627.1079050926,50.90628644910081,2008-06-28,02:34:51,2008-06-28,02:35:23
443137.3730392158,4427276.672549018,39627.4303935185,39627.5701967593,198.96162946677498,2008-06-28,10:19:46,2008-06-28,13:41:05
442934.1566037734,4425457.65235849,39627.5870023148,39627.5919791667,90.32319746342063,2008-06-28,14:05:17,2008-06-28,14:12:27
442369.2305084744,4424891.21101695,39627.706875,39628.0322569444,93.3120570980557,2008-06-28,16:57:54,2008-06-29,00:46:27
449360.332275132,4427850.668253967,39628.0683680556,39628.0735763889,157.56877863298092,2008-06-29,01:38:27,2008-06-29,01:45:57
442931.3519379843,4425251.7441860465,39628.2113310185,39628.707974537,198.61445063244975,2008-06-29,05:04:19,2008-06-29,16:59:29
442374.2739726028,4424891.41438356,39628.7131944444,39629.0845949074,74.39307763492424,2008-06-29,17:07:00,2008-06-30,02:01:49
442695.5914529913,4425202.505555556,39629.0891550926,39629.6768055556,197.60045546490065,2008-06-30,02:08:23,2008-06-30,16:14:36
442382.39999999973,4424881.841880345,39629.6783796296,39629.681087963,168.00095237844496,2008-06-30,16:16:52,2008-06-30,16:20:46
466646.61521739146,4433621.24347826,39630.3596759259,39630.4789351852,82.66540993697572,2008-07-01,08:37:56,2008-07-01,11:29:40
466537.11705426354,4433775.885077524,39630.4797569444,39630.5106597222,43.258525170726514,2008-07-01,11:30:51,2008-07-01,12:15:21
442711.2366197183,4425221.514553989,39630.555150463,39630.8279861111,199.86407881340025,2008-07-01,13:19:25,2008-07-01,19:52:18
442428.3120141344,4424900.809893991,39630.829849537,39631.0898842593,199.1615675775156,2008-07-01,19:54:59,2008-07-02,02:09:26
442707.3977695167,4425214.5825278815,39631.0934259259,39631.6800925926,199.24319310845877,2008-07-02,02:14:32,2008-07-02,16:19:20
442432.110130719,4424917.853267972,39631.6821180556,39632.0850231481,196.54007224973128,2008-07-02,16:22:15,2008-07-03,02:02:26
442707.8449392711,4425218.228744938,39632.0874074074,39632.6497453704,199.70660980564205,2008-07-03,02:05:52,2008-07-03,15:35:38
442433.43130841135,4424914.272897197,39632.651412037,39633.0946759259,197.65153680168495,2008-07-03,15:38:02,2008-07-04,02:16:20
442701.71767068293,4425230.918875503,39633.0969791667,39633.7229282407,199.40416244442906,2008-07-04,02:19:39,2008-07-04,17:21:01
442378.81891891884,4424902.370270271,39633.7246412037,39633.7271875,130.59069645273138,2008-07-04,17:23:29,2008-07-04,17:27:09
442948.2653508773,4425139.951754386,39634.2379861111,39634.2893402778,197.16756832702933,2008-07-05,05:42:42,2008-07-05,06:56:39
442758.86204819253,4425230.071084339,39634.2893634259,39634.7019560185,176.12543825324732,2008-07-05,06:56:41,2008-07-05,16:50:49
442363.1333333333,4424891.309649122,39634.7058101852,39635.050787037,132.87215660172728,2008-07-05,16:56:22,2008-07-06,01:13:08
449394.1333333333,4427885.183333334,39635.0759606481,39635.0764351852,66.13811306652164,2008-07-06,01:49:23,2008-07-06,01:50:04
449789.31564885477,4427621.898854959,39635.3545601852,39635.4720717593,197.00010152281573,2008-07-06,08:30:34,2008-07-06,11:19:47
448959.95496688725,4427577.8480132455,39635.4837384259,39635.5044907407,171.72178079636123,2008-07-06,11:36:35,2008-07-06,12:06:28
442984.6074626863,4425264.507462687,39635.5255902778,39635.5273842593,199.71722509584305,2008-07-06,12:36:51,2008-07-06,12:39:26
442410.57181467186,4424892.527799232,39635.7377199074,39636.1045717593,198.37807338549098,2008-07-06,17:42:19,2008-07-07,02:30:35
442775.6196261682,4425257.9691588795,39636.1071064815,39636.183287037,184.39056374984133,2008-07-07,02:34:14,2008-07-07,04:23:56
441981.0294117646,4425216.552941177,39636.1838541667,39636.1843287037,159.31415505221122,2008-07-07,04:24:45,2008-07-07,04:25:26
442838.5145833334,4425397.929166666,39636.272974537,39636.681712963,198.59650047232174,2008-07-07,06:33:05,2008-07-07,16:21:40
442376.3355140185,4424886.990654206,39636.6868402778,39637.0738773148,170.73265651305104,2008-07-07,16:29:03,2008-07-08,01:46:23
442434.79111842124,4424922.114802629,39637.6853125,39638.0649421296,199.73695201457647,2008-07-08,16:26:51,2008-07-09,01:33:31
442669.5757894735,4425233.765263157,39638.0659837963,39638.0681481481,199.50340849226882,2008-07-09,01:35:01,2008-07-09,01:38:08
442146.0,4423810.7,39638.7273726852,39638.7273726852,0.0,2008-07-09,17:27:25,2008-07-09,17:27:25
442690.66118421045,4425215.174342105,39639.1101273148,39639.4146759259,197.34234213656586,2008-07-10,02:38:35,2008-07-10,09:57:08
441164.1589743592,4425283.55299145,39639.4347337963,39639.4913310185,199.17600257076634,2008-07-10,10:26:01,2008-07-10,11:47:31
441015.2736842104,4424478.304334366,39639.5028819444,39639.5240740741,199.15885619312226,2008-07-10,12:04:09,2008-07-10,12:34:40
440789.79195402307,4424733.756321838,39639.5252199074,39639.6177430556,198.2655038073202,2008-07-10,12:36:19,2008-07-10,14:49:33
442829.1,4424309.8,39639.6357291667,39639.6357291667,0.0,2008-07-10,15:15:27,2008-07-10,15:15:27
442775.1105263157,4425250.515789474,39640.0929976852,39640.0951851852,198.40637590560289,2008-07-11,02:13:55,2008-07-11,02:17:04
442495.09677419363,4424927.748387097,39640.7081828704,39640.7088657407,74.48227977173364,2008-07-11,16:59:47,2008-07-11,17:00:46
449352.1212121214,4427854.724242424,39642.0624884259,39642.064849537,199.8646792214187,2008-07-13,01:29:59,2008-07-13,01:33:23
442949.21081081097,4425268.177027028,39642.3139930556,39642.3157407407,197.4731627336732,2008-07-13,07:32:09,2008-07-13,07:34:40
442558.9781938324,4425771.426431718,39642.4044791667,39642.4372453704,199.6099446413975,2008-07-13,09:42:27,2008-07-13,10:29:38
442735.39943181816,4425362.153977274,39642.4409490741,39642.6887962963,199.32651604804528,2008-07-13,10:34:58,2008-07-13,16:31:52
442381.4440000001,4424893.584,39642.6933564815,39642.6964699074,130.51915568222418,2008-07-13,16:38:26,2008-07-13,16:42:55
442768.97688172036,4425235.891397848,39643.0884259259,39644.5444560185,109.88321072827482,2008-07-14,02:07:20,2008-07-15,13:04:01
442435.229375,4424873.825625,39644.551087963,39644.6018171296,199.960246048556,2008-07-15,13:13:34,2008-07-15,14:26:37
442801.60725388624,4425236.435751295,39644.6125347222,39644.7082986111,197.36752519093773,2008-07-15,14:42:03,2008-07-15,16:59:57
441353.0,4425203.1,39644.7166087963,39644.7166087963,0.0,2008-07-15,17:11:55,2008-07-15,17:11:55
442874.6376344085,4425192.420430109,39645.1077777778,39645.1099074074,199.4578652246353,2008-07-16,02:35:12,2008-07-16,02:38:16
443226.38877551013,4425508.608163265,39645.4400231481,39645.4707523148,199.06664713087147,2008-07-16,10:33:38,2008-07-16,11:17:53
442982.69514563115,4425268.661165049,39645.4767824074,39645.4791550926,199.90360176841858,2008-07-16,11:26:34,2008-07-16,11:29:59
442804.4011111112,4425286.808888888,39645.5794907407,39645.6565625,197.25133713107195,2008-07-16,13:54:28,2008-07-16,15:45:27
442420.7656804734,4424898.574556215,39645.6738541667,39646.0598726852,113.21660655587141,2008-07-16,16:10:21,2008-07-17,01:26:13
442722.5753246753,4425280.015584416,39646.063275463,39646.6427314815,198.0400212083844,2008-07-17,01:31:07,2008-07-17,15:25:32
442523.0204861113,4425710.966319442,39646.6444212963,39646.6689583333,69.0508508274183,2008-07-17,15:27:58,2008-07-17,16:03:18
442511.19722222205,4425713.892592595,39646.6694675926,39646.7008564815,159.12441673092786,2008-07-17,16:04:02,2008-07-17,16:49:14
442560.467721519,4425282.048734178,39646.7009837963,39646.7452083333,198.3091021619925,2008-07-17,16:49:25,2008-07-17,17:53:06
442371.2450819671,4424884.202459018,39646.749212963,39647.064212963,199.78090499342431,2008-07-17,17:58:52,2008-07-18,01:32:28
