443006.8703703704,4424680.840740741,39196.1873032407,39196.2563888889,193.13106948391103,2007-04-24,04:29:43,2007-04-24,06:09:12
442969.1428571428,4425043.285714286,39196.2568518519,39196.2607175926,163.312491867959,2007-04-24,06:09:52,2007-04-24,06:15:26
439928.07999999996,4426076.67,39196.6501736111,39196.6524305556,196.9420727016376,2007-04-24,15:36:15,2007-04-24,15:39:30
442734.06666666665,4425226.955555555,39197.061400463,39197.6574074074,182.47109360111517,2007-04-25,01:28:25,2007-04-25,15:46:40
439815.82000000007,4425882.34,39197.6641435185,39198.097962963,192.84016697791498,2007-04-25,15:56:22,2007-04-26,02:21:04
439775.8888888889,4425593.255555555,39198.0981365741,39198.1040162037,156.49319474057316,2007-04-26,02:21:19,2007-04-26,02:29:47
439755.6,4425280.0,39198.1217361111,39198.1217361111,0.0,2007-04-26,02:55:18,2007-04-26,02:55:18
439972.0,4426099.646875,39199.5076388889,39200.2492708333,31.834101212375792,2007-04-27,12:11:00,2007-04-28,05:58:57
442825.4142857143,4425397.971428571,39200.2598263889,39200.2615162037,175.15210532575625,2007-04-28,06:14:09,2007-04-28,06:16:35
442898.75,4425314.025,39202.1434259259,39202.1441898148,152.1721722257338,2007-04-30,03:26:32,2007-04-30,03:27:38
442768.35000000003,4425210.783333333,39202.4556018518,39202.4574768519,128.28671014558887,2007-04-30,10:56:04,2007-04-30,10:58:46
439946.48,4426081.52,39202.6377662037,39202.639525463,195.80178753009977,2007-04-30,15:18:23,2007-04-30,15:20:55
440369.2571428571,4426117.399999999,39210.469849537,39210.5497106481,37.71803282214225,2007-05-08,11:16:35,2007-05-08,13:11:35
442731.45499999996,4425372.809999999,39210.5544328704,39210.9999189815,183.74993877551017,2007-05-08,13:18:23,2007-05-08,23:59:53
442833.9199999999,4425258.82,39211.0002777778,39211.6057175926,75.89024970292198,2007-05-09,00:00:24,2007-05-09,14:32:14
442553.25,4425222.3,39211.6064351852,39211.6067939815,17.216561793784603,2007-05-09,14:33:16,2007-05-09,14:33:47
441194.9090909091,4425233.054545454,39213.3991666667,39213.4010648148,194.7339210308449,2007-05-11,09:34:48,2007-05-11,09:37:32
440302.8333333333,4425881.622222222,39213.4319560185,39213.4338657407,173.7507697824836,2007-05-11,10:22:01,2007-05-11,10:24:46
439912.19999999995,4426072.966666667,39213.6059259259,39213.6076273148,193.71510008247134,2007-05-11,14:32:32,2007-05-11,14:34:59
442910.25,4425330.125,39214.1157291667,39214.1165277778,155.5419557550541,2007-05-12,02:46:39,2007-05-12,02:47:48
441901.95,4425196.65,39214.6871180556,39214.6872337963,14.822280526217321,2007-05-12,16:29:27,2007-05-12,16:29:37
439945.52,4426050.08,39216.4940393518,39216.4961111111,194.83944672490375,2007-05-14,11:51:25,2007-05-14,11:54:24
441988.69999999995,4425190.925,39223.0069328704,39223.0077199074,30.754674441523107,2007-05-21,00:09:59,2007-05-21,00:11:07
442704.8625,4425482.9125,39228.4627662037,39228.4645486111,183.56058945227934,2007-05-26,11:06:23,2007-05-26,11:08:57
440549.0352941177,4423033.429411764,39228.5309259259,39230.0173263889,145.71784379409257,2007-05-26,12:44:32,2007-05-28,00:24:57
442772.9777777778,4425251.755555556,39230.0335648148,39230.035474537,138.61175996286332,2007-05-28,00:48:20,2007-05-28,00:51:05
441923.4083333334,4425105.725,39232.6544444444,39233.0615856481,144.41000657849165,2007-05-30,15:42:24,2007-05-31,01:28:41
442779.39999999997,4425240.385714286,39233.0634490741,39233.6421296296,91.60360254941506,2007-05-31,01:31:22,2007-05-31,15:24:40
441918.74583333335,4425093.354166665,39233.6435069444,39234.0650578704,161.7408420901263,2007-05-31,15:26:39,2007-06-01,01:33:41
442780.125,4425227.05,39234.0674421296,39234.069375,116.88477231899981,2007-06-01,01:37:07,2007-06-01,01:39:54
439841.55555555545,4425958.033333334,39235.2476157407,39235.2492476852,99.78426729736753,2007-06-02,05:56:34,2007-06-02,05:58:55
439797.25999999995,4426055.5,39235.6523726852,39235.6529976852,190.22147618007725,2007-06-02,15:39:25,2007-06-02,15:40:19
441922.8238095238,4425080.071428571,39237.6555208333,39238.0674537037,118.23671172735743,2007-06-04,15:43:57,2007-06-05,01:37:08
442770.13999999996,4425232.173333334,39238.0695833333,39241.5213888889,24.78003228373375,2007-06-05,01:40:12,2007-06-08,12:30:48
439833.48571428575,4425956.428571428,39241.528587963,39241.5302199074,132.31817713356892,2007-06-08,12:41:10,2007-06-08,12:43:31
441914.3,4425095.999999999,39242.321724537,39242.3233217593,199.8000250257685,2007-06-09,07:43:17,2007-06-09,07:45:35
441895.74000000005,4425076.12,39242.6456712963,39242.6466666667,195.77796096599937,2007-06-09,15:29:46,2007-06-09,15:31:12
441914.69565217383,4425105.782608695,39243.6275810185,39244.0140625,145.59258222849544,2007-06-10,15:03:43,2007-06-11,00:20:15
442777.4,4425228.477777776,39244.0164236111,39244.0184606481,114.10595952918511,2007-06-11,00:23:39,2007-06-11,00:26:35
448609.2272727272,4427042.3,39244.2202199074,39244.2557638889,188.5458564911034,2007-06-11,05:17:07,2007-06-11,06:08:18
442805.06666666665,4425238.266666667,39244.2696412037,39245.0308912037,158.00455689631374,2007-06-11,06:28:17,2007-06-12,00:44:29
448376.21666666673,4426608.716666667,39245.0441435185,39245.0459027778,130.23678435885364,2007-06-12,01:03:34,2007-06-12,01:06:06
448348.23333333334,4426574.7,39246.0903472222,39246.2342361111,21.540659228170515,2007-06-13,02:10:06,2007-06-13,05:37:18
442864.52499999997,4425259.487500001,39246.2429398148,39246.2682175926,17.61391495399624,2007-06-13,05:49:50,2007-06-13,06:26:14
448379.71666666673,4426603.149999999,39246.2778819444,39246.2794675926,123.43176252454764,2007-06-13,06:40:09,2007-06-13,06:42:26
441916.7833333334,4425064.3,39246.6507060185,39246.6521875,145.60374308400245,2007-06-13,15:37:01,2007-06-13,15:39:09
448368.0300000001,4426631.709999999,39247.2939814815,39247.4019328704,28.668100739578833,2007-06-14,07:03:20,2007-06-14,09:38:47
442950.9571428572,4425220.471428571,39247.4151388889,39247.4169675926,193.17031345435893,2007-06-14,09:57:48,2007-06-14,10:00:26
442693.90588235296,4425230.517647058,39253.4937847222,39261.6198032407,195.23229753300532,2007-06-20,11:51:03,2007-06-28,14:52:31
441938.79375,4425144.837499999,39261.6246180556,39261.6288194444,176.70803603701685,2007-06-28,14:59:27,2007-06-28,15:05:30
441902.8181818181,4425100.154545454,39267.6561342593,39267.6584953704,197.26593725172322,2007-07-04,15:44:50,2007-07-04,15:48:14
441952.18235294125,4425118.05882353,39269.5951967593,39269.9622222222,62.60199677330087,2007-07-06,14:17:05,2007-07-06,23:05:36
444279.1,4421244.84,39269.9812037037,39269.9836921296,89.11621625723565,2007-07-06,23:32:56,2007-07-06,23:36:31
455766.375,4426544.3875,39270.0280439815,39270.0305208333,192.67143016065987,2007-07-07,00:40:23,2007-07-07,00:43:57
521126.21176470595,4451283.94117647,39270.1513194444,39270.1949305556,194.73245748956495,2007-07-07,03:37:54,2007-07-07,04:40:42
521234.79999999993,4451450.6375,39270.1956134259,39270.1995949074,117.85499565100574,2007-07-07,04:41:41,2007-07-07,04:47:25
521083.86875,4451207.05,39270.2611689815,39270.2793402778,150.24253725200577,2007-07-07,06:16:05,2007-07-07,06:42:15
450898.74583333335,4421233.666666666,39270.4261111111,39270.5177893518,153.8256805607871,2007-07-07,10:13:36,2007-07-07,12:25:37
442970.3222222223,4425270.633333334,39270.5260532407,39270.5282407407,172.2725747181019,2007-07-07,12:37:31,2007-07-07,12:40:40
440314.02777777775,4425158.811111111,39271.4599305556,39271.4748263889,58.402140371701456,2007-07-08,11:02:18,2007-07-08,11:23:45
442886.11714285705,4425207.005714284,39271.4843287037,39277.4860300926,181.53622228081846,2007-07-08,11:37:26,2007-07-14,11:39:53
443054.9083333334,4425182.441666666,39277.4863657407,39277.6073611111,191.14625290597658,2007-07-14,11:40:22,2007-07-14,14:34:36
439839.37142857147,4425957.185714285,39277.6146759259,39277.617037037,128.98255696023398,2007-07-14,14:45:08,2007-07-14,14:48:32
442948.81999999995,4425225.959999999,39278.2344328704,39278.236400463,190.76000629068471,2007-07-15,05:37:35,2007-07-15,05:40:25
441924.8947368421,4425139.263157895,39278.6237615741,39279.0693634259,37.282301431428905,2007-07-15,14:58:13,2007-07-16,01:39:53
442757.01428571425,4425210.4428571435,39279.0713425926,39279.0775462963,86.92640565458865,2007-07-16,01:42:44,2007-07-16,01:51:40
202922.51111111112,2494562.6833333336,39280.4297800926,39280.4345601852,122.9011391323533,2007-07-17,10:18:53,2007-07-17,10:25:46
218217.75,2472485.55,39280.5003587963,39280.5009490741,71.56675205700594,2007-07-17,12:00:31,2007-07-17,12:01:22
212540.4,2472575.2800000003,39281.2346759259,39281.235150463,102.66805734961608,2007-07-18,05:37:56,2007-07-18,05:38:37
216009.7,2472970.9,39281.3723263889,39281.3723263889,0.0,2007-07-18,08:56:09,2007-07-18,08:56:09
439993.77777777775,4426110.627777779,39413.9732986111,39414.3737962963,125.36801825009411,2007-11-27,23:21:33,2007-11-28,08:58:16
444730.6666666667,4425841.733333332,39414.3907407407,39414.4207407407,173.15016604101854,2007-11-28,09:22:40,2007-11-28,10:05:52
442772.7,4425472.375,39414.4329282407,39414.4330439815,142.4613982801921,2007-11-28,10:23:25,2007-11-28,10:23:35
439977.64166666666,4426094.841666667,39414.983587963,39414.9839814815,179.44985371962784,2007-11-28,23:36:22,2007-11-28,23:36:56
442724.02999999997,4425207.92,39415.5238541667,39415.9892592593,95.76982823433977,2007-11-29,12:34:21,2007-11-29,23:44:32
439984.84666666674,4426071.733333333,39415.9959490741,39415.9964583333,189.30129423750873,2007-11-29,23:54:10,2007-11-29,23:54:54
440228.60000000003,4426216.708333334,39436.0667361111,39436.0671875,172.99158939091868,2007-12-20,01:36:06,2007-12-20,01:36:45
442755.68695652176,4425473.486956521,39436.5070486111,39436.5081597222,133.56945758686564,2007-12-20,12:10:09,2007-12-20,12:11:45
442756.29999999993,4425847.5875,39436.7391782407,39436.7394907407,46.96221885741526,2007-12-20,17:44:25,2007-12-20,17:44:52
442719.89,4425427.13,39436.8041782407,39436.8053703704,112.70106476849736,2007-12-20,19:18:01,2007-12-20,19:19:44
442792.6,4425358.481818182,39437.3835532407,39437.3839699074,19.20650931343727,2007-12-21,09:12:19,2007-12-21,09:12:55
439970.9,4426085.449999999,39450.8396180556,39450.8396527778,10.444615837742699,2008-01-03,20:09:03,2008-01-03,20:09:06
440241.2266666667,4424971.466666667,39451.8148726852,39451.9212384259,48.998163230324934,2008-01-04,19:33:25,2008-01-04,22:06:35
440187.10625,4426091.893750001,39451.924537037,39451.9251041667,118.71836420721804,2008-01-04,22:11:20,2008-01-04,22:12:09
442690.7,4425214.0,39452.4332407407,39452.4332407407,0.0,2008-01-05,10:23:52,2008-01-05,10:23:52
444661.6,4427768.3,39452.9584259259,39452.9584259259,0.0,2008-01-05,23:00:08,2008-01-05,23:00:08
440024.5,4426092.4,39454.9851851852,39454.9851851852,0.0,2008-01-07,23:38:40,2008-01-07,23:38:40
442911.5,4425394.699999999,39456.4738194444,39456.4739351852,6.868041933223873,2008-01-09,11:22:18,2008-01-09,11:22:28
442928.22666666674,4425403.073333333,39458.4583101852,39458.4587962963,178.97276329040628,2008-01-11,10:59:58,2008-01-11,11:00:40
439938.78750000003,4426083.3125,39470.8714583333,39470.8759837963,196.14729159462772,2008-01-23,20:54:54,2008-01-23,21:01:25
439902.76428571437,4426060.142857143,39471.9818055556,39471.9833680556,197.46721246842102,2008-01-24,23:33:48,2008-01-24,23:36:03
440314.3,4424114.1,39472.9160416667,39472.9162152778,63.7844024819317,2008-01-25,21:59:06,2008-01-25,21:59:21
440767.98888888885,4425828.600000001,39473.8485069444,39473.8488773148,70.07859873065442,2008-01-26,20:21:51,2008-01-26,20:22:23
439859.5285714286,4426042.885714285,39473.9405439815,39473.9408912037,43.30935233886935,2008-01-26,22:34:23,2008-01-26,22:34:53
464943.3,4413241.8,39475.9886342593,39475.9886342593,0.0,2008-01-28,23:43:38,2008-01-28,23:43:38
442900.39310344827,4425575.786206897,39478.7634027778,39478.7828819444,62.51567803360245,2008-01-31,18:19:18,2008-01-31,18:47:21
442090.8,4424226.6,39478.8173263889,39478.8201041667,183.84972123984193,2008-01-31,19:36:57,2008-01-31,19:40:57
441870.3571428572,4424312.185714285,39478.9118981481,39478.9122453704,19.900753755310483,2008-01-31,21:53:08,2008-01-31,21:53:38
442909.78461538465,4425301.692307692,39479.5214814815,39479.5219212963,155.26715686197704,2008-02-01,12:30:56,2008-02-01,12:31:34
440103.0333333334,4426141.266666667,39482.993125,39483.3868634259,180.97977787596903,2008-02-04,23:50:06,2008-02-05,09:17:05
