442550.02499999997,4426584.325,39225.075462963,39225.0761689815,102.50482915434802,2007-05-23,01:48:40,2007-05-23,01:49:41
442930.50000000006,4425259.2,39225.4193634259,39225.4257986111,139.64018046402526,2007-05-23,10:03:53,2007-05-23,10:13:09
442211.2181818182,4428652.9363636365,39226.6666087963,39226.6690277778,186.19371632809265,2007-05-24,15:59:55,2007-05-24,16:03:24
442210.92307692306,4428682.36923077,39227.2175578704,39227.2205092593,146.73530590831876,2007-05-25,05:13:17,2007-05-25,05:17:32
444274.8875,4421254.537500001,39227.3068634259,39227.3087847222,78.14985604586296,2007-05-25,07:21:53,2007-05-25,07:24:39
451406.67096774204,4419392.219354839,39227.3329282407,39227.3604513889,191.37737588342242,2007-05-25,07:59:25,2007-05-25,08:39:03
449620.6235294118,4417649.229411765,39227.4084722222,39227.4166782407,189.41164166942215,2007-05-25,09:48:12,2007-05-25,10:00:01
441331.6714285714,4435676.685714286,39228.2846875,39228.2867824074,180.73123692359806,2007-05-26,06:49:57,2007-05-26,06:52:58
449353.8567567567,4432808.535135135,39228.3546296296,39228.3752199074,177.5034084179796,2007-05-26,08:30:40,2007-05-26,09:00:19
449313.04545454547,4433664.245454545,39228.381400463,39228.4132523148,130.2544049162369,2007-05-26,09:09:13,2007-05-26,09:55:05
442191.0857142857,4428559.857142857,39228.424212963,39228.4249652778,192.09705880101524,2007-05-26,10:10:52,2007-05-26,10:11:57
441798.33749999997,4427772.6125,39228.475462963,39228.4811574074,168.40760077896002,2007-05-26,11:24:40,2007-05-26,11:32:52
442491.10000000003,4427543.816666667,39228.5489699074,39228.5507986111,118.44002701791231,2007-05-26,13:10:31,2007-05-26,13:13:09
442173.5111111111,4428500.922222222,39230.0430092593,39230.0492361111,181.26913692076764,2007-05-28,01:01:56,2007-05-28,01:10:54
441753.44999999995,4426046.4875,39233.109212963,39233.1106712963,166.142589362639,2007-05-31,02:37:16,2007-05-31,02:39:22
442668.3000000001,4425271.006250001,39237.0913657407,39239.6346064815,190.80445487443674,2007-06-04,02:11:34,2007-06-06,15:13:50
442218.45454545453,4428788.9363636365,39239.6672916667,39239.6724305556,193.24970892618575,2007-06-06,16:00:54,2007-06-06,16:08:18
442766.19999999995,4425254.466666666,39241.0880902778,39241.0893055556,155.10464209690517,2007-06-08,02:06:51,2007-06-08,02:08:36
442310.5,4428775.416666667,39244.6720023148,39244.673587963,134.98629560052728,2007-06-11,16:07:41,2007-06-11,16:09:58
442643.7083333333,4425277.091666666,39245.0648726852,39245.0663425926,180.20335734950325,2007-06-12,01:33:25,2007-06-12,01:35:32
449485.06744186033,4428030.574418605,39245.4826967593,39245.511712963,198.72908695060937,2007-06-12,11:35:05,2007-06-12,12:16:52
448881.1333333333,4426925.666666667,39245.5242013889,39245.5260648148,109.15612671727921,2007-06-12,12:34:51,2007-06-12,12:37:32
442743.19999999984,4425225.214285715,39253.9997685185,39254.0043865741,166.62727867906747,2007-06-20,23:59:40,2007-06-21,00:06:19
441840.97857142857,4436118.0785714295,39254.4744791667,39254.5160069444,175.33659059101151,2007-06-21,11:23:15,2007-06-21,12:23:03
442111.93749999994,4436247.075,39254.5224884259,39254.5681481481,162.40837416847984,2007-06-21,12:32:23,2007-06-21,13:38:08
441929.0933333334,4436054.9799999995,39254.5737268519,39254.577650463,187.19308213713455,2007-06-21,13:46:10,2007-06-21,13:51:49
441493.0888888889,4435737.48888889,39254.6050115741,39254.6083101852,180.15840252418394,2007-06-21,14:31:13,2007-06-21,14:35:58
442791.65,4425243.375,39259.0208333333,39259.0226041667,163.90027455736222,2007-06-26,00:30:00,2007-06-26,00:32:33
442783.6777777778,4425245.111111111,39260.0165162037,39260.0190740741,181.37717607238116,2007-06-27,00:23:47,2007-06-27,00:27:28
444186.8384615385,4435264.330769232,39260.4858912037,39260.4998842593,184.663721396482,2007-06-27,11:39:41,2007-06-27,11:59:50
