442799.52999999997,4425283.87,39416.3299537037,39416.4123842593,197.2087726243885,2007-11-30,07:55:08,2007-11-30,09:53:50
442343.9375,4427298.3625,39416.4426851852,39416.5259490741,197.8424878533232,2007-11-30,10:37:28,2007-11-30,12:37:22
440607.1,4424742.800000001,39416.5496180556,39416.5515740741,156.78293912274142,2007-11-30,13:11:27,2007-11-30,13:14:16
442249.0,4428137.966666668,39417.0880555556,39417.0890856481,135.81226012357254,2007-12-01,02:06:48,2007-12-01,02:08:17
442258.9857142857,4428993.8,39417.1912268519,39417.2158101852,177.6236752233998,2007-12-01,04:35:22,2007-12-01,05:10:46
442324.36666666664,4428257.033333333,39417.2195949074,39417.2214351852,102.14700191389645,2007-12-01,05:16:13,2007-12-01,05:18:52
441322.0,4424714.600000001,39418.06125,39418.0632523148,195.75213919629653,2007-12-02,01:28:12,2007-12-02,01:31:05
441034.55,4425674.175000001,39421.4174189815,39421.4904513889,111.71665050476085,2007-12-05,10:01:05,2007-12-05,11:46:15
440737.22000000003,4424682.12,39421.5106944444,39421.5135185185,196.94783573300637,2007-12-05,12:15:24,2007-12-05,12:19:28
442079.72500000003,4428968.824999999,39423.1616435185,39423.1850231481,152.93845167229605,2007-12-07,03:52:46,2007-12-07,04:26:26
442124.34,4428409.4799999995,39423.1862037037,39423.4361342593,162.22358028350195,2007-12-07,04:28:08,2007-12-07,10:28:02
440435.9,4424923.1,39423.4606134259,39423.4606134259,0.0,2007-12-07,11:03:17,2007-12-07,11:03:17
440234.9666666666,4425554.3,39424.0900925926,39424.0916435185,149.21796138553836,2007-12-08,02:09:44,2007-12-08,02:11:58
440637.92000000004,4424724.319999999,39424.1342824074,39425.2752314815,135.38275370220836,2007-12-08,03:13:22,2007-12-09,06:36:20
441343.5,4424521.640000001,39425.2820949074,39425.2929861111,114.54090972223108,2007-12-09,06:46:13,2007-12-09,07:01:54
441407.66,4424516.75,39425.4042939815,39425.529375,120.20224623542921,2007-12-09,09:42:11,2007-12-09,12:42:18
