442888.72857142857,4425251.628571427,39594.344537037,39594.345462963,3.201562118647337,2008-05-26,08:16:08,2008-05-26,08:17:28
443002.14891304343,4427015.780434784,39594.5419791667,39594.5749652778,190.5294727858916,2008-05-26,13:00:27,2008-05-26,13:47:57
442934.6811320754,4425431.310691823,39594.5800810185,39597.3332407407,143.5982242228393,2008-05-26,13:55:19,2008-05-29,07:59:52
443881.13333333336,4424361.222222222,39597.621087963,39597.6213310185,184.3268835515616,2008-05-29,14:54:22,2008-05-29,14:54:43
442830.69931034493,4427103.052413793,39600.4272222222,39600.4924421296,194.33522583417417,2008-06-01,10:15:12,2008-06-01,11:49:07
