443100.9666666666,4425188.866666666,39328.3027083333,39328.304837963,16.058953888729196,4
441277.1,4416408.7,39328.3570601852,39328.3570601852,0.0,-1
309789.9,3791033.3,39329.3725462963,39329.3725462963,0.0,-1
309328.73333333334,3791667.6999999997,39329.6284953704,39329.6289930556,21.56780007316268,-1
305228.3,3790500.4875000003,39330.2400810185,39330.2810300926,48.84362803899656,-1
309303.63333333336,3791678.983333334,39330.3031944444,39330.4562847222,37.66709439283062,-1
308860.6666666667,3792084.033333333,39330.4981134259,39330.4985416667,37.01378121722884,-1
442099.9,4425123.5,39332.0404398148,39332.0408449074,31.50142853903602,425
442096.55,4425147.1,39338.2215277778,39338.2217013889,35.662445232522586,425
442178.05000000005,4426415.55,39338.2976388889,39338.2979976852,25.937231926337056,-1
442225.2,4426342.15,39339.0311342593,39339.0314930556,35.992360300435536,-1
442117.6,4427257.8,39344.0303819444,39344.0303819444,0.0,-1
442141.0,4425193.475,39345.6207523148,39345.6215277778,31.32091952673165,-1
442251.525,4426348.875,39346.026712963,39346.0269328704,44.1617481540561,-1
442220.3666666667,4426365.3,39346.1582060185,39346.1584837963,41.231056256115615,432
442186.00000000006,4426385.425,39347.0293055556,39347.032037037,20.999999999871942,432
440589.9600000001,4424415.78,39347.2094560185,39347.2283101852,37.77644768897932,-1
440577.04999999993,4424403.8,39347.306724537,39347.351400463,39.50721453139039,-1
442256.1,4424139.5,39357.6147916667,39357.6147916667,0.0,-1
442836.7,4425250.7,39358.3331944444,39358.3331944444,0.0,4
464248.89999999997,4419746.166666667,39358.4804861111,39358.4960532407,24.033310217445344,-1
523396.65,4501196.1,39359.1831944444,39359.1846064815,36.27519813854073,-1
522920.8,4500171.5,39359.3039930556,39359.3039930556,0.0,-1
442170.3,4426334.2,39361.0318171296,39361.0318171296,0.0,431
442194.7,4426359.9,39361.4148611111,39361.4148611111,0.0,432
442090.2,4425156.4,39361.6040972222,39361.6040972222,0.0,13
442842.9,4427024.7,39362.3256134259,39362.3256134259,0.0,80
442983.3,4427147.6,39362.4456365741,39362.4456365741,0.0,-1
442168.9,4426337.9,39363.0307407407,39363.0307407407,0.0,431
442098.8,4425163.7,39363.6187962963,39363.6187962963,0.0,13