442769.05000000005,4425489.0,39416.6085300926,39416.6085416667,0.36055512712342874,190
461017.41666666674,4439716.3,39416.8537037037,39416.853900463,39.20051020094774,-1
446771.5,4426460.1,39418.8392939815,39418.8392939815,0.0,-1
444324.1,4420912.1,39419.3201736111,39419.3201736111,0.0,127