329620.3647058823,3340148.5098039196,40222.9002430556,40222.901412037,42.630740082680255,-1
329012.88333333324,3339483.5333333337,40224.5149884259,40224.5156597222,49.188311619764455,-1
359838.2663994173,3305243.0687317806,40226.5145949074,40226.5761458333,49.48989795899767,-1
360112.48064516135,3305773.667741936,40226.6242013889,40226.6280439815,43.48850422812907,-1
365702.03529411764,3308220.1823529415,40226.8740393519,40228.4220601852,45.43886002088579,-1
363960.1979020979,3285793.3839160837,40228.4916550926,40228.5281828704,47.37013827305691,-1
365696.44,3308224.38,40228.610474537,40228.6105671296,49.502525188083304,-1
365761.51111111115,3308233.533333333,40299.0244791667,40299.0246643518,49.9447694958884,-1
223663.53461538468,3350037.0538461534,40299.5230439815,40299.5236226852,47.622368693723864,-1