442063.24313725496,4429180.023529411,39744.7553587963,39745.0816435185,36.472592449915716,5
442576.05999999994,4427969.860000001,39745.0917708333,39745.0928125,47.89864298706917,11
442581.5333333333,4427962.850000001,39745.4273032407,39745.4281712963,48.03800578656057,11
442578.6818181818,4427955.372727274,39745.5061226852,39745.6661921296,38.246045547196765,11
442087.73999999993,4428666.140000001,39745.6700694444,39745.6703009259,40.69889433423951,-1
442319.4742857142,4425877.277142856,39746.2216087963,39746.2234027778,40.669644700030226,83
442581.4733333333,4427971.54,39746.4425462963,39746.4432986111,49.9632865204731,11
442146.5375,4429221.8125,39746.7728819444,39746.7736921296,17.55591068560794,5
450188.4555555556,4424595.899999999,39747.4028125,39747.403275463,45.96281105433937,-1
442579.57999999996,4428031.340000001,39747.5997916667,39747.6000231481,44.851867296682194,11
442122.8619047618,4429181.066666667,39747.7874652778,39748.2420601852,30.54128353527581,5
441583.456,4428303.572,39748.337349537,39748.424837963,47.200953379456855,-1
442516.29090909095,4427960.545454546,39748.4456365741,39748.4461574074,41.901909264402846,11
442110.1481481482,4429190.551851852,39748.8038078704,39748.8051967593,23.39444378513779,5
443912.96249999997,4428598.0125,39749.257349537,39749.2577546296,36.75894448978885,65
442578.0666666666,4427961.0,39749.3235763889,39749.4396990741,43.25101154870611,11
442575.72083333344,4427967.024999999,39749.4818865741,39749.8565162037,47.62877281643944,11
442117.9428571428,4429185.071428572,39749.8608564815,39749.8618981481,47.72305522502206,5
442416.6389473682,4427070.990526314,39750.3033912037,39750.3131712963,20.18142710559212,30
444679.5400000001,4423425.359999999,39750.4209606481,39750.4222337963,41.50228909341021,-1
441911.9911764706,4428878.123529412,39750.5688541667,39750.5715162037,41.876126850506836,3
442573.46,4427969.53,39751.0785532407,39751.1543865741,44.54492114691777,11
442574.07142857136,4427962.071428572,39751.1815740741,39751.1826736111,35.66020190626976,11
442581.23124999995,4427935.062499999,39751.3049074074,39751.3548611111,49.24682730897494,11
441805.31428571424,4428242.8,39751.3592013889,39751.4840625,42.973945594958835,-1
442564.024,4427963.436000001,39751.4880555556,39751.7577662037,43.10011600910047,11
442114.3823529411,4429196.317647059,39751.7635532407,39751.7644212963,39.667619035892585,5
442574.7181818182,4427996.654545455,39752.0924189815,39752.0929398148,35.61684994486574,11
442441.7642857142,4428644.771428571,39752.1657175926,39752.1663541667,28.939419482782025,10
442558.63125000003,4427970.018750001,39752.2224189815,39752.223287037,42.3483175578855,11
442572.7346153846,4428954.307692307,39752.3927662037,39752.3940393519,44.047360874778406,84
442578.10434782616,4427967.930434782,39752.4609143519,39752.710625,49.386739110444616,11
442144.76363636367,4429176.081818181,39752.7169907407,39752.7174537037,49.01938392089843,5
442574.14166666666,4427975.533333332,39753.2210069444,39753.2215856481,41.51939305917972,11
443143.88800000004,4426883.344,39753.4108333333,39753.4121064815,49.51767361245352,-1
442581.99999999994,4427961.50625,39753.4625810185,39753.463275463,44.714650842699385,11
440896.89117647056,4426712.152941177,39754.0687384259,39754.070474537,44.971991283495335,-1
442570.55,4427965.645,39754.1597569444,39754.221087963,43.06750515212845,11
442391.3,4425991.1,39754.2309837963,39754.2309837963,0.0,-1
442581.8999999999,4427990.105555556,39754.4616435185,39754.4625115741,48.910223879525944,11
442097.2294117647,4429206.664705882,39754.8753472222,39754.8762731481,40.73143748997518,5
442572.6235294117,4427960.623529413,39755.2605555556,39755.3526967593,37.389971917513854,11
442579.1666666667,4427980.358333333,39755.4275231481,39755.4281018519,42.75067250899691,11
442108.92983425345,4429244.025966848,39755.8442824074,39755.8814351852,48.088460154178364,5
442571.67500000005,4427984.95625,39756.049375,39756.0501273148,29.401530572257183,11
442566.5347826086,4427962.208695652,39756.4402199074,39756.8030787037,49.417102302705544,11
442108.035,4429195.79,39756.8072453704,39756.8082291667,29.83035366863985,5
442565.66875,4427956.131250001,39757.0182407407,39757.130474537,49.66145386492183,11
441965.01999999996,4427064.44,39757.1892708333,39757.1899652778,35.42654372003495,63
442581.0764705883,4427968.405882353,39757.2571527778,39757.257962963,37.90514476949615,11
442237.05789473694,4428123.657894736,39757.3009953704,39757.3827662037,43.10406013402393,-1
441683.9833333333,4428573.05,39757.4051157407,39757.406099537,45.01222056270328,85
441836.62810457515,4427805.690196076,39757.4885763889,39757.517662037,25.539185578721977,-1
442580.23636363633,4427948.690909091,39757.5490856481,39757.5496064815,43.587727630653475,11
442080.6074074074,4429188.72962963,39757.8608680556,39758.1737037037,44.45773273572333,5
441819.9166666667,4427805.283333332,39758.3543634259,39758.3569328704,48.60874406972537,-1
442586.55833333335,4428024.191666666,39758.5007175926,39758.5013541667,27.71154993879448,11
442115.8055555555,4429194.911111111,39758.827974537,39759.0815625,45.025881446298044,5
442578.2538461539,4427963.415384616,39759.086712963,39759.1464467593,38.302088715365386,11
442562.36153846147,4427966.215384616,39759.1866782407,39759.4,45.72800017491773,11
442584.04999999993,4427956.037500001,39759.5407175926,39759.5415277778,35.27973922804661,11
442113.5217391304,4429209.352173911,39759.8125115741,39759.8137268518,27.182715096119846,5
445961.04827586206,4418035.1482758615,39760.2206365741,39760.2552662037,24.486118516617996,86
442563.13684210525,4427957.768421053,39760.3914699074,39760.7946875,31.8286034880293,11
442119.18076923076,4429206.492307692,39760.7997800926,39760.8010532407,43.77327952073325,5
441673.77333333326,4428584.199999999,39761.1994907407,39761.2002430556,48.08846015436755,85
442581.86428571434,4427959.557142857,39761.4321643518,39761.4328587963,43.380756102062854,11
442116.0,4429185.934615385,39761.8041203704,39761.8054513889,40.46047453989717,5
442522.64,4428036.933333333,39762.057962963,39762.0586574074,36.38296304601794,11
442172.46153846156,4429095.9,39762.1784722222,39762.1791087963,36.10609366870848,5
442577.4,4427959.400000001,39762.3494328704,39762.349837963,35.16503945686584,11
442547.51491712744,4428037.269337016,39762.4680555556,39762.5052083333,36.147475706979364,11
442532.49166666664,4428022.933333334,39762.6022569444,39762.6035300926,6.824954212185314,11
442127.45384615386,4429188.619230769,39762.8354398148,39763.1144907407,42.60293417087913,5
442573.00714285707,4427957.203571429,39763.118599537,39763.1728240741,47.57415264620693,11
442576.33888888895,4427958.277777778,39763.1985763889,39763.2951388889,45.7629763019971,11
442577.8055555556,4427958.522222222,39763.3323842593,39763.4255439815,44.65926555622808,11
442568.9,4427986.228571428,39763.4496875,39763.8037962963,36.841552626720805,11
442122.3552631579,4429189.007894737,39763.8088310185,39764.2749884259,17.09853794885332,5
442552.92000000004,4427971.91,39764.3339699074,39764.4000925926,47.36010979707216,11
442165.11403508764,4428327.246491227,39764.4839351852,39764.49875,28.11138559359066,-1
442538.39999999985,4428039.596794872,39764.5496412037,39764.586099537,20.009247861755544,11
442120.07368421054,4429212.926315791,39764.8352777778,39764.8363194444,42.26121153018251,5
441266.75384615373,4425150.9,39765.2317708333,39765.2324074074,47.950495305283496,-1
443925.8571428571,4428591.071428572,39765.3007523148,39765.3010416667,32.724914056319456,65
442576.3,4427967.021428571,39765.4322569444,39765.4329513889,41.62030754348316,11
442120.6000000002,4429208.291304349,39765.9257407407,39765.9268402778,36.32698721352449,5
442443.6352941176,4428645.717647059,39766.1627777778,39766.1635300926,43.172676544256596,10
442571.74375,4427968.0625,39766.2290393518,39766.2297916667,45.743305521217664,11
443921.75,4428589.08,39766.2976157407,39766.2980787037,42.99418565341132,65
441848.39933993295,4426981.769746978,39766.4100925926,39766.5064467593,34.44444802845839,-1
442572.07499999995,4427957.116666666,39766.5219907407,39766.8493518519,35.24045970191983,11
442128.38,4429133.899999999,39766.8536342593,39766.8538657407,40.540843602476514,5
442547.10833333334,4427985.774999999,39767.3376736111,39767.3382523148,45.23914234383071,11
443128.252173913,4426897.365217391,39767.4308912037,39767.4320486111,48.86921321242822,62
442553.8357142857,4427912.942857142,39767.4770486111,39767.4777430556,46.46686991793588,11
442124.3190476191,4429160.585714285,39768.0574768518,39768.0585763889,36.57758876688037,5
442579.10952380946,4427976.1095238095,39768.452974537,39768.4540162037,39.054833248259676,11
455400.0,4428600.7,39769.0504050926,39769.0505787037,11.440279716758722,-1
442944.985,4427011.91,39769.380474537,39769.3814814815,4.509988913511098,-1
442094.5399999999,4429237.445000001,39769.7503125,39769.7513541667,33.71794774225934,5
442565.51000000007,4427966.025,39770.3516550926,39770.4323032407,43.888153299122514,11
442559.8916666666,4427918.775,39770.4880787037,39770.4886574074,39.29834602150108,11
442018.0976470588,4428672.340000002,39770.5406597222,39770.5517708333,38.898843170301916,20
453167.46923076914,4417536.492307693,39770.9872106481,39770.9878472222,42.67551991453152,-1
442557.4851851852,4427987.659259259,39771.2889699074,39771.2904166667,16.08011193970515,11
442546.80666666664,4427973.76,39771.4353587963,39771.4361689815,45.326041079771116,11
442566.77777777775,4427960.733333333,39772.0169097222,39772.1681712963,43.58222114572306,11
442579.96428571426,4427978.892857143,39772.1909027778,39772.1915393519,33.60431519909311,11
442573.8263157894,4427956.04736842,39772.4416550926,39772.4425810185,36.20662922722259,11
442116.19999999995,4429177.087499999,39772.6136458333,39773.0929166667,33.922853653535405,5
442445.76,4428641.072,39773.1621875,39773.2167824074,48.17146458220544,10
442569.2842105262,4427967.394736843,39773.2212384259,39773.2704861111,41.40978145315161,11
442586.7687499999,4427951.968749999,39773.3060763889,39773.3913078704,42.50270579639201,11
442586.08888888895,4427968.505555556,39773.4370486111,39773.4379166667,47.465882484395706,11
442122.27894736844,4429181.815789473,39773.9555092593,39774.3846759259,42.58368232034879,5
442589.6457142858,4427958.7885714285,39774.436087963,39774.9727083333,44.64000448042849,11
442108.50000000006,4429172.188235294,39774.9772800926,39775.3798958333,49.239212016998806,5
441995.1736842107,4427079.447368421,39775.4402893518,39775.4411574074,40.93519268321114,63
442563.91250000003,4427946.7,39775.4855671296,39775.4859143518,44.2136856641811,11
442125.2857142856,4429182.828571429,39782.7616319444,39782.7619791667,48.43397567831252,5
442549.8315789474,4427972.105263157,39782.9977777778,39783.156400463,42.645632836147556,11
442179.12500000006,4429073.1833333345,39783.1615509259,39783.2991435185,49.83342251931137,5
442552.84736842103,4427963.368421053,39783.3032523148,39783.399224537,43.61009057547327,11
442569.74666666664,4427971.3533333335,39783.4243518518,39783.4250462963,37.55582511406221,11
442119.0333333334,4429178.916666666,39783.6983333333,39783.698912037,49.34713770827501,5
447225.71875000006,4424916.85,39783.9852430556,39783.9896412037,44.89109043005503,-1
442559.9714285714,4428060.842857143,39784.102349537,39784.1076157407,28.58706000998929,11
442157.01600000006,4428425.112000001,39784.1687037037,39784.1699189815,42.933087473603486,-1
442568.925,4427944.175,39784.2078935185,39784.2084143519,34.30830803174656,11
442577.0714285715,4427968.5571428565,39784.4299305556,39784.430625,37.41617297339896,11
442102.67647058825,4429190.058823531,39784.737650463,39784.7385185185,46.456215945707164,5
442600.1090909091,4428022.718181819,39785.0267013889,39785.0272222222,40.98707113236304,11
442044.65,4420851.050000001,39785.0996064815,39785.0996643519,46.700107066444765,-1
442572.8055555556,4427957.644444445,39785.235625,39785.4225694444,13.81339929167898,11
441753.0,4428807.7,39785.4447916667,39785.4447916667,0.0,-1
442570.52727272734,4427959.572727273,39785.9910532407,39785.9916319444,38.1790518474646,11
438090.21039603953,4408005.589356433,39786.2484375,39786.2902777778,44.150877680857825,-1
442583.12222222215,4428050.655555556,39786.4275578704,39786.4280208333,39.71523637019917,11
442127.20416666666,4429179.875000001,39786.6882986111,39786.6895717593,35.59508393020113,5
438375.55999999994,4409624.410000001,39787.0933101852,39787.0937731481,37.63641853308391,-1
442553.53333333344,4428017.017948719,39787.2986226852,39787.3929398148,45.66486614472606,11
443119.4928571429,4426930.571428572,39787.3997685185,39787.400462963,35.83573635366787,62
442501.2842105263,4427805.363157895,39787.4438657407,39787.444849537,41.084546973437035,-1
442117.50434782606,4429161.126086958,39787.6931597222,39787.9621412037,39.01499711613477,5
442566.6182692308,4419920.441346155,39788.0772569444,39788.0956018518,17.39223964948258,-1
442443.2275862068,4427005.006896552,39788.2401967593,39789.2199305556,46.95402006215756,-1
442401.2875,4427144.4375,39789.3018287037,39789.3022337963,10.890821823880254,30
442411.91666666674,4428309.258333334,39789.4085416667,39789.4091782407,44.9679886136591,40
442194.55,4427045.15,39789.4943518518,39789.4946412037,49.26672304914115,-1
442449.5777777778,4426964.977777777,39789.5840856481,39789.5845486111,26.0048072475443,-1
442576.73076923087,4427955.507692306,39790.0750694444,39790.0757060185,48.60010288090707,11
442573.59166666673,4427943.425,39790.2234606481,39790.2747800926,48.75705077190893,11
443104.3363636363,4425195.954545454,39790.2862384259,39790.2868171296,34.988569562618366,4
449134.06875,4417598.40625,39790.4491087963,39790.4499189815,42.16776019711463,-1
442426.05,4427073.366666668,39790.5073842593,39790.507962963,32.77682107839029,30
442600.80909090914,4427936.387878788,39791.2134490741,39791.3093171296,43.07261310845989,11
442584.37142857147,4427966.25,39791.3432175926,39791.343912037,46.916308465346404,11
442575.24000000005,4428135.539999999,39791.5253125,39791.5255439815,43.13374548969213,11
442571.62599999993,4427990.154,39792.083587963,39792.1557060185,45.48054529150286,11
441996.13125,4429033.8,39792.4544328704,39792.5234027778,48.05767368467162,2
442578.43636363646,4427957.427272728,39792.5305208333,39792.5310416667,34.316905455021306,11
442455.81428571424,4426952.714285715,39792.5831597222,39792.5838541667,41.28159396116445,-1
466644.6765957446,4433869.080851066,39793.0454166667,39793.0477893518,42.93436851740546,-1
442552.5433333332,4428048.433333334,39793.3345833333,39793.3410069444,25.384247083933364,11
437200.5173913043,4417200.747826087,39793.3970601852,39793.3981597222,38.694314828009794,-1
442543.23333333334,4427942.024999999,39793.5313078704,39793.7461111111,48.26727669982719,11
442117.49333333335,4429185.393333334,39793.750625,39794.0856018519,45.19214533541515,5
442490.9,4428018.955555555,39794.090462963,39794.0913888889,41.0907532179464,-1
442453.5449999999,4428644.405,39794.1621990741,39794.1631828704,40.24350879338019,10
442558.0181818182,4427974.29090909,39794.2400694444,39794.2405902778,38.70633023164508,11
442583.73529411765,4427961.658823529,39794.4416087963,39794.4424189815,44.48662720410644,11
442146.6,4429168.1,39794.864525463,39795.1758101852,45.681068288701816,5
442572.8000000001,4427949.464285714,39795.1887731481,39795.4202662037,29.852973051296644,11
442583.22727272735,4427953.018181819,39795.4563425926,39795.4574421296,29.110994486853,11
442076.2571428571,4429148.9,39795.6992013889,39795.6995486111,42.951367848167735,5
442576.2823529411,4427958.417647058,39796.2123611111,39796.2132291667,40.727631897720364,11
442601.92068965524,4427988.465517241,39796.4087615741,39796.7720949074,49.47746962000871,11
442104.8,4429272.133333334,39796.7785185185,39796.7786342593,44.63765226838663,5
442598.23703703703,4427969.951851851,39797.0911805556,39797.3230902778,48.9494637354002,11
443900.6666666667,4428635.033333334,39797.3322337963,39797.3325231481,33.6867926646564,65
442578.2875,4427952.774999999,39797.4587268519,39797.7094560185,47.335399015797904,11
442133.8416666666,4429194.241666666,39797.7144328704,39797.7150694444,42.767394122342075,5
442575.43846153846,4427955.638461539,39798.0681365741,39798.0688310185,5.780138406659052,11
442578.4199999999,4427946.86,39798.188125,39798.1886458333,41.4673365433616,11
442542.7425587466,4428042.1289817225,39798.5323611111,39798.5700925926,8.70919054814042,11
442288.95,4428758.4,39798.5893171296,39798.589375,30.364617566749725,68
442587.2823529413,4427972.032352941,39799.1933449074,39799.1950231481,41.18507011044381,11
444154.58823529416,4425691.970588235,39799.2490740741,39799.25,46.999787233706336,-1
442568.8647058824,4427960.582352942,39799.3369907407,39799.7121643518,40.42598174427864,11
442153.78750000003,4429160.300000001,39799.7166203704,39800.0373611111,41.62787527611298,5
442584.28333333327,4427958.933333334,39800.0421064815,39800.0427430556,13.685759021845591,11
442162.57083333324,4429095.133333332,39800.2421875,39800.2858217593,41.53564734019897,5
442580.725,4427986.768749999,39800.2908564815,39800.2916087963,37.015807433787856,11
444524.14333333325,4421143.463333335,39800.4565972222,39800.4607060185,40.35405803568377,-1
441356.15,4422988.699999999,39800.5895949074,39800.5896527778,18.377431811923746,-1
442100.03750000003,4429168.3625,39800.6960300926,39800.6964351852,45.965639340858274,5
442564.6999999999,4428059.5200000005,39801.0343287037,39801.0345601852,44.50629168956997,11
442439.11666666664,4428651.250000001,39801.1674421296,39801.1680208333,36.12215386761033,10
442574.04545454547,4427959.736363636,39801.229375,39801.229837963,37.40922346171429,11
442580.93571428576,4427967.528571428,39801.4226273148,39801.4232638889,46.08448762848562,11
442548.3642384107,4425245.433554081,39801.5834259259,39801.6315162037,39.27569222833091,69
442583.53090909094,4427973.830909091,39801.6557986111,39801.7375925926,49.82388985227804,11
442129.29230769235,4429186.476923077,39801.7422800926,39802.1994907407,48.3455271972742,5
442544.54166666674,4427998.75,39802.2042939815,39802.2048726852,41.04789884938773,11
443133.8818181818,4426825.742424243,39802.4086921296,39802.4105092593,28.35507009335891,-1
442549.15,4427884.45,39802.4661458333,39802.4662037037,8.79204185633126,-1
442116.2588235294,4429150.576470588,39802.724837963,39802.7257638889,47.48526087069541,5
442586.6666666667,4427967.616666667,39803.2876851852,39803.2885532407,32.718496297884826,11
442540.8,4427162.4799999995,39803.4036689815,39803.403900463,43.89646910665403,66
442595.6384615385,4427939.669230768,39803.4498263889,39803.4505208333,36.341161236102714,11
442111.8299999999,4429095.7700000005,39803.6577546296,39804.0695138889,48.49267986009893,-1
442563.61250000005,4428006.300000001,39804.182037037,39804.1823842593,21.620592036108523,11
442557.55000000005,4428016.105555556,39805.4532523148,39805.7846643519,9.102197537154971,11
442112.15555555554,4429206.766666667,39805.7901041667,39805.7905671296,22.205629916587316,5
442556.36666666664,4427990.766666667,39806.0662384259,39806.0667013889,49.98079631213213,11
442373.05000000005,4429227.5,39806.1692939815,39806.1693518519,21.774526401673064,-1
442584.3999999999,4427958.048148147,39806.4243634259,39806.4256365741,45.26599164903077,11
442134.8333333333,4429074.999999999,39806.7535532407,39806.7538425926,36.97418018021736,5
441209.57999999996,4428042.63,39807.0196875,39807.020150463,31.100643080204097,-1
442547.5333333334,4428335.633333333,39807.25375,39807.2538657407,48.51731649622509,-1
442111.14285714284,4429108.999999999,39807.7574884259,39807.7581828704,38.76751217192063,5
442861.58999999997,4427749.48,39808.0547685185,39808.0552893518,37.17485709484308,-1
442550.7466666667,4427914.64,39808.2273148148,39808.4109953704,17.7687928683312,11
442476.525,4427365.139999999,39808.4141203704,39808.4151041667,42.724232000375444,-1
442579.4157894737,4427958.063157894,39808.5112037037,39808.5121875,33.16338342207702,11
442130.54666666675,4429145.113333334,39808.8336458333,39808.8343981481,42.13715699959427,5
442579.9200000001,4427963.8,39809.4361574074,39809.4368518519,33.94230398832743,11
442136.87307692313,4429179.423076922,39809.9255902778,39809.9269212963,18.317477992290684,5
442577.74799999996,4427952.000000001,39810.4386111111,39813.0069675926,46.87280661535294,11
442534.03333333327,4428015.183333333,39813.2228819444,39813.2232291667,21.145448682974155,11
442571.04782608704,4427966.947826087,39813.4449652778,39813.7745486111,49.93966359534632,11
442078.8,4429271.9,39813.7812615741,39813.7813194444,2.2360679776872145,5
442575.01000000007,4427982.17,39814.3258217593,39814.3262847222,43.204166466073026,11
442573.047368421,4427960.368421052,39814.4520486111,39814.452974537,49.81857083457273,11
442099.375,4429163.6625,39814.836412037,39814.8372800926,14.582523786554397,5
442574.5444444444,4427958.155555556,39815.1028356481,39815.4031018519,45.8263024912199,11
443037.7800000001,4427022.699999999,39815.4121875,39815.4127083333,47.65847248898816,70
442586.08,4427934.92,39815.4564930556,39815.8535185185,46.463964531782786,11
442125.96923076926,4429177.253846155,39815.8589583333,39816.3613310185,46.10618179828372,5
442568.07,4427960.774999999,39816.3660763889,39816.7667939815,36.55051299234035,11
442122.1727272728,4429200.990909091,39816.7714814815,39816.7720601852,42.94391691515204,5
442543.81999999995,4428280.72,39817.3279282407,39817.3281597222,46.35709222958983,-1
442185.50833333336,4429080.95,39817.3993287037,39817.3999074074,48.90010224882313,5
442574.77499999997,4427961.808333333,39817.4706712963,39817.47125,36.41277248440163,11
442121.11818181816,4429181.827272727,39817.7346412037,39817.7352199074,34.12755484940563,5
442567.8736842105,4427961.321052632,39818.0792592593,39818.1674884259,39.56690536293107,11
442600.73846153845,4428005.423076924,39818.19375,39818.1942708333,12.803515142340755,11
442549.9727272727,4428044.2,39818.3074421296,39818.3083101852,37.3016085448855,11
442573.0916666666,4427978.461111111,39818.4677662037,39818.4696180556,36.63140728937199,11
442122.0222222223,4429171.305555556,39818.7450694444,39819.2859259259,31.65880604205762,5
442564.79090909095,4427960.536363636,39819.2904398148,39819.4536111111,47.10382150106253,11
441942.0066666666,4428994.4399999995,39819.4614814815,39819.4621759259,44.65792202975215,2
442486.39999999997,4428273.491666667,39819.5336805556,39819.5343171296,47.57520362473886,36
442595.4866666666,4427956.326666667,39819.5875810185,39819.6250115741,36.48780618237395,11
442105.5291666666,4429186.254166667,39819.6413773148,39820.0797916667,44.290518172682326,5
442576.9642857144,4427956.985714286,39820.0847106481,39820.1719097222,44.29503358178665,11
442584.3538461539,4427962.407692308,39820.2360763889,39820.2366550926,29.04961273419398,11
442570.09473684203,4427958.715789474,39820.422974537,39820.7741782407,49.87835201776696,11
442122.08888888883,4429209.233333333,39820.7792708333,39820.7797337963,49.75479876365878,5
442579.7181818182,4427962.181818182,39821.0225231481,39821.0231018519,27.238942710709566,11
442175.25999999995,4429091.859999999,39821.1471643519,39821.1476273148,38.53894134508627,5
442573.68999999994,4427976.34,39821.4321180556,39821.4325810185,46.343500083781194,11
442131.05,4429199.02,39821.8416087963,39821.8420717593,44.943075106023734,5
442576.6,4427947.91,39822.3571412037,39822.3991087963,41.98059075372093,11
442556.3692307692,4428007.2,39822.619375,39822.6201851852,38.97242614974687,11
442120.13333333336,4429201.133333334,39822.8183564815,39822.818587963,19.7853481138949,5
443044.55555555556,4427008.411111111,39823.3734490741,39823.373912037,46.47687597037639,70
442586.43333333335,4427951.766666666,39823.4209143519,39823.7331828704,45.298233961263534,11
442114.52307692316,4429209.338461538,39823.7421527778,39823.7428472222,19.890952717367266,5
442582.93333333335,4427957.066666667,39824.3441666667,39824.3448611111,40.37734513328478,11
442544.0,4428027.25,39824.4746064815,39824.4746643519,19.148106956406156,11
442119.6888888889,4429179.433333334,39824.8076967593,39824.8081597222,36.60054644415545,5
442566.43999999994,4427971.369999999,39825.108125,39825.1086458333,36.28015986749798,11
442576.3181818182,4427996.69090909,39825.2775347222,39825.2780555556,46.98808359555286,11
442546.8166666667,4427959.466666667,39825.4973842593,39825.8331712963,36.10609366916601,11
442128.87142857135,4429167.628571427,39825.8386689815,39826.0516550926,48.66559359548035,5
442600.07692307694,4427917.176923076,39826.1180555556,39826.1185763889,39.0155097365131,11
443945.6166666667,4425758.516666667,39826.2347800926,39826.2376157407,27.681221071332818,-1
442600.86666666664,4427973.844444444,39826.3217708333,39826.3226967593,39.52733231601631,11
442420.79000000004,4428308.55,39826.4302314815,39826.4307523148,45.40099117860754,40
442547.17708333343,4428036.200000001,39826.7196412037,39826.7261805556,10.811567878711056,11
442127.6538461539,4429216.323076923,39826.8233564815,39826.8239930556,37.61090267471662,5
442569.1185185185,4427950.955555556,39827.3519328704,39827.3999305556,47.78033068125011,11
442573.8857142857,4427958.100000001,39827.4413425926,39827.4416898148,30.43451987418517,11
442120.0782608696,4429159.869565218,39827.7709259259,39828.2510300926,44.07198656740696,5
442582.275,4427961.300000001,39828.2554861111,39828.2558333333,27.829840100151493,11
442574.55277777783,4427957.736111112,39828.4595601852,39828.6153703704,22.94013949403884,11
440237.6346153846,4425111.907692308,39828.6533912037,39828.9127199074,48.67288772992452,81
442570.78333333327,4427957.2,39828.9271412037,39828.9277777778,48.95242588472652,11
442580.1727272727,4427951.9363636365,39829.0347685185,39829.0352893519,27.87131141512501,11
442573.34210526315,4427956.926315789,39829.1069907407,39829.160462963,42.08776544244176,11
442447.63636363635,4428645.118181817,39829.1634143519,39829.1639351852,45.296026315612046,10
442132.8615384615,4429118.576923077,39829.2281597222,39829.2287962963,44.4626809806882,5
442585.21874999994,4427959.8375,39829.3398148148,39829.3405671296,42.03962416583842,11
442581.0428571429,4427958.971428572,39829.443275463,39829.4439699074,45.20929108110134,11
442117.74814814836,4428910.466666668,39829.6757291667,39829.6770601852,48.36165836741433,-1
433529.325,4452770.45,39830.1969097222,39830.2003240741,43.92220395195951,-1
436363.3770833334,4452400.608333333,39830.2884606481,39830.3806365741,43.07597938525888,-1
435292.7444444444,4452419.033333334,39830.4144212963,39830.4148263889,18.848076824970764,-1
483061.12608695653,4422417.999999999,39830.5848842593,39831.360150463,48.95845177272802,-1
442544.23777777783,4428043.417777778,39831.5017824074,39831.5075231481,7.324616031632642,11
442109.5545454546,4429207.600000001,39831.7675462963,39831.7680671296,26.600751869632038,5
446094.6500000001,4417881.025,39832.1729166667,39832.1732638889,29.449108645254444,-1
442233.4071428572,4429473.307142857,39832.6327893519,39832.6335416667,8.154140053379804,-1
442539.41538461525,4428040.553846154,39833.2531481481,39833.2537847222,45.30618059374991,11
372516.675,4309961.4625,39833.9286226852,39833.9290277778,46.57252408869233,87
374726.78571428574,4305059.285714285,39835.1298032407,39835.4532175926,21.02046621777432,-1
372536.85000000003,4309975.466666667,39835.473587963,39835.4738773148,40.461957441396116,87
380729.8333333333,4303388.399999999,39836.0925925926,39836.0932291667,42.921439864012015,-1
372521.1090909091,4309955.154545454,39836.4414814815,39836.4420601852,49.72454122503467,87
372657.8,4310575.1,39837.1756481482,39837.1756481482,0.0,-1
374717.26666666666,4305078.133333334,39838.1229282407,39838.1232175926,49.4619045323565,-1
374791.51428571425,4305048.035714285,39838.3010416667,39838.3018171296,29.400170066990313,-1
372537.97142857144,4309974.92857143,39838.4832523148,39838.483599537,43.27447284464985,87
377754.28941176477,4307688.400000003,39839.0122916667,39839.0501273148,46.30269970512251,-1
373501.25,4303737.091666668,39839.1112268518,39839.1466319444,49.29756586282937,-1
372531.27499999997,4309946.937500001,39839.2003935185,39840.0712847222,47.039664114294105,87
374735.81,4305079.79,39840.0803703704,39840.0808333333,43.37199557309484,-1
372514.45499999996,4309938.404999999,39840.477337963,39840.4783217593,46.880273037195735,87
376836.48,4306033.3,39841.1272453704,39841.1277662037,48.59269492424428,-1
377019.82499999995,4306267.125,39841.2402199074,39841.2408564815,48.1680391961214,-1
376758.2,4306627.475000001,39841.4025462963,39841.4031828704,42.31997164441273,-1
372532.98750000005,4309965.925000001,39841.6292013889,39841.6296064815,48.30455465075462,87
375091.44444444444,4308789.166666668,39842.3175231481,39842.3179861111,48.19813274344029,88
374437.1857142857,4308740.114285715,39842.386087963,39842.3864351852,45.52636598737205,-1
372840.74615384615,4309799.415384616,39842.467962963,39842.4686111111,3.5000000005820766,-1
372559.89999999997,4309989.866666666,39843.0859143519,39843.0860300926,41.88520024974178,87
372544.70000000007,4309965.08,39843.3954398148,39843.3956712963,42.20639761934533,87
375086.26153846155,4308776.426923078,39844.039537037,39844.1114351852,47.664032561273956,88
372552.8333333333,4309967.477777778,39844.1428819444,39844.143287037,42.61854056611448,87
376950.8666666667,4307529.266666667,39844.3281018519,39844.3281597222,0.9899494937599482,-1
377873.175,4306551.5,39844.5529861111,39844.5551273148,42.29952718430217,-1
372525.4857142857,4310088.5,39844.9879398148,39844.988287037,39.72115305511486,-1
374751.3888888889,4305090.194444444,39845.2724421296,39845.2733680556,47.568476956932386,-1
372553.725,4309991.462499999,39845.4769328704,39845.490462963,6.708203932499369,87
381085.33636363636,4308487.081818182,39846.1590277778,39846.446400463,46.73638839294182,-1
372506.04375000007,4309922.6,39846.4687962963,39846.4696643518,46.66219026102362,-1
377186.42,4308102.106666667,39847.1319444444,39847.1327546296,36.19627052557417,-1
377112.075,4308049.525,39847.2745023148,39847.2749074074,44.46684157903996,-1
372557.97037037037,4309974.911111113,39847.3806365741,39847.3819675926,27.3468462536176,87
381086.8133333333,4308525.233333333,39848.1204282407,39848.1211805556,31.016124838988297,-1
372535.1111111111,4309954.155555556,39848.3919907407,39848.3924537037,46.73692330485843,87
375087.05555555556,4308790.866666667,39849.095775463,39849.0962384259,38.54672489360414,88
372543.5875,4309966.525,39849.2031712963,39849.2035763889,47.039238939317485,87
413551.0935064934,4326684.840259741,39850.1435648148,39850.3292592593,49.88025661524583,-1
372535.72000000003,4309972.9399999995,39850.4182638889,39850.4184953704,41.9459175606735,87
374461.13,4308793.73,39851.0931597222,39851.0936226852,47.6366455578056,-1
374681.7238636365,4312476.5011363635,39851.243912037,39851.2529398148,39.337768111753384,-1
374653.55914552714,4312459.578771702,39851.2849421296,39851.3307175926,47.21779325583345,-1
374660.07773972594,4312469.23219178,39851.3431018519,39851.4141087963,42.20580528791322,-1
375055.9090909091,4312240.5636363635,39851.5516087963,39851.5521875,49.57035404382144,-1
372514.9307692308,4309956.484615385,39851.7377314815,39851.7384259259,44.67683963790559,87
371695.41000000003,4304145.18,39852.1798958333,39852.1823263889,43.427756101731674,-1
379087.6428571429,4307726.271428571,39852.2881018519,39852.2884490741,47.099999999686794,-1
372553.9105263158,4309985.910526316,39852.3545601852,39852.3555439815,37.14256318535428,87
375075.35555555555,4308788.066666666,39853.2852893519,39853.2857523148,45.900435727454166,88
374700.3399999999,4305044.426666667,39853.3883564815,39853.3891087963,18.948878594767518,-1
372534.80000000005,4309953.690909091,39853.540787037,39854.0408101852,21.414014103221376,87
380749.86,4303376.3100000005,39854.0850462963,39854.0855671296,47.99635402820223,-1
372529.3909090909,4309966.309090909,39854.4171643518,39854.4177430556,49.71217154826786,87
379244.14999999997,4307644.533333333,39855.0843981481,39855.0846875,45.47636748916241,-1
372522.80909090914,4309950.4,39855.1772453704,39855.1777662037,48.36693085116685,87
381097.2428571429,4308467.171428571,39855.3098726852,39855.3102199074,46.32763753959401,-1
372529.06666666665,4309922.826666666,39855.4477777778,39855.4484722222,45.161598731235756,-1
373510.6588235294,4313476.347058825,39856.2245023148,39856.2253125,47.92421100042719,-1
372790.937037037,4313740.337037035,39856.2989467593,39856.307025463,44.54076784235302,-1
442588.7387096773,4427940.354838709,39856.4629398148,39856.4644675926,41.10012165443308,11
442114.9452380954,4429191.778571429,39856.8044560185,39856.8065393518,36.20883869997138,5
442588.01333333337,4427997.046666666,39857.1711574074,39857.1730671296,25.128469909544016,11
441979.01999999996,4426322.645714288,39857.2909722222,39857.2927083333,38.02170432807304,89
442534.8039999999,4427987.768,39857.447962963,39857.7676851852,48.95896240737301,11
442166.97500000003,4429148.166666666,39857.7740509259,39857.7746296296,48.371272466344756,5
442622.64,4427040.4,39858.2518287037,39858.252349537,48.28219133361673,14
442526.87857142853,4427965.392857143,39858.3194097222,39858.3681944444,48.81843913912376,11
443079.9076923076,4427011.592307692,39858.4432986111,39858.4439351852,42.960563311038165,70
442715.04000000004,4426844.79,39858.5100578704,39858.5105208333,46.87216658127278,90
442580.97777777776,4427819.877777778,39858.5821643519,39858.5825694444,44.22894979563705,-1
442145.6826086957,4429161.291304348,39858.710162037,39859.0084143518,45.0249930594109,5
452128.82999999996,4423538.32,39859.1822685185,39859.1827314815,35.57934794230623,-1
442743.5399999999,4426811.6466666665,39859.3619212963,39859.3626736111,47.378053991061016,-1
442574.505,4427962.869999999,39859.4938310185,39859.7406944444,46.15766458581019,11
442136.22500000003,4429216.691666667,39859.7450925926,39859.7456712963,27.53561330350029,5
442446.48571428575,4427701.5,39860.2384606482,39860.23875,26.255094744183932,-1
442614.5291666666,4427057.7625,39860.4463310185,39860.4475462963,36.20497203428266,14
442549.4000000001,4427142.533333334,39860.5579861111,39860.5584490741,48.7939545431952,66
453898.81249999994,4420424.537500001,39861.0817708333,39861.0825810185,45.15584126119022,-1
451987.61400000023,4422341.088000001,39861.1667476852,39861.1694675926,11.868024267010071,-1
442534.5333333334,4427048.233333333,39861.5228356481,39861.5229513889,36.54928179813173,71
442588.2,4427951.5,39861.5628587963,39861.5628587963,0.0,11
442625.9666666666,4426992.666666667,39861.6265740741,39861.6266898148,35.656135516941355,14
440026.5258064515,4423122.335483872,39862.2421064815,39862.2434953704,45.41387453157672,-1
441679.25999999995,4428570.1899999995,39862.4139467593,39862.4144675926,44.7599151025088,85
442569.06842105265,4427956.836842105,39862.5115046296,39862.7403009259,45.597039377419215,11
442114.9709677419,4429171.629032258,39862.7460300926,39862.747650463,43.05124853007675,5
442597.12307692313,4428000.646153846,39863.1124074074,39863.1676041667,15.200000000011642,11
442580.09000000014,4427952.769999999,39863.2365972222,39863.3911574074,46.575207997573195,11
442109.44117647054,4429160.564705882,39863.4077662037,39863.4493402778,27.226457720201218,5
442556.316,4427955.492,39863.483599537,39863.7691435185,36.81100378939704,11
442110.5600000001,4429175.253333334,39863.7741203704,39863.7748726852,28.28462479822489,5
442566.52564102557,4427958.761538462,39864.1063657407,39864.1651388889,46.23299687448072,11
442526.9600000001,4427993.609999999,39864.2122916667,39864.2127546296,44.64941209021179,11
449077.24000000005,4418582.459999999,39864.4749768519,39864.4752083333,21.609488657127923,-1
442592.10000000003,4427991.738888889,39864.607037037,39864.9919560185,44.31275211481152,11
442123.95999999996,4429144.770000001,39865.0019675926,39865.0024305556,44.37409153975233,5
442569.6458333333,4427959.695833332,39865.070625,39865.1308217593,38.71136783938682,11
439767.4142857143,4401689.2142857155,39865.1983217593,39865.1990740741,47.67661900769162,-1
442636.92500000005,4427430.531249999,39865.4315509259,39865.4324189815,45.54558156414931,28
442580.4076923076,4427952.06923077,39865.519537037,39865.5201736111,42.748099372772664,11
442140.7357142857,4429166.760714286,39865.7685532407,39866.1475347222,44.59170326447079,5
442567.54545454535,4427964.572727272,39866.2305439815,39866.3915277778,46.55029538034985,11
442581.85555555555,4427940.766666667,39866.4461111111,39866.4470949074,47.490630654697846,11
442720.36,4426829.1,39866.5310648148,39866.5312962963,40.08802813875641,90
442048.26666666666,4428103.033333333,39867.2687731481,39867.2690625,33.455193916640205,-1
442712.0419354838,4426851.029032257,39867.4559027778,39867.4574074074,36.20842443406496,90
433548.62245989294,4422608.438235293,39868.012650463,39868.0639236111,8.20731381185455,-1
442535.26666666666,4427078.733333333,39868.4642708333,39868.4643865741,11.016805344318847,71
442754.3045454546,4426828.518181818,39868.5044560185,39868.5056134259,48.78780585351221,-1
433559.70769230754,4422635.848076924,39869.0197106482,39869.4387615741,49.508181142110665,-1
442571.6777777777,4427832.411111111,39869.5498263889,39869.5502893519,44.340162381141496,-1
442581.99166666664,4428032.833333333,39870.052037037,39870.0526736111,39.86000501775072,11
439798.70721649466,4401653.285910651,39870.1975694444,39870.2341435185,28.614157334776003,15
442583.4282051281,4427969.5871794885,39870.42375,39870.4804861111,36.461075135528695,11
442619.1153846154,4427076.853846154,39870.4883564815,39870.4897453704,41.9144366535795,14
442580.2625,4427945.525000001,39870.5742824074,39870.5750347222,49.7434417793204,11
442185.9208333334,4429131.558333333,39870.803275463,39871.0745717593,38.05259518053152,-1
442562.57916666666,4427967.087499999,39871.0787962963,39871.1541203704,47.185802949616104,11
442445.88260869554,4428654.408695652,39871.1650462963,39871.223587963,47.8940497347985,10
442580.4619047618,4427963.371428572,39871.2265972222,39871.2856597222,40.39368762517348,11
442586.5592592594,4427971.466666666,39871.4229976852,39871.4244444444,28.115654002697074,11
442554.08888888883,4427138.588888888,39871.5277662037,39871.5282291667,46.62445710139995,66
441672.65714285715,4428984.642857144,39871.6469675926,39871.6476041667,34.005440741023996,33
442117.17931034486,4429194.882758621,39871.7045138889,39872.2812037037,40.372515403463716,5
442573.5714285714,4427962.871428571,39872.285775463,39872.3334143519,31.63368457827278,11
441101.26923076925,4426465.946153846,39872.3453935185,39872.3460300926,47.68196724075241,-1
442006.9625,4429003.137500001,39872.4306597222,39872.431412037,43.02150624956488,2
442588.5304347827,4427982.130434783,39872.4819791667,39872.8275462963,44.58889996399343,11
442124.90714285715,4429147.578571429,39872.8322337963,39872.8328125,36.961060591153874,5
442547.43333333335,4427971.422222222,39873.3365277778,39873.3369328704,35.893453442085764,11
442570.476,4427950.416000001,39873.4527662037,39873.5537731481,45.46834063352889,11
442583.3,4427964.271428572,39873.5838773148,39873.5857291667,48.7307910873429,11
442137.02400000003,4429177.256,39873.8413078704,39874.2739814815,41.48795005781799,5
442567.68235294113,4427958.652941176,39874.2786689815,39874.4006018518,39.05700961405845,11
442570.0411764706,4427958.411764706,39874.430787037,39874.5153472222,47.671479943605085,11
442684.40357142856,4426831.942857141,39874.5216550926,39874.5418402778,27.735356496606098,-1
439886.3319587629,4423570.331958765,39875.0852893519,39875.1192592593,40.26015399868284,-1
442577.5956521738,4427968.452173913,39875.5107060185,39875.6033217593,38.327535793731776,11
442125.86176470574,4429166.417647059,39875.6149537037,39875.8999537037,41.965938569281846,5
439808.9166666667,4401654.066666666,39875.9508217593,39875.951400463,47.269546222199324,15
442582.3705882353,4427963.641176471,39876.0840393519,39876.084849537,49.93645962604743,11
442597.7157894737,4427974.8684210535,39876.1878240741,39876.1886921296,45.81571782693299,11
450202.30000000005,4424662.322222223,39876.4195949074,39876.4200578704,43.2695042729977,-1
440229.81666666665,4425093.55,39876.6744791667,39876.6747685185,40.84421623699422,81
442134.66153846146,4429125.776923077,39876.9303356481,39876.9310300926,41.56404696326399,5
442562.81304347824,4427958.213043477,39877.3481481481,39877.4140740741,40.203979902458016,11
442554.57777777774,4427960.516666666,39877.4516666667,39877.7883333333,41.754161469206544,11
441952.8166666667,4428802.550000001,39877.7941203704,39877.7949884259,49.222047905467335,3
442578.9250000001,4428007.187499999,39878.2011574074,39878.2719328704,44.34974633542552,11
442582.6611111111,4427958.394444445,39878.3070949074,39878.3080208333,38.24722212103435,11
442004.3624999999,4429019.762499999,39878.4348842593,39878.4356944444,43.93278957681419,2
442693.05000000005,4426845.95,39878.4993981481,39878.500150463,46.073962277502275,90
439870.22881355934,4423589.798587571,39879.0132291667,39879.0485300926,27.884224931139713,-1
442579.5142857143,4427951.407142857,39879.5328703704,39879.5335069444,39.928185533547655,11
442508.8176470588,4428251.323529412,39879.927037037,39880.0854398148,39.52024797529108,36
441866.648,4424659.808,39880.16875,39880.1700810185,32.86091903776289,-1
443058.8678571429,4427004.664285715,39880.360787037,39880.3621759259,43.87311249464846,70
442573.3360000002,4427960.096,39880.5020138889,39880.5573958333,42.92004193890829,11
442142.4285714286,4429103.078571429,39880.5619675926,39880.5626041667,44.25788065382549,5
442571.1590909091,4427952.913636363,39883.7996296296,39883.9089930556,41.63460099502994,11
439812.6941176471,4401667.194117647,39883.9511574074,39883.9519675926,35.512392203108995,15
442577.5933333334,4427949.46,39884.082650463,39884.1737152778,49.71810535411958,11
442575.0039999999,4427955.923999999,39884.242349537,39884.3928009259,41.181063610080486,11
442540.51428571437,4427101.114285714,39884.4606018519,39884.5177083333,43.631296107400054,71
442584.67999999993,4427961.946666666,39884.5224537037,39884.5230902778,34.66208303029432,11
442271.43333333335,4428801.766666667,39884.6168171296,39884.6169328704,40.399999999634844,-1
442692.56666666665,4426843.833333333,39885.1971990741,39885.197662037,49.59969757953412,90
440432.5374999999,4424081.720833332,39885.2658449074,39885.2671180556,47.44270228389021,-1
442572.276,4427959.204,39885.4832523148,39885.7200231481,48.972237033185124,11
442120.15,4429169.95,39885.7251736111,39885.7259837963,30.463256556063257,5
442558.56153846154,4427956.223076922,39886.2781365741,39886.4183796296,47.11539026689882,11
442001.8692307692,4429017.069230769,39886.4244560185,39886.4250925926,48.856729321674166,2
442575.40526315785,4427969.552631579,39886.4688888889,39886.4697569444,38.93019393687466,11
442122.42500000005,4429179.649999999,39886.7595833333,39886.7601041667,32.37066573248608,5
441117.9749999999,4424407.0024999995,39887.1783217593,39887.1802893518,35.58482822768849,91
444186.0818181818,4421231.836363637,39887.4038425926,39887.4044212963,40.485058972301886,-1
442582.08,4427967.6400000015,39887.5629976852,39887.5978819444,45.228309718767555,11
442118.5,4429209.127272726,39887.6026273148,39887.6031481481,31.377221037668264,5
442570.75833333324,4427956.9,39888.2237962963,39888.224375,38.57784338190377,11
442570.1333333333,4427948.291666666,39888.4442824074,39888.4449189815,48.15360838018515,11
442586.8416666666,4427968.466666666,39888.5310185185,39888.6558564815,43.48850422812907,11
442129.8875,4429200.556249999,39888.6608912037,39889.0820833333,49.59516105445079,5
442566.51891891885,4428000.775675676,39889.162974537,39889.410150463,47.70324936555029,11
442576.03333333327,4427969.608333333,39889.4393981481,39889.4399768518,49.17234995365526,11
442489.85,4428266.64,39889.5262731481,39889.6038310185,43.609288001719115,36
442132.29999999993,4429136.384615385,39889.6389699074,39890.1264583333,48.62972342050447,5
442039.4450000001,4428677.962499998,39890.1938773148,39890.195787037,39.71020020072975,20
450209.9533333333,4424701.946666667,39890.3541087963,39890.3556134259,27.72002885946326,-1
442559.5,4428085.05,39890.5469097222,39890.5469675926,7.170076707728453,11
441528.6476190475,4429067.542857143,39890.6999074074,39890.7009490741,31.30015974381497,12
442576.0,4427959.089473683,39891.0513078704,39891.1706597222,20.71545316975269,11
442590.9,4428068.85,39891.2196527778,39891.2197106481,2.8160255682410273,11
442574.7375,4427953.893750001,39891.3337731481,39891.334525463,39.776374897661555,11
442575.62857142865,4427959.564285715,39891.4394212963,39891.4401157407,48.64113485521688,11
441529.6404255318,4429070.84468085,39891.6961458333,39892.0375115741,45.26820075949097,12
442535.9,4427729.1,39892.0517476852,39892.0517476852,0.0,-1
439735.7555555555,4401688.055555556,39892.1960416667,39892.1965046296,48.11423905663233,-1
440532.42830188695,4424178.252830189,39892.4446759259,39892.4981018519,41.35129985881482,-1
442575.6,4427955.309523808,39892.5329976852,39892.5880324074,40.261644277946615,11
442144.1842105263,4429144.042105264,39892.5925462963,39892.5934143519,39.79974874340962,5
442565.45599999995,4427962.14,39892.9550694444,39893.1459259259,48.90654352943261,11
442574.7249999999,4427959.233333333,39893.176400463,39893.1769791667,48.749358970116,11
445953.3642857143,4417721.414285714,39893.37375,39893.3744444444,28.83210016559189,92
445961.73999999993,4417752.549999999,39893.4720138889,39893.4725347222,12.240914997736917,-1
442573.2636363635,4427962.418181818,39893.6011805556,39893.6636921296,41.39299457643717,11
442121.2466666667,4429188.466666668,39893.6687268519,39893.6694791667,13.738267721931654,5
440873.1909090909,4424372.875757575,39894.2067824074,39894.4369212963,49.66387016749378,93
442573.10454545455,4427960.699999999,39894.5596527778,39894.7144675926,38.765964453123544,11
442129.1,4429250.5,39894.7186342593,39894.7186342593,0.0,5
442562.8949999999,4427971.864999999,39895.2718402778,39895.2727083333,47.53830034825634,11
442537.0208333333,4427992.895833333,39895.4467592593,39895.4478587963,28.810588331214447,11
442142.42222222226,4429169.594444444,39895.6510763889,39895.9432175926,39.04830342010945,5
442555.5142857143,4427976.971428571,39895.9547569444,39895.9551041667,47.9066801187095,11
441948.33999999997,4428849.995000002,39896.1805439815,39896.230462963,46.36248483425956,3
442339.7916666667,4429024.316666666,39896.2324305556,39896.2330671296,25.77925522612454,-1
442551.74000000005,4427984.08,39896.3138194444,39896.3994097222,45.582123689162735,11
442008.91875,4429018.7625,39896.4059490741,39896.4067013889,46.41228285716388,2
442581.4600000001,4427957.973333334,39896.4494791667,39896.4501736111,37.87241740421894,11
442032.16486486484,4428667.805405406,39896.6564699074,39896.9746990741,35.84522283354968,20
444564.13749999995,4415011.837499999,39897.0464583333,39897.0468634259,35.8468966579926,-1
442010.62675324694,4428665.697662336,39897.2136574074,39897.2658564815,48.43573061271719,20
442116.13749999995,4429278.2375,39897.3087962963,39897.3092013889,49.42519600355661,5
442579.70999999996,4427953.08,39897.4645717593,39897.4650347222,48.19180428269359,11
439800.10000000003,4401651.049999999,39904.9505092593,39904.9512037037,33.15569332762748,15
442562.7,4427915.95,39905.0904513889,39905.0910300926,45.74068211123565,11
441516.31999999995,4429082.765,39905.1949652778,39905.2399537037,49.74746224680927,12
442560.7431818181,4427972.925,39905.2473611111,39905.4047453704,47.38206411723924,11
442577.0,4427958.946153847,39905.4319791667,39905.4325578704,33.944955442353255,11
442132.1111111111,4429183.240740741,39905.6753472222,39906.1053009259,48.26437609633007,5
442333.1166666667,4428300.083333333,39906.1080787037,39906.1478587963,44.46684157873365,-1
439810.12222222215,4401662.744444446,39906.1968287037,39906.1982175926,29.72490538305523,15
442642.15,4427406.025,39906.5359259259,39906.536099537,31.370368183791644,-1
447801.0531250001,4416664.084375,39907.2760648148,39907.349525463,29.346209295402918,-1
447939.15833333327,4417256.383333333,39907.3585532407,39907.3591898148,45.705360735928174,-1
442641.9571428572,4427420.285714285,39907.5577546296,39907.5581018519,28.084515306419934,28
440786.8923076923,4426201.307692307,39908.4249305556,39908.425625,40.55724349611827,-1
442582.0444444445,4427954.400000001,39908.5438657407,39908.5442708333,34.86445180967997,11
442152.45,4429186.185714286,39908.7338888889,39909.2540393519,44.991110232904454,5
442534.4,4428031.050000001,39909.2588425926,39909.2590162037,32.55764119219941,11
442573.0789473684,4427945.4,39909.3549768519,39909.4246643518,47.44006745359162,11
442540.0,4428041.8,39909.5003356481,39909.5003935185,5.00399840127686,11
441938.47567567567,4428863.018918919,39910.0424421296,39910.0448148148,26.723959287826684,3
441101.5520000001,4425425.180000001,39910.1142013889,39910.115474537,19.26265817602129,8
460882.26250000007,4419985.55,39910.1881018518,39910.1884490741,14.42775103709435,-1
442575.91818181815,4427962.125000001,39910.4229282407,39910.7436689815,47.53651228266042,11
442132.78709677426,4429179.712903226,39910.7484722222,39911.1281828704,49.290972804959246,5
442584.9,4427959.433333334,39911.1325810185,39911.1329861111,31.772000251828217,11
442580.6874999999,4427958.9625,39911.2624305556,39911.4066782407,26.442768387934162,11
442568.97777777776,4427963.472222222,39911.4365972222,39911.8653587963,49.59516105371374,11
442110.3499999999,4429182.514285714,39911.8699305556,39911.870625,37.63787985526226,5
442575.12142857147,4428055.714285715,39912.2061226852,39912.2068171296,25.205753311316457,11
439807.2117647059,4401660.570588236,39912.3724074074,39912.373275463,29.062174729364084,15
442579.27857142844,4427960.185714286,39912.5915162037,39912.7698842593,39.66875344624613,11
441550.6120689655,4429100.137931035,39912.7788541667,39913.0161574074,46.00978156891471,12
442557.2891304348,4428049.865217392,39913.0220023148,39913.0243171296,13.060245020947992,11
442440.0458333334,4428643.158333332,39913.1637384259,39913.218125,36.42320688809273,10
442577.88181818184,4427960.6878787875,39913.2214814815,39913.3157291667,42.919459455870715,11
439809.9789473684,4401666.352631578,39913.3719791667,39913.372962963,43.313277410052,15
442550.0880000001,4428033.336,39913.6128935185,39913.6141666667,10.49571341073352,11
442320.12499999994,4428696.075,39913.7148611111,39913.7150347222,46.805234749786074,-1
442577.42222222226,4427969.488888889,39914.2674074074,39914.2678125,30.956097945491063,11
439812.6818181819,4401666.727272727,39914.3629050926,39914.3639467593,44.18970468351058,15
442573.2071428571,4427962.582142857,39914.592650463,39914.7194097222,40.69643719013174,11
442320.825,4428750.9,39914.7225347222,39914.7227083333,41.664613282552075,68
442575.45,4427962.675,39915.0405439815,39915.2441203704,45.72001749725729,11
439811.0888888889,4401653.505555556,39915.3662268519,39915.3670949074,48.245725198491144,15
442573.559090909,4427966.590909092,39915.5909027778,39915.7192939815,44.23053244109547,11
442323.77999999997,4428695.68,39915.7225925926,39915.7228240741,46.213093381975995,-1
442575.0228571429,4427958.937142858,39916.2470949074,39916.3154050926,48.11496648615886,11
439814.39444444445,4401657.266666667,39916.3628819444,39916.3638078704,48.955592121656565,15
442120.69375000003,4429184.1,39916.6205439815,39916.9031597222,38.574732662739066,5
439813.27,4401659.355000001,39916.9528472222,39916.9537731481,48.486802327496356,15
442571.3428571428,4427962.076190477,39917.2543287037,39917.3077777778,45.001444421352744,11
442579.3857142857,4428010.4428571435,39917.3215393518,39917.4115162037,28.34872131173892,11
483059.11594202905,4422488.033333333,39917.5747800926,39917.5781365741,36.00138886230439,16
481559.1,4421418.5,39918.0209837963,39918.0209837963,0.0,-1
454776.9375,4417610.35625,39918.3501851852,39918.3509953704,48.3520423559546,23
442575.445,4427991.680000001,39918.4462615741,39918.6859027778,45.838193681722466,11
441550.5022727273,4429051.661363637,39918.7031481481,39919.0060532407,49.851479416731,12
442356.5470588235,4427516.441176471,39919.0166435185,39919.0174537037,46.46859154329676,18
442404.6,4427283.4,39919.2353819444,39919.2354398148,33.03150011747734,-1
442571.1800000002,4428028.2639999995,39919.3190972222,39919.3203125,46.409158578864364,11
442572.92,4427951.693333333,39919.4448032407,39919.6173958333,47.881624868686075,11
442115.9631578948,4429170.257894737,39919.6220949074,39919.6237731481,31.505713767498634,5
439812.15384615393,4401682.7,39919.9560416667,39919.9566203704,41.459860105518494,15
442575.25652173907,4427962.734782608,39920.098287037,39920.1485763889,47.56059293154189,11
442579.9071428571,4427972.457142857,39920.1819907407,39920.1826851852,41.471194822717216,11
442561.4,4427958.534615384,39920.4188310185,39920.7344907407,46.091756312771146,11
441552.46222222224,4429093.43111111,39920.7428240741,39920.7451388889,39.09577982336852,12
441312.4666666666,4428139.822222222,39921.0007407407,39921.0012037037,35.38615548494974,-1
442012.10022075014,4428668.709933773,39921.4340393519,39921.47125,47.74599459624046,20
442569.21153846144,4427973.011538462,39921.4757060185,39921.7240740741,49.082889075708074,11
441572.81219512195,4429093.024390244,39921.7318865741,39921.7339699074,29.029984498805128,12
481484.75,4421895.6,39922.2071412037,39922.2071990741,11.851160280561263,17
442559.2333333334,4428040.066666666,39922.5088773148,39922.5089930556,11.20044641962464,11
441524.5538461538,4429077.346153846,39922.8590162037,39922.8610416667,27.09575612532384,12
442574.652173913,4427973.702173913,39923.0816782407,39923.1683217593,48.243652432027346,11
442581.35,4427979.782499999,39923.1921643519,39923.3149421296,43.68065933568311,11
442588.14166666666,4427974.624999999,39923.4309259259,39923.485474537,35.75024475451843,11
442500.5233333333,4428252.8,39923.4876736111,39923.5234375,47.23441541926934,36
442570.73846153845,4427985.438461538,39923.5250578704,39923.7650810185,47.50336830194821,11
442161.61428571434,4429109.542857142,39923.7687268518,39923.7694212963,42.129324704013094,5
442296.2125000001,4429016.050000001,39924.2268402778,39924.2271875,49.230275237614414,26
442569.7392857141,4427952.428571428,39924.3281481481,39924.4058449074,46.152464722901556,11
442572.3075,4427967.034999999,39924.4628125,39924.6558912037,37.80595191237018,11
442137.0666666667,4429174.899999999,39924.6866782407,39925.1109375,36.15812495140659,5
442565.75,4427967.35,39925.2082638889,39925.2991782407,46.616413418440345,11
442250.1499999999,4428107.67,39925.3009143519,39925.3737037037,48.048725269313785,7
442561.23793103447,4427955.772413794,39925.3748611111,39925.4096643519,39.2474202973276,11
442571.73000000016,4427971.08,39925.4388657407,39925.7194560185,41.10523081057189,11
441541.7092592591,4429095.8444444435,39925.7269212963,39925.7296412037,26.672082783194814,12
442578.70384615386,4427947.834615385,39926.0658680556,39926.0670833333,48.51886231147213,11
442570.7424242425,4427972.578787878,39926.1834143519,39926.3660069444,40.69705149009365,11
442565.49761904764,4427988.499999999,39926.4812384259,39926.758599537,49.024177708485404,11
441531.6,4429097.072972973,39926.7684375,39926.7702314815,33.39461034351089,12
442583.01739130437,4428005.7608695645,39927.0450810185,39927.0465856481,29.82247474637609,11
442439.9000000001,4428649.105555556,39927.1704861111,39927.1712962963,48.847517849100754,10
441534.2013888889,4429092.838888888,39927.2243171296,39927.2678819444,34.98642593926772,12
442563.35000000003,4427963.847916666,39927.3191435185,39927.3938425926,44.64179655874359,11
442550.5333333334,4428028.233333334,39927.4261226852,39927.4265277778,41.60432669759145,11
442581.55,4428009.41,39927.4891666667,39927.4896875,45.562374828175024,11
442543.0760869564,4428037.606521738,39927.7115046296,39927.7662037037,48.79200754220891,11
442026.74318181816,4428683.168181817,39927.8206365741,39927.8227893518,44.90267252625394,20
442577.9608695652,4428004.769565217,39928.1255208333,39928.1267939815,26.471494102136248,11
442542.07121588103,4428040.417866006,39928.2091203704,39928.2505555556,49.04079934151049,11
445564.0818181818,4423340.763636364,39928.3429050926,39928.3434837963,39.71523637094591,-1
445533.25,4423372.700000001,39928.4281134259,39928.4293865741,29.989664885852537,-1
442569.4733333334,4427986.426666666,39928.5800694444,39928.7762384259,46.90042643736881,11
442316.1333333333,4428532.100000001,39928.7780324074,39928.7781481481,48.20663854717457,-1
439808.8,4401656.85,39929.2023263889,39929.2025,38.90051413579244,15
442477.5375,4427215.1875,39929.4991319444,39929.499537037,47.30591929208496,-1
438738.3428571429,4398465.514285714,39929.988900463,39929.9891898148,30.536699232237474,-1
439799.10000000003,4401634.633333334,39930.0900347222,39930.090150463,41.015728690350144,-1
442572.1705882352,4427959.173529412,39930.2506481481,39930.4063541667,49.70251502616282,11
442506.2285714285,4428248.485714286,39930.4392708333,39930.4396180556,44.424542766516396,36
442560.1699999999,4427993.42,39930.5246527778,39930.5251736111,48.92320512788233,11
441532.13589743583,4429105.546153845,39930.7864699074,39930.7885532407,15.568236894072356,12
442569.20526315784,4427969.042105263,39931.0450694444,39931.1881481481,47.68196724136217,11
442576.31500000006,4427971.885,39931.2275578704,39931.2285416667,46.118542908306914,11
442568.9375,4427957.3125,39931.436400463,39931.6168055556,44.165371050900404,11
442583.5222222222,4427958.600000001,39931.6250231481,39931.6254282407,31.11398399446401,11
441538.07368421066,4429103.055263157,39931.7947685185,39931.7966203704,16.162301816129048,12
442559.89565217396,4428002.430434783,39932.0567361111,39932.1394328704,49.41710230256113,11
441523.96046511637,4429081.504651163,39932.1712615741,39932.1734606481,35.259750424527965,12
442463.6666666667,4427153.166666667,39932.2374305556,39932.2375462963,41.00987685911824,94
440337.30312500003,4424387.6625,39932.3996875,39932.4012268518,42.63566582083796,-1
442642.82608695654,4427428.65652174,39932.4899652778,39933.1312384259,49.617940304356054,28
440347.06,4424194.433333333,39933.1602314815,39933.1609837963,48.761050029860954,-1
440433.9333333334,4424357.983333333,39933.2199189815,39933.2204976852,47.073771890685364,-1
440437.5866666666,4424371.766666667,39933.4383217593,39933.4398842593,45.74232176041222,-1
442606.1666666667,4427423.466666667,39933.5438078704,39933.5439236111,41.269964865484425,-1
440430.85249999986,4424369.647499999,39934.1959375,39934.4417476852,49.93806163646499,-1
442561.1416666666,4427943.783333334,39934.5471296296,39934.7127199074,26.82629307238897,11
442106.81111111114,4429198.311111111,39934.7182175926,39934.7186805556,38.19175303679798,5
441919.2333333334,4427664.233333333,39935.0040509259,39935.0043402778,31.22466973463889,-1
442114.14999999997,4429166.564285713,39935.1823263889,39935.1830787037,43.176498236899626,5
442578.0625,4427964.7625,39935.3696527778,39935.3700578704,40.26027819073094,11
441695.51818181825,4428577.912121212,39935.413275463,39935.4496759259,48.09365862500225,85
442569.43333333335,4427965.777777778,39935.4626967593,39935.4631018518,47.48526087102442,11
441956.19166666665,4428797.225,39935.7423263889,39935.742962963,27.563200104541796,3
442569.80188679247,4427981.256603774,39936.0695486111,39936.1051273148,48.19170053028798,11
441848.78356164385,4427785.387671234,39936.1133449074,39936.1491666667,46.789849326578725,-1
441673.9,4428577.554545456,39936.1686689815,39936.1692476852,38.84018537543682,85
433384.1030913981,4416555.108333331,39936.2854861111,39936.362974537,46.72098029815868,-1
434113.9387096773,4417614.193548386,39936.3794675926,39936.3810300926,45.68818227935065,-1
442572.2772727273,4427961.568181818,39936.5238657407,39936.7467361111,49.45068250276653,11
441756.69999999995,4428963.845454545,39936.7540856482,39937.0601157407,49.56450342753701,-1
442546.92857142846,4428028.394285713,39937.0784027778,39937.0803125,37.00729657781491,11
442095.86249999993,4429199.899999999,39937.2035300926,39937.2038773148,32.140317359760516,5
442570.02380952373,4427959.733333332,39937.2755324074,39937.396099537,40.9375133587339,11
441711.2235294117,4428579.952941176,39937.4002083333,39937.4359027778,48.97193073589388,85
442565.3380952381,4427960.800000001,39937.4434375,39937.7329976852,49.96328652124864,11
441531.11538461526,4429095.009615385,39937.7443981481,39938.0509143519,48.88721714315439,12
442708.2,4424007.1,39938.0660763889,39938.0660763889,0.0,-1
442570.4744186045,4427982.804651161,39938.2046759259,39938.3991782407,48.424787041275124,11
442558.975,4427967.824999999,39938.4475115741,39938.4478587963,42.60575078554537,11
442568.8470588235,4427958.705882353,39938.565150463,39938.8293518518,38.20013088982812,11
441530.9545454545,4429055.859090909,39938.8392476852,39939.0644097222,35.716942758333346,12
442564.30000000005,4428019.136363637,39939.076099537,39939.1565509259,49.67625187168467,11
441727.70869565214,4428600.847826087,39939.1606597222,39939.2021759259,48.93761334597743,-1
442092.1914893617,4429222.878723403,39939.2061111111,39939.212650463,5.2773099208011525,5
442570.0666666666,4427953.399999999,39939.4791898148,39939.4799421296,47.989269634463675,11
441526.21333333326,4429089.08,39939.6556944444,39940.0591550926,46.27958513231896,12
442576.631707317,4427970.168292683,39940.0686458333,39940.2161921296,49.23748571956968,11
442585.71249999997,4427957.012500001,39940.2784953704,39940.4037384259,46.23613305648271,11
442092.725,4428989.8,39940.4094675926,39940.4096412037,46.16286386261795,-1
442576.0555555556,4427953.255555555,39940.5432638889,39940.5436689815,45.429725951348644,11
441527.4466666666,4429090.81111111,39940.8194791667,39940.8217361111,19.289893727247996,12
442568.2789473684,4428017.678947368,39941.0903587963,39941.2913657407,42.88414625527014,11
443003.9153846154,4427024.600000001,39941.326099537,39941.3267361111,43.939617658771,-1
442177.65294117643,4426965.511764705,39941.5698032407,39941.5706134259,49.165231617669086,-1
440316.6363636363,4424370.099999999,39942.1668171296,39942.1673958333,49.561678744215186,-1
442593.9359999999,4427419.307999999,39942.4946759259,39942.4959490741,28.213649178682292,-1
440337.1333333333,4424399.925,39943.0832060185,39943.1445486111,48.86153906692667,-1
445990.7555555555,4417749.114814814,39943.2774189815,39943.3473148148,49.04742602820387,-1
440947.6666666667,4424384.244444445,39943.4049537037,39943.4054166667,46.60686644694059,95
442574.08125,4427964.475000001,39943.5625810185,39943.7068287037,46.14943119872329,11
441529.61509433953,4429078.879245284,39943.7137731481,39944.0496759259,37.00499966233793,12
442576.9652173914,4428008.408695652,39944.0613657407,39944.0629861111,32.56270873239279,11
442584.9628571429,4427974.557142858,39944.4261574074,39944.6646527778,42.66907545283548,11
442084.90303030296,4429177.972727274,39944.6843634259,39944.6859259259,2.0591260280345756,5
442298.3333333333,4429025.691666667,39945.2299074074,39945.2922685185,47.94090111793188,26
442528.9555555555,4427932.088888888,39945.3383217593,39945.3387268518,43.008022507423405,11
442580.93461538455,4427964.915384615,39945.4532407407,39945.5486111111,35.58791929854849,11
442048.05,4429253.65,39945.5559606481,39945.5560185185,2.745906043732347,5
442567.49545454554,4427997.004545454,39945.6151157407,39945.7861574074,44.84863431569706,11
442149.02307692304,4429091.676923078,39945.7902662037,39945.7908449074,46.44308344658411,5
442573.5199999999,4427942.36,39946.2348148148,39946.3002083333,44.161974592900776,11
442232.05,4428104.025,39946.3021759259,39946.3025810185,46.529560496773314,-1
442494.30000000005,4428267.41875,39946.3780092593,39946.4359027778,43.700114416793184,36
442091.1777777778,4429185.2,39946.4631018518,39946.4635648148,47.46725186906323,5
442574.18333333335,4427963.55,39946.5094212963,39946.51,44.95253051831827,11
442547.18,4427946.84,39946.6333796296,39946.6341319444,49.862310415980104,11
442098.13103448274,4429188.344827587,39946.7231597222,39946.7245486111,31.38040790003727,5
442608.12857142853,4427963.371428571,39947.1138541667,39947.1704976852,41.094646853503136,11
442471.6375,4428690.7,39947.252037037,39947.2523842593,42.61290884227285,10
442576.4095238095,4427963.961904762,39947.3220949074,39947.3967592593,35.377111244591205,11
442561.3833333333,4427973.624999999,39947.4178703704,39947.7393518519,3.769615364981182,11
442084.30666666664,4429186.766666667,39947.7472800926,39947.7480324074,47.966759323366524,5
442575.4255813953,4427967.441860466,39948.2869328704,39948.3827199074,44.324710940778004,11
442574.0142857143,4427962.05,39948.4193865741,39948.740462963,42.70292730009759,11
442093.1571428571,4429185.378571427,39948.7472337963,39949.2270717593,20.99547570313598,5
442576.74285714293,4427955.031428572,39949.2322222222,39949.3828703704,45.025437255697554,11
442698.98,4427475.62,39949.3891203704,39949.3896412037,45.060071016142544,28
442563.14705882355,4427956.435294117,39949.502662037,39949.7748032407,46.439745907665355,11
442123.0,4429184.766666667,39949.779837963,39949.7803587963,40.41484875633272,5
440877.73571428563,4426170.717857143,39950.223912037,39950.2253587963,32.45935920497772,96
441059.81111111114,4425613.300000001,39950.3141319444,39950.314537037,47.810145366612744,97
443950.5615384615,4425098.226923076,39950.4161689815,39950.4175,20.333715843418293,98
442136.0263157895,4429182.605263159,39950.8746759259,39950.8764699074,48.885376136611846,5
442574.26153846155,4427952.415384615,39951.2458101852,39951.2464467593,43.00988258522408,11
442570.2,4427973.59375,39951.4348958333,39951.5311111111,46.841114419029914,11
442504.1857142857,4428244.885714286,39951.5328472222,39951.5331944444,45.135573553780674,36
442808.95,4427950.449999999,39951.6133680556,39951.6134259259,32.68791825725226,-1
441528.791111111,4429087.624444443,39951.6827546296,39952.049212963,25.593163149537244,12
442579.0199999999,4428028.2700000005,39952.0659259259,39952.0735069444,39.11380830332758,11
442127.3235294118,4429143.358823529,39952.1933333333,39952.1942824074,44.75086591359396,5
442308.0363636364,4429019.645454545,39952.2305092593,39952.2810532407,44.69116243758981,26
442592.725,4427930.562499999,39952.3033564815,39952.3037615741,33.118574849190374,11
442570.64999999997,4427967.055555556,39952.437650463,39952.4938194444,48.13200598355605,11
442153.2866666667,4429142.506666667,39952.4982175926,39952.5466550926,47.346911198072696,5
442584.56153846154,4427948.515384615,39952.5526157407,39952.5532523148,33.80236678087878,11
442131.33999999997,4429173.86,39952.7630555556,39953.2799305556,46.870246425945304,5
442259.47500000003,4428089.875,39953.3013541667,39953.3017592593,45.4103512427212,7
442556.2,4428958.62,39953.4007986111,39953.4010300926,42.70000000003359,84
442587.023076923,4427958.546153846,39953.4965509259,39953.4971296296,47.5903351533118,11
442155.01333333337,4429153.22,39953.7368402778,39953.7375347222,39.20841746413351,5
442574.32999999996,4427963.53,39954.1982638889,39954.1987268519,44.82320827396205,11
450160.8,4424672.3,39954.360150463,39954.360150463,0.0,-1
442023.36526315776,4428658.286315789,39954.5777893519,39954.6057407407,18.866372200147186,20
464914.0399999999,4436699.665000001,39955.0274537037,39955.0376388889,31.757361351957055,-1
350688.4170731707,3452446.668292684,39955.5328819444,39955.5349652778,49.50737318808158,-1
349715.3941176471,3455615.4205882354,39955.6437037037,39955.6453819444,48.70154001672944,-1
349726.1547826089,3455399.469347826,39956.2811921296,39956.3264467593,48.578596109978555,-1
342114.8,3452564.0,39956.3633101852,39956.3633101852,0.0,-1
442591.6130434782,4427983.613043478,39956.5560416667,39956.7531018518,49.71931214328321,11
442191.3666666667,4429090.033333333,39956.7565740741,39956.7569791667,46.66176164724443,5
442548.1877551022,4428029.794897962,39957.0373263889,39957.0492476852,38.800128865755184,11
442572.6818181819,4427968.222727273,39957.2216666667,39957.4076388889,39.07249672086191,11
442577.8588235294,4427978.694117647,39957.4388078704,39957.6729513889,46.785147216275725,11
442136.5950000001,4429177.135000001,39957.6776967593,39958.2895023148,19.25097400118184,5
442550.67000000004,4427942.24,39958.2938425926,39958.2942476852,41.77666812955711,11
442497.125,4427193.535714285,39958.4145601852,39958.4946296296,43.42764096774536,-1
442542.87499999994,4428002.6,39958.5247337963,39958.5251388889,44.60179368554535,11
442142.47692307684,4429146.999999999,39958.6304398148,39958.6310185185,40.741379456262365,5
442547.32499999995,4427972.425,39959.1139351852,39959.1142824074,38.43761178860555,11
442143.77419354825,4429142.225806452,39959.170787037,39959.1724189815,35.78407467016578,5
442303.99354838714,4429021.070967741,39959.2293402778,39959.2909375,46.079279508315445,26
442574.87,4428145.950000001,39959.3074189815,39959.3078819444,36.55625801417009,-1
442012.85555555555,4428991.611111112,39959.4096759259,39959.4100810185,43.53263143894879,2
442554.27142857143,4427957.071428572,39959.5061342593,39959.5064236111,38.026964117463564,11
442583.91538461536,4427952.461538462,39959.5655092593,39959.7176041667,39.80766257843177,11
442112.93125,4429153.199999999,39959.7269791667,39959.7277314815,47.574152646161785,5
442270.2375,4428084.687499999,39960.3023148148,39960.3677777778,34.45707474529735,7
442570.8444444444,4427953.922222222,39960.3699768518,39960.3703819444,46.64804390324375,11
442564.8105263158,4427964.510526316,39960.4563310185,39960.6082407407,44.883070304990596,11
442142.8307692307,4429138.538461538,39960.625625,39960.6262615741,49.35625593583088,5
450485.97500000003,4417187.95,39960.9495138889,39960.950150463,42.94240328646979,-1
442638.78541666665,4427426.170833334,39961.1234722222,39961.1896990741,44.26612700476814,28
442574.1500000001,4427961.165384615,39961.1964699074,39961.3949189815,47.430791686246465,11
442654.86000000004,4427433.95,39961.4863425926,39961.4868634259,22.114248800434645,28
440864.0,4424388.775,39962.1983796296,39962.4772569444,34.96755639155628,93
442642.0125,4427427.699999999,39962.542962963,39962.5433101852,12.955693728458197,28
440348.0925925926,4424168.870370371,39963.1969675926,39963.1983564815,43.00011627891168,-1
440835.32499999995,4424403.05,39963.2473958333,39963.2478009259,47.503789322532505,99
442572.50384615373,4427958.15,39963.545775463,39963.7061111111,48.20373429553153,11
442139.84666666674,4429221.906666666,39963.7155439815,39964.2973842593,40.55132550275145,5
442576.62222222215,4427941.333333334,39964.31875,39964.3190972222,41.28655955601964,11
442163.747368421,4429137.578947368,39964.7080208333,39965.2740972222,37.57938264525284,5
442576.0857142857,4427967.653571429,39965.3410416667,39965.4098032407,43.583712554106896,11
442351.39999999997,4427500.377777778,39965.4526388889,39965.4531018519,46.42262379540051,18
442577.62380952376,4427953.566666666,39965.5147685185,39965.604537037,42.7477484785592,11
442111.42083333334,4429177.095833332,39965.6099189815,39966.2294791667,43.03905203416246,5
442315.909090909,4429017.2272727275,39966.2308101852,39966.2896990741,46.23905275816345,26
442578.625,4427960.65,39966.3208564815,39966.3212037037,42.14949584523073,11
442586.5272727273,4427978.154545455,39966.432974537,39966.4334953704,44.04543109109048,11
442127.5833333333,4429228.649999999,39966.8259259259,39966.8261574074,10.049875620808129,5
442592.4125,4427892.9125,39967.2111342593,39967.2115393518,46.6099774726507,11
442363.01071428583,4428342.578571427,39967.4238888889,39967.4939583333,46.23613305645086,32
442103.26052631583,4429193.081578948,39967.4988194444,39967.5505787037,38.18088526955457,5
442572.58333333326,4427950.024999999,39967.5546875,39967.6228240741,45.60394719740233,11
441668.03928571433,4428993.203571429,39967.6374652778,39967.6388541667,43.77784827926972,33
441539.36666666676,4429083.373333333,39967.6842939815,39967.6849884259,28.109073268730494,12
442564.68275862077,4427998.5793103445,39968.0489930556,39968.1683680556,48.49051453653418,11
442601.27,4428025.45,39968.2108912037,39968.4092013889,45.069945640222855,11
442577.7125,4427971.3375,39968.4370717593,39968.4377662037,43.0633254642163,11
456156.19411764713,4442226.479411766,39968.5728356481,39969.0616666667,48.14332767909077,34
442563.34,4428008.413333333,39969.0945949074,39969.1633217593,49.50979700980748,11
441536.0634146342,4429083.717073171,39969.1927199074,39969.1948611111,30.263013729710867,12
442593.38076923066,4427969.703846154,39969.2589814815,39969.3855555556,48.02103705649045,11
442405.3300000001,4428359.840000001,39969.4204398148,39969.4209027778,46.04009122490231,-1
442585.0166666666,4427959.275,39969.5390393519,39969.5396180556,40.410023509057154,11
441790.04000000004,4428460.54,39969.7852083333,39969.7857291667,10.066280345734217,-1
442257.3333333333,4428203.283333334,39970.262037037,39970.2623263889,41.548164821386365,-1
442662.06470588234,4427428.964705882,39970.4684259259,39970.5036458333,41.36568626310451,28
439954.7533333333,4424280.566666666,39970.551099537,39970.5517939815,43.02615483648077,-1
442104.7,4429216.666666667,39970.7966550926,39970.7968287037,1.9697715603261243,5
440295.8,4424226.266666667,39971.3802546296,39971.3825694444,45.25483399667167,-1
442571.1173913044,4427951.95652174,39971.5593865741,39971.6938310185,42.08622102280696,11
442150.46111111116,4429152.627777777,39971.6989814815,39972.2510069444,15.446682491253942,5
442540.3230769231,4428020.953846155,39972.2572569444,39972.2578356481,42.5650091035392,11
442577.0129032259,4427957.458064516,39972.4658680556,39972.7219560185,43.94360021661463,11
442178.7,4428942.1,39972.7319675926,39972.732025463,23.807561824090044,-1
442537.2,4428012.25,39973.3287731481,39973.3288310185,3.7483329620590844,11
442571.6999999999,4427973.8875,39973.4442824074,39973.4446296296,38.02762154030527,11
442500.7416666667,4428255.883333334,39973.5014699074,39973.5850810185,41.132590484744966,36
442101.22941176465,4429197.682352941,39973.6114814815,39973.6122916667,34.76003452240245,5
442578.21249999985,4427973.804166666,39974.221400463,39974.2945949074,42.67188770137841,11
442861.4655172415,4428356.772413793,39974.2974884259,39974.3587152778,43.38905391971768,-1
442009.75555555563,4429009.444444445,39974.3919675926,39974.3923726852,47.66182959144883,2
442569.49583333335,4427962.1499999985,39974.4521990741,39974.7954050926,34.19005703390492,11
442125.48666666663,4429181.12,39974.7999189815,39975.2871412037,47.66015106983254,5
442581.5555555555,4427965.944444444,39975.2955902778,39975.2959953704,37.92690338053379,11
442396.2699999999,4428296.54,39975.3493402778,39975.3498611111,49.0169358487418,40
442113.98,4429250.859999999,39975.4709375,39975.4711111111,44.861230477818026,5
442570.5,4427962.1,39975.5425462963,39975.5430092593,44.9662095356396,11
444597.10000000003,4422353.95,39975.6246875,39975.6250347222,38.559304972738325,-1
442148.1818181818,4429134.054545454,39975.9390856481,39976.3256134259,24.43215094927784,5
442583.60000000003,4427937.954545453,39976.3307060185,39976.3312268518,48.03800578694359,11
440230.9068965517,4425224.210344828,39976.4495717593,39976.546087963,47.3159592523115,-1
442575.60000000003,4427958.727272727,39976.5756018519,39976.5760648148,46.600429182395615,11
441534.8611111111,4429032.805555555,39976.7563773148,39976.7577662037,36.85430775380767,12
421778.7364928906,4438499.186018963,39977.1610416667,39977.2492939815,46.789956187233685,38
426164.90740740736,4443357.651851851,39977.4078009259,39977.4910763889,49.882361612096915,39
430706.15575757605,4441620.721818182,39977.5103472222,39977.5353356482,14.720054347605073,-1
441627.20819672116,4429202.203278689,39978.4514236111,39978.4546064815,36.30220378961673,-1
442572.16461538465,4427985.0200000005,39979.2086574074,39979.4557175926,43.71727347362356,11
442003.5705882353,4429020.317647059,39979.4616203704,39979.4998148148,41.38139678679619,2
442561.94090909086,4427960.840909091,39979.5124305556,39979.7523726852,49.0552749456969,11
442127.14999999997,4429131.878571428,39979.7571180556,39979.7578125,35.410874035905756,5
442558.32941176463,4427956.332352941,39980.2589814815,39980.4271180556,43.424532236963664,11
442577.9318181819,4427980.404545453,39980.4532175926,39980.4991898148,36.432128677670384,11
442506.67999999993,4428239.82,39980.5004050926,39980.5837037037,46.77787938728791,36
442129.45454545453,4429153.318181818,39980.6101967593,39980.6106597222,24.560130292452815,5
442543.6,4428021.814285715,39981.0794791667,39981.0798263889,39.3367512637381,11
442577.842857143,4427958.990476189,39981.2568634259,39981.3989930556,47.30919572345583,11
442538.2823529412,4427967.811764706,39981.4692592593,39981.6820833333,49.093584102366975,11
442120.44999999995,4429169.983333333,39981.6940046296,39981.694525463,37.10121291835119,5
442566.6571428571,4428232.299999999,39982.1044444444,39982.1047916667,38.35479109559652,-1
442569.81250000006,4427938.8375,39982.2498263889,39982.2505787037,49.11873369685881,11
442113.8433333335,4429170.1099999985,39982.6134837963,39983.2813888889,49.61390934001872,5
442584.6294117647,4427968.764705882,39983.2853819444,39983.3580787037,46.96594510901939,11
443908.57999999996,4428608.86,39983.366412037,39983.401087963,18.601075237738275,65
442572.43333333335,4427978.822222222,39983.4767939815,39983.4771990741,39.347172706871845,11
442099.29090909084,4429180.763636363,39983.7430787037,39983.743599537,42.37027259765105,5
442557.95,4427139.175,39984.2690393519,39984.2694444444,42.77242102092214,66
442616.5142857143,4427919.457142858,39984.3069907407,39984.3072800926,4.07185461438881,11
442561.93448275846,4427974.020689655,39984.4955902778,39984.7915856481,40.15295754987244,11
442142.62,4429166.385,39984.7958101852,39985.3050115741,29.50016949101871,5
442561.45,4427968.3,39985.309525463,39985.3095833333,33.496417719274696,11
441032.44459459477,4425590.92027027,39985.4868055556,39985.5639583333,49.07555399584607,97
442615.03333333327,4428062.016666667,39985.632037037,39985.6323263889,45.30838774435448,11
442186.35,4429236.949999999,39985.7555787037,39985.7556365741,24.943536237025366,-1
442574.89999999997,4427947.722222221,39986.2478703704,39986.3924537037,49.31379117428276,11
442564.6666666667,4427962.777777778,39986.4112037037,39986.4116087963,19.568597292127617,11
442569.50909090915,4427958.809090909,39986.5987847222,39986.7290046296,40.600492607884824,11
442108.52857142856,4429114.6,39986.7333449074,39986.7336921296,48.41239510753015,5
442580.1680000001,4427965.484000001,39987.1017361111,39987.1413888889,38.617224136392224,11
442163.4166666667,4429088.3,39987.1453240741,39987.1459027778,45.796069700537046,5
443904.6416666666,4428593.633333334,39987.318900463,39987.3651388889,48.795184188971206,65
442395.49000000005,4428332.28,39987.4315046296,39987.4319675926,44.63272342111384,40
442098.06666666665,4429571.033333334,39987.5205208333,39987.5206365741,48.97448315175597,-1
442573.73913043475,4427972.430434783,39987.5690856481,39987.7508912037,48.62314263757262,11
442129.86,4429178.366666666,39987.7605555556,39987.7613078704,6.306346010321659,5
442546.76666666666,4428105.222222222,39988.0665972222,39988.0670023148,33.8824438317515,11
442574.52941176464,4427966.470588235,39988.1750347222,39988.4036342593,46.38124620970652,11
442575.7625,4427964.162500001,39988.4344444444,39988.434849537,40.3209622901389,11
442579.11999999994,4428061.36,39989.5678819444,39989.5681134259,17.72596964904964,11
442198.8777777778,4429093.622222222,39989.6625925926,39989.6629976852,39.775494968482555,5
442517.5714285714,4428250.328571429,39989.9177777778,39989.918125,41.33194890173063,36
442575.55555555556,4427963.155555556,39990.0399768518,39990.0403819444,44.53133728055432,11
442185.05999999994,4429068.640000001,39990.1720138889,39990.1722453704,42.12754443370284,5
442560.221875,4427977.999999999,39990.3251041667,39990.4119675926,45.63178716641181,11
442574.88181818184,4427949.781818181,39990.4746064815,39990.4751273148,29.829683203437384,11
442006.775,4429249.675,39990.7323958333,39990.7326851852,33.114498334972815,-1
442577.05000000005,4428017.366666667,39991.3227893518,39991.3761226852,40.7646906034955,11
443047.26875,4426811.818750001,39991.5260763889,39991.5268865741,41.829415487524464,-1
442565.64,4428053.12,39991.6378819444,39991.6384027778,49.90921758487012,11
444295.25384615385,4421253.907692308,39992.0055902778,39992.0062268519,45.36474402017435,60
452054.43076923076,4423393.792307692,39992.0715162037,39992.0722106481,28.398063314559707,-1
440361.084375,4424184.63125,39992.200787037,39992.202349537,46.833428232249126,-1
442569.9565217391,4427958.4,39992.2834606481,39992.488587963,40.9375133587339,11
442117.03103448276,4429183.27586207,39992.4945486111,39993.0772800926,48.274320295947085,5
442534.1,4428641.550000001,39993.0819675926,39993.082025463,36.9693115977686,-1
442572.2857142858,4427959.342857143,39993.183599537,39993.1839467593,33.080054413509686,11
442580.0823529413,4427965.635294117,39993.4383796296,39993.7316550926,48.4830898355585,11
442152.98800000007,4429180.839999999,39993.7377893519,39994.2794097222,49.85779778604666,5
442306.39374999993,4428308.0375,39994.2835763889,39994.2843865741,48.158592172005584,-1
442586.0333333334,4427941.588888888,39994.4435300926,39994.4439351852,48.4334595087642,11
442508.89999999997,4428251.373913044,39994.5047222222,39994.5694675926,41.813394983490326,36
442137.88666666666,4429192.119999999,39994.587662037,39994.9525694444,39.76543725414211,5
442564.39999999997,4427963.830769231,39994.9586458333,39995.0442013889,42.79369112352222,11
439992.4333333333,4424305.377777779,39995.0852893519,39995.0857523148,48.90654352960816,-1
442503.4846153846,4428250.669230768,39995.231099537,39995.2317939815,49.274131144035614,36
441268.86315789475,4429680.999999999,39995.4327430556,39995.4337268519,44.14804638974758,-1
442569.93999999994,4427969.590000001,39995.542962963,39995.5434259259,43.05275833208593,11
441960.1333333333,4428850.123076922,39995.7252314815,39995.7271990741,39.65576881092127,3
441121.48093749955,4427474.9310937505,39996.5253125,39996.5957407407,4.301162633498308,-1
442624.8363636363,4428009.336363637,39997.0552199074,39997.0561921296,19.226024029200364,11
442570.5666666667,4428073.4888888905,39997.2603356481,39997.2618402778,15.222680447149507,11
442670.46842105256,4432221.836842105,39997.4874537037,39997.4884375,43.687069025426,-1
442015.3553191489,4428677.117021277,39997.6421412037,39997.6467708333,23.181242417057465,20
442564.7363636363,4427980.468181819,39998.0506828704,39998.1730671296,39.45883931457127,11
442567.17692307703,4427942.996153845,39998.2027083333,39998.2797106481,49.74434641261921,11
442122.29999999993,4429257.85,39998.2990972222,39998.2997337963,7.62167960492367,5
442579.28333333327,4427943.133333334,39998.5639236111,39998.564212963,49.92494366565103,11
442109.78571428574,4429245.228571428,39998.8137152778,39999.1215856481,49.710059344347144,5
442599.5055555556,4422526.405555555,39999.1595601852,39999.2573148148,43.406566323580414,-1
440258.0588235294,4425082.376470587,39999.3275694444,39999.3283796296,46.94390269228474,81
449140.73333333334,4417840.766666667,39999.3951041667,39999.3952199074,10.381233067703203,-1
442581.31999999995,4427957.470000001,39999.6265740741,39999.7475115741,44.00727212648613,11
442138.32999999996,4429163.850000001,39999.7523148148,39999.7527777778,45.745819480953564,5
442552.4111111111,4428025.011111111,40000.3338657407,40000.3877777778,36.24058498406855,11
442569.94347826083,4427964.539130435,40000.4268518519,40000.6853819444,45.33982796608868,11
442113.3153846153,4429192.938461538,40000.6903587963,40000.6909375,34.33729750558637,5
442563.0904761904,4428008.252380951,40001.0817824074,40001.1521990741,46.61770050096819,11
442173.39,4429079.250000001,40001.1564814815,40001.1569444444,46.29524813696556,5
442547.44999999995,4428020.083333333,40001.2411111111,40001.241400463,48.08201326881305,11
441797.82,4428413.78,40001.4229976852,40001.4232291667,27.4302752451798,-1
442519.475,4428226.275,40001.5182407407,40001.5184143518,44.96087187752587,-1
442556.04999999993,4427978.800000001,40001.5854861111,40001.5858912037,49.96248592638821,11
442136.23500000004,4429201.025,40001.7054861111,40002.0929050926,33.24830822757624,5
442554.3,4428086.75,40002.099849537,40002.0999074074,8.660831368650484,11
442150.68999999994,4428465.77,40002.1733680556,40002.1738310185,28.517012465942614,-1
443923.4428571429,4428608.471428571,40002.2444212963,40002.2447685185,46.66615475920172,65
442567.8333333333,4428010.855555557,40002.335462963,40002.3367361111,3.911521442563549,11
442566.55384615384,4427949.492307693,40002.4651157407,40002.5364583333,47.56185446269829,11
442581.32857142854,4428066.742857142,40002.5633449074,40002.5636342593,29.258844816529425,11
442100.4076923077,4429188.184615385,40002.7352546296,40002.7358912037,47.18315377308304,5
442559.67500000005,4427997.5875,40003.2207523148,40003.2211574074,48.66425793159399,11
442563.8285714286,4427968.842857143,40003.4469560185,40003.4473032407,45.742321760424424,11
442696.9,4427524.609090908,40003.5429398148,40003.5435185185,45.907733553555566,28
442117.51052631583,4429175.8263157895,40003.7635532407,40004.139849537,42.80292046109709,5
441997.06190476177,4429037.633333333,40004.1404282407,40004.1825347222,49.816162035861076,2
442650.1642857143,4428099.971428571,40004.1927199074,40004.1934143519,32.47768464687074,-1
442574.66538461536,4427962.192307692,40004.5202546296,40004.7216435185,49.00377536437982,11
442106.64166666666,4429179.458333334,40004.7303240741,40004.7308449074,27.595108262192475,5
442484.4571428571,4427178.742857142,40005.1880555556,40005.1888078704,49.593951244404145,-1
442126.43333333323,4429156.320000001,40005.2583680556,40005.2598148148,41.4364573781725,5
442678.0533333334,4427434.7266666675,40005.3290625,40005.3298148148,48.43397567831252,-1
443042.1071428571,4427027.578571429,40005.3945717593,40005.3952662037,49.05527494563888,70
442574.24545454537,4427955.081818182,40005.5450347222,40005.7355092593,47.91502895767084,11
442111.9384615384,4429170.623076922,40005.7681944444,40005.7688310185,45.040870329211685,5
440218.61249999993,4425090.087499999,40006.2348611111,40006.2352662037,45.36540532130873,81
446068.625,4417884.899999999,40006.3222916667,40006.3226967593,46.43145485534127,-1
446051.7142857144,4417690.828571429,40006.4116550926,40006.4120023148,47.943717002246274,-1
442563.61904761905,4427969.642857144,40006.5596064815,40006.7486805556,33.28618332009686,11
442141.2866666668,4429139.579999999,40006.7534259259,40006.7541782407,30.42581141141345,5
442576.08888888895,4427964.61111111,40007.2039236111,40007.2043287037,49.09185268447645,11
442628.9444444443,4427967.433333334,40007.3083101852,40007.3087152778,39.500126581933245,11
441979.4461538462,4429005.557692308,40007.3898842593,40007.4258217593,29.69511744342985,2
442595.45454545453,4428082.827272727,40007.4920138889,40007.4925925926,49.75319085226384,11
442131.78125000006,4429038.056249999,40007.7322106481,40007.732962963,39.7283274252433,-1
442549.27499999997,4427989.041666667,40008.2037847222,40008.3816782407,45.66158122545318,11
442005.50909090904,4429000.6454545455,40008.3871180556,40008.3876967593,49.5892125366919,2
442566.0,4427968.838461539,40008.4633101852,40008.4638888889,43.10104407091433,11
442133.0333333333,4429198.300000001,40008.6197685185,40009.0452546296,39.27454646460434,5
442584.93999999994,4428021.91,40009.0524884259,40009.0530092593,49.68551096592592,11
442563.33461538464,4427987.573076924,40009.1195601852,40009.1720717593,46.87824655386593,11
442562.71176470595,4427975.923529412,40009.1956597222,40009.3448726852,38.68552700893074,11
442566.7571428572,4427962.657142857,40009.364375,40009.4088773148,37.83080755139582,11
442280.1,4429658.6,40009.4472685185,40009.4472685185,0.0,-1
442142.25,4429115.03,40009.779375,40009.779837963,35.932297449384194,5
442500.26000000007,4428026.9,40010.1790625,40010.1792939815,38.39596332967062,11
442566.4,4428965.892857143,40010.377662037,40010.3782986111,39.583961398569336,84
442592.6583333334,4427968.216666667,40010.4585763889,40010.7228125,49.822183814034496,11
442120.43333333335,4429195.95,40010.7284837963,40010.7287731481,49.04701825800514,5
442649.56666666665,4427885.833333333,40011.1981597222,40011.198275463,28.523674377951696,-1
451834.7933333332,4417201.526666666,40011.4077430556,40011.4084953704,46.66861900622455,-1
452341.1818181818,4417551.072727272,40011.4653125,40011.4658912037,49.0987779888721,-1
442577.2736842106,4427950.947368421,40011.5144444444,40011.621087963,47.460509900337144,11
442708.8333333333,4427439.791666667,40011.6243865741,40011.6249652778,41.42511315616333,-1
442122.76000000007,4429176.92,40011.7308333333,40011.7312962963,44.59260028283469,5
441586.04390243907,4416448.639024391,40012.2473958333,40012.2494212963,44.50280890011326,-1
449451.8727272727,4417653.863636363,40012.3450810185,40012.3456597222,43.684894414142995,-1
451832.5177777777,4417128.880000001,40012.5063888889,40012.5102083333,38.56228727602944,-1
442573.80999999994,4427961.33,40012.6004513889,40012.7608449074,45.79192068431114,11
442172.8,4428984.600000001,40012.7668055556,40012.7669212963,18.560711193428016,-1
442567.75000000006,4427922.783333334,40013.1312268519,40013.1688310185,49.52908236533501,11
443030.37777777767,4420781.277777778,40013.2861689815,40013.287962963,43.920040983279456,-1
442875.66142857145,4420865.888571429,40013.3222222222,40013.3388425926,17.55135322454968,-1
442578.5961538461,4427965.192307692,40013.5228125,40013.6222800926,31.18493225924952,11
442127.17000000004,4429137.06,40013.626099537,40014.246875,37.666165188399304,5
442495.76666666666,4427966.153333333,40014.2718287037,40014.2725810185,34.79080338234733,11
442016.8166666668,4429015.708333333,40014.3877893519,40014.3889467593,26.145745351505102,2
442086.77000000014,4429684.14,40014.4425347222,40014.445775463,12.66056870775558,-1
442580.2736842105,4427952.399999999,40014.5272337963,40014.7709837963,47.03286085264276,11
442138.675,4429278.425,40014.7988194444,40014.7989930556,38.27806160229602,5
442554.4428571428,4428017.314285714,40015.1970601852,40015.1974074074,39.11278563390363,11
442571.2,4427954.125,40015.4704050926,40015.4708101852,43.250086705456866,11
442081.47642276407,4429287.939024392,40015.7303125,40015.7408449074,40.41088962130348,5
442530.57500000007,4427818.3,40016.2228125,40016.2229861111,26.817345133569916,41
442133.7904761906,4429172.128571428,40016.7596990741,40017.1690277778,44.97210246381742,5
442576.22500000003,4427995.475,40017.1742361111,40017.1744097222,37.263386856818364,11
442561.32380952383,4427982.428571429,40017.3198263889,40017.4865046296,41.17341375226725,11
442573.8,4427976.684375,40017.5100694444,40017.752349537,44.94719123586374,11
442122.5,4429009.3,40017.7562847222,40017.7562847222,0.0,-1
442591.36666666664,4421012.061111111,40018.4623611111,40018.463287037,44.8598930003379,-1
442587.9,4428060.0600000005,40018.6125115741,40018.6126851852,2.10950231076871,11
442214.5999999999,4428591.133333333,40018.740474537,40018.7405902778,48.64976875606314,-1
443216.85714285716,4421133.861904762,40019.2565277778,40019.260462963,49.99009901959523,-1
442586.17000000004,4427915.11,40019.4835185185,40019.4839814815,44.79732134872707,11
442109.08571428567,4429204.214285715,40019.713587963,40019.7138773148,30.152943471387406,5
440233.7125000001,4417601.727083334,40020.2704513889,40020.2727662037,26.13541658362415,-1
440283.1692307693,4424221.611538463,40020.4486574074,40020.4501041667,28.915393824223084,-1
442582.9,4427949.811111111,40020.5579166667,40020.5583217593,49.597278151290375,11
442136.0,4429143.583333333,40020.7210648148,40020.7213541667,47.224781629802536,5
442554.46428571426,4428017.085714286,40021.2825694444,40021.2832060185,48.41342788993314,11
442537.85000000003,4427942.587499999,40021.4332060185,40021.4336111111,45.74505437716668,11
442239.76249999995,4428964.837499999,40021.7646064815,40021.7650115741,36.792526414836985,-1
442576.11500000005,4427966.499999999,40022.274212963,40022.409224537,44.12912870147451,11
442590.09500000003,4428003.3549999995,40022.4444675926,40022.4454513889,45.15362665353082,11
442134.14,4429062.32,40022.7275347222,40022.7277662037,44.73533279206479,-1