444146.4444444444,4425836.155555555,39798.0465625,39798.047025463,37.4585103816699,74
444182.3888888888,4425833.966666667,39798.1794097222,39798.1798148148,41.91419807125855,74
443677.7111111111,4425394.188888889,39798.6659027778,39798.6663657407,40.94142156794613,-1
444152.4153846155,4425823.13076923,39799.0547569444,39799.0552777778,47.3667604972202,74
443582.75384615385,4425346.676923076,39799.7274768518,39799.7281712963,44.409571040393196,104
444207.20000000007,4425842.085714286,39800.1811111111,39800.1814583333,35.38375333382186,74
444184.4986238533,4425926.211467892,39800.5247800926,39800.5482523148,15.986244086443737,-1
444187.53333333327,4425776.25,39801.1559375,39801.1562268519,19.538679586902646,74
444154.41818181815,4425831.6909090895,39801.4956018519,39801.4961226852,48.17572002619502,74
443593.57333333336,4425404.113333333,39801.8574537037,39801.8582638889,46.57252408878007,104
444167.1384615385,4425824.961538462,39802.0871875,39802.0878819444,29.496609974518215,74
443945.48571428563,4425997.464285714,39802.1961226852,39802.196875,36.9845913866436,-1
438804.6923076923,4423269.365384616,39802.3243055556,39802.3256365741,33.60952245971387,-1
443514.2787234042,4426104.180851065,39802.4144907407,39802.4169791667,33.464757581763855,-1
444173.50909090904,4425873.681818182,39803.4702314815,39803.4706944444,13.104197800356332,74
444144.475,4425790.78125,39804.0518171296,39804.0525810185,42.57146931935257,74
442143.5625,4432464.850000001,39822.4307060185,39822.4311111111,42.71123973850443,165
442146.4977272727,4432389.488636361,39822.5844907407,39822.5920717593,12.265398485180201,165
445661.52499999997,4427710.8875,39823.0240162037,39823.0244212963,42.773940664867595,-1
448326.21560693637,4415773.6333333375,39823.1024884259,39823.151099537,19.2771885915008,-1
442240.0,4432352.225000001,39823.3575231481,39823.3576967593,45.81320770290535,-1
442140.69999999995,4432327.0058823535,39823.4282060185,39823.4356712963,46.56114259766741,-1
473015.55,4468416.725,39824.0819328704,39824.2565856481,49.05109580833286,-1
442153.35,4432390.0,39824.3121990741,39824.3122569444,41.95056614562019,165
432943.42818181805,4401179.532727272,39825.0633912037,39825.1468981481,34.44793172314184,-1
442266.8,4432403.45,39825.274837963,39825.2748958333,42.63812847677504,-1
559368.375,4554893.225,39826.2060300926,39826.2062037037,49.72987029926827,-1
442139.78888888884,4432417.005555555,39826.4315393518,39826.4326388889,49.6976860624734,165
461207.3266666667,4437685.528888886,39828.2930671296,39828.3292939815,46.32893264467061,-1
462998.53492063476,4434977.910204081,39828.3378587963,39828.4134953704,31.618507238567247,207
464410.7,4433030.545454546,39828.4496064815,39828.4501273148,34.697838549550774,-1
438281.77050359733,4427640.904316549,39830.0814699074,39830.1760300926,46.370033426598,-1
448263.54597585555,4426701.784909457,39830.2033449074,39830.2607523148,44.26115678604857,-1
443397.9522727273,4435014.699999999,39830.3295601852,39830.3686805556,19.054658223295384,-1
442140.6266666667,4432449.260000001,39830.385,39830.3859259259,23.16246964343027,165
442162.2142857144,4432486.842857144,39831.3761689815,39831.3764583333,31.693847983480957,165
462943.96666666673,4434968.983333333,39832.1753009259,39832.2206134259,40.556380508954774,-1
456567.8539893632,4425349.450265953,39832.2433564815,39832.2971759259,34.914323708164275,-1
441930.8,4426298.185714286,39832.3682407407,39832.3714236111,40.007999200156235,89
456741.3098901098,4441210.208791208,39834.0735648148,39834.1291203704,44.30406301890989,-1
462988.8499229598,4434980.760554703,39834.1373958333,39834.2794675926,41.26984371176466,207
469117.7830702998,4446853.229842162,39834.3030208333,39834.3863541667,31.99015473547385,-1
442139.13333333336,4432428.1833333345,39834.4554513889,39834.4559953704,38.9486841883798,165
441802.6758988019,4419093.0577896135,39835.0613194444,39835.1366319444,45.879516125759764,-1
437392.26666666666,4420249.733333333,39835.2612152778,39835.2613310185,39.57019080083965,-1
462422.38648648653,4440825.067567568,39835.4295486111,39835.4767708333,10.555093556978674,-1
442156.65,4432520.3,39835.5165856481,39835.5167013889,20.357799488154694,-1
440041.95,4425214.55,39836.0213310185,39836.0213888889,31.084722935895574,-1
440984.6125,4425710.89375,39836.1060300926,39836.1067824074,43.56432026315923,208
434276.3,4450877.499999999,39836.2427893518,39836.409224537,42.31997164441644,-1
442152.55000000005,4432366.45,39836.429537037,39836.4295949074,37.10121291780568,-1
406188.93333333335,4470174.0,39837.1460300926,39837.1461458333,40.75058281754692,-1
406854.58333333326,4469594.544444445,39837.3852777778,39837.3871875,43.55559665531,-1
397402.55999999994,4477887.58,39839.1829282407,39839.1831597222,32.13051509042433,-1
406203.9617187498,4470095.46875,39840.3418981481,39840.4196759259,38.2461762791198,-1
406801.29090909095,4469602.709090909,39840.6137731481,39840.6254050926,39.415986604360626,-1
406249.29126984085,4470890.503968255,39841.1228935185,39841.1618402778,48.560271827963724,-1
406246.0145408148,4471079.608163263,39841.1652546296,39841.2471990741,47.752800965088646,209
414831.31935483863,4479647.996774193,39841.2795486111,39841.2820949074,30.878147612519665,-1
406872.0833333333,4469579.850000001,39841.5810069444,39841.5812962963,16.743058263345336,-1
404636.6282894736,4473062.999342109,39842.1086111111,39842.1472106481,48.20663854717457,-1
406168.9145833335,4470230.372569445,39842.1562384259,39842.2006828704,16.707483353287795,210
406244.70140186884,4471080.420093463,39842.2041550926,39842.2454166667,48.480924083662714,209
406245.49342891306,4471080.788888884,39842.2692592593,39842.4475578704,32.708561570599095,209
406240.2510548516,4471081.6835443,39842.4615046296,39842.5057638889,49.78604222045522,209
406774.8266666668,4469484.96,39842.5124189815,39842.5132291667,14.603081866495485,-1
439988.3880668258,4425079.269689736,39843.0099652778,39843.0530208333,33.003787661095394,-1
440001.79274047236,4425041.619963701,39843.0846180556,39843.1155787037,32.890120097069364,-1
443036.02499999997,4425114.9125,39843.1477546296,39843.1481597222,43.719332108353775,4
406814.7571428571,4469617.885714286,39843.3454976852,39843.345787037,46.010868281309364,211
406176.69999999995,4470228.45,39844.0771412037,39844.0813657407,17.392239648751648,210
406260.4674999999,4471086.005,39844.2671759259,39844.4122569444,43.95383942271315,209
442138.1933333333,4432443.933333334,39844.4518402778,39844.4528240741,10.24890238044054,165
471704.75,4467485.625,39845.0460532407,39845.0462268519,46.87877984813626,-1
443038.9568965513,4434374.218472904,39845.1696064815,39845.1926388889,34.64390278252412,-1
443401.9425531913,4434989.8744680835,39845.246400463,39845.3457060185,27.548139683777897,-1
442138.87499999994,4432555.2625,39845.4136342593,39845.4140393519,21.308449028793195,-1
442146.04000000004,4432552.3,39845.6453472222,39845.6455208333,27.787227281799282,-1
434670.83662790665,4415923.1906976765,39846.2455324074,39846.2830902778,37.375125417985885,-1
442182.35,4432431.425,39846.3661921296,39846.3663657407,8.927485648477507,-1
441918.5405405404,4426299.935135136,39847.0054050926,39847.0074884259,22.496444163506172,89
442140.48,4432647.02,39847.4446296296,39847.4448611111,11.175866857312453,-1
442151.4,4432475.0,39848.4474074074,39848.4474074074,0.0,165
441739.637254902,4361579.666666667,39849.0729166667,39849.2120949074,47.60556690140135,-1
442146.5236842106,4432424.09736842,39849.304224537,39849.3084490741,35.88035674300636,165
444293.16,4421241.4,39850.1091435185,39850.1099537037,30.888994803623984,60
447903.20639999985,4412735.87725715,39851.0856365741,39851.175625,35.7274404345158,-1
406199.1333333333,4470122.249999999,39851.3009143519,39851.3666550926,45.10099777129538,-1
406235.0749216315,4471088.233072098,39851.3738888889,39851.410462963,47.765468698643694,209
406831.06200000003,4469612.924,39851.4190856481,39852.1494328704,44.433433358134884,211
406188.76,4470217.3,39852.1522685185,39852.1909837963,49.30010141958766,210
406172.95855039597,4470233.598301245,39852.1915046296,39852.2508217593,32.075535848993255,210
442147.8,4432409.75,39852.4284375,39852.4284953704,37.28873824554815,165
462636.5857142857,4435480.214285715,39853.0876388889,39853.1260648148,37.69681684195547,-1
463004.52618296485,4434991.227444791,39853.1275694444,39853.163912037,32.6675680146769,207
468837.49975903414,4438888.980481931,39853.2973611111,39853.4770486111,32.0028123762533,-1
442163.71666666673,4432468.783333333,39853.5256018518,39853.5261226852,47.00340413167145,165
477016.6307086614,4376114.230708663,39854.1225578704,39854.1967476852,10.564563407898977,212
477020.09598698403,4376102.582646412,39854.1977314815,39854.2502199074,47.61606871621213,212
477033.726751592,4376070.061146499,39854.2502777778,39854.3460300926,49.58195236203852,212
477026.0993258428,4376102.356629221,39854.3460532407,39854.3952430556,46.85306820299574,212
442114.4,4432441.6,39854.4692939815,39854.4693518518,29.224647132359113,165
481239.11698113225,4424584.789622642,39856.1547453704,39856.2277199074,47.875881192994164,-1
462985.2413483138,4434980.785842693,39856.2682291667,39856.3266203704,48.147793303171305,207
442161.4,4432576.850000001,39856.4251736111,39856.4253472222,6.3560994330151,-1
425792.6830769232,4451625.666153846,39857.0587037037,39857.2111342593,46.578321137617394,213
425799.348285992,4451632.764250736,39857.2312731481,39857.2900694444,43.517812444944745,213
425794.8610169492,4451640.179378535,39857.3386226852,39857.5165740741,44.99444410133488,213
442132.2882352941,4432405.7235294115,39857.5452777778,39857.5463194444,26.353178176462897,165
406176.2555555556,4470210.533333333,39858.2312152778,39858.2360185185,44.29503358184302,210
442151.0,4432454.557142857,39860.0061226852,39860.0065856481,41.72589124243379,165
425793.74304932705,4451632.255829595,39860.0952662037,39860.167662037,40.9664496872034,213
425801.92222222226,4451674.155555556,39860.3052199074,39860.3728125,35.64519602979923,-1
442145.66451612895,4432430.522580646,39860.5031944444,39860.5053356481,7.22357252336971,165
441982.3,4426467.02,39861.0239814815,39861.024212963,25.401181074851515,-1
442134.1,4432292.55,39861.4283564815,39861.4284143519,24.876695922409834,-1
448994.7785294119,4411378.76558823,39862.1237268519,39862.1610532407,40.771068173380044,-1
448968.89999999997,4411395.55,39862.2809027778,39862.3639467593,45.80043667907929,-1
442142.1125,4432451.2875,39862.4630208333,39862.4634259259,43.451352108208106,165
442174.1470319638,4427688.343150683,39863.2278587963,39863.3059259259,46.06365161359946,-1
441466.5869463866,4426209.966433572,39863.3144328704,39863.3857291667,47.28678462321093,-1
442179.9,4432544.8,39863.427974537,39863.427974537,0.0,-1
412626.20769230794,4479023.891666666,39865.1136458333,39865.1312962963,47.48936723096515,-1
412630.7849999999,4479027.880000001,39865.194837963,39865.1959375,48.703182647543684,-1
397389.26662515535,4477838.213698632,39865.2609837963,39866.0478703704,44.46268098076805,-1
436720.675,4418945.4,39866.1743171296,39866.1744907407,48.70164268269989,-1
442188.5499745551,4432332.491501269,39866.3718865741,39866.4840393519,34.75471191078362,-1
442164.9142857143,4432335.385714286,39866.5039699074,39866.5043171296,22.770595073589753,-1
446732.0927536232,4405823.847826086,39867.2989467593,39867.3438541667,35.4050843810097,-1
442130.06249999994,4432441.975,39867.4094212963,39867.4106365741,14.280056022607718,165
477026.98745583027,4376084.92067138,39868.0867708333,39868.1433680556,49.987398411980514,212
477032.0864806868,4376089.12103004,39868.2103240741,39868.2496759259,38.000131578719504,212
477023.1286163527,4376081.36509434,39868.2510648148,39868.2825462963,30.389800920700846,212
477023.3170168066,4376108.119957987,39868.3264699074,39868.390474537,49.972992706607606,212
477021.39239766146,4376097.460526311,39868.3927893518,39868.4414583333,49.322814193653166,212
477020.14619565255,4376101.2831521705,39868.4458564815,39868.4934837963,47.01063709430363,212
442158.6208333333,4432371.841666668,39868.5718981481,39868.5731712963,49.06974628015722,-1
462980.08079096075,4434969.027118641,39869.194224537,39869.2418518519,30.026821343522656,207
490977.89999999997,4469265.692307692,39869.277962963,39869.314537037,49.33011250780509,-1
442150.93999999994,4432471.16,39869.4695833333,39869.4698148148,14.154857823367186,165
405924.52,4468609.88,39870.2453703704,39870.3347222222,46.15668965597035,-1
406172.025140449,4470219.207514033,39870.3420138889,39870.4468171296,35.73149870837778,210
406818.59615384624,4469667.773076924,39870.4505208333,39870.9995717593,25.881460546209183,-1
406184.28984771564,4470207.510659896,39871.004849537,39871.1152662037,30.259213472862918,210
406488.02562225494,4469525.637920923,39871.1418287037,39871.1804861111,45.19834067751727,-1
406823.2386111113,4469639.038055558,39871.1820486111,39871.2174652778,43.729280808172454,211
441907.79999999993,4426254.880000001,39871.3610185185,39871.3625231481,41.91539096732198,89
442144.5944444443,4432440.216666666,39876.4321296296,39876.433287037,23.767414667823076,165
429185.79957627074,4448743.185169493,39877.0506365741,39877.1174768518,38.579787454233774,-1
429192.00318584044,4448776.333451325,39877.1300347222,39877.4237847222,43.37107330874036,-1
442172.675,4432463.425,39877.4835648148,39877.4837384259,29.062174729370096,165
442147.20999999996,4432394.6,39878.1599305556,39878.1604513889,42.48905741465154,165
443064.92222222226,4426983.25,39878.4003009259,39878.4012847222,44.422179145034484,70
442153.0285714286,4432886.5,39878.5339814815,39878.5342708333,9.823441352716276,-1
448456.5414330218,4415695.898442364,39879.0726736111,39879.1218634259,47.64630101012038,-1
447885.50172413763,4412749.3051724145,39879.1486574074,39879.2383564815,43.195601628304914,-1
443205.5744650499,4419314.876319542,39879.2752777778,39879.3109837963,31.057688259091204,171
406176.7727272727,4470187.590909091,39879.4050231481,39879.4679861111,35.76492695295516,-1
406499.1509915009,4469515.466572257,39879.4696064815,39879.5098263889,34.00764619850911,-1
406829.01538461534,4469625.053846153,39879.5110416667,39880.0436111111,41.49072185426374,211
397387.1426966292,4477842.942696628,39880.0988657407,39880.3458333333,40.6429575694114,-1
442146.22500000003,4432428.012499999,39880.4453125,39880.4467013889,48.43325303951422,165
462995.96645669226,4434992.282834644,39881.121724537,39881.260150463,49.782125306159166,207
459160.02317210304,4431050.824521936,39881.2810532407,39881.3390393518,30.84833869138058,-1
442086.5,4432055.9,39881.4950578704,39881.4950578704,0.0,-1
461344.37142857135,4438552.028571429,39882.0386921296,39882.1921643519,41.59146547051233,-1
463006.67726750753,4434978.548564854,39882.1987037037,39882.2489351852,39.389338659267004,207
452556.4289285703,4426143.676071441,39882.2746875,39882.3231828704,44.90033407446939,-1
441942.4760416663,4426298.563541662,39882.3381712963,39882.376712963,39.90112780358044,89
442140.4666666666,4432496.399999999,39882.4209375,39882.4210532407,35.507745633694455,165
442152.8666666667,4432474.433333334,39883.4247337963,39883.4250231481,48.80256140820396,165
457758.95,4406164.691666667,39884.0365393519,39884.305462963,24.937722429661463,-1
442123.3238095238,4432437.266666668,39884.4173842593,39884.4186574074,48.552342888731985,165
471679.94999999995,4467803.625,39885.0433564815,39885.0435300926,48.832878269269855,-1
471653.0935018036,4467834.813267157,39885.1960185185,39885.3237962963,40.96950085124299,-1
442149.5629629631,4432436.318518518,39885.4528472222,39885.4542939815,41.00792606241704,165
471642.3404255317,4467819.210638298,39886.0582060185,39886.1179861111,48.19221928882883,-1
471655.1129883872,4467829.071383313,39886.1185069444,39886.1990046296,45.70043763485235,-1
442135.2,4432301.600000001,39886.2889351852,39886.2890509259,39.44375742751031,-1
441034.8943396225,4425584.433962265,39887.1925462963,39887.2616550926,46.57595946435239,97
442143.26666666666,4432400.8,39887.2917476852,39887.292037037,7.0178344238090995,165
425819.00999999995,4451591.74,39888.0455439815,39888.1457175926,42.58567834379307,-1
442140.805882353,4432403.770588236,39888.1953703704,39888.196412037,49.80642528812351,165
510555.6261904761,4446065.247619046,39889.0560185185,39889.1610532407,31.140006422681314,-1
511799.5473507164,4446700.25584525,39889.164525463,39889.2331018519,49.60987804861821,-1
442154.9666666667,4432417.772222222,39889.4309027778,39889.4318287037,30.58054937360556,165
434629.9977777777,4415673.397777777,39890.0751273148,39890.1985648148,42.1715543939948,-1
462991.07207920856,4434985.074554459,39890.2580555556,39890.373275463,21.553885960460967,207
439222.3377176011,4437780.365183762,39890.4001851852,39890.5011111111,38.65177874318618,-1
442135.4588235294,4432442.335294118,39890.5187615741,39890.5197453704,45.37631540756034,165
437469.34166666673,4420157.408333333,39891.2412615741,39891.2855324074,41.37257545705589,-1
442141.7071428572,4432383.728571429,39891.3141782407,39891.3151041667,29.569240775343715,165
441826.375,4426135.100000001,39892.0158564815,39892.0160300926,45.25151931206829,-1
442151.1,4432474.071428572,39892.450462963,39892.4508101852,43.81141403771035,165
462995.5630057799,4434979.610404627,39893.0264699074,39893.0828356481,49.66497759985366,207
462999.09628482757,4434983.937306511,39893.0828935185,39893.4360185185,48.575919960552305,207
442142.8666666667,4432421.811111111,39893.4997916667,39893.5001967593,48.6688812281346,165
468789.2929782095,4439011.272800651,39894.0368287037,39894.2104976852,38.00842011975743,-1
442142.78125000006,4432422.249999999,39894.2742708333,39894.2751967593,35.32208940563964,165
425798.75356125383,4451636.044444438,39896.0826388889,39896.2559027778,49.87183573921886,213
442109.41111111105,4432385.288888889,39896.3245949074,39896.3251157407,25.457808232430086,-1
473049.5333333334,4468431.566666667,39897.0560185185,39897.1456018519,40.07717554905375,214
442132.83333333326,4432415.5200000005,39897.2138773148,39897.2146875,24.57986981304432,165
451278.0,4418614.9,39897.3424074074,39897.3424652778,36.05440333691949,-1
442159.35,4432455.7,39897.437962963,39897.4380208333,28.078639568186823,165
441860.22222222225,4426379.888888889,39898.0053819444,39898.0058449074,15.408114745124541,89
461408.3743362833,4437974.242477879,39945.2046180556,39945.2841898148,42.462336252092285,-1
462991.9115316919,4434989.505193659,39945.2913078704,39945.3564699074,49.992899495959556,207
462987.58749999997,4434996.675,39945.3565277778,39945.4177546296,39.3600050813303,207
442152.77999999997,4432424.513333334,39945.4652314815,39945.4662731481,23.366856870377195,165
462952.7375,4434966.9875,39946.0309722222,39946.0665046296,30.0566132488182,-1
473050.59276111703,4468697.575594618,39946.1338657407,39946.2378009259,38.40885314593878,215
473053.3861054079,4468688.7010951545,39946.2378587963,39946.4095023148,34.124771061341576,215
470697.50769230776,4467693.792307692,39946.4257638889,39946.4271527778,37.99052513437831,-1
442156.3,4432512.2,39946.5259953704,39946.5261111111,43.541474481235575,-1
473200.83928571374,4468753.557653063,39947.0561111111,39947.1531018519,37.80013227471467,-1
442146.75,4432426.04,39947.4108564815,39947.4113194444,20.203960007233146,165
442150.04000000004,4432470.959999999,39948.3015162037,39948.3017476852,28.842503359360464,165
434669.42826086964,4415908.558695652,39949.0356481481,39949.0894097222,47.493367958315986,-1
434627.1213032578,4415882.550459486,39949.1282407407,39949.2375,46.25505377784025,-1
434636.28533007373,4415895.131784842,39949.3657986111,39949.4449074074,34.47259781335559,-1
442153.3285714286,4432442.328571429,39949.4760416667,39949.4763310185,38.91850459642667,165
473203.3833333333,4469218.2,39951.0873726852,39951.2957060185,33.00242415338635,-1
462990.8851554674,4434991.493380129,39951.3558912037,39951.4120833333,37.611966180947775,207
442198.55000000005,4432316.166666666,39951.4578703704,39952.0187152778,48.263132927617775,-1
434236.7625,4436592.3,39952.0418634259,39952.1598032407,49.187396759696576,-1
434590.13564356416,4436342.024752471,39952.2111921296,39952.2841666667,36.24913792070953,-1
469089.37499999994,4446862.7375,39952.3181365741,39952.3756597222,30.945758998597576,-1
442145.60000000003,4432458.233333333,39952.4394907407,39952.4396064815,14.101418368004664,165
430746.4678571429,4421171.967857143,39953.0283912037,39953.1897337963,42.70889837040217,216
430730.5129650512,4421195.630101459,39953.2124768518,39953.3078472222,48.87289637418534,216
430732.12843691115,4421198.605273065,39953.3111458333,39953.3619560185,49.812849747902085,-1
442135.6,4432487.7,39953.4590046296,39953.4590625,25.560125195587823,165
430770.49000000005,4421182.31,39954.0166898148,39954.0171527778,43.11809364974237,216
430749.0147851005,4421175.064756454,39954.1786111111,39954.3523958333,38.296866712754635,216
442447.72500000003,4432301.757894737,39954.4211458333,39955.0639930556,41.032913618586676,217
434237.4600000001,4436595.880000001,39955.0838425926,39955.1556597222,32.46367200426868,-1
442134.34,4432390.88,39955.1957638889,39955.1959953704,28.330195904736847,165
426419.88173076924,4407208.692948713,39956.0538425926,39956.0970138889,49.67131969256627,218
426433.0788944724,4407203.036180908,39956.0970717593,39956.1083564815,22.348601746118952,218
426394.2749999997,4407214.660285709,39956.132025463,39956.1955671296,49.84505993576236,218
426422.09829059755,4407214.172934475,39956.195625,39956.226875,43.26707755324147,218
442138.6076923077,4432422.5,39956.3073148148,39956.3082407407,30.125072613650005,165
436132.50681818224,4422451.360227274,39957.3155439815,39957.3526967593,37.07519386330227,-1
442432.5254807696,4432306.195192306,39957.3825,39957.4215046296,44.55434883375354,217
442432.0975903611,4432308.217590365,39957.4219675926,39957.5363773148,22.87793697040076,217
442434.1773216693,4432304.391386265,39957.5366087963,39957.6842939815,47.7192833136291,217
442435.0791891886,4432304.690360365,39957.6852199074,39957.7711574074,36.928715114573315,217
442432.162793572,4432306.255500614,39957.7712731481,39957.8549537037,45.685555703824285,217
442432.57394136826,4432308.715309448,39957.8550115741,39957.9652546296,29.364604543665376,217
462552.7399305558,4435485.33125,39958.0707523148,39958.1659490741,46.440068906206534,219
462560.01981707424,4435488.035264229,39958.2352777778,39958.3802430556,48.36403622510067,219
462997.69913419854,4434990.781709949,39958.3815740741,39958.4347569444,24.438698819373094,207
462823.59152542375,4434988.988135595,39958.4388657407,39958.4774652778,39.05304085462722,-1
442445.38333333336,4432280.7,39958.5383449074,39958.5392708333,24.256339377207606,217
462548.4161290323,4435490.0096774185,39959.0242013889,39959.1534259259,33.3995508953642,219
463052.2921265136,4435015.27954241,39959.1555092593,39959.2402893519,49.881158767736885,-1
462551.5236006062,4435468.007110437,39959.2424305556,39959.3992592593,44.95887009200484,219