444613.4666666666,4424206.611111111,39540.7535648148,39540.753912037,44.31624984133265,-1
433933.80000000005,4425798.15,39542.0888425926,39542.0948726852,38.62499190937348,-1
442404.7,4429092.6,39542.1948263889,39542.1948263889,0.0,-1
448681.19999999995,4423750.35,39543.2427430556,39543.2487847222,36.20842443374087,-1
447733.2,4420966.2,39543.4874884259,39543.4874884259,0.0,-1
447628.15,4421005.800000001,39543.5334375,39543.5382291667,41.096593532654744,-1
448721.4,4423695.5,39543.6396990741,39543.6396990741,0.0,-1
447449.6,4423884.4,39550.6336921296,39550.6336921296,0.0,-1
440150.5,4425137.0,39550.6998842593,39550.6998842593,0.0,-1
450529.3,4424496.973333333,39552.7247685185,39552.7252546296,46.94017469070991,356
442912.5,4425450.8,39552.8936921296,39552.8936921296,0.0,4
442795.8346938776,4425288.551020407,39560.6149884259,39560.6160532407,34.050844336180816,4
448404.4340961097,4420401.636041191,39564.5046180556,39564.5574305556,14.422205101826899,385
448720.3391304348,4423743.747826086,39564.5893055556,39564.5898032407,46.027817675837206,-1
450312.742857143,4425306.402857143,39565.2808912037,39565.2880902778,48.662100242385755,444
450751.15263157897,4424744.631578948,39565.3525347222,39565.3530208333,49.97729484477833,-1
503607.6,4513875.3,39569.4981365741,39569.4981365741,0.0,-1
546034.7,4548128.55,39569.5542476852,39569.5542708333,31.23859791967241,-1
562855.1470588235,4643861.7352941185,39569.6750925926,39569.675462963,43.188540146456894,-1
562848.8447368421,4644507.62894737,39569.7207060185,39569.7244675926,33.41810886293724,-1
578831.45,4537519.3,39570.7367708333,39570.7367939815,12.0070812436334,-1
575993.5625,4538221.5625,39570.8881018519,39570.888287037,25.0,-1
454717.60000000003,4417586.024999999,39571.5975231482,39571.5976388889,28.319604516823087,249
442836.3612903225,4425252.980645161,39571.6981944444,39571.6991319444,42.66708333177589,4
452015.72857142857,4423436.314285714,39578.0714814815,39578.0717476852,5.059644256085338,360
484281.67777777783,4488503.061111111,39578.2796759259,39578.2846990741,48.186408872710714,-1
484315.1854545456,4488516.65090909,39578.4803703704,39578.4844560185,44.818857638199304,-1
484298.2846153847,4488510.665384616,39579.1867476852,39579.1895833333,48.89713693060345,-1
450667.57777777786,4424677.933333334,39579.3359722222,39579.3362152778,47.828234339329,359
442865.5222222222,4425253.688888889,39580.6411458333,39580.6413310185,47.60010504155034,4
440669.3202702704,4426776.537837837,39584.4660416667,39584.4712384259,39.52176615471766,229
441990.60000000003,4428661.295652173,39584.5915740741,39584.5922337963,28.1042701381828,20
450591.85,4424813.1,39585.1311111111,39585.1311342593,27.50654467537351,-1
447926.35,4424579.65,39585.2032638889,39585.203287037,25.176576415415667,-1
450176.6333333333,4423600.899999999,39586.257962963,39586.2580092593,17.67257762713178,-1
450552.47428571427,4424522.305714286,39586.304837963,39586.3058101852,42.804322211643566,-1
450565.5038461539,4424607.569230769,39586.6025462963,39586.6031597222,43.845638323730086,-1
441168.4888888889,4425343.325925926,39589.4284375,39589.4700810185,38.38033350560047,326
450671.89999999997,4424662.853571428,39589.5927083333,39589.5934375,47.71247216411077,359
440193.2666666666,4425621.733333333,39590.4331481481,39590.4332175926,48.41249838622047,-1
440535.54000000004,4424824.053333334,39590.5056944444,39590.5060300926,48.81475186854171,192
449708.2677966101,4428660.150847458,39591.3276157407,39591.4072453704,49.34298329024757,-1
449997.41500000004,4426502.325,39591.433900463,39591.4343634259,47.35652014251726,-1
450325.19999999984,4424930.328571429,39591.504212963,39591.5048726852,29.841246622917787,-1
450591.4137931037,4424658.593103446,39595.5906597222,39595.5922337963,0.6324555318312002,-1
441108.71111111116,4427785.455555558,39596.4156134259,39596.4172800926,33.15493930020081,-1
450664.6466666666,4424660.693333333,39596.6204050926,39596.6208449074,48.65850388181866,359
450680.24603174586,4424615.242857141,39597.4028587963,39597.4059722222,15.849605673337681,359
454774.0,4428744.066666666,39599.2575462963,39599.2575925926,48.26313292781376,-1
450669.1029411765,4424661.185294116,39599.5799768518,39599.5809722222,32.42344830514341,359
445999.8,4427297.7,39600.3646180556,39600.3646180556,0.0,-1
450650.4571428571,4424659.600000001,39600.488275463,39600.4884259259,45.82935740260025,359
452015.925,4423444.7,39601.2344328704,39601.2348148148,47.809308716990394,360
449737.3,4425981.0,39601.354849537,39601.3548726852,19.308029418566232,-1
450686.3333333333,4424733.930952381,39601.410474537,39601.4117361111,36.01610750725599,362
450803.26666666666,4425090.533333333,39601.9930092593,39601.9930671296,7.038465741911575,-1
449755.22857142857,4423606.960714285,39602.3497800926,39602.3506134259,30.023990407670468,361
450334.9166666667,4423563.583333333,39602.3875115741,39602.3877546296,1.6278820592416767,-1
441162.70000000007,4425345.225,39604.3936689815,39604.4388541667,49.921638594486964,326
441974.19250000006,4428678.899999999,39604.4704050926,39604.4718634259,47.764840625820135,20
450619.0647058824,4424525.794117647,39604.5979398148,39604.5983796296,48.649768755617096,445
450517.3833333333,4417058.316666666,39606.0080324074,39606.0081712963,48.100727645085,-1
706770.6248322147,4413901.21946309,39606.1961574074,39606.2426388889,49.46311757294632,-1
712082.1974358977,4410873.338461538,39606.4428935185,39606.4478240741,46.3624848343831,446
712075.5002481384,4410896.147394547,39607.4568171296,39608.072337963,47.66182959119554,446
712089.3957446807,4410878.319148935,39608.2285648148,39608.2303125,48.04508299514184,446
706802.2551724138,4413922.84137931,39608.3693634259,39608.3701851852,49.87233702199111,-1
450348.5142857143,4424581.9428571435,39608.6606134259,39608.6606828704,44.15993659378475,364
442740.7447058824,4427030.254117648,39613.1712615741,39613.3891550926,49.89929859235887,-1
445588.43793103436,4425474.910344827,39613.4105439815,39613.4130671296,30.348805577710035,-1
442867.4137931034,4425254.655172414,39613.5940740741,39613.5948958333,43.28660300824235,4
450209.5857142856,4426635.9771428555,39614.204525463,39614.2067939815,35.9806892650023,-1
450366.9055555556,4424709.6,39619.4699652778,39619.4726388889,45.868071683180375,372
440852.09583333327,4426179.070833333,39620.3437731481,39620.344525463,40.853151653226924,96
442885.21875000006,4425235.48125,39621.2119791667,39621.2141319444,49.26672304925917,4
450683.4023255815,4424726.690697674,39621.547962963,39621.5490509259,20.020489504201073,362
448734.45641025645,4423783.860897439,39627.3820833333,39627.392025463,36.19129729620153,-1
441667.77727272734,4422930.613636363,39628.1458912037,39628.1464351852,47.66308844323228,-1
441213.77647058823,4429501.182352941,39628.3728703704,39628.3732523148,40.1931586218462,-1
440585.06,4424814.96,39628.5225925926,39628.5229166667,40.61785321749759,192
442826.4772727272,4425253.936363636,39629.3034027778,39629.3044791667,47.85154125006817,4
449797.6428571428,4428828.014285714,39635.2827430556,39635.2828587963,38.34383914007569,-1
449391.1448571432,4427684.170571428,39635.387337963,39635.4103240741,27.16210595683357,-1
450362.688,4424305.447999999,39635.5100347222,39635.5106597222,46.56361240225968,-1
442007.76666666643,4429012.628205127,39641.2043634259,39641.2054861111,14.246754015937487,2
442731.6,4427038.1,39641.5488194444,39641.5488194444,0.0,-1
442875.4199999999,4425251.953333334,39641.6354282407,39641.6360416667,41.66917325849654,4
441725.85000000003,4428661.108333333,39642.4323958333,39642.4995949074,47.75824536159234,-1
444099.41739130433,4429624.082608694,39642.5447337963,39642.5455671296,27.3016483016872,-1
450689.9,4424640.35,39643.3059722222,39645.3210648148,49.679472622525594,359
451195.96666666673,4425507.391666667,39645.3384722222,39645.33875,49.50646422437167,-1
450913.5107142857,4425195.507142857,39645.4158217593,39645.4165856481,48.303726564313855,-1
441979.9227272728,4429081.0227272725,39647.4253935185,39647.4259953704,44.161634932952666,447
452488.3,4423485.9,39647.6473842593,39647.6473842593,0.0,-1
450740.71874999994,4424555.643749999,39648.5500462963,39648.5506365741,32.51122882950906,359
441214.54324324324,4425368.237837837,39652.399537037,39652.4017592593,12.625371281816834,-1
440934.0838235293,4425113.544117647,39652.4400231481,39652.5766666667,41.82439479541189,-1
450639.2,4424768.5,39652.6128240741,39652.6129166667,29.45929394963599,-1
450707.83125000005,4424819.2375,39653.0117592593,39653.1222337963,48.098752582754415,-1
450675.8571428571,4424642.864285714,39653.1235069444,39653.1242592593,44.26511041451097,359
450455.51428571425,4424808.8,39653.2044444444,39653.2047916667,31.231394461171433,-1
449767.02941176464,4423596.235294118,39654.4497685185,39654.4887615741,38.53686546744982,361
450333.52285714285,4424921.785714285,39654.4954861111,39654.4972106481,39.52518184607668,376
450682.52424242435,4424666.096969697,39654.5920833333,39655.0223263889,12.731064370398194,359
462110.1117647059,4428456.794117647,39655.0673032407,39655.0681134259,41.12031128274685,-1
426275.10930232564,4448615.772093022,39656.3564467593,39656.4528472222,22.28542124332074,-1
450694.8873684208,4424638.525263159,39656.5119328704,39656.5165625,17.31126800614534,359
450502.43749999994,4424899.193750001,39656.9994560185,39657.0002662037,46.939216013939145,-1
450703.0864457831,4424674.70391566,39657.2701851852,39657.3076851852,47.70796579176035,359
450660.16521739116,4424640.595652174,39657.3294444444,39657.331412037,33.9611542793329,359
450697.8149532709,4424664.041121496,39658.6514351852,39658.6574537037,22.705505940143368,359
450328.22307692305,4425319.853846154,39660.4621180556,39660.4628125,48.60504089100746,444
442819.6095238096,4425238.785714285,39660.6223148148,39660.6234722222,42.66427076606051,4
447636.9162162162,4426195.494594594,39662.435474537,39662.5285300926,28.64000698392835,-1
450299.7333333335,4425302.009999999,39662.6090625,39662.6117476852,49.987398411980514,444
442047.3,4428764.5,39662.6737384259,39662.6738541667,45.62455479166558,422
450273.8999999998,4426582.24054054,39663.1884027778,39663.1892361111,41.651530583956635,448
450367.6677419355,4424902.403225807,39663.4305671296,39663.4312615741,49.58638926131437,376
441988.89999999997,4428697.2282051295,39663.5564236111,39663.5572916667,49.30638903848469,20
712443.4206367923,4410730.890094338,39668.1244675926,39668.1628240741,20.382345301629524,-1
712070.1963922292,4410910.235892686,39668.1772685185,39668.2260416667,43.75077142182477,446
712072.6316446692,4410905.87106675,39668.4126157407,39668.4774768518,32.64597984475485,446
698120.3592485548,4389572.759537587,39669.1237615741,39669.1317476852,40.74825149591064,-1
697933.1533783787,4389860.145945944,39669.228275463,39669.2351851852,43.30011547333284,-1
713954.0123287672,4411498.1280821925,39669.4900115741,39669.5010763889,48.09656952407254,-1
713916.4057692309,4411480.281089746,39670.1392013889,39670.172650463,48.03051113621635,-1
713761.3026548671,4411373.405752209,39670.2471527778,39670.2523611111,43.42027176295252,-1
450347.5333333334,4424527.233333333,39670.5839930556,39670.5840393519,36.05551275463989,358
441239.375,4425332.7625,39671.4105208333,39671.4109259259,46.209955637288864,325
450695.5333333334,4424622.100000001,39671.5977083333,39671.598125,25.985572920372565,359
445564.34482758614,4425478.572413793,39672.4455324074,39672.447037037,47.21281605652006,-1
450704.0209302326,4424618.044186046,39672.5705092593,39672.5756597222,41.002682838497606,359
450286.0260073259,4426603.083516486,39676.2598148148,39676.4290277778,48.71550061307623,448
453654.1866666667,4425218.266666668,39676.4459259259,39676.4496875,44.154274990881504,202
450688.1428571429,4424686.8,39676.5856018519,39676.5859490741,47.31595925230166,359
442880.56666666665,4425272.1,39677.1892361111,39677.1893518518,31.44073790499307,4
440872.5199999999,4425944.72,39695.4447569444,39695.4454282407,47.59716378108253,253
450650.34193548386,4424636.483870967,39695.5919328704,39695.5926273148,48.077541534330614,359
450353.76249999995,4424812.96875,39699.3939814815,39699.3943287037,46.74719242924969,-1
441806.78571428574,4428006.3,39703.4259722222,39703.4261111111,24.493468517218133,-1
450687.7446428571,4424662.9625,39703.5959375,39703.5994097222,21.5522620620962,359
443221.5545454545,4425584.027272727,39704.1567476852,39704.1647337963,17.04142012859951,265
442863.73500000004,4425242.690000001,39704.231412037,39704.2333796296,36.88793840814958,4
442854.7571428572,4425253.828571429,39704.5798263889,39704.5801736111,33.828538248471034,4
450696.425,4424753.45,39706.4082638889,39706.408900463,49.19613805979218,362
442846.26363636367,4425250.518181819,39706.5382523148,39706.5388310185,45.40539615498708,4
442002.64230769227,4428662.276923077,39706.8604861111,39707.2553009259,41.735356713428175,20
442860.50384615373,4425250.103846154,39707.2678009259,39707.2691319444,32.045592520568405,4
441987.02424242423,4428679.106060607,39707.794212963,39708.1446064815,44.73209138842512,20
442854.54117647064,4425229.199999999,39708.1714814815,39708.172349537,33.6867926642773,4
442854.32571428566,4425243.537142858,39708.2439236111,39708.6974652778,39.91804103434033,4
441994.6444444445,4428661.1,39708.7083449074,39708.70875,34.468101195188204,20
442854.2071428571,4425230.149999999,39709.1646296296,39709.1653240741,48.676277589919444,4
450406.8870967742,4426493.4451612905,39709.357349537,39709.358912037,31.51586901863885,-1
442890.4375,4425270.375,39709.5461805556,39709.5465856481,44.50404476002098,4
441111.9999999999,4425399.9399999995,39710.1696527778,39710.1701736111,49.70160963152202,8
442872.87499999994,4425238.875,39710.259525463,39710.2599305556,47.40042193849155,4
442877.88,4425269.300000001,39710.7789236111,39710.7791550926,49.42974812802344,4
442442.65,4428649.125,39711.1988657407,39711.2019907407,40.1601792826177,10
448648.76406249986,4423812.799999997,39711.3182060185,39711.3221875,25.681510858967837,-1
442923.85833333334,4425293.183333334,39712.2941087963,39712.2946412037,49.79407595293453,4
450329.1555555556,4424731.311111111,39714.4865509259,39714.4887268519,47.93881517082163,-1
450434.4971428572,4424862.559999999,39714.5764814815,39714.5772685185,49.05547879695869,-1
442423.0884615385,4427099.661538461,39720.464375,39720.4649768519,42.28711387619932,30
450632.8384615385,4424644.215384616,39720.5558217593,39720.5666550926,47.464723743136545,-1
442870.1187499999,4425246.721875001,39721.1668981481,39721.1699074074,5.688585060964429,4
442439.04029850726,4428653.829850745,39721.2741782407,39721.3109375,45.609757727924844,10
442430.4758620688,4427060.841379311,39721.4000694444,39721.4007175926,12.242957158991777,-1
450671.5315789473,4424699.9052631585,39721.5904513889,39721.5908680556,49.14346345122034,-1
450599.08571428555,4424524.34,39722.4238541667,39722.4254513889,46.64354188964593,445
450622.65588235296,4424525.117647059,39723.1539236111,39723.1556828704,49.118733697349185,445
449763.6446428572,4424821.044642857,39723.3671064815,39723.3698611111,46.20789975803318,-1
442871.4142857143,4425332.799999999,39723.4915046296,39723.4916435185,11.574109037158035,4
442007.6355555556,4428662.435555558,39727.7360648148,39728.1869097222,48.711908194626524,20
442860.7199999999,4425397.819999999,39728.2007523148,39728.2008449074,9.831073186774946,4
442862.62098765426,4425249.4296296295,39729.2062615741,39729.2086689815,48.72217154419849,4
442012.23513513524,4428664.899999999,39729.7676273148,39730.1838541667,46.62038180852988,20
442816.85,4425209.65,39730.1969328704,39730.1970023148,14.78681845446821,4
448484.9069767445,4448027.024418606,39732.2879398148,39732.2960648148,46.40775797199609,449
448504.95851183747,4448040.0564825265,39733.0374884259,39733.0801851852,49.940965149045454,449
448575.2842578713,4447057.304947512,39733.1616550926,39733.2178587963,45.0564090892272,-1
442905.0718750001,4425280.296875001,39733.3106018519,39733.3113194444,48.380264571169356,4
442001.43448275863,4428669.403448277,39733.6823032407,39733.6829513889,40.80747480548141,20
441822.4348314607,4428766.744943818,39734.1773726852,39734.1794097222,36.81480680305431,-1
441953.79749999987,4428660.0200000005,39734.5010763889,39734.5019791667,49.85147941631346,20
442874.74000000005,4425229.41,39735.1309953704,39735.1325,43.965554699148655,4
441990.2136363637,4428645.081818182,39735.4379398148,39735.4384259259,43.3175484071063,20
442838.2,4425348.0,39736.1693055556,39736.1693055556,0.0,4
447515.440909091,4427578.163636364,39736.5618981481,39736.5628472222,49.86070597192257,-1
441976.3999999999,4428655.494117648,39736.6415740741,39736.642337963,41.21674417037735,20
442863.48000000016,4425314.6680000005,39737.1577314815,39737.1584953704,20.624742422807827,4
441966.5259259262,4428660.512962963,39737.4378240741,39737.4390509259,45.38039224171833,20
442834.46428571414,4425237.278571429,39738.0975810185,39738.0984375,49.568235796696094,4
442866.8911111109,4425274.424444445,39738.2593055556,39738.2598148148,32.45242671974242,4
441807.0474576272,4428793.488135593,39738.438900463,39738.4413541667,20.09278477430823,450
441782.1724137933,4428797.956896552,39739.1279050926,39739.1314236111,48.94742076931572,450
443099.08333333343,4425183.083333331,39739.2345717593,39739.2356597222,15.74960316905516,4
447881.568,4417567.228,39739.5098032407,39739.5103587963,48.11257631849016,-1
441964.2913043478,4428653.8304347815,39739.578287037,39739.5787962963,49.08971378961278,20
442014.9619047618,4428667.271428574,39740.1401273148,39740.1405902778,49.17570538373253,20
441303.6,4426020.7,39740.2374305556,39740.2374305556,0.0,-1
442871.0022569439,4425236.498958323,39740.5527662037,39740.6076851852,48.90480548975567,4
441780.5483870967,4428698.3048387095,39740.6246990741,39740.6273842593,39.1541824071674,451
442865.4636363636,4425325.336363638,39741.089837963,39741.0900694444,10.948059188710939,4
441777.5157894736,4428706.605263158,39741.407037037,39741.4074537037,45.94790528413997,451
441769.88999999996,4428742.239999999,39741.4829282407,39741.4842939815,49.438851119523804,25
442857.3627906979,4425240.683720929,39742.1486342593,39742.1496064815,49.32930163705427,4
442936.6922222223,4425270.873333336,39743.3383101852,39743.4139814815,47.02393007820593,4
442856.4086956521,4425232.678260868,39743.4720023148,39743.4725115741,43.23389873697734,4
441998.66190476186,4428667.309523811,39743.7086805556,39743.7091435185,44.41125983353847,20
442864.80677966104,4425238.330508474,39744.1267824074,39744.128125,49.679170685050366,4
441991.7877551021,4428674.893877552,39744.7240046296,39744.7251157407,40.42301324739413,20
442851.205263158,4425238.957894738,39745.0579861111,39745.2005555556,36.776351096866584,4
442966.2088888889,4425006.657777778,39745.2074305556,39745.2552083333,47.32229918319672,4
442868.15925925924,4425273.818518518,39745.2593981481,39745.2614583333,34.73974668896086,4
442854.0714285715,4425240.714285715,39745.4737037037,39745.4743287037,47.44006745359162,4
442316.97619047627,4428200.657142856,39747.4480439815,39747.4495949074,39.414971774589574,35
450681.0313782992,4424656.25938416,39747.5456597222,39747.5819791667,45.57422517168335,359
450630.41764705884,4424730.104411764,39747.5820023148,39747.5835532407,42.980228012372365,-1
442892.89999999997,4425287.753846154,39752.1973032407,39752.1978125,26.174797038624178,4
442861.4307692308,4425264.053846153,39753.2558564815,39753.2571990741,45.570275399399215,4
450696.3428571429,4424630.017857142,39753.6093518519,39753.6133564815,34.75356096863324,359
442018.66071428574,4428488.535714286,39753.8959259259,39753.8965509259,43.54595273960601,-1
441978.86363636365,4428663.790909088,39754.8568055556,39754.8578009259,45.3855703942991,20
442851.45,4425238.746428573,39755.0834953704,39755.0841203704,40.15295754987983,4
448913.6,4428329.3,39755.266412037,39755.266412037,0.0,-1
442845.82413793093,4425278.775862069,39755.456724537,39755.4573726852,47.30591929139578,4
441993.02820512827,4428673.141025641,39755.7480787037,39755.7489583333,48.530917980126326,20
440339.57333333336,4421611.776666667,39756.5649884259,39756.6042708333,45.98314908745805,-1
441970.3684931507,4428682.756164384,39756.6568402778,39756.6585069444,33.87107910873262,20
441988.3411764707,4428696.952941176,39756.6934837963,39756.6938541667,42.720018726587654,20
450721.3333333333,4424593.833333333,39757.3840972222,39757.3841435185,5.738466694029362,359
450778.44285714295,4424856.228571428,39757.4609837963,39757.4611226852,49.10651687896571,-1
449785.15250000014,4425200.135000001,39757.6266550926,39757.6275578704,47.95049530505394,-1
441956.4333333333,4428743.377777778,39758.7840625,39758.7842476852,31.219385003392283,-1
442863.32599999994,4425237.198,39759.2736342593,39759.2747685185,48.19180428283961,4
442865.1225806452,4425234.967741935,39769.067349537,39769.0680439815,46.952742198541216,4
441983.3449999999,4428652.649999999,39769.2303703704,39769.2308333333,37.75950211555291,20
442772.6440000001,4425237.235999999,39769.3090972222,39769.3096527778,46.083402652093014,4
442869.0285714286,4425330.071428572,39770.0556134259,39770.0557523148,27.954427198299122,4
442868.1021276598,4425247.063829786,39770.2391898148,39770.675787037,47.2411896549616,4
442020.8333333333,4428670.261111111,39770.6863194444,39770.686712963,26.847718711584132,20
442864.31590909103,4425221.736363635,39771.0837847222,39771.0847800926,37.982364328461635,4
442850.5233333333,4425280.206666667,39772.1009375,39772.1015625,49.47261868939327,4
450711.1878048782,4424761.585365853,39772.4800694444,39772.4809953704,48.120889435160905,362
442853.6000000001,4425254.964705883,39772.5523958333,39772.5527662037,48.685624161545945,4
442852.2,4425373.6,39773.0818865741,39773.0818865741,0.0,4
442547.2,4425102.2,39774.1761574074,39774.1761574074,0.0,-1
442115.4888888889,4428654.877777778,39774.6178819444,39774.6180671296,46.25883699373359,-1
442003.5833333333,4428670.4,39775.7425810185,39775.742974537,45.693872674553276,20
442861.75555555563,4425251.055555553,39776.0850694444,39776.086087963,49.097861460404765,4
441997.3444444444,4428668.722222222,39776.6650694444,39777.0701388889,35.06565271012241,20
442848.8095238095,4425294.285714285,39777.0834722222,39777.0839351852,47.83565615711646,4
442857.4111111111,4425293.774074075,39777.2078587963,39777.2084606481,36.277403435370815,4
441988.14893617015,4428682.025531913,39777.6464236111,39777.6474884259,48.077541534739346,20
442855.60892857146,4425243.721428571,39778.0962268518,39778.0975,49.257080709463004,4
450680.1324786327,4424735.136752138,39778.3392476852,39778.3758680556,49.12117669592465,362
450718.23750000005,4424819.100000001,39778.3789236111,39778.3790856482,42.905710574903566,-1
441993.8184210526,4428666.713157895,39778.6593981481,39778.6602199074,49.08543572173777,20
442845.5681818181,4425283.390909092,39779.1061342593,39779.1069444444,45.82630249029115,4
442007.17000000004,4428664.430000001,39779.6162384259,39779.6164467593,41.89367494023392,20
442862.90000000014,4425286.835555555,39780.1970717593,39780.1991087963,20.761743663986415,4
442516.05,4427136.85,39780.5430787037,39780.5431481482,46.06354306806186,-1
442743.1354838709,4425301.625806452,39780.5897337963,39780.5904282407,22.900218339537993,377
442849.3073170731,4425250.460975611,39781.212025463,39781.2129513889,41.713786689770274,4
451225.8181818182,4424351.736363635,39781.3786342593,39781.380462963,49.01469167505236,-1
442870.71666666673,4425293.024999999,39781.5077430556,39781.5079976852,44.75991510218681,4
441990.0210526316,4428666.394736841,39782.6771990741,39782.6780555556,35.05709628591621,20
442751.61600000004,4425288.898000001,39783.1039930556,39783.6668865741,49.8485706916423,377
441964.2604166667,4428716.258333332,39783.6911689815,39783.6933912037,12.780062597811447,20
441998.1484848486,4428673.157575759,39784.662650463,39784.6633912037,45.60043859425738,20
442863.7,4425321.750000001,39785.106099537,39785.1063078704,11.221853679340215,4
442001.48421052634,4428665.843859649,39785.6480902778,39785.6493865741,40.16030378369855,20
442854.07241379295,4425241.020689655,39786.0928240741,39786.0934722222,42.21670285565951,4
450539.2272727273,4424912.763636365,39790.5206134259,39790.5218171296,40.67099703701605,-1
442006.8266666666,4428665.333333333,39790.6701851852,39790.6705092593,46.591093569488784,20
442858.05,4425310.983333333,39791.1891203704,39791.1892361111,10.977249199702756,4
442863.4857142857,4425281.042857142,39792.1472337963,39792.148599537,41.12468844866882,4
442126.94999999995,4428850.25,39793.1986805556,39793.2033564815,16.664333169677086,-1
442851.3171428572,4425247.282857144,39793.3159490741,39793.3167361111,39.02870738298017,4
441994.6409090909,4428679.045454546,39793.6454861111,39793.6459722222,43.65329311757437,20
442865.79375000007,4425291.9906250015,39794.1594907407,39794.1604861111,31.384709652205977,4
445941.56666666665,4439313.066666667,39795.141412037,39795.1416666667,47.51778614384885,-1
448757.5782608694,4423678.769565218,39795.383900463,39795.3844097222,43.200115740585694,-1
442898.77999999997,4425366.126666667,39796.3057986111,39796.3061226852,39.830264874347144,4
442823.7828571429,4425239.762857143,39796.5729166667,39796.5737037037,41.76984558234069,4
442211.45,4421058.589285715,39797.420474537,39797.421099537,49.154653899615994,55
442848.08378378383,4425252.754054053,39797.5265393518,39797.5273726852,43.96191533606946,4
442002.909090909,4428677.681818183,39798.6367361111,39798.6372106481,46.06788469204984,20
442857.6875,4425321.05,39799.0707407407,39799.0709027778,12.106609765476932,4
442893.95000000007,4425224.69375,39802.4005902778,39802.4009375,46.61523356174827,4
450297.1469387755,4424327.312244899,39802.5861342593,39802.6253819444,47.62709312981596,-1
450334.2428571429,4424361.0571428565,39802.6254050926,39802.6255439815,18.94465623893381,-1
450744.16774193547,4424733.622580645,39803.437025463,39803.4388773148,34.54924022337392,-1
442004.3874999999,4428674.609375,39804.6582060185,39804.6598263889,19.00000000016298,20
442857.30833333335,4425240.116666666,39805.102349537,39805.1029861111,44.91970614344272,4
453648.8727272728,4425241.381818182,39805.5451273148,39805.5457060185,45.93963430443469,202
442870.37500000006,4425283.875,39805.6269675926,39805.6273726852,48.97887299647026,4
441268.0975308642,4425327.581481483,39806.4248263889,39806.4285532407,33.01893396164035,325
441995.0857142858,4428670.357142857,39806.6410069444,39806.641724537,30.513275799243033,20
442855.6999999999,4425243.075,39807.0740393519,39807.0747916667,43.865704143544086,4
441991.6000000001,4428675.896428571,39807.7534027778,39807.7547337963,41.06214801971835,20
442861.25555555563,4425275.566666666,39808.0797916667,39808.0802546296,47.14657993886295,4
442849.6555555556,4425260.244444445,39808.2482291667,39808.2486921296,42.09049774022907,4
450321.37345971604,4426621.403317535,39808.4487268519,39808.4888310185,36.144847489222606,-1
453659.6499999999,4425183.088888888,39808.504224537,39808.505150463,47.0558179186531,202
441995.9534246577,4428670.458904109,39808.7806712963,39809.031400463,5.882176468146926,20
434118.5833333333,4453206.483333333,39809.1608101852,39809.161099537,47.78755068059081,-1
442916.01875000005,4424967.2375,39809.3361805556,39809.3369328704,37.987629565581564,163
450383.9000000001,4426346.325,39810.1606712963,39810.1611921296,36.43473617305594,-1
450723.8599999999,4424589.494,39810.3904050926,39810.3922106481,25.695524902242283,359
441992.85000000003,4428459.016666667,39810.7264814815,39810.727025463,30.095846889541335,-1
442852.8272727273,4425237.709090909,39811.1166203704,39811.1171412037,42.40577790820492,4
441993.15312499995,4428664.043749999,39811.682337963,39812.0658449074,49.603729698303304,20
442061.82631578954,4428609.384210526,39812.0659027778,39812.0668287037,16.901183390245492,-1
441055.94000000006,4425477.694545455,39813.4314699074,39813.5380208333,48.580757507485394,349
443020.37600000016,4424548.156,39813.547337963,39813.5485532407,34.37586362501812,405
442944.24503546115,4425263.92925532,39814.6462615741,39814.6995601852,44.24081825680385,4
442857.45,4425309.9,39814.7473611111,39814.7474189815,9.042676594651082,4
441967.9,4428681.5,39819.4440393519,39819.4440393519,0.0,20
442888.625,4425308.775,39819.5571412037,39819.5573148148,3.981205847537359,4
442020.53478260874,4428664.173913045,39824.5660763889,39824.5671180556,43.60103209793779,20
442851.10000000003,4425301.425,39825.1750578704,39825.1752314815,18.21675053314933,4
442035.8625,4428662.524999999,39825.696724537,39825.6970717593,35.47647107555071,20
442861.34,4425236.890000001,39826.0913541667,39826.0918171296,36.00347205449514,4
442863.78125000006,4425259.79375,39826.2119791667,39826.2127314815,3.2893768403403025,4
442867.61500000005,4425233.1,39827.5263541667,39827.5272800926,41.10985283358184,4
442028.7368421053,4428668.600000001,39827.7649884259,39828.0752777778,44.93484171537418,20
442850.7266666667,4425248.88,39828.0883564815,39828.0890509259,45.80927853612972,4
450048.12,4426550.11,39828.4405324074,39828.4409953704,29.3073369654557,-1
442872.93846153846,4425273.984615385,39828.536087963,39828.5367824074,49.14682085340469,4
442854.50625000003,4425276.73125,39829.1162731481,39829.1174305556,45.94126685271974,4
442555.75999999995,4427004.033333332,39829.1831365741,39829.1839467593,42.20426518744246,14
442837.7666666666,4425441.584848484,39829.2553240741,39829.2569444444,45.621924553850725,4
441974.7615384615,4428665.142307692,39829.7316435185,39829.7370833333,8.030566605166555,20
442863.0500000001,4425234.524999999,39830.1212962963,39830.1220486111,33.00681747759335,4
441990.575,4429057.6125,39831.1884837963,39831.1888310185,49.30415803919907,447
441952.98124999995,4428690.58125,39831.4183564815,39831.419224537,32.17592267518404,20
450695.04666666663,4424652.306666668,39831.6247800926,39831.6274189815,28.785065572337093,359
442850.4777777778,4425217.022222223,39832.3034490741,39832.3038541667,39.99299938740333,4
442887.7388888889,4425216.46111111,39833.2551273148,39833.2559606481,15.117208736670825,4
442003.31666666665,4428671.483333333,39833.4405208333,39833.4407523148,36.1863233835045,20
442862.05833333335,4425293.366666665,39834.2900231481,39834.2906018518,19.958456854313066,4
442031.50833333336,4428669.8,39834.7870601852,39834.7876388889,43.522178253980115,20
453559.1859375,4420677.587499999,39835.3031828704,39835.3046412037,25.59707014464846,-1
450684.6488372093,4424668.644186047,39835.5235532407,39835.524525463,7.421590126077907,359
442173.1466666666,4429176.306666667,39837.2040972222,39837.2047916667,47.271238613109624,5
442134.27,4429192.215,39838.1288078704,39838.1297916667,41.07967867439682,5
453572.14285714284,4426800.142857143,39839.3676851852,39839.3678240741,48.505051283334986,-1
442842.8145454547,4425249.838181818,39839.6041203704,39839.6053703704,37.406550228536176,4
442774.2315789475,4425144.921052632,39841.2222106481,39841.2231365741,37.209138661913784,421
442134.7612903226,4429190.193548387,39846.4776736111,39846.4793518518,37.619808612499696,5
442851.3916666668,4425233.970833332,39847.2852314815,39847.2863310185,48.16658592793427,4
442144.99999999994,4429179.611111111,39847.6183564815,39847.6191666667,45.37851914718824,5
442835.9166666667,4425384.066666666,39848.2125462963,39848.2127777778,49.40708451222065,4
442861.8799999999,4425366.266666667,39849.1597685185,39849.160462963,38.6419461205175,4
442877.80999999994,4425261.535000001,39850.2544560185,39850.2553819444,37.38047618753839,4
442862.54166666657,4425244.004166667,39851.0438310185,39851.0451041667,44.382541613157954,4
441838.85454545455,4427715.481818181,39851.4553125,39851.4558333333,43.722419878447006,-1
438036.85594713676,4451585.87268722,39852.1443981482,39852.1943287037,49.68913362095539,-1
442897.03750000003,4425264.274999999,39852.2710416667,39852.2712037037,25.318965223822286,4
442254.4,4429228.659999999,39854.6680902778,39854.6682638889,10.929318367940413,82
442864.43333333335,4425345.925,39855.2070138889,39855.2075347222,43.385020456402366,4
442140.825,4429184.41,39855.407662037,39855.4086226852,29.71211873950783,5
442859.83181818185,4425250.068181818,39857.1362268519,39857.1373842593,38.63586416774525,4
444451.57,4415564.01,39858.3052893518,39858.3063888889,30.907927785550402,-1
442140.1857142858,4429176.961904762,39858.4550810185,39858.4561226852,40.57351352794944,5
450482.7047619047,4424840.580952382,39859.4779166667,39859.4783796296,49.059657561117454,371
442178.19999999995,4429187.4846153855,39859.761712963,39859.762349537,48.89764820532616,5
442849.8655172413,4425237.041379311,39860.1652314815,39860.7265740741,46.56006872850042,4
442181.66363636364,4429176.0636363635,39860.7386111111,39860.7391319444,33.10498451909301,5
442839.08333333326,4425245.283333333,39861.0907060185,39861.0909953704,45.58826603411541,4
442873.8594501722,4425192.958419245,39866.4972800926,39866.532025463,49.922539999466835,4