448082.8,4414500.05,40322.5412384259,40322.5414699074,17.514850841853526,-1
442841.2166666666,4425264.983333333,40323.1129398148,40323.1132291667,11.8270875535538,4
447911.53750000003,4414606.1875,40323.5569560185,40323.5573611111,48.44553642967979,379
442903.75,4425224.5,40325.0817708333,40325.0818287037,46.720980297899295,4
447915.91428571433,4414622.114285714,40325.5718634259,40325.5722106481,32.5,379
442835.8833333333,4425260.633333334,40326.0927083333,40326.0929976852,36.68364758298984,4
453311.52,4417263.52,40327.1684837963,40327.1687152778,33.687980052093216,-1
447169.675,4417400.962499999,40327.59875,40327.6013541667,47.956334305279135,-1
447916.76249999995,4414607.774999999,40328.5484953704,40328.548900463,36.8408740390638,379
447907.8125,4414607.1,40329.4867592593,40329.4871643518,41.28256290493603,379
442836.6,4425262.92,40330.1243981481,40330.1246296296,31.80251562399996,4
444640.4789473684,4417927.584210526,40330.4757291667,40330.4766550926,46.22228899577813,-1
442830.4000000001,4425260.0,40332.1832638889,40332.1835532407,27.033682694217024,4
445219.18333333335,4426726.233333333,40334.3467824074,40334.3470717593,42.63812847712233,-1
445213.2199999999,4426739.67,40335.1745138889,40335.1749768518,49.882361612644885,-1
447917.5857142857,4414619.028571428,40335.3761226852,40335.376412037,24.05077961299792,379
447920.62857142865,4414605.714285715,40338.5619791667,40338.5623263889,46.585942085903355,379
442833.9,4425260.5,40339.1336689815,40339.133900463,21.16246677464714,4
447911.17142857146,4414618.8,40339.4822916667,40339.4826388889,48.78298883840001,379
442858.43333333335,4425242.4,40340.1183564815,40340.1184722222,43.44939585339499,4
442838.3,4425259.666666667,40341.1029398148,40341.1032291667,42.858488074009195,4
454579.525,4417506.925,40343.2386689815,40343.2388425926,32.53936078051313,-1
445218.18,4426742.17,40343.3578819444,40343.3583449074,47.9009394483624,-1
468763.42500000005,4416536.725,40345.0686574074,40345.0687731481,12.624579201072091,-1