509403.54444444436,4338019.744444444,40090.1653240741,40090.165787037,38.829499095245176,-1
512444.17777777783,4336883.333333333,40091.1655324074,40091.1659953704,15.184531602544581,-1
513028.3,4342850.3,40094.3830208333,40094.3830208333,0.0,-1
442764.0933333332,4425849.06,40094.4509027778,40094.4709837963,33.90943821453312,118
445717.77619047614,4425270.823809524,40095.5420949074,40095.5431365741,32.68332908399,-1
446233.575,4417555.633333333,40097.3587847222,40097.3594212963,46.90469059715652,-1
442742.2636363636,4425816.754545456,40097.5815625,40097.5821412037,30.489670381605546,118
442742.5066666667,4431606.326666667,40305.4855555556,40305.4861921296,25.90231649867767,315
464540.38749999995,4476330.800000001,40306.2504166667,40306.2507638889,46.35903363964154,-1
442735.9454545455,4431617.500000001,40306.3752314815,40306.3757523148,7.558438992233173,315
442834.6666666667,4425265.816666667,40309.0544444444,40309.0547337963,6.220128616144393,4
442704.32941176475,4431599.2235294115,40309.4683449074,40309.469212963,21.94948746571094,-1
442834.42000000004,4425265.140000001,40310.056412037,40310.0566435185,7.690253571894725,4
442708.2545454545,4431605.445454546,40310.482349537,40310.4828703704,38.75370949962833,-1
442839.86,4425266.08,40311.0730324074,40311.0732638889,34.468826495701926,4
442831.225,4425262.5,40312.0860416667,40312.0862152778,24.10580842866564,4
442670.3,4431582.877777779,40312.4549652778,40312.4553703704,33.08201928569867,-1
442834.92500000005,4425271.925,40316.0593287037,40316.0595023148,10.789810007121044,4
449707.6500000001,4425981.566666666,40316.480162037,40316.4803935185,25.863101129016005,-1
442828.69999999995,4425269.55,40317.0628125,40317.0629861111,20.99999999976717,4
442718.98571428575,4431604.935714287,40317.4708333333,40317.4715277778,35.93438464768379,315
442835.525,4425261.55,40318.0708912037,40318.0710648148,19.884164553844723,4
442726.9285714286,4431613.790476191,40318.5215393519,40318.5225231481,45.58738860728878,315
442830.6,4425258.68,40323.0877893518,40323.0880208333,16.96407969782143,4
442675.0333333334,4431585.875,40323.4610300926,40324.0519907407,26.809140232359802,-1
442838.27999999997,4425260.279999999,40324.0696412037,40324.0698726852,12.536347154908286,4
442839.62,4425270.540000001,40325.0708101852,40325.0710416667,17.99138682861436,4
442768.09565217386,4431603.62173913,40325.4992476852,40325.5002314815,42.379476164691255,315
442825.77499999997,4425257.225,40326.0656597222,40326.0658333333,12.51718818283402,4
442505.44000000006,4431807.2299999995,40326.4668287037,40326.4672916667,35.07078556282411,-1
442833.66,4425261.0,40330.0592824074,40330.0595138889,7.3824115301167,4
442625.32000000007,4431507.4,40330.4943518518,40330.4950462963,14.80540441847183,-1
442837.0399999999,4425255.859999999,40331.0584606482,40331.0586921296,14.140014144444965,4