440271.89545454545,4426506.0227272725,39675.349525463,39675.3500115741,49.620257960081624,-1
447623.35,4423904.699999999,39676.0410185185,39676.041087963,1.0440306511051458,-1
447671.72285714274,4423826.160000001,39676.4137268519,39676.4145138889,47.290802488611085,-1
440229.14736842114,4426599.904093565,39676.5240972222,39676.5380324074,22.614154858918408,351
447938.7,4423878.4,39677.0392708333,39677.0392708333,0.0,-1
447805.64615384606,4423936.123076924,39677.356875,39677.3574537037,30.926040806526657,-1
440926.8555555556,4426155.166666668,39677.4818865741,39677.4820717593,37.155349547168626,-1
440257.052173913,4426547.526086956,39677.5691319444,39677.5696412037,46.738634982705456,-1
447732.89629629627,4423780.614814814,39678.0223032407,39678.4402662037,39.99449962135634,-1
440216.53214285726,4426596.5583333345,39678.4839467593,39678.4895949074,28.213649179051796,351
447729.6142857144,4423765.892857143,39680.0162962963,39680.0165972222,49.50161613523642,-1
447780.0703703704,4423917.022222221,39680.3520833333,39680.4495138889,49.326868945836104,-1
440904.50000000006,4426132.572340426,39680.5809375,39680.5847800926,43.302886739614365,96
440244.11428571417,4426616.168571427,39681.5003935185,39681.5033101852,41.16430492552393,351
440874.57575757575,4425963.46060606,39683.5035763889,39683.5043171296,27.100737996635896,-1
440725.96521739126,4426031.804347825,39683.58,39683.5805092593,28.95807314010948,-1
423205.15967302426,4477352.673024526,39684.2050347222,39684.2739699074,45.70010940905941,-1
447674.8499999999,4424339.383333333,39684.3541319444,39684.3543865741,33.87107910860665,-1
440244.5731707318,4426535.119512194,39684.4551041667,39684.4560300926,45.25151931130216,346
440782.0729166667,4426063.05,39684.5072106481,39684.5082986111,31.033691369398262,-1
440766.59782608686,4426090.243478261,39685.2759143518,39685.2769560185,28.57271425694388,-1
442844.52285714267,4425242.271428572,39685.3732986111,39685.3740856481,47.563115961374734,4
440344.07077922084,4426618.637662335,39685.4365625,39685.444849537,33.2776201073185,-1
440664.8550000001,4426103.11,39685.4956597222,39685.496099537,35.72408151354128,-1
442836.1333333334,4425251.546666666,39686.0709722222,39686.0712962963,40.84176783641326,4
440235.1599999999,4426537.204,39686.4420833333,39686.4426388889,45.89400832349321,346
442844.93703703705,4425246.766666667,39687.0378472222,39687.0384490741,48.733663929703276,4
440411.73828125023,4426569.512500001,39687.4471064815,39687.4513888889,45.564240364595086,223
440902.2416666667,4426241.983333333,39687.526087963,39687.5263310185,47.79801251044578,-1
442842.55,4425279.472727273,39688.0417013889,39688.0421875,49.187396759859645,4
440917.775672646,4426125.421412558,39688.6184722222,39688.6634259259,24.075298544749693,96
440234.323076923,4426577.815384615,39688.7013194444,39688.7015972222,42.237069027658734,351
442837.2210526316,4425439.568421053,39689.0467476852,39689.0471643518,15.794302770323458,4
441151.6527777778,4425231.091666666,39689.4375694444,39689.4383796296,23.226278220986675,-1
447311.1969696971,4417421.718181816,39689.4776157407,39689.4783564815,48.440685379302685,-1
440236.9551975055,4426569.55051975,39689.6743287037,39689.7157407407,48.76433122681122,-1
440233.38616863976,4426595.861316574,39689.7805092593,39689.844375,48.402169373421465,351
440234.57851941773,4426601.290351934,39689.875787037,39689.9517361111,47.32071427963576,351
440240.4667655776,4426577.284965382,39690.0118981482,39690.0559722222,2.523885893302652,351
442852.84117647057,4425251.147058824,39690.0785648148,39690.0789351852,48.08918797430797,4
440239.4199999999,4426567.840000001,39690.6628703704,39690.6642592593,48.36569031884024,-1
442855.7,4425243.728571429,39691.5022685185,39691.6775925926,45.720017497455906,4