441076.7434782609,4430731.278260869,39826.5375810185,39827.3712731482,46.556846972279104,-1
440995.5,4430554.975000001,39827.4045833333,39827.4046759259,40.858903558649175,-1
441070.99583333335,4430778.6375,39827.5333333333,39827.534537037,19.080094339217354,237
440994.93333333335,4430787.175,39828.5470138889,39828.5476041667,46.59034234688703,238
441009.38695652166,4430783.173913044,39829.4777546296,39830.1204976852,49.71569168758544,238
441031.10000000003,4430782.527272727,39830.1655902778,39830.166724537,44.88262470030694,238
442689.4945454544,4423285.914545454,39830.4025231482,39830.4054513889,49.526154706234955,-1
441725.2472222223,4426936.730555555,39830.5589236111,39830.5674305556,15.294770348405097,-1
440878.85000000003,4431239.108333333,39831.4537268518,39831.4542939815,30.813146544586463,-1
440997.8,4430758.859999999,39831.5170138889,39831.5171527778,45.082147242907574,238
640598.039340101,4183445.8974619303,39832.5162268518,39832.5551157407,46.5833661299637,239
640444.1476190476,4183535.7904761895,39832.5562615741,39832.5575694444,40.72370317141645,240
640446.7653846154,4183550.2076923084,39833.2759837963,39833.2781828704,41.39625586920297,240
640609.9362530411,4183446.900973239,39843.6064699074,39843.6480555556,48.45802307132178,239
640447.6809523809,4183538.790476192,39843.6588078704,39845.1236805556,48.92616886688367,240
637090.81042654,4189465.6912322333,39845.1912152778,39845.2507638889,49.74102934193643,-1
640632.7857142857,4183468.485714286,39845.4208912037,39845.4214236111,43.85031356814199,-1
636602.6234693873,4187227.121088434,39846.1921064815,39846.2358217593,47.90668011868678,-1
637077.9833333335,4177193.4066666667,39846.2751041667,39846.2766319444,16.36704004989277,-1
640450.947368421,4183562.3894736846,39846.3399189815,39849.4072800926,43.705949251871765,240
638002.3467625902,4187403.3672661874,39849.4492361111,39849.4878125,42.7675110335159,-1
640593.1483588621,4183437.0599562316,39849.5484837963,39849.5881481481,35.38318809833369,239
637245.590625,4188402.3437500005,39852.3324884259,39852.3340509259,33.28137617353411,-1
640454.2047619047,4183560.0238095233,39852.5980092593,39852.5990972222,41.140004861448425,240
640609.1881188115,4183457.201980198,39859.3226157407,39859.3277083333,44.97999555331826,239
640444.9698113209,4183568.832075471,39859.5221064815,39859.5248263889,12.226201372434156,-1
640438.2285714286,4183598.964285715,39860.4664814815,39860.4670601852,43.23944958017002,-1
440998.49082840246,4430808.474556213,39862.6273148148,39862.6798958333,44.60549293564746,238
441003.2659400544,4430808.105449592,39862.6799537037,39862.705150463,34.9631234297066,238
441039.21538461547,4430783.553846153,39864.5081597222,39864.5094791667,34.39607535752045,238
450445.371590909,4422006.495454546,39865.0179282407,39865.022662037,31.09807067975153,-1
451227.0636363637,4421204.054545455,39867.3420023148,39867.3425810185,45.60010964896688,-1
441633.20416666684,4427004.652777778,39867.4374884259,39867.5290856481,48.648638213350694,-1
441065.3333333333,4430769.559999999,39867.5374189815,39869.450162037,48.21877227837619,237
441070.8447368421,4430778.263157897,39869.4906018519,39879.2541319444,42.607511075485164,237
442654.890909091,4415084.80909091,39879.3740972222,39879.3746759259,44.14181690850649,-1
440989.4,4430903.4,39879.527650463,39879.527650463,0.0,-1
441005.1533333333,4430800.380000001,39880.5358101852,39880.5364351852,32.21257518442033,238
441684.82,4427041.12,39883.3082175926,39883.3087268519,36.141112323411775,-1
441006.27482758614,4430782.364137933,39883.5308564815,39883.5482060185,12.75813466025451,238
440629.197814776,4420928.094068682,39884.4291435185,39884.5251388889,48.810859447537304,-1
441002.69375000003,4430780.225,39884.5863773148,39884.5869675926,41.18944039381992,238
440592.3059808611,4426705.018181819,39885.3044212963,39885.3857407407,48.60658391673186,241
441323.91333333333,4424656.44,39885.4854976852,39885.4863078704,49.179772264990426,242
441020.85,4430768.25,39885.6104282407,39885.6106481481,45.20011061970506,238
440763.13636363635,4431042.554545455,39886.3980787037,39886.3986574074,48.89836398045576,-1
441054.61590909096,4430779.529545454,39886.4583564815,39886.4606481481,41.027429848722846,237
441332.7583333333,4424654.416666666,39887.2399189815,39887.2405555556,43.26118352501053,242
440989.9894736842,4430800.610526316,39887.4634143518,39887.4642939815,34.78649163074063,238
440991.70999999996,4430784.93,39893.3932638889,39893.3937037037,37.44128737088629,238
443123.9333333333,4425159.033333333,39893.9995601852,39893.9998148148,48.68808889229446,4
450751.89166666684,4415320.2194444435,39894.0446990741,39894.0812962963,31.92146613182186,-1
450758.50175438594,4415337.448120299,39894.0976967593,39894.145625,43.31397003277605,-1
449919.325,4414920.1049999995,39894.1660416667,39894.167025463,45.12405123646922,-1
441053.5777777777,4430770.027777779,39894.2567939815,39894.2577199074,47.393248464606295,237
441214.7,4429993.275,39897.5127662037,39897.5128472222,37.54796931944808,-1
443970.10000000003,4424412.2764705885,39908.3215162037,39908.3223842593,13.75281789289182,-1
442101.8236842104,4420900.947368422,39908.7086111111,39908.7105324074,48.646479831674014,-1
441076.5399999999,4430764.4,39908.8205208333,39908.8209606481,43.38767105990743,237
441036.43409090914,4425591.961363636,39910.4749189815,39910.5207638889,42.42640687119285,97
441012.70833333326,4430804.441666667,39910.562025463,39910.5625,32.151205265617925,238
450117.65273311926,4416485.981672022,39911.4869907407,39911.5145717593,32.83443314542715,-1
440987.06153846154,4430734.715384616,39911.6208796296,39911.621400463,44.844732131555496,-1
441068.4391304348,4430760.821739132,39914.2676157407,39914.2688310185,47.32071428050566,237
441016.5125,4430802.374999999,39917.5327893518,39917.5358796296,33.00802932607563,238
441016.40434782597,4430793.9065217385,39918.3766898148,39918.3816666667,24.740654801530585,238