442813.25,4425253.65,39201.3573148148,39201.3590277778,16.383528313068368,4
445171.7,4420023.15,39201.5365393519,39201.5373263889,29.086938649447003,-1
402054.84117647057,3288981.582352941,39202.5868518518,39202.6153240741,31.633210396672276,-1
482089.3,3120384.8,39203.1667708333,39203.1667708333,0.0,-1
497374.85000000003,3104921.875,39203.3460185185,39203.3837152778,44.3545938996448,-1
482162.0,3120369.95,39203.4613541667,39203.4614930556,29.934094273998948,-1
481582.2,3120720.4,39203.5906944444,39203.5940625,30.611109094698367,-1
505434.25,3103707.05,39204.1758564815,39204.1759143519,42.62792511957751,-1
603547.0838709677,3197673.806451614,39205.1601273148,39205.213287037,48.08846015419313,-1
603529.8333333334,3197682.366666667,39205.2142013889,39205.2161921296,30.563540370766805,-1