443983.56666666665,4425596.7,39294.5262152778,39294.5265740741,36.19419842990894,340
443435.89999999997,4425396.975000001,39294.6570486111,39294.6574537037,22.67377339553272,111
455464.8666666667,4428854.433333334,39295.0355439815,39295.0359490741,46.41228285716388,341
451161.4,4426598.7,39295.5011342593,39295.5011342593,0.0,-1
443656.6,4425364.8,39295.6410763889,39295.6411805556,18.918773744970938,268
443999.3,4425673.666666667,39296.0200347222,39296.0203240741,33.551453023496336,105
452809.80000000005,4418179.833333333,39296.1327430556,39296.1330555556,42.670833129730255,-1
453406.20000000007,4417238.342857143,39296.1909143519,39296.1999421296,38.72492737212999,-1
443446.5,4425375.58,39296.654212963,39296.6571064815,37.773270972968454,111
443784.56666666665,4425887.366666666,39297.0081944444,39297.0085532407,35.201278386063,109
444008.06666666665,4425636.0,39297.1782291667,39297.1785763889,27.54650613055777,105
444209.32499999995,4425573.0,39297.4530439815,39297.523900463,38.374210089436126,-1
443466.60000000003,4425360.633333333,39297.5881597222,39297.5885185185,33.61621632468348,111
443993.83999999997,4425682.000000001,39298.1914236111,39298.1926388889,15.285614151721115,105
446164.53333333327,4422999.066666666,39298.3433564815,39298.343900463,38.56319488822119,342
446163.775,4423010.2,39298.4380671296,39298.4396643518,45.181080110899366,342
445657.5,4425033.9,39298.5345023148,39298.5345023148,0.0,-1
443475.3,4425386.5,39298.6694907407,39298.6695833333,11.400000000023283,111
444102.4,4425735.58,39299.1034606481,39299.1044097222,42.937745632398965,73
444106.9,4425722.675,39299.1965740741,39299.1971527778,48.206327385149734,73
444085.85,4425663.2,39299.497650463,39299.4977777778,20.989759408207007,-1
443461.925,4425403.7,39299.6654398148,39299.6675925926,49.627109526811395,111
455409.0333333334,4428873.266666667,39300.0253356481,39300.0257407407,45.82979380254823,-1
444113.07999999996,4425634.1,39300.5335300926,39300.5353240741,48.42354799076435,-1
443494.06666666665,4425354.3,39300.6772685185,39300.6776851852,40.23742039450088,111
455470.3666666667,4428822.333333333,39301.0275,39301.0277083333,28.21790211939147,341
443968.3666666667,4425656.0,39301.4491087963,39301.4493981482,49.13857954794609,105
443469.55000000005,4425422.15,39301.6449189815,39301.6457407407,29.585300404079003,111
455449.1499999999,4428840.666666666,39302.0211458333,39302.0223032407,24.35836611908657,341
444091.65,4425591.0,39302.4661342593,39302.4662037037,18.553975315022537,-1
443503.6666666667,4425368.399999999,39302.5960416667,39302.5964583333,41.30193700057343,111
443979.3666666667,4425606.0,39303.0433101852,39303.0436574074,29.064239195446252,340
443994.43333333335,4425593.25,39303.435162037,39303.6610416667,11.175866856387454,340
443503.73333333334,4425375.8,39303.6668634259,39303.6671990741,47.511367060813264,111
455452.10000000003,4428829.757142858,39304.0221180556,39304.023275463,8.508818954774057,341