443034.93513513485,4425283.078378378,40758.3847800926,40762.3792592593,45.59385923601348,-1
440647.64799999987,4425602.78,40762.3972453704,40762.3985069444,40.2435087933381,188
442904.1,4425234.08,40763.9520486111,40764.3942939815,34.50797009399234,4
440624.17058823525,4425646.217647059,40764.4115625,40764.4123148148,44.81350242951336,188
442889.7394202898,4425147.900869566,40764.9400925926,40764.9819907407,47.531042488223655,4
442889.53275434335,4425172.476178656,40764.9821064815,40765.011724537,36.4972601709657,4
442884.9440097798,4425154.484352079,40765.0224768519,40765.1041087963,48.27690959455738,4
442891.7103117509,4425143.845803355,40765.1110300926,40765.1496412037,46.37208211882079,4
442886.9612903224,4425149.657320104,40765.160787037,40765.2004861111,45.213382974232545,4
442890.8763157894,4425147.586842105,40765.2025462963,40765.2040162037,15.621779667966342,4
442879.73143459926,4425155.465189879,40779.6530439815,40779.759212963,46.442760469023774,4
442886.7042087542,4425141.585858582,40779.7864583333,40779.8476851852,49.725747857295325,4
442892.94398496224,4425138.409022563,40779.8696527778,40779.9116550926,44.35414298559984,4
442888.14735657955,4425153.267379075,40779.9172453704,40780.0105671296,37.04497266841914,4
440159.2,4424152.0,40780.0833449074,40780.0833449074,0.0,-1
442900.0,4425173.415384615,40782.6352662037,40782.6358796296,15.226949793020557,4
440610.56363636366,4425645.2,40783.3928472222,40783.3933912037,42.826276980365726,188
442891.2659033081,4425140.214503808,40783.7059027778,40783.7843171296,42.69074841227312,4
442887.354392299,4425165.046329726,40783.784375,40783.8531597222,25.885324027145014,4
442884.85331664607,4425141.696245308,40783.8915277778,40783.9488078704,48.001041655620696,4
442885.3284671528,4425154.077372261,40783.9497222222,40784.0117476852,47.63192206881374,4
442884.1004950492,4425145.921039602,40784.0118055556,40784.0466087963,49.2646932396799,4
442892.9461538463,4425155.460083163,40784.046724537,40784.0959837963,49.07310872583516,4
440583.6384615385,4425683.123076922,40784.1649189815,40784.1656018518,49.54926841050598,188
442889.80967741937,4425098.0,40785.6176273148,40785.6189467593,10.163660757798057,334
442886.2712620025,4425160.667489713,40788.4213310185,40788.5840393519,49.84505993594803,4
442889.62631578976,4425151.901754388,40788.621712963,40788.6712268519,49.50191915472177,4
442885.75805243425,4425140.587640453,40788.6713425926,40788.6949305556,38.108398024299575,4
442886.1771551722,4425173.075000001,40788.7066203704,40788.7449884259,48.5223659774669,4
442882.3513812151,4425175.358563539,40788.7977893518,40788.8338194444,27.24720169116636,4
442877.89534883754,4425155.85921288,40788.8559259259,40788.9009143518,48.69661179175507,4
442907.2500000003,4425159.2900900915,40788.9009722222,40788.9122337963,39.19502519453202,4
442886.6772357716,4425159.731056919,40788.9893402778,40789.0538888889,49.016323811212466,4
442869.0655405404,4425128.725675672,40789.1030787037,40789.1124884259,48.149974039269416,4
442898.1287056372,4425140.933820462,40789.2250462963,40789.2726388889,48.04674806893335,4
442900.3551630437,4425143.14592391,40789.2732175926,40789.310787037,45.045421520957596,4
442884.4795698926,4425163.768817206,40789.4007060185,40789.4095949074,4.70425339455518,4
440370.41904761916,4425190.228571428,40816.3735648148,40816.3747222222,15.074813431681335,-1
466606.73222591396,4434011.163787379,40816.4524074074,40816.4882291667,49.83783703123057,335
466613.154261364,4434003.223579541,40816.4884606482,40816.5304861111,45.19081765138408,335
467366.15,4434867.55,40816.580474537,40816.5804861111,28.317132622832133,-1