578283.9111111112,4535592.222222222,40058.7298726852,40058.7358333333,43.97271881537482,-1
579359.935,4537080.4399999995,40058.7991550926,40058.8001388889,30.34880557837518,-1
578214.4333333335,4535549.333333333,40058.8668634259,40058.8670949074,17.046113927160416,-1
578959.1335195533,4538657.234636871,40059.8001041667,40059.8382291667,47.105201410935955,-1
578967.9037828941,4538680.48108554,40059.838287037,40059.8788194444,30.19205193424904,-1
578330.0999999999,4535606.08,40059.9547453704,40059.9549768518,34.65385981389719,317
579144.6333333334,4538936.628571429,40060.515787037,40060.5167708333,21.05445321127526,-1