450544.6222222222,4417139.722222222,39298.1766203704,39298.1769212963,22.600000000023076,-1
565231.4,4678752.3,39298.6756018519,39298.6756018519,0.0,-1
495112.45,4971673.95,39299.3603935185,39299.3609259259,36.50342449688796,-1
344775.2,5044756.600000001,39299.4720949074,39299.4721180556,41.950923708709674,-1
699277.2,4894910.4,39299.7174768519,39299.7174768519,0.0,-1
520972.6523809523,4329973.9,39322.764837963,39322.7650810185,40.87175063556317,-1
518978.6016393442,4331875.659016396,39324.8714351852,39324.8728819444,14.302447342501363,-1
441342.6,4416385.1625,39326.1089467593,39326.1090393519,44.37172523120653,-1
455219.2489361702,4419323.531914895,39328.4148148148,39328.4155324074,45.97260053566284,-1
520958.575,4329997.537500001,39330.7641087963,39330.7644212963,45.49252685880256,-1
521075.3075630257,4329880.352941178,39331.9222222222,39331.9236111111,49.54644285934574,-1
450571.86250000005,4416913.520833334,39332.3707523148,39332.3710532407,44.020449793275155,-1
521073.9863636363,4329920.527272727,39333.4365393519,39333.4367824074,49.66135318333563,-1
450433.6047619048,4416876.419047619,39335.3713194444,39335.3715740741,35.22300384694982,-1
521075.6176470588,4329865.311764707,39335.9122569444,39335.9124884259,46.1104109718266,-1
450521.7454545455,4416918.254545455,39344.5799884259,39344.5802430556,47.422041288850394,-1
696973.1806818179,3120730.957386363,39345.33625,39345.3383101852,1.360147051113197,-1
697014.8775862067,3120680.2379310345,39345.5859953704,39345.5887615741,42.30189121059941,-1
424899.42666666716,2346490.1049999995,39346.5627430556,39346.5634259259,4.188078318299958,-1
408178.2571428572,2233173.4,39346.7278356481,39346.7279166667,41.92684104475551,-1
411976.23050847417,2214947.424576272,39346.9531134259,39346.9544791667,7.91201617784094,-1
340360.3733333339,2023793.3283333357,39347.2715509259,39347.273287037,27.613402542968153,-1
340350.2523809524,2023719.9761904757,39347.634212963,39347.6344560185,22.192115717084796,-1
256729.45,2112408.55,39347.7878240741,39347.7899074074,21.247588098422977,-1
407797.1666666667,2232429.4666666663,39348.017650463,39348.0176967593,43.420041455431445,-1
734803.1133333333,2588343.8266666667,39348.6381944444,39348.6383564815,48.832059141429326,-1
530146.3,4330881.0,39348.8291550926,39348.8291550926,0.0,-1
462674.9294117647,4416675.323529412,39369.6848148148,39369.6850115741,45.64482446017343,-1
756969.1609141735,4201864.4749066895,39373.1954398148,39373.254537037,38.55295059979012,-1
440901.13691275165,4413235.185906044,39373.441712963,39373.4434490741,42.80292046109709,-1
464013.65,4416576.8,39374.2568518519,39374.2568634259,21.194574777557435,-1
604430.6571428571,4117784.2857142864,39375.2150231482,39375.2152777778,44.71263803464177,-1
604440.3473684211,4117785.7175438604,39375.4927777778,39375.4941087963,45.93930778757755,-1
587201.1000000001,4080999.9,39376.5415972222,39376.5416319444,11.651609330918394,-1
585603.46,4081407.8600000003,39376.6196180556,39376.6196875,27.517449009609876,-1
636727.8542857142,4191883.8971428573,39376.8263541667,39376.8282291667,49.521308544937554,-1
441510.8384615384,4416188.148717948,39377.2291550926,39377.2296064815,18.912958520486338,-1
415302.60000000003,3396655.6999999997,39378.8395601852,39378.8395833333,33.40538878680772,-1
228763.06666666668,3088193.783333333,39379.3698032407,39379.3699421296,47.6144935917638,-1
230386.91428571427,3086425.3000000003,39379.5005208333,39379.5006018518,42.76037885679147,-1
212045.63456790132,3123130.1666666656,39379.6208680556,39379.6219560185,36.22499137330737,-1
222103.64285714287,3124751.7714285715,39379.8112847222,39379.8122685185,48.37209939624565,-1
225393.5,3000812.4,39380.6085069444,39380.6085069444,0.0,-1
269883.39615384623,2768854.8346153847,39382.2788310185,39382.2791203704,48.44925180018222,-1
311942.394117647,3795079.3058823524,39384.386087963,39384.3862731481,46.82403229110998,-1
362286.87999999995,3453174.71,39403.7150694444,39403.7152893519,44.20644749351737,-1
455240.2799999999,4419396.579999998,39430.7499537037,39430.7802777778,49.17092636979681,-1
528899.488888889,3528035.5,39444.4772569444,39444.4773611111,41.60588900652031,-1
614465.8749999999,3328630.6041666674,39444.8053356481,39444.8056134259,38.61735361213595,-1
612800.7647058824,3334830.9647058817,39445.3676851852,39445.3679050926,44.62869032359444,-1
611294.1811320754,3338723.145283017,39445.4694328704,39445.4701388889,42.51176307799995,-1
624541.1711111114,3290037.3711111126,39445.6059606481,39445.6064699074,44.97399248452938,-1
241950.1615384615,3380977.707692308,39446.3346643519,39446.3352546296,48.495463705378654,-1
655825.8111111111,3304985.733333333,39447.2937962963,39447.2939467593,25.793410011069916,-1
698289.1714285715,3276803.8857142855,39447.5533217593,39447.5533912037,35.00514247937535,-1
228313.8,3349434.85,39447.7153935185,39447.7154166667,24.546486510148853,-1
498951.7,4058427.8,39535.9175810185,39535.9175810185,0.0,-1
750806.1,3847165.3,39536.41875,39536.41875,0.0,-1
335955.6,3807809.2,39536.6898611111,39536.6898611111,0.0,-1
297916.2,4190088.2,39537.1784606481,39537.1784606481,0.0,-1
505349.8,4355488.2,39537.3817361111,39537.3817361111,0.0,-1
541283.2,4744137.4,39537.8084259259,39537.820787037,0.0,-1
293530.3,4773810.5,39537.9760532407,39537.9760532407,0.0,-1
546430.0,4838385.1,39538.1195717593,39538.1195717593,0.0,-1
584660.6,4755727.3,39538.3281481481,39538.3281481481,0.0,-1
428879.7,4623356.4,39538.6729282407,39538.6729282407,0.0,-1
438314.9,4557941.9,39539.0473726852,39539.0473726852,0.0,-1
586084.3,4369802.3,39539.4830439815,39539.4830439815,0.0,-1
584324.7,4369897.17,39540.2737152778,39540.2738425926,49.531606071083644,-1
589889.45,4372057.75,39540.4934953704,39540.4935763889,27.063259227011425,-1
663544.3,4619466.1,39541.5041666667,39541.5041666667,0.0,-1
667556.968,4617729.528000001,39541.5843171296,39541.5845949074,46.787284597269235,-1
677418.8055555555,4757530.088888887,39542.2106944444,39542.3034143519,44.120290116980414,-1
652199.5900000001,4779373.279999999,39542.3283680556,39542.3284722222,48.61954339613,-1
391597.6,3991251.1,39543.1420138889,39543.1420138889,0.0,-1
743067.4666666667,3848285.9333333336,39544.0606018519,39544.0609490741,43.66165365641717,-1
273614.9,4053455.9,39544.2073726852,39544.2073726852,0.0,-1
454854.49999999994,4419189.175,39544.4305208333,39544.4315509259,38.75254830331202,-1
728914.4448275863,3565392.055172414,39586.3354861111,39586.3359259259,49.62025795991762,-1
282601.8263157895,3405328.1157894745,39587.3248842593,39587.3250925926,49.80461825981107,-1
517788.67948717956,4334292.646153848,39612.9065972222,39612.9070601852,49.364866048814484,-1
569031.0928571428,4347208.542857142,39614.970462963,39614.9706134259,40.54232356505721,-1
558244.8966666667,4320001.836666665,39615.1559027778,39615.1562384259,49.92684648581505,-1
558343.5266666666,4320358.260000001,39615.2992476852,39615.2995833333,49.47726750741192,-1
520672.197826087,4330124.039130434,39615.449525463,39615.4500578704,49.279306001429624,-1
519087.7472222223,4332056.611111112,39616.525474537,39616.5259143518,49.43531126606444,-1
441730.60000000003,4427017.816666666,39617.2188888889,39617.2189583333,31.531095762771123,-1
455202.6044776119,4419308.516417911,39617.5711111111,39617.6071180556,49.80943685688413,-1
493410.1,4296229.35,39617.7612152778,39617.7612268519,32.13051509135477,-1
514676.19999999995,3701780.2,39618.1599421296,39618.1599537037,30.558795787800882,-1
631628.59,3469081.383999999,39618.4405092593,39618.4412962963,48.18153173155441,-1
384032.358974359,4177722.782051283,39619.0668634259,39619.0673611111,49.28417595970091,-1
436485.04545454547,4145035.290909091,39619.2112615741,39619.2113888889,45.50175820778817,-1
463176.4628571428,4212365.3285714295,39619.3711689815,39619.4541435185,49.26865129020183,-1
518826.60625,4331927.8125,39619.5498032407,39619.5499884259,44.13456695138971,122
515992.0882352941,4326478.911764706,39627.3165277778,39627.3167476852,49.96488767123279,-1
516214.45909090905,4329511.331818183,39627.5292476852,39627.529525463,49.56863927899609,-1
518864.99230769224,4331922.13076923,39627.6854513889,39627.6856018519,44.10351459950151,122
465706.2333333334,4432349.000000001,39661.184224537,39661.1842476852,34.80488471483098,-1
420692.35333333345,3824138.8322222214,39661.4212962963,39661.4665046296,48.84014741986887,-1
689022.2999999999,3851166.566666667,39661.6666203704,39661.6666435185,43.814267082551645,-1
442638.5756756757,4427027.883783785,39707.050150463,39707.0506134259,48.547914476345184,14
517901.26190476184,4331915.957142857,39707.5874537037,39707.5879861111,49.1940036996695,-1
518982.6333333333,4332038.5,39707.6242361111,39707.6242939815,40.76530387445484,-1
442535.9416666667,4426958.750000001,39708.0028703704,39708.0030092593,46.90095947883088,-1
518592.38000000006,4331848.13,39708.4894675926,39708.4895833333,46.656725130814095,-1
442621.65172413795,4427008.334482758,39709.0393171296,39709.0396759259,48.60370356257234,14
446415.62040816323,4412778.846938777,39709.499212963,39709.499837963,48.25608769867402,-1
442504.9272727272,4427033.20909091,39710.0560416667,39710.0561689815,43.01743832408383,71
517837.8681818181,4332117.190909091,39710.5479050926,39710.5481712963,48.14862407109986,-1
442954.1111111112,4427030.288888889,39713.0051736111,39713.0052893519,42.22665035277746,-1
518674.88684210525,4331928.681578947,39713.5824421296,39713.5829166667,49.68551096641515,-1
442626.3,4427004.087499999,39714.0504282407,39714.0508217593,49.672930253853934,14
518726.87,4331877.369999999,39714.6052893519,39714.6054050926,47.264045531566026,123
442613.7461538461,4427061.87948718,39715.0670138889,39715.0675,49.34055127376317,14
442840.66896551725,4425266.289655173,39715.4880439815,39715.4884027778,48.2945131459265,4
518850.79615384626,4331955.884615385,39715.5975462963,39715.9679166667,43.9793133186962,-1
442682.0815789473,4426990.823684211,39716.0437152778,39716.0441898148,49.677862272863194,-1
518836.97142857144,4331958.378571427,39716.4982638889,39716.4984375,45.17742799285958,-1
442633.87,4427001.033333333,39717.0462731481,39717.0466435185,49.37053777304582,14
518779.52352941176,4331933.252941178,39717.5506365741,39717.5510648148,49.53231268561775,-1
442603.6060606061,4427046.821212121,39718.0596643519,39718.0600810185,49.36527119325565,14
518719.35000000003,4331861.525,39718.5661805556,39718.5662731482,44.46031938691496,123
442637.8942857141,4427057.262857144,39719.055,39719.0554282407,47.74149138850621,14
577308.95,3843903.0,39719.8819444444,39719.8819560185,27.60307953818254,-1
751405.8999999998,4056360.406451613,39720.4764583333,39720.4778819444,48.92156988495761,-1
355745.4000000001,4137614.558333333,39720.9052777778,39720.9055787037,38.88161519259595,-1
355882.7709677418,4137653.863440861,39721.0090972222,39721.0108333333,46.9860617630263,-1
452587.35961538466,4089908.311538461,39721.2398148148,39721.240462963,47.62058378471984,-1
670844.3837837838,4028363.5135135134,39721.6658101852,39721.6663888889,49.72263066252379,-1
403995.8914893614,3479377.323404255,39722.2987847222,39722.3006944444,39.08068576667206,-1
293895.5,3357680.0,39722.4317361111,39722.4317592593,37.82274447989407,-1
316442.87419354834,3281819.974193548,39722.5335763889,39722.5339699074,49.23921201651708,-1
312907.05087719293,3278893.2912280685,39722.9739930556,39722.9747106481,49.96168531958783,-1
487913.26666666666,4108869.6666666665,39723.8647453704,39723.8647685185,39.21275302727539,-1
690575.7,4070905.466666667,39724.0066203704,39724.0066782407,49.25768975491842,-1
751833.0199999999,4055425.9279999994,39724.073287037,39724.073912037,49.684705896370076,-1
234735.63798449616,4046271.2620155,39724.2309490741,39724.2350578704,47.2347329831914,-1
236344.46666666667,4046089.5666666664,39724.3219907407,39724.3220138889,48.035091339562506,124
451091.8,4422692.266666667,39724.4661921296,39724.4662268519,43.2074067726365,125
456046.3,4409926.7,39724.5795486111,39724.5795486111,0.0,-1
236367.36666666667,4046087.6999999997,39724.6553125,39724.6553356481,43.65707273743143,124
451091.8,4422692.266666667,39724.799525463,39724.7995601852,43.2074067726365,125
518688.53913043486,4331931.319565217,39724.9446296296,39724.9452083333,49.36172606345605,-1
442479.05945945944,4427084.859459459,39727.0638888889,39727.0643518518,49.206503635376386,71
518858.82105263154,4331927.4842105275,39727.5440046296,39727.5442361111,49.5846750517026,122
442620.09714285715,4426993.259999999,39728.0465972222,39728.047037037,49.33406530999227,14
518745.4,4331873.85,39728.5084490741,39728.5085648148,44.308125665417364,123
442540.42916666676,4427051.149999999,39729.0558796296,39729.0561689815,48.170219015552185,71
518846.0428571428,4331917.671428571,39729.5492592593,39729.5493287037,43.94587580202242,122
442619.3947368421,4427061.365789474,39730.0469212963,39730.0473958333,49.29523303500715,14
518863.62,4331929.98,39730.5587962963,39730.558912037,48.71673223904918,122
442626.86,4427003.237142856,39731.042349537,39731.0427777778,49.48413887299564,14
518570.8822222223,4331868.142222223,39731.5445833333,39731.5457060185,47.765782732226064,-1
442684.07142857154,4427026.85952381,39734.0402430556,39734.0407638889,49.85228179335792,14
518726.7,4331872.63,39734.5198726852,39734.5199884259,49.17367181743808,123
442413.89333333325,4427099.648888888,39735.0464583333,39735.047025463,49.30010141958766,30
440201.3794117648,4432574.94117647,39735.5025231481,39735.5029513889,48.33890772400236,-1
442495.9333333334,4427220.72,39736.0491087963,39736.0492939815,49.70160963113683,-1
518847.23793103435,4331937.624137931,39736.5202777778,39736.5206365741,49.84536086757274,122
442632.4853658537,4427070.126829268,39737.05125,39737.0517592593,49.416191678458596,14
518854.4375,4331910.3375,39737.5514699074,39737.5516550926,47.023079439764295,122
442722.9227272729,4427071.286363636,39738.0380555556,39738.0386111111,49.16929936444569,-1
518548.58571428567,4331876.571428572,39738.5626273148,39738.5626967593,49.77067409665576,-1
518847.88148148137,4331932.774074075,39739.5463194444,39740.9366666667,48.523499461426276,122
442690.78974358976,4427096.11025641,39741.0297106481,39741.0301967593,47.44365078701185,-1
450300.1416666666,4427218.204166665,39741.5128125,39741.5134259259,49.59969757990696,-1
442527.1333333333,4426878.316666666,39742.0406481481,39742.0407175926,44.3016929691647,-1
518829.3000000001,4331931.14,39752.5172222222,39752.517337963,49.96248592694322,122
443081.18750000006,4427058.0125,39753.2127546296,39753.2128472222,45.8132077025623,-1
454277.3387755101,4418136.314285714,39756.4730208333,39756.4741666667,33.81789467068239,-1
442777.24375,4427067.128125,39756.6132523148,39756.6136458333,48.050494274337105,108
518861.82222222205,4331932.777777779,39758.5145023148,39758.5147106481,46.14455547475244,122
442683.20769230777,4427021.234615385,39759.0194675926,39759.0197916667,48.52391163118043,14
442785.4045454545,4427617.218181819,39759.2286111111,39759.2288773148,49.520197899289386,-1
431612.4515151516,4456761.814141414,39759.4303819444,39760.4043171296,48.898363980624914,-1
442498.7999999999,4427260.370833334,39760.464537037,39760.4648263889,47.413078364331206,-1
442498.02,4427017.96,39783.0370833333,39783.0371990741,48.56500797896176,-1
446283.1888888889,4412716.866666666,39788.2146412037,39788.2147453704,41.71678319334472,-1
518715.8857142857,4331856.085714285,39788.4883912037,39788.4884722222,42.27114855317663,123
442499.73333333334,4427045.555555556,39789.5259143518,39789.5260185185,45.685555704164464,71
518849.5379310346,4331976.755172415,39794.5541319444,39794.5544907407,48.57509650017183,-1
442593.24324324325,4427062.756756758,39795.1918171296,39795.1922800926,49.79477884275165,14
744396.9579710147,3543590.4333333345,39802.2731712963,39802.2770601852,36.870855699340346,-1
450425.21025641024,4416874.441025639,39802.9571180556,39802.9576041667,26.391096983505825,-1
518990.0466666667,4331927.966666667,39805.5436805556,39805.5438541667,47.106793565385445,-1
441809.5,4426914.825,39806.0562962963,39806.0563310185,44.072894164251174,-1
442461.5173913043,4427141.073913043,39809.4683564815,39809.4686342593,44.58217132495199,94
441558.4280000001,4416435.115999999,39813.6123611111,39813.612662037,41.55779108652865,-1
519010.22222222225,4332026.088888888,39813.756712963,39813.7576157407,46.339292182929995,-1
442875.1250000001,4427019.070000002,39816.6670023148,39816.6682523148,45.48516241604731,-1
447600.525,4420678.95,39822.5992592593,39822.5992939815,44.02192635488782,-1
519000.7848484848,4331926.818181818,39822.9409490741,39822.9413657407,43.92914749949992,-1
517664.0558823528,4331976.544117648,39824.5770949074,39824.5775115741,36.96403657561217,-1
442875.5363636365,4427009.459090909,39824.6379861111,39824.6382523148,46.72697293856781,-1
445789.16829268297,4439075.563414633,39826.3494444444,39826.3504861111,45.19336234447724,-1
445774.23333333334,4438964.0,39827.2070138889,39827.2429976852,45.23052066916408,-1
442420.9921052632,4427123.505263156,39827.2803356481,39827.2808101852,11.384199576771827,30
438727.96666666673,4455530.855555554,39829.1070601852,39829.1073958333,47.635386006712324,-1
450146.8518518518,4421233.633333334,39829.3536689815,39829.3540046296,48.814751868722965,-1
518873.96153846156,4331903.920512821,39837.3819907407,39837.3824768519,47.99927082795371,-1
442834.31956521736,4427045.652173913,39844.9904513889,39844.9910300926,42.963472857731986,80
440969.45,4425456.233333333,39851.3942361111,39851.3943171296,45.78962764658121,-1
518724.07999999996,4331874.6866666665,39851.5017476852,39851.5019212963,46.835563410432385,123
442437.61999999994,4427280.64,39853.0594907407,39853.0596064815,49.080546044682066,-1
443824.84,4424226.0,39857.5009027778,39857.5009490741,40.41905491221625,-1
449851.0943661973,4416833.366197185,39858.3527199074,39858.3535300926,49.15038148379122,-1
518995.3875,4332038.55,39871.9794560185,39871.9795717593,40.17076051060132,-1
442630.3066666667,4427023.406666667,39873.635150463,39873.6353240741,43.558810819112466,14
442410.45116279076,4427107.258139535,39879.4241087963,39879.4246527778,49.52413553006937,30
452231.19458553015,4417456.197652136,39887.4646180556,39887.5180208333,48.257020214635546,-1
452448.08461538464,4417568.707692306,39887.5378009259,39887.5383449074,29.33189390413238,-1
442481.4947368421,4427160.27368421,39887.5851273148,39887.5856018519,46.97073557013984,94