442912.8,4425246.4,39202.1281597222,39202.1307291667,14.866068747318506,4
441029.15,4425714.0,39202.2258912037,39202.2270486111,18.501081049487404,-1
438032.45,4411745.6,39205.3009606482,39205.3010532407,21.53531982528986,-1
450330.23333333334,4426938.866666666,39206.1172337963,39206.1178125,28.21790211939147,-1
437361.95,4414920.95,39207.1107175926,39207.1109722222,37.958134833364866,-1
458156.5,4418532.2,39208.5009143518,39208.5009143518,0.0,-1
459244.76666666666,4417896.7,39208.5406018518,39208.5499884259,38.80051546030736,-1
445276.9,4423166.4,39208.6917476852,39208.6917476852,0.0,-1