445291.7333333334,4427340.433333334,39855.4979282407,39855.4980439815,43.81346824925967,-1
453295.12,4416241.220000001,39856.0353587963,39856.0358796296,46.64289870979375,288
453383.39999999997,4416299.066666666,39856.1963888889,39856.1965625,18.66815470240271,-1
453310.05,4416249.1,39857.0394444444,39857.0397916667,46.6861863934767,288
453310.91428571433,4416292.571428572,39857.1992939815,39857.1996412037,47.15803218946302,289
453217.7666666666,4416163.666666667,39857.4122337963,39857.412349537,11.801694793359504,-1
445546.5777777778,4425155.138888889,39858.1124884259,39858.1133564815,38.210600623407636,290
445159.82499999995,4427806.296875001,39858.4593287037,39858.4706712963,3.89486841898133,291
444389.47365269455,4427999.220359281,39859.3368518518,39859.3765509259,41.112163650224865,-1
445137.8166666667,4427850.883333334,39859.4741203704,39859.4747569444,33.70830758099595,-1
445538.65,4425174.830000001,39860.0128935185,39860.0134143519,49.50646422456696,290
445527.69999999995,4428160.5,39860.541724537,39860.5417824074,33.80946612974025,-1
445182.3617647058,4427728.426470588,39861.4747337963,39861.9986226852,28.61223514513272,292
445550.5736842104,4425160.510526316,39862.0170833333,39862.0180092593,26.222509414530414,290
445553.3181818182,4425155.286363637,39863.0202314815,39863.0213888889,19.275113488669277,290
445545.85,4425157.725000001,39864.0055439815,39864.0062962963,38.97242614968907,290
445165.9648148147,4427735.635185186,39864.4680439815,39864.471400463,48.80829847493171,292
442984.29802158236,4431013.017446039,39865.2423726852,39865.2897106481,49.4191258525845,-1
444671.3043478258,4428028.0190217355,39865.3245486111,39865.3853703704,48.06349966442047,-1
445141.2,4427760.24,39865.4052199074,39865.4054513889,39.5790348543266,-1
443855.15999999986,4425713.808,39865.4960763889,39865.5491435185,17.149344010934257,110
445184.4352941176,4427790.729411764,39865.5691435185,39865.5700115741,46.52418725755273,291
441070.14999999997,4425789.433333333,39866.2541087963,39866.2546875,48.80502023376124,-1
445183.86315789475,4427787.884210525,39866.3640162037,39866.3649421296,42.66016877604882,291
453320.64444444445,4416333.6,39867.0347222222,39867.0351273148,32.723233336216275,289
453340.4066666666,4416451.113333333,39867.1999537037,39867.2006481481,35.63663845024586,-1
445191.64,4427805.12,39867.4663773148,39867.4666087963,41.21710809849944,291
453318.77777777775,4416261.533333334,39868.0356018519,39868.0360069444,43.00813876411532,288
445137.04500000004,4427770.92,39868.4881597222,39868.4892592593,30.805843601655177,-1
445549.84285714285,4425149.9214285705,39869.0122337963,39869.0129861111,28.239157211326386,290
445192.69166666665,4427788.558333334,39869.4759143519,39869.476724537,40.73033267723458,291
453338.63333333336,4416238.655555556,39870.0371759259,39870.0375810185,47.68983120155853,288
453357.574074074,4416487.407407408,39870.2004398148,39870.2017708333,11.649892703276224,-1
445315.8666666667,4427730.055555556,39870.5158912037,39870.5163541667,49.9124233032849,-1
445549.3666666667,4425158.927777778,39871.0068634259,39871.0077893519,46.16373035182667,290
453345.86153846164,4416334.876923076,39871.2199189815,39871.2205555556,47.10095540432275,289
443780.36249999993,4425684.378333335,39872.2611458333,39872.4711226852,48.11756436011093,293
443180.64666666667,4425500.653333333,39872.5049884259,39872.5057407407,30.34023730946926,-1
445187.4714285714,4427785.02857143,39872.5710763889,39872.5721180556,49.05884222042445,291
445018.5095238095,4428160.495238095,39873.2328703704,39873.2340277778,38.913879272048156,-1
444731.4,4428303.4,39873.4171064815,39873.4171643518,22.9120055865665,-1
445205.20000000007,4427786.653846154,39873.4680902778,39873.4687268519,49.40161940694531,291
445550.8526315789,4425156.763157894,39874.009212963,39874.0100810185,46.658868395912954,290
453339.03719008266,4416323.740495868,39874.1981828704,39874.2081944444,31.303993355651794,289
445234.94999999995,4427723.699999999,39874.4874652778,39874.4875231481,33.43246924761481,-1
445555.5611111112,4425159.438888889,39875.012650463,39875.0135763889,39.52480233980991,290
453340.9416666667,4416304.758333333,39875.2120833333,39875.2127199074,42.84355260746754,289
453242.5,4416335.720000001,39876.1973842593,39876.1976157407,39.21861802765616,294
445170.51875,4427707.100000001,39876.4834027778,39876.484212963,21.0535032715965,292
445562.93157894723,4425157.652631578,39877.0121296296,39877.0131134259,45.76297630169781,290
445191.84210526315,4427791.310526316,39877.4752314815,39877.4762152778,32.8525493683247,291
453333.88181818184,4416205.0636363635,39878.0333680556,39878.0339467593,49.080036674667724,288
453343.55652173917,4416317.934782608,39878.1944212963,39878.1956365741,44.841498636511474,289
454075.85277777765,4415372.541666668,39878.4853472222,39878.49125,43.100348026427426,-1
445207.0444444445,4427786.294444445,39878.557662037,39878.5586458333,48.389461662628726,291
443785.70714285696,4425671.571428571,39879.292337963,39879.2936805556,36.29325006070445,293
442704.45999999996,4423242.49,39880.2714699074,39880.2724537037,24.79233752628142,-1
438749.0555555555,4435011.188888889,39880.3901388889,39880.3905439815,42.494470227964946,-1
445347.79000000004,4427740.29,39880.6023263889,39880.6028472222,31.715768948596185,-1
453322.5933333334,4416241.64,39881.0450462963,39881.0458564815,42.95637321820355,288
453354.17647058825,4416455.023529411,39881.1625694444,39881.1634375,12.528367810702695,-1
445203.6652173914,4427782.8652173905,39881.4941087963,39881.4952083333,44.90133628291797,291
453355.44999999995,4416352.800000001,39882.0462152778,39882.0462731481,42.32883178184397,289
453295.59687500005,4416379.6375,39882.1955092593,39882.1973032407,30.465718438369795,-1
445175.33098591556,4427734.529577464,39882.4699421296,39882.4822106481,21.215088970007123,292
445557.00909090904,4425163.354545455,39883.0070949074,39883.0076736111,46.608690176875015,290
453333.9272727273,4416247.754545454,39883.1923263889,39883.1929050926,48.37065225892257,288
445200.32352941175,4427777.523529411,39883.4763194444,39883.4771875,45.07915260931213,291
453360.5079999999,4416324.964000001,39884.0763888889,39884.0777199074,49.45351352571998,289
453331.31999999995,4416304.92,39884.1994907407,39884.2003009259,47.62457348925447,289
445209.20833333343,4427782.058333334,39884.4579861111,39884.4585648148,44.462343617674996,291
453521.39999999997,4416729.933333334,39885.0518981481,39885.0520138889,26.487166703572775,-1
453330.34642857144,4416326.032142857,39885.188587963,39885.1900231481,40.13277961966747,289
443219.1678571428,4415345.078571429,39885.5581018519,39885.5784722222,13.31540461254985,-1
446007.9086956522,4416213.739130435,39886.1330324074,39886.1342476852,34.83633160947121,-1
446106.61111111095,4416329.447222223,39886.237662037,39886.2394560185,30.808440401907344,-1
445188.7125,4427782.575000001,39886.5814236111,39886.5824074074,45.83993891798782,291
440081.6835205992,4424855.249063673,39887.0992361111,39887.1409606481,43.211225393392304,-1
443771.5357142858,4425694.414285715,39887.1932986111,39887.1939930556,45.04719747069906,293
443781.5353658538,4425602.823170733,39887.3171527778,39887.410150463,10.239628899569947,295
445553.47777777794,4425156.466666667,39888.0141203704,39888.4555787037,29.900668889211858,290
445189.82608695654,4427777.843478261,39888.4672685185,39888.4684259259,45.93778401254866,291
445188.93125,4427781.975000001,39889.4893171296,39889.4903009259,47.90991546644669,291
453311.5624999999,4416229.906249999,39890.040150463,39890.0409027778,35.51408171449814,288
453304.9578947369,4416229.615789473,39890.1949652778,39890.1958912037,49.16350272269307,288
453378.55,4416294.0,39891.0405092593,39891.0406828704,19.17602669971813,-1
453312.14,4416283.38,39891.1825578704,39891.1830208333,28.869360921039995,289
445186.93636363646,4427775.504545454,39891.4850694444,39891.4861689815,39.33153950692807,291
445553.5352941176,4425143.047058823,39892.0058333333,39892.0067013889,37.37512541767955,290
453309.73333333334,4416295.026666667,39892.1872569444,39892.1880671296,11.795338062313368,289
445190.5,4427804.926315788,39892.5087731481,39892.5096990741,47.62152874491256,291
445009.4400516797,4428205.280620156,39893.3143055556,39893.3626273148,47.30972415896791,-1
445219.7693548389,4427801.391935486,39893.4047569444,39894.1698958333,48.02353589612491,-1
443753.55384615384,4425638.761538461,39894.2607175926,39894.2613541667,46.86149805598099,-1
445192.1961538462,4427786.038461538,39894.5947106481,39894.5961574074,40.11234224038041,291
445187.9222222222,4427681.188888889,39895.4829398148,39895.4838657407,41.53949927471669,-1
453338.93333333335,4416234.666666667,39896.0352546296,39896.0354861111,46.80277769518121,288
445193.24761904764,4427786.25238095,39896.5576736111,39896.5587152778,44.48909978861309,291
453239.15,4416251.5,39897.0566666667,39897.056724537,36.290081289767464,-1
453345.19199999986,4416364.080000001,39897.1958680556,39897.197025463,33.56784175396355,289
453336.075,4416226.45,39898.0386226852,39898.0392592593,38.81855226570921,288
453360.5,4416286.388888889,39905.1922916667,39905.1928125,48.93362851823067,-1
453387.819607843,4415756.207843137,39905.41375,39905.4546759259,35.59283635831419,296
444994.9080000001,4428271.052,39905.5497569444,39905.5721759259,32.52352994390548,-1
445182.20833333326,4427746.870833333,39905.6090393519,39905.6106018518,16.137533888432426,292
453367.1142857143,4415595.897142857,39906.4423726852,39906.4443402778,8.228000972204084,-1
448357.07596439176,4414243.228783383,39908.1874421296,39908.225775463,48.873714816853685,-1
448327.20709459466,4414236.693918918,39908.2418634259,39908.2847453704,44.849637679705836,-1
453360.525925926,4415628.614814815,39908.3490277778,39908.3503587963,19.66367208874077,-1
460560.66493212624,4357693.515384612,39911.0590277778,39911.0998842593,47.47230771772927,-1
460548.6494923862,4357716.49263959,39911.0999421296,39911.1537615741,49.45401904818156,-1
460532.87142857135,4357685.809523809,39911.1538194444,39911.1548032407,6.500000000475511,-1
453344.1856020939,4415552.587696339,39911.4345949074,39911.4892824074,44.70883581565983,-1
453327.2822641509,4415582.137358493,39911.4984837963,39911.5200694444,41.233481541649404,-1
453354.9,4415535.1,39911.5337268518,39911.5337268518,0.0,-1
445182.40555555566,4427793.483333333,39911.5955671296,39911.5964351852,43.783330161464924,291
453384.85678732966,4415732.004298645,39912.4134606481,39912.4548726852,49.27961038812419,296
445194.6181818182,4427784.681818183,39912.5186111111,39912.5191898148,48.25453346577915,291
453316.0,4416303.0,39913.0402314815,39913.1892592593,48.15495820786461,289
453278.48,4416285.64,39913.1893171296,39913.1895486111,4.866210024253887,-1
453369.71818181814,4415733.384848486,39913.4205902778,39913.4221296296,48.465348446154316,296
445197.7181818182,4427788.254545455,39913.4985648148,39913.4991435185,48.373546489791295,291
443792.49333333335,4425617.64,39914.2571064815,39914.2578587963,47.214934078107106,295
445157.30000000005,4427718.725,39914.586875,39914.5871643518,44.73946803409644,292
441247.752,4418861.294,39915.1688425926,39915.1714583333,47.77373755574136,-1
445553.1500000001,4425158.766666667,39917.0109837963,39917.0118518519,48.51741955214562,290
445197.83846153854,4427789.753846154,39917.5523842593,39917.5530787037,49.248045646399405,291
445552.49999999994,4425159.0,39918.0110763889,39918.0118865741,40.707370340037,290
445195.1823529412,4427785.3176470585,39918.4931712963,39918.4940046296,48.15776157606795,291
445547.6,4425156.8,39919.0120601852,39919.0129282407,40.11795109422439,290
445190.8,4427786.970588234,39919.5090162037,39919.5098958333,45.73160832519867,291
445550.8,4425168.67,39920.0158680556,39920.0168518518,48.05039021690377,290
453373.08695652167,4415739.678260869,39920.4147685185,39920.4741666667,43.4622824992879,296
445246.07999999996,4427805.08,39920.5459953704,39921.1442361111,47.30676484468647,-1
444673.5199999999,4428030.3319999995,39921.2718402778,39921.2731134259,40.90586754961977,-1
445217.3615384615,4427812.26923077,39921.6605555556,39921.66125,43.26499740023776,-1
445553.445,4425158.429999999,39922.1239814815,39922.1249652778,36.37169228933658,290
444991.21538461535,4428214.030769231,39922.4154861111,39922.4184953704,46.98137929019449,-1
445026.90503875975,4428197.921705425,39922.4562847222,39922.4692476852,15.174320413362045,-1
453340.4222222222,4416233.433333334,39923.0429861111,39923.0433912037,7.433034374031222,288
445176.9272727273,4427808.736363635,39923.4923611111,39923.4935763889,49.93245437532778,291
445094.5153846154,4427815.276923076,39925.5224768519,39925.5231134259,40.7878658424941,-1
445184.2800000001,4427803.764999999,39926.4917708333,39926.4928125,27.95889840489456,291
453284.36874999997,4416086.6,39927.0441898148,39927.0448842593,46.04400069464278,-1
456298.16435643577,4424935.638448846,39930.0472685185,39930.1075694444,12.026637102697553,297
456307.62028985505,4424960.857971016,39930.154849537,39930.1937962963,49.79447760526898,297
456307.0123809523,4424960.344285713,39930.2157291667,39930.2583217593,43.85635643799387,297
456314.09760479,4424948.637924153,39930.2836111111,39930.3285763889,29.66024275004414,297
450258.7894736842,4435942.687719297,39930.4902777778,39930.4929976852,38.340709435306835,298
449731.6,4427075.6,39931.0216782407,39931.0216782407,0.0,-1
453321.89230769227,4416185.192307692,39931.2398263889,39931.2404050926,49.39635614091387,-1
453113.58666666667,4417470.406666667,39931.4640740741,39931.4647685185,42.14949584532187,-1
453368.9928571429,4417512.05,39931.5558101852,39931.5565046296,47.763165724715144,-1
450259.5255813953,4435926.827906976,39931.719525463,39931.7221875,41.36955402218955,298
509475.19090909086,4487115.072727272,39932.0801851852,39932.1347569444,33.50492501107105,-1
450242.74999999994,4435909.606249999,39932.342662037,39932.3434722222,31.066380542685494,298
449786.2,4427056.6,39933.0182060185,39933.0182060185,0.0,-1
444677.05,4427973.649999999,39933.3069907407,39933.3076273148,45.18904734549048,-1
445362.31428571424,4428313.428571428,39933.44125,39933.4416550926,43.67195896692342,-1
450548.06666666665,4436039.5,39933.6532407407,39933.6533564815,48.197614048808475,-1
450256.35,4435908.61,39934.1861111111,39934.1865740741,31.046094762788478,298
444658.5648033134,4427997.038302287,39934.4250462963,39934.5277314815,45.72657870391998,-1
450171.4,4435898.08,39934.6107175926,39934.6109490741,27.508725888481482,298
406179.9066666667,4470217.34,39935.0172685185,39935.0180208333,41.565009323015616,210
449558.6333333333,4434946.166666667,39935.2024652778,39935.2025810185,43.920951719794445,-1
397390.33999999997,4477830.92,39935.4076851852,39935.4079166667,24.085265204994375,-1
443694.69428571424,4425796.340000001,39936.3692592593,39936.3733101852,36.799184773477776,-1
450266.1027777778,4435968.199999999,39936.6182986111,39936.620150463,22.755438910312698,298
425796.74495114194,4451632.785993487,39937.0182291667,39937.0872106481,48.15028556494282,213
442139.5037037037,4432408.81111111,39937.2391203704,39937.2407407407,38.08411742466894,165
453347.35555555555,4415948.866666666,39937.4342592593,39937.4350694444,32.6220784132882,-1
450237.0055555556,4435866.762499999,39937.4998263889,39937.5037037037,6.594694837511428,298
473067.8604938269,4468434.733333333,39938.0136574074,39938.0961226852,45.50703242321636,214
462997.38005618064,4434983.527247195,39938.1320601852,39938.1732060185,43.995567958582214,207
514314.5,4446286.137037036,39938.280150463,39938.3766203704,40.049968789001575,-1
452244.6951276105,4436476.042691416,39938.4703703704,39938.5109953704,29.78455975802304,-1
450312.9,4435869.8,39938.6080671296,39938.608125,38.625380257076294,-1
473052.5065359475,4468703.917211328,39939.0678472222,39939.1433680556,48.399999999965075,215
473049.8856332706,4468702.482797732,39939.1434259259,39939.2034953704,44.403828663837395,215
442149.77777777775,4432411.566666666,39939.2803472222,39939.2808101852,47.987706759439504,165
450240.7046511626,4435884.188372093,39939.5025810185,39939.5078472222,45.559302013687486,298
436044.9666666666,4414671.766666667,39940.0197222222,39940.019837963,38.99743581351527,-1
459114.93753959745,4404236.8194825705,39940.1118518518,39940.3479050926,44.16163493350309,-1
459106.4492462321,4404235.305904522,39940.348599537,39940.4121412037,39.13463938733503,-1
449670.88117154804,4435001.647698743,39940.5161574074,39940.5661574074,46.6246715806312,-1
450252.71118143393,4435914.615400844,39940.6770949074,39940.7137847222,41.871828238426474,298
450262.5416666667,4435852.941666667,39940.7301041667,39940.7335763889,44.99611094343332,298
434270.14285714284,4450872.8285714295,39941.0559143518,39941.150474537,38.26277564421204,-1
473696.1,4468649.430769231,39941.2432986111,39941.3905787037,39.97211528065188,-1
442152.26666666666,4432446.899999999,39941.5131481481,39941.5132638889,13.148764200652417,165
448456.25384615385,4415757.261538462,39942.0639930556,39942.1102893518,43.62247127304249,-1
447693.184090909,4412740.859090909,39942.1219212963,39942.1262615741,25.201785650983147,-1
442141.8846153846,4432429.176923077,39942.3040625,39942.3063194444,27.861442891066716,165
443780.6111269604,4425632.325249622,39942.4652083333,39942.5891666667,45.64383857680717,295
443413.93333333335,4425312.5,39942.6132407407,39942.6135300926,48.187342737004634,-1
443511.52376237593,4425394.475813296,39942.8125,39942.8824074074,47.43774868170614,267
443516.97771428584,4425418.785428571,39942.8824652778,39943.0039351852,47.67357758796451,267
443516.74597989937,4425433.485427134,39943.0603009259,39943.1149305556,14.941218156506093,267
443536.15769230766,4425417.919230768,39943.120775463,39943.1240740741,15.08674915317176,267
442150.47142857144,4432455.371428571,39943.1875925926,39943.1879398148,42.190046219457976,165
432962.62812500005,4401152.4125,39944.0296527778,39944.2049421296,40.76530387445484,-1
450227.09375000006,4435876.30625,39944.5889930556,39944.592349537,22.755438910633465,298
453322.4818181818,4416218.609090908,39945.0461111111,39945.0466898148,49.72574785746412,288
453662.9,4415767.188888889,39945.4234953704,39945.4239583333,34.634087254818475,-1
453373.84285714285,4415893.335714285,39945.4920717593,39945.4928240741,42.287113876809656,-1
453314.66363636364,4416222.090909092,39946.0440393519,39946.0446180556,46.50989142143158,288
453393.4020618556,4415727.860824742,39946.4212384259,39946.4611111111,48.487627288512094,296
453372.77826086956,4415860.6565217385,39946.4616319444,39946.4627893518,41.4889141821017,-1
450280.8711111112,4435884.372222223,39946.5064236111,39946.5123263889,12.368508399087506,298
452552.0,4416205.4,39947.0480902778,39947.0480902778,0.0,-1
453295.27483871015,4415764.437935489,39947.425150463,39947.5018287037,44.700111856869654,299
450248.99333333335,4435888.613333335,39947.6401967593,39947.6443634259,42.29160673217652,298
449673.8,4426812.0,39948.0208564815,39948.0208564815,0.0,-1
453458.105,4416040.08,39948.4623958333,39948.4643634259,44.70402666413125,-1
450198.1,4435919.4,39948.5395949074,39948.5395949074,0.0,298
443598.3,4414350.1,39949.111412037,39949.111412037,0.0,-1
450228.79464285716,4435907.671428571,39950.6371990741,39950.6402199074,5.748912940356412,298
449682.7,4426674.1,39951.0214236111,39951.0214236111,0.0,-1
450171.748275862,4435887.831034483,39951.5650231481,39951.5664699074,30.13702042344357,298
453314.86,4416257.16,39952.0494444444,39952.0496759259,45.61633479373592,288
450272.0411764705,4435866.9,39952.4837384259,39952.4846064815,26.290872941007144,298
449448.60851063847,4436045.842553193,39953.0129166667,39953.015462963,25.93472575525566,-1
453308.9000000001,4416261.9,39953.2076041667,39953.2079513889,48.749666664783284,288
450223.72500000003,4435876.17857143,39953.5691319444,39953.5705787037,31.376583625382136,298
453332.7285714285,4416250.742857143,39954.0478125,39954.0481597222,42.465044448453284,288
450263.1759999999,4435949.255999999,39954.4858564815,39954.9981481481,47.28266066993895,298
453332.14285714284,4416212.228571429,39955.0450231481,39955.0453703704,38.01276101492592,288
453361.7999999999,4415709.654545454,39955.4197800926,39955.4790972222,33.53356527421443,-1
450269.0333333334,4435897.533333333,39955.5290509259,39955.5304861111,24.052026941256845,298
443788.0666666667,4425569.041666665,39956.296412037,39956.2976273148,48.311178830789046,-1
444605.0625990496,4425730.152139456,39956.4402199074,39956.4763310185,49.934857564660796,159
444610.69269406435,4425729.1890411,39956.4763888889,39956.4889467593,4.604345772914335,159
450221.82857142854,4435858.857142857,39957.5040856482,39957.5044328704,10.962207807060711,298
453331.39999999997,4416259.714285714,39958.0475231481,39958.0478703704,43.54595273960601,288
450150.56666666665,4435831.100000001,39958.6569444444,39958.6570601852,40.47974802291357,-1
450111.83999999997,4436008.100000001,39960.0028240741,39960.0030555556,24.20020661082224,-1
406186.475,4470186.525,39960.1996990741,39960.2507986111,22.432342722067574,-1
405832.79999999993,4468615.639999999,39960.3058333333,39960.3725,34.86330449107391,-1
406172.00136698165,4470220.522607786,39960.3775925926,39960.4324537037,46.4486813591009,210
406161.93516483525,4470209.382417582,39960.4327430556,39960.4379513889,35.36382332291592,210
406825.8,4469626.340000001,39960.5395138889,39961.0306365741,49.979695877213544,211
416334.87950617267,4478283.26765432,39961.1539583333,39961.2190740741,22.77740108090709,-1
483869.23999999993,4422255.459999999,39961.2666666667,39961.2668981481,42.516937801315834,-1
406151.8,4470221.4,39962.1290162037,39962.1290740741,34.959405029239115,210
397565.47500000003,4477818.524999999,39962.3543634259,39962.3896064815,32.85620184990885,-1
406814.3600000001,4469614.913333334,39962.4989236111,39962.4996180556,47.8549892904586,211
445738.9666666668,4428195.766666667,39963.3600578704,39963.3606365741,18.56071119265278,-1
449324.7,4435191.4,39963.6424305556,39963.6424305556,0.0,-1
436050.9842105263,4414727.331578948,39964.0164583333,39964.1428587963,40.21256022705272,-1
434664.90257038036,4415916.258751534,39964.1683217593,39964.2135763889,42.05234832892126,-1
450290.7826086957,4435902.508695652,39964.487974537,39964.4900347222,42.52293498822605,298
453329.73076923087,4416240.915384615,39965.0550694444,39965.0557060185,45.61271752519815,288
441953.375,4426296.25,39965.3400347222,39965.3774768518,45.500439558317176,89
450266.8875,4435903.962499999,39965.5063194444,39965.9969791667,28.48719010390231,298
453337.9384615384,4416256.884615385,39966.0465162037,39966.0471527778,32.90744596629229,288
462989.0660714284,4434989.548214288,39966.1513657407,39966.2228356482,43.25517310100627,207
459135.59750000015,4431103.8475,39966.2336574074,39966.2356828704,40.74616546353368,-1
453305.11891891883,4415745.348108109,39966.4137615741,39966.4668287037,47.75793127836441,299
450348.9153846154,4435860.8615384605,39966.5395717593,39966.5402662037,41.58701720474227,-1
442189.92040609097,4427705.90791878,39967.0106481481,39967.0986689815,47.912002671554696,-1
442443.0818181818,4432284.338636362,39967.1452546296,39967.2392361111,24.56603346084446,217
453311.14857142855,4415746.589350653,39967.4109953704,39967.4513310185,46.99148859116359,299
450318.50555555546,4435891.305555556,39967.5365162037,39967.5374421296,44.68791783019227,298
472994.3295238095,4468384.74619048,39968.0372337963,39968.0907638889,45.71323659510716,-1
514310.6941176472,4446263.792156863,39968.200775463,39968.2569097222,42.96626583716159,-1
447675.409090909,4422077.3,39968.540162037,39968.5418981481,48.104053883222775,-1
450280.56923076924,4435924.492307692,39968.6050347222,39969.0016666667,43.75625669547803,298
472976.275,4468400.6,39969.0637037037,39969.1348263889,29.96431210638526,-1
472586.43499288673,4469023.309388352,39969.1639930556,39969.2045601852,29.58462438491855,-1
472322.8453900709,4469401.782978726,39969.2169444444,39969.2645138889,23.38567937860996,-1
473051.48153153225,4468434.556606604,39969.2668287037,39969.3904398148,46.00097825046646,214
449675.6,4435484.7,39969.6190277778,39969.6190277778,0.0,-1
473047.040909091,4468436.400000001,39970.092025463,39970.0942824074,44.67941360428035,214
442437.8839999999,4432306.7360000005,39970.4519791667,39970.4531944444,31.21810372185599,217
443794.425897436,4425477.060769231,39970.5013888889,39970.5446759259,48.782988838963796,-1
443542.3529411764,4425355.941176471,39970.5785300926,39970.5794560185,49.08319468008135,104
459117.24666666664,4431093.573333332,39971.051087963,39971.0517824074,30.61110909451582,-1
468128.21111111104,4466501.849999999,39971.2598032407,39971.4003703704,21.029740844952038,-1
443388.725,4425333.501190478,39971.476712963,39971.4838310185,25.04495957273639,-1
450188.62,4435892.31,39971.5664699074,39971.5669907407,21.76717712520754,298
473084.67500000005,4468431.375,39972.0726388889,39972.3518055556,42.40577790817307,-1
462998.39002918184,4434989.634143955,39972.3906944444,39972.5088078704,46.29492412763099,207
442435.5620689655,4432303.768965518,39972.5443981481,39972.5459606481,35.2812981621075,217
449927.65,4435628.5,39972.6250694444,39972.6251273148,49.78483704945175,-1
473101.99053254444,4468436.572781064,39973.080162037,39973.0898842593,36.16019911453106,-1
473103.20921052527,4468439.903789466,39973.199375,39973.4401736111,41.86382686756545,-1
442430.9924528296,4432313.989517817,39973.5235648148,39973.7546990741,47.46050990035615,217
442428.5725308643,4432309.751697534,39973.7547569444,39973.7916782407,49.84174956758638,217
442429.09940572706,4432311.188978943,39973.7919675926,39973.8981018519,43.84153282008387,217
442426.23504042963,4432296.900089848,39973.8981597222,39974.037974537,39.923176226598535,217
439877.7417094018,4433294.898461538,39974.0474652778,39974.1555092593,32.22188697143605,-1
442453.0617210684,4432306.3062314475,39974.165462963,39974.265462963,38.948684188360374,217
462997.98215767666,4434980.622821578,39974.2941087963,39974.3079976852,43.36657699211844,207
448330.65,4434570.85,39974.5015856481,39974.5016435185,21.644860821913362,-1
439213.2109540639,4437792.827561832,39975.0274652778,39975.082962963,47.01021165650999,-1
434258.8721739127,4450876.326086957,39975.0940162037,39975.3251851852,20.132560692128212,-1
450432.1333333333,4435987.233333333,39975.5376851852,39975.5378009259,40.38229810194487,-1
453332.0,4416248.477777777,39976.0514236111,39976.0518865741,47.27589237706264,288
450201.0888888889,4435866.633333334,39976.5743634259,39976.5748263889,44.701789673156874,298
443751.02857142856,4425708.2,39977.3323726852,39977.3327199074,49.40981683900445,-1
443754.2,4425663.9,39977.4452777778,39977.4452777778,0.0,-1
450202.3875,4435955.8,39977.6305092593,39977.6309143519,30.03764305002852,-1
450307.4333333334,4435903.658333334,39978.501724537,39978.5023611111,45.38634155760134,298
449360.91,4436106.54,39979.0153703704,39979.0158912037,45.67154475180871,-1
453386.57499999995,4415756.0625,39979.411724537,39979.4425231481,47.74191030968252,296
453243.3833333333,4416284.899999999,39980.0602314815,39980.060462963,29.75768808220729,-1
453357.3066666672,4415600.625376348,39980.4353472222,39980.4703009259,44.526059785127984,-1
449878.0,4435644.9,39980.5944444444,39980.5945023148,32.22979987557586,-1
453335.38333333336,4416249.283333334,39981.0487847222,39981.0490740741,32.02249209539895,288
450221.2936170213,4435902.872340427,39981.5640277778,39981.566400463,24.829015284552096,298
449781.4,4424406.1099999985,39982.0591087963,39982.0600925926,49.22154000057155,-1
450261.66419753095,4435926.148148148,39982.566724537,39982.5747106481,32.65593361088571,298
450180.525862069,4435867.674137929,39983.5810763889,39983.5842592593,24.840289853372063,298
450256.84858611884,4435911.924421591,39983.9640625,39984.0002893518,48.1433276787422,298
450259.55769230763,4435874.14230769,39984.0872106481,39984.1532986111,47.51757569545611,298
449790.60000000003,4435357.933333334,39984.1986111111,39984.1987268519,37.000135134889874,-1
450178.5866666667,4435814.246666667,39984.4991319444,39984.4999421296,0.6708203937445308,-1
443695.016,4425763.424000001,39985.4004861111,39985.401875,36.776351096866584,-1
450269.84615384624,4435856.200000001,39985.6158217593,39985.616400463,18.117670931993437,298
453330.023076923,4416236.961538461,39986.0495717593,39986.0502083333,44.60145737529022,288
450258.075,4435876.8,39986.5828935185,39986.5834722222,39.55401370322446,298
450207.32962962956,4435844.437037037,39987.5761111111,39987.5775,27.272330300238913,298
453312.8642857143,4416228.3,39988.0518287037,39988.0525231481,46.0114116285196,288
450312.025,4435943.525,39988.5187268518,39988.518900463,20.511947737849294,-1
453297.0714285714,4416282.5,39989.0584722222,39989.0588194444,48.698767951514206,289
450406.125,4435914.775,39989.5325810185,39989.5327546296,45.223224122297324,-1
453265.76666666666,4416333.633333333,39990.0547222222,39990.0551851852,10.77125805067973,294
450251.1344262296,4435890.754098361,39990.5189930556,39990.5235069444,32.16240040737255,298
506907.5199999999,4495596.0200000005,39991.1933680556,39991.2537268519,21.923731434270884,-1
442611.0095238095,4425624.480952382,39992.2549421296,39992.2559837963,47.19629222713459,-1
441374.5360215055,4425732.269354838,39992.4638078704,39992.4990509259,46.577784403998436,-1
450308.52941176476,4435909.147058823,39992.5981828704,39992.5990740741,49.244085939424984,298
453337.5538461538,4416239.576923078,39993.0405439815,39993.0411805556,48.31976821155203,288
450307.7038461538,4435901.542307693,39993.5065972222,39993.5079861111,34.70518693222039,298
449814.0,4428214.0,39994.027025463,39994.027025463,0.0,-1
450238.79000000004,4435856.615,39994.5135069444,39994.5167476852,17.5111393119227,298
453267.86428571434,4416188.885714286,39995.0514930556,39995.0521296296,44.27301661317969,-1
453284.4899613901,4415750.332432432,39995.4232291667,39995.4733449074,42.407546498530806,299
450314.34090909106,4435915.995454546,39995.5933101852,39995.5944097222,40.23046109618229,298
453306.97000000003,4416202.895,39996.0525347222,39996.0534606481,39.45883931389772,288
450353.25454545463,4435874.963636363,39996.4712615741,39996.4718402778,48.66949763456206,-1
444420.33658536576,4429079.139024391,39997.5716898148,39997.5768981481,24.917664417038687,-1
444271.4409090911,4428131.711818183,39998.1281828704,39998.1559027778,36.61871106423877,-1
450321.78571428574,4435891.1714285705,39998.6356597222,39998.636412037,47.35652014251726,-1
449652.9,4429198.1,39999.2684722222,39999.2684722222,0.0,-1
453348.0647058824,4415908.0470588235,40000.4714930556,40000.4723611111,23.617154782055596,-1
450250.84444444446,4435922.412121211,40000.5264699074,40000.9830092593,40.82670694579842,298
449401.9,4435090.3,40001.0084722222,40001.0084722222,0.0,-1
450215.35555555555,4435875.677777778,40001.4914351852,40001.4918981481,30.3764711576194,298
449369.19999999995,4435167.2,40002.0126273148,40002.0126851852,40.0004999968751,-1
450249.6217391304,4435938.026086956,40002.5021296296,40002.5034606481,21.20000000000615,298
449751.7,4426494.7,40003.012337963,40003.012337963,0.0,-1
450212.33333333326,4435885.983333333,40003.5212615741,40003.5215509259,42.40990450335156,298
453243.0428571428,4416328.285714285,40004.0403240741,40004.0406712963,42.29917256829156,294
450252.29393939395,4435915.753030303,40004.5067592593,40004.5137037037,6.8066144299100575,298
443780.8,4425684.100000001,40005.2547685185,40005.2551736111,46.809507581446226,293
443782.16346153937,4425628.998437502,40005.3205092593,40005.3683680556,47.40042193922663,295
443833.4731707317,4425726.243902439,40005.4383564815,40005.5370949074,49.83623179959715,110
443219.22307692294,4425599.211538462,40005.5495949074,40005.6119791667,46.04693257933234,265
443640.10000000003,4425748.826086956,40005.6230324074,40005.6240740741,47.0672922526208,-1
443668.8,4426377.44375,40006.2031597222,40006.2039699074,45.19756630627867,-1
449369.7333333334,4436128.683333333,40007.0028240741,40007.0036689815,49.62912451336498,-1
450221.4152173914,4435875.476086956,40007.4979050926,40007.5036921296,6.324555320509783,298
453319.1,4416258.154545455,40008.0497916667,40008.0503703704,33.68827689252387,288
450278.70625000005,4435920.25,40008.5017476852,40008.5026157407,47.11899829155766,298