450452.059090909,4424484.818181818,39705.5485300926,39705.5508449074,30.425811410887725,356
450457.6487288137,4424507.600847456,39705.6234143519,39705.6498611111,6.8963758598094484,356
449957.23714285716,4425763.654285714,39706.1917361111,39706.1936458333,46.79155906800473,357
450357.145,4424503.350000001,39706.2550462963,39706.2561458333,16.337074401458814,358
449920.3892857143,4425761.3178571435,39706.4486111111,39706.4502893519,18.445866745706812,-1
450460.90384615393,4424476.673076923,39706.5396180556,39706.5408333333,39.72165656126225,356
450443.1304635763,4424499.024172184,39707.2089699074,39707.2325810185,6.628725367677118,356
447459.575,4427266.2,39707.3973263889,39707.3975,41.160174927062386,-1
450464.19999999995,4424491.682258064,39708.4693981481,39708.4730439815,21.104738804316803,356
450462.87575757585,4424487.563636364,39709.2314814815,39709.2331597222,15.285614151688366,356
453346.6,4427454.9,39709.6482986111,39709.6482986111,0.0,-1
449947.52978723415,4425789.276595743,39710.1218518519,39710.1241666667,27.33587386566435,357
450442.15714285715,4424474.2,39710.1933912037,39710.1984837963,42.63296846303806,356
450496.55,4424548.4,39710.2639351852,39710.2639930556,11.08557621398079,-1
450555.3,4424540.3,39710.3074189815,39710.3074189815,0.0,-1
443197.4290322581,4416506.567741936,39711.4128356481,39711.4135300926,48.106652346460734,-1
450463.5811320757,4424502.332075472,39711.5588078704,39711.5600115741,14.85563866012311,356
450729.00666666665,4424567.613333333,39720.3909375,39720.3912615741,49.43622153772911,359
452013.19199999986,4423422.169999999,39720.4663773148,39720.4675115741,49.89929859227383,360
449962.08095238113,4425768.55873016,39720.6056597222,39721.141099537,48.11330377348788,357
455498.5800884956,4414250.224778764,39721.1962962963,39721.2168518519,33.77217789875099,-1
450075.8724137932,4426483.043103449,39721.3716666667,39721.3729861111,42.49858821235948,-1
450463.0857142857,4424464.5571428565,39721.5613657407,39721.5632407407,48.44058215982304,356
443729.70909090916,4416705.1,39723.2081828704,39723.2089236111,43.11948515456193,-1
425582.8289473683,4399064.484210526,39723.3105324074,39723.3904282407,20.734753434936223,-1
425382.3962962962,4400065.224074074,39723.4077430556,39723.4089699074,41.018288603987365,-1
425938.7142857142,4399815.035714285,39723.5605671296,39723.5775810185,48.507422113034394,-1
425584.9855072464,4399040.518840579,39723.607650463,39723.609224537,49.526558531209,-1
450462.9732142856,4424514.769642857,39724.0802430556,39724.3489583333,46.64761515913176,356
449778.6777777777,4423618.196296296,39724.3676388889,39724.3682407407,31.50126981554575,361
449989.7571428572,4425755.728571428,39724.4612152778,39724.5608449074,42.8981351576033,357
450446.498989899,4424483.251515153,39724.6194328704,39724.6233680556,11.853269591287821,356
449985.6520000001,4425736.260000001,39725.1502546296,39725.2005092593,48.67494221822142,-1
450700.4208333334,4424766.85625,39725.2078703704,39725.2089467593,48.54626659176877,362
450462.97692307696,4424495.476923077,39725.6135185185,39725.6147685185,49.78533920753782,356
450419.5146341463,4422355.992682927,39726.3946990741,39726.395625,48.46483261088497,363
449986.50519480516,4425752.645454544,39726.460462963,39726.582037037,48.409606483921934,357
450445.0571428571,4424393.7,39726.6294675926,39726.6296064815,46.45395569774615,-1
449990.1413793104,4425755.672413793,39727.4547337963,39727.5476967593,42.30189121049153,357
450365.6142857143,4424580.799999999,39727.5623032407,39727.5624421296,45.25406059139293,364
449959.0442857144,4425773.554285715,39728.1667824074,39728.2602893518,48.12036990658169,357
450427.6805555555,4422365.552777779,39728.2818402778,39728.282650463,49.584876726657356,363
450424.7714285714,4424896.647252746,39728.3463657407,39728.3484375,38.82022668658134,365
449955.1214137213,4425779.01808732,39728.4824768519,39728.5535185185,49.73529933542996,357
450461.75555555563,4424507.166666666,39728.5621064815,39729.4212268519,34.53056616936944,356
449968.1470588236,4425768.629411766,39729.4662268519,39729.471875,25.338705570794247,357
450457.006557377,4424550.203278688,39729.5715856481,39730.3490393519,47.09193136814789,356
450368.3086956522,4422337.3086956525,39730.387349537,39730.3890625,41.59999999962747,-1
450455.52499999997,4424510.866666666,39730.473125,39730.4753472222,40.295160999989946,356
450358.67045454547,4420752.970454545,39731.2224652778,39731.2234606481,34.817380717083964,-1
449956.85000000003,4425744.433333334,39731.4797569444,39731.4810069444,49.429242356861984,357
450444.72916666657,4424490.183333334,39731.5940972222,39732.3347916667,36.5492817991403,356
439297.0181818182,4427362.831818182,39732.3913888889,39732.3936574074,49.636377788504404,-1
450439.9793522264,4424509.675809721,39732.6337731481,39732.671875,49.285393373145475,356
450441.41492346895,4424512.207015309,39732.7445601852,39732.7821527778,48.83287826883025,356
450453.4347517729,4424545.893262409,39732.8212962963,39733.1854166667,49.30162269133142,356
449978.03510638286,4425772.045744681,39733.2443981481,39733.3710648148,46.8463445747636,357
450391.25882352935,4422390.229411765,39733.4039930556,39733.4043634259,41.962006624671865,363
449980.38235294126,4425754.9,39733.4784837963,39733.5485069444,31.622776601683793,357
450466.0148148148,4424517.270370371,39733.5571412037,39733.5577430556,47.33053982384608,356
450453.8213114753,4424501.0245901635,39734.4623263889,39735.1528240741,47.030628318341975,356
449990.39999999997,4425746.8782608695,39735.1588657407,39735.1653240741,48.832878268432125,-1
450488.3169230769,4420755.595384616,39735.2442361111,39735.248125,8.043009386893258,366
450474.3400000001,4424479.657142857,39735.4194212963,39735.4202083333,33.32536571423582,356
450430.7692307691,4424496.792307693,39736.5392013889,39736.5417939815,29.9594726258796,356
450454.0241935485,4424489.431182794,39737.2225115741,39737.2368171296,18.42959576326032,356
450430.9435897434,4422356.148717948,39737.3714699074,39737.4439930556,46.22769732530488,363
450461.4285714285,4424525.469387755,39737.4541782407,39737.5132175926,46.96402878765101,356
450462.5716981132,4424485.692452831,39737.5808796296,39737.5820833333,19.91230775156507,356
450448.1622641512,4424479.273584906,39738.1572337963,39738.1585069444,14.066271716434521,356
450454.21832669294,4424502.416533864,39738.5074305556,39738.5349768519,34.11803042381823,356
450490.5375,4424448.1625,39739.4109490741,39739.4111111111,48.80256140800215,356
450606.5545454546,4427710.427272727,39740.2750578704,39740.2752893518,28.764040049724716,-1
450460.46172839525,4424495.981481482,39740.36875,39740.4918171296,37.313402418036326,356
450453.8105263158,4424490.242105264,39740.5535532407,39740.5539699074,40.539486923056636,356
450448.32499999995,4424503.381896552,39741.1587731481,39741.1614351852,32.52030135186753,356
450710.24333333323,4424611.819999999,39741.3796064815,39741.3802777778,45.29823396117615,359
450679.16883720923,4424652.442325585,39742.2302083333,39742.241412037,10.207840124166106,359
449978.35833333316,4425702.686111111,39743.3657407407,39743.3665509259,8.745856161670698,-1
450478.72000000003,4424506.119999999,39743.4345486111,39743.4364467593,23.994165957839225,356
450254.41944444436,4427478.341666666,39744.3722453704,39744.3732638889,36.279470778976794,367
449943.4,4428715.1,39744.6121759259,39744.6121759259,0.0,-1
450457.7043478259,4424486.308695652,39745.0302083333,39745.03125,47.700419285555036,356
450140.8772727272,4427666.504545454,39745.2583449074,39745.2588310185,11.04536101682153,-1
450259.6638297873,4427439.593617021,39745.3654513889,39745.3667013889,47.18061042390175,367
450255.37260273984,4427501.749315068,39745.5959490741,39745.5976157407,31.61913977287385,367
450393.72799999994,4422390.104,39746.1589814815,39746.159537037,48.58003705255511,363
450467.89696969703,4424478.8969696965,39746.5322569444,39746.5329976852,26.826852219185987,356
450242.08591954014,4427527.478160918,39746.6244097222,39746.6433449074,38.58004665658967,367
450278.3888888889,4427529.261111112,39747.4280555556,39747.4395138889,40.234935069306424,-1
450352.9,4427822.9,39747.4879166667,39747.4879166667,0.0,-1
450453.1459459458,4424467.029729729,39747.5467476852,39748.5642824074,38.2644743851589,356
450224.00333333324,4427576.226666667,39748.6344212963,39748.6350925926,9.5524865872714,367
450456.8906250001,4424522.94375,39749.0787962963,39749.080462963,8.683317338439645,356
450475.13809523813,4420818.495238095,39749.3121643519,39749.3126273148,38.025517747952534,368
450416.45636363653,4424896.458181819,39749.3563310185,39749.3597337963,37.511065034025954,365
450267.54905660386,4427499.330188679,39749.5031134259,39750.0028587963,48.49793810050144,367
449050.00000000006,4425341.713636364,39750.017650463,39750.0181365741,49.4583663297645,-1
450452.54947368376,4424478.887368422,39750.1255787037,39750.1277546296,2.4698178068807204,356
450461.6857142857,4424491.7114285715,39750.2475347222,39750.2483449074,31.88134250662437,356
440328.125,4441019.525,39750.5325347222,39750.5326041667,27.73193105430106,-1
450210.07692307694,4427566.646153846,39750.6227662037,39750.6230439815,12.612692020502097,367
450465.97307692317,4424488.042307693,39751.0022106481,39751.0027893518,39.46846842787317,356
450445.6,4424482.5,39751.1410416667,39751.1410416667,0.0,356
450450.6500000001,4422358.326666667,39751.3311921296,39751.3318634259,48.01010310328515,-1
450479.80333333346,4424490.053333334,39751.3872453704,39751.3886111111,49.68581286451027,356
450291.6249999999,4427476.800000001,39751.4907638889,39751.4916666667,42.64317061345708,367
450486.3,4424497.171428571,39751.5831597222,39751.5842013889,49.47726750741192,356
450450.9838709679,4424495.125806451,39752.0163310185,39752.2552777778,46.61544808341296,356
450268.06666666665,4427489.772727272,39752.2910185185,39752.2933333333,41.186648321884306,367
450294.81058823527,4427488.271764706,39752.5736805556,39753.0779050926,49.515351154596196,367
456485.0117957727,4413132.090669018,39753.1979976852,39753.2231365741,31.59952531306497,-1
456236.29321266996,4413154.720814484,39753.2579513889,39753.3164467593,47.881624868120916,369
456301.35,4413128.075,39753.3270023148,39753.3271875,9.338094024122523,-1
450224.975,4427513.6,39753.6246990741,39753.6248611111,10.071742649612725,367
450079.5,4427304.6,39754.3162152778,39754.3162152778,0.0,-1
450472.68437500007,4424515.568750001,39754.5558680556,39754.5581365741,47.128123238963525,356
447727.30000000005,4448186.011764706,39755.0772222222,39755.0779861111,39.14537009658543,370
447582.54285714286,4448214.405714286,39755.2942476852,39755.2950347222,47.309724158983784,-1
447732.0636363637,4448190.513636365,39755.4545023148,39756.4270138889,49.15658653696462,370
447704.48666666663,4448166.323333333,39756.443287037,39756.4439583333,49.63718364284966,-1
450264.23793103447,4427439.372413793,39757.173599537,39757.1742476852,0.6324555325674753,367
450451.2251968503,4424496.39606299,39757.2530671296,39757.2773726852,29.928581657377215,356
450273.59599999996,4427658.575999998,39757.5152199074,39757.516400463,48.79108525158268,-1
450741.9086956522,4424576.330434782,39758.1394097222,39758.1399189815,45.80927853621625,359
450392.0944444444,4422386.483333332,39758.3621990741,39758.3625925926,47.465882483601064,363
450465.0166666666,4424510.3,39758.41375,39758.414837963,44.78258590049655,356
450240.5135135134,4427510.940540541,39758.6225578704,39758.6236226852,42.03153578007332,367
450443.87142857147,4424514.542857142,39759.2385300926,39759.2408680556,47.441016009888294,356
450475.3424242425,4420793.209090909,39759.2945833333,39759.2959722222,12.041594578792296,368
450300.10000000003,4427354.125,39759.4686574074,39759.4687268519,40.615391171319196,-1
450444.7681818182,4422438.0227272725,39760.2994791667,39760.2999652778,47.64283786677509,-1
450290.8344827586,4427457.555172414,39760.3942013889,39760.394849537,30.279365911447893,367
450248.23234984203,4427499.284720765,39760.6373726852,39760.6725347222,49.67343354405029,367
450273.0610047843,4427536.155143543,39760.7797337963,39760.8235069444,46.55491381156759,-1
450217.3333333332,4427540.691666666,39760.9268634259,39760.9282523148,35.67408022624446,367
450251.7287878787,4427566.615151516,39761.6216550926,39761.6233449074,35.21647341803567,367
450412.5288135593,4424442.335593219,39762.0050810185,39762.0065162037,49.12453562157028,-1
450382.9666666666,4422406.562500001,39762.370775463,39762.4417939815,44.050085130814026,363
450452.45999999996,4424528.78,39762.4522337963,39762.4540856481,42.10296901607573,356
450248.11666666676,4427523.803333334,39762.6092013889,39762.6175578704,43.98226915474833,367
450450.8677419355,4424510.493548388,39763.0140972222,39763.0161111111,39.24449005858117,356
450486.5057692307,4420762.6576923095,39763.2726273148,39763.3142476852,45.46339186679386,366
450635.25416666665,4424451.220833334,39763.3301736111,39763.3307060185,48.160253321325264,-1
450247.55,4427531.149999999,39763.6113541667,39763.6126736111,48.13855004057004,367
450447.75278969965,4424492.859227468,39764.0580671296,39764.0674884259,41.246696837711184,356
450430.35000000003,4422370.541666667,39764.3691782407,39764.3697106481,49.21971149840682,363
450453.7319148937,4424499.39148936,39764.4407175926,39764.4417824074,49.4231727026743,356
450225.6393442623,4427516.475409837,39764.577962963,39764.5794907407,20.580087463259673,367
450369.8727272728,4424475.554545455,39765.0614583333,39765.0616898148,36.86855028343177,-1
441824.93902439036,4415953.578048781,39766.040150463,39766.0410763889,39.90451102371315,-1
450483.38,4424482.6,39766.3740740741,39766.3759027778,48.0235358964529,356
450257.440909091,4427450.627272729,39766.672662037,39766.6731481481,19.11491564235236,367
450516.02571428585,4424517.314285715,39767.121412037,39767.1221990741,25.14676917619644,356
446101.0094827588,4421508.831896552,39767.2345601852,39767.2415740741,37.763739221493154,-1
450415.9636363637,4424572.899999999,39767.3321527778,39767.3323842593,15.579473674983802,356
451716.1166666666,4423358.316666666,39767.4866782407,39767.4874884259,48.06183517096388,-1
451645.7666666666,4423702.666666667,39768.1131712963,39768.1132175926,0.3162277662377205,-1
450241.59263157897,4427520.254736842,39768.2359837963,39768.2381597222,13.103434664604457,367
450213.3612903227,4427537.367741935,39768.5563078704,39768.5579282407,46.20400415549484,367
450465.67199999996,4424860.16,39775.9918981481,39775.9924537037,47.736987755745936,371
450426.17884615384,4422358.484615385,39776.2730555556,39776.3364814815,48.500927826176614,363
450466.20000000007,4424568.542857143,39776.3591782407,39776.3593171296,43.03452102710243,356
450264.4382550337,4425287.965100678,39777.1472453704,39777.1833101852,48.705235858262824,-1
450546.84444444446,4424516.222222222,39777.2005787037,39777.2007638889,41.902983187381196,-1
450459.16551724146,4424511.14137931,39777.4278587963,39777.4285069444,46.24770264489966,356
450481.3573333334,4424495.844,39778.5146296296,39778.5163425926,34.28308620943053,356
450259.60930656956,4427495.8251824835,39778.6121875,39778.6350347222,15.536087023807065,367
450651.997368421,4424461.505263158,39779.0658680556,39779.066724537,40.65525796289511,-1
450459.5318318319,4424506.375075075,39779.1519097222,39779.1677199074,8.514693182963201,356
450236.08444444457,4427586.238888889,39779.5780092593,39779.581087963,8.70919054737917,367
450646.31428571424,4424458.848571428,39780.0135763889,39780.0143634259,30.700162865795292,-1
450495.3,4420826.9399999995,39780.3052777778,39780.3053703704,40.23853874082137,368
450264.1295454545,4427476.54090909,39780.5982986111,39780.5992939815,9.66902270139892,367
450387.3435897437,4422378.389743589,39781.3251851852,39781.3260648148,47.43047543476058,363
450241.13333333336,4427658.399999999,39781.4489699074,39781.4494328704,40.0475966819541,-1
443558.7739130435,4434330.482608694,39782.1582175926,39782.1587268518,49.08900080421173,-1
449743.52142857143,4427677.437499999,39782.3915393518,39782.3938773148,46.60236045456537,-1
450269.9238095239,4427506.957142856,39782.4313773148,39782.4319328704,43.80707705385492,367
450469.4272727273,4424496.527272727,39783.0083796296,39783.0101388889,44.72694937039522,356
450406.0033333332,4422364.766666667,39783.3335069444,39783.3341782407,47.74232922677207,363
450407.6575757577,4424488.193939395,39783.4157291667,39783.4166319444,49.100916488485666,356
450247.72926829284,4427507.52113821,39783.4955092593,39783.5050694444,22.929675095996313,367
450390.062184874,4424390.474789917,39784.0550115741,39784.0595486111,35.83517824738569,-1
450434.07608695654,4424562.713043477,39784.4103587963,39784.4115856481,44.02363001829226,356
450230.5374999999,4427515.212499999,39784.5838541667,39784.5843865741,15.769908052989305,367
450432.1082932689,4424506.795793269,39785.011400463,39785.0522800926,48.135018437286526,356
450448.6060606061,4424480.857575757,39785.1461921296,39785.1498726852,23.14865006865454,356
450389.8568181817,4422430.981818181,39785.3916435185,39785.3926388889,46.78001710187683,-1
450458.1887323944,4424501.467605633,39785.454525463,39785.4562152778,23.66622065307291,356
450260.10000000003,4427498.8152173925,39785.597662037,39785.5998842593,35.838108209269905,367
450399.3941176471,4424495.0470588235,39786.0463194444,39786.0466898148,31.093407661310348,356
450428.06736111117,4424502.068055557,39786.1696990741,39786.1753472222,20.16928357628975,356
450496.42500000005,4427143.5,39786.4005092593,39786.4005787037,4.6097722286464435,-1
450418.22124999994,4424494.73125,39787.0165162037,39787.0201736111,11.610770861050453,356
450381.197752809,4422376.520224721,39787.2624421296,39787.3354282407,48.312834733824914,363
450466.79852941167,4424482.138235293,39787.348599537,39787.350150463,15.83729774949063,356
451320.9,4427845.3,39787.8816435185,39787.8816435185,0.0,-1
450256.7588785048,4427495.320560749,39788.2133912037,39788.2176967593,49.463117572958325,367
450478.83636363636,4424404.209090908,39788.3697337963,39788.3702662037,25.159093783508546,-1
450396.46091954026,4422363.113793105,39789.0916087963,39789.093599537,43.58589221304531,363
450437.5909090909,4424577.954545455,39789.198287037,39789.1985185185,16.278820596099706,356
450434.8338461538,4424529.196923078,39789.4023842593,39789.4052546296,45.1001108642363,356
449972.0,4427809.55,39789.6327893519,39789.6328125,32.90729402430314,-1
450468.2574468084,4424549.632978722,39790.0353587963,39791.0245023148,46.32688204560855,356
450508.65,4420831.9,39791.0411921296,39791.0412152778,0.1000000000349246,-1
450458.8,4424497.042857143,39791.1171064815,39791.1189814815,40.544420085011645,356
450218.4158730158,4427539.480952381,39791.5,39791.5027546296,25.45584412280626,367
450457.9166666667,4424496.412500001,39792.0080092593,39792.0096527778,42.08301320019569,356
450376.0580645162,4422415.3580645155,39793.3694791667,39793.3701736111,47.0455098812039,363
450457.60357142874,4424505.060714286,39793.4397106481,39793.5730324074,48.92484031662395,356
450339.85000000003,4427413.45,39793.6265046296,39793.6268055556,20.077101384271096,-1
450427.73333333334,4423794.2,39794.1572337963,39794.1572800926,23.148218073972078,-1
450770.61578947364,4425463.402631579,39794.285625,39794.2866898148,33.20677641678708,-1
437402.5184210526,4418019.87368421,39795.1000231481,39795.1044444444,16.954350474322123,-1
450427.778125,4422369.521875001,39795.3881944444,39795.444224537,48.59794234321385,363
450463.0804347828,4424485.8652173905,39795.4526041667,39795.4544791667,16.037767924470675,356
450236.1624999998,4427504.935,39795.5542708333,39795.5564467593,28.84874347360036,367
451983.75217391306,4423413.434782608,39796.3539699074,39796.3544791667,46.4605208750948,-1
450291.6607142856,4427463.782142857,39796.6066550926,39796.6072800926,46.663261780550464,367
450479.78904109576,4420743.369863015,39797.040150463,39797.0446643519,22.77015590646835,366
450455.86391752574,4424490.472164948,39797.0918287037,39797.0940972222,27.371518043725207,356
450385.0125,4422404.5375,39797.3545949074,39797.4177083333,35.503520952153465,363
450461.79166666657,4424500.774999999,39797.4256944444,39797.595162037,49.57670824030575,356
450246.61234042514,4427567.14042553,39797.6311111111,39797.6380555556,15.728000508396514,367
450466.94482758606,4424475.3517241385,39798.0069444444,39798.0120833333,15.454772725976754,356
451752.0653846153,4423390.580769232,39814.1331712963,39814.13375,46.42843955988295,-1
450345.011627907,4427477.009302326,39814.2606944444,39814.2616666667,47.58003783145386,367
446239.7352941177,4417540.947058824,39815.1347916667,39815.135162037,48.02051644869292,-1
450247.3428571428,4427508.814285717,39815.3119444444,39815.3128935185,23.765521244171588,367
450236.8647058824,4427556.768627452,39815.5406018518,39815.5417592593,44.941406297365155,367
450465.9157894737,4424512.427631579,39816.5497106481,39816.5514467593,42.220374228546675,356
450253.2898550726,4427496.382608696,39818.3837731481,39818.3869212963,36.244171945288095,367
450397.52352941176,4424500.458823529,39818.5415856481,39818.5419560185,24.043294283563064,356
450261.2728395063,4427487.109876543,39820.370787037,39820.3731712963,49.66769573891438,367
450468.44673913036,4424476.26847826,39821.1426273148,39821.3781944444,45.825975167433235,356
450265.5440000001,4427507.484,39821.3932638889,39821.3947685185,12.13424904966638,367
450455.41754385957,4424495.142105262,39822.0226041667,39822.2480902778,47.915028957704855,356
450480.7486310297,4420736.80143416,39822.3317708333,39822.3683796296,48.026346935506396,366
450447.3588235294,4422359.2,39822.3822916667,39822.3830555556,49.60010080632514,363
450460.84322033887,4424500.039830509,39822.4432175926,39822.5863194444,47.29143685681804,356
450226.4588235295,4427531.800000001,39822.5993287037,39822.6031481481,21.660101569224512,367
450451.7444444445,4424521.222222222,39824.2609143518,39824.263275463,42.048781194989026,356
450257.37777777785,4427482.813888889,39825.3944907407,39825.9890277778,49.74173298155828,367
450438.79452054773,4424499.298630137,39826.0178935185,39826.0243055556,48.36279561798779,356
450495.57,4420766.763333334,39826.3056134259,39826.3062847222,44.307222887284176,366
450444.28666666674,4424866.64,39826.3584953704,39826.3604861111,43.775107081539254,371
449766.86304347817,4423281.485869565,39826.4354050926,39826.4429050926,47.60861266630387,-1
450463.11978022003,4424480.313186815,39826.4998032407,39827.3586689815,48.09417844154366,356
450383.3125,4422390.5,39827.3893518519,39827.3905324074,49.22204790537888,363
450460.3278688526,4424492.495081966,39827.4538773148,39827.4552662037,19.88290723192479,356
497815.98125,4474059.93125,39828.1375462963,39828.1382638889,36.04566548144906,-1
450463.39014084503,4424502.488732395,39829.1155208333,39829.1264699074,19.79419106714223,356
450478.64358974353,4420776.641025641,39829.3340509259,39829.3358333333,21.774526401275292,366
450394.425,4422344.0125,39829.417650463,39829.4196412037,47.712996133292386,363
450260.3,4427517.5,39829.5720601852,39829.573912037,48.362382075699976,367
450470.05789473694,4424474.757894737,39831.1085300926,39831.1089467593,44.1901572745877,356
450380.3451219511,4422394.064634145,39831.3344097222,39831.3936342593,45.00244437842426,363
450472.64166666655,4424605.599999999,39831.4140046296,39831.414537037,46.48752520837618,-1
450282.3904761905,4427476.744444446,39831.6031134259,39832.2155671296,46.065388307805286,367
450464.15531914897,4424504.221276596,39832.2279282407,39832.2302662037,32.975748665481944,356
450418.79000000004,4424522.399999999,39860.1521527778,39860.1537962963,49.0462027070668,356
450389.00655737723,4422391.411475407,39860.3655439815,39860.4352662037,47.53945729601885,363
450428.58333333343,4424254.433333334,39860.4633912037,39860.4635069444,46.91630846536626,-1
450277.1272727273,4427483.972727273,39861.1515509259,39861.1534259259,48.288818581497665,367
450453.80721649475,4424525.538144329,39861.3275,39861.3315509259,35.74185221843611,356
450258.93617021263,4427520.061702128,39861.4437037037,39861.4447685185,46.08958667638494,367
440699.447761194,4419925.28955224,39862.0354976852,39862.2813888889,48.87463554832475,-1
450398.24583333335,4422394.704166667,39862.3453240741,39862.3458564815,48.88026186583884,363
450451.9370370369,4424489.427777776,39862.4073611111,39862.4093055556,32.63525700780471,356
450238.81153846154,4427513.542307692,39863.3736458333,39863.374525463,49.097555947500744,367
450460.69000000006,4424511.2,39864.0031134259,39864.0077199074,46.02445002456624,356
450488.9695652174,4420747.636521742,39864.2949652778,39864.2992708333,34.89369570531242,366
450386.6666666667,4422362.458333332,39864.4062847222,39864.4070023148,42.439250700450884,363
450452.4870967742,4424505.748387096,39864.465150463,39864.4669097222,14.034600101417077,356
450463.76111111115,4424504.347222222,39865.0607291667,39865.3937268518,45.40704791127639,356
450476.09104477643,4424483.09402985,39865.4692939815,39865.4708217593,38.5175284777121,356
450291.57777777774,4427478.566666666,39866.1867361111,39866.1891203704,47.752068017987696,367
450379.67600000015,4422428.312000001,39866.353125,39866.3536805556,48.887830796265625,-1
450275.0683035715,4427526.138839288,39866.5275115741,39866.995474537,23.693247983580104,367
450481.1704918032,4424503.55409836,39867.0108912037,39867.0134837963,27.44011661784191,356
450454.92857142835,4424478.06923077,39867.4339699074,39867.4360532407,24.310080213765133,356
450395.60408163274,4422375.479591836,39868.3104861111,39868.3115972222,41.054597793851144,363
450434.93833333324,4424487.489166668,39868.3759722222,39868.3790972222,43.668867629192135,356
450240.9866666667,4427544.8533333335,39868.4537962963,39868.4542592593,42.30189121049153,367
450455.7723404254,4424519.727659576,39869.0037847222,39869.3746296296,49.11873369685881,356
450737.48333333345,4424582.201851853,39869.4185416667,39869.4211111111,16.16446720444034,359
450264.28085106384,4427467.295744681,39869.6061458333,39869.6072106481,43.573960113709354,367
450462.11999999994,4424506.2639999995,39870.0052083333,39870.005787037,32.21210952455476,356
450270.2727272727,4427478.242424243,39870.5988078704,39870.5995486111,43.70011441615303,367
450474.0671428571,4424465.1742857145,39871.0117361111,39871.2706481481,48.60822975588164,356
450794.2083333333,4425524.716666667,39871.2765509259,39871.3743981481,49.820578078228635,-1
450449.43333333335,4424515.866666667,39871.3812037037,39871.3827314815,43.067389055006814,356
450391.8066666667,4422374.766666667,39873.1372106481,39873.1806481481,36.5656943056507,363
450458.6461538462,4424509.638461539,39873.1930787037,39873.1933564815,33.60907615471246,356
450248.5596774193,4427525.091129032,39873.3260416667,39873.3315509259,15.932670836669976,367
450292.9513888889,4427470.718055555,39873.5329976852,39873.9884143519,46.9137506490992,367
450361.55,4424693.325,39874.0101967593,39874.0102893518,47.47209706818595,372
451681.6,4423397.346153846,39874.4315393518,39874.4327199074,26.368541863637887,-1
450458.9647058822,4424492.163529414,39874.5240162037,39874.5274189815,19.6290600895434,356
450362.965625,4422387.084374999,39875.2762268518,39875.2769444444,38.43344897332835,363
450407.8574468088,4424920.195744681,39875.3359027778,39875.3369675926,30.045631962069507,365
449770.92500000005,4423281.0875,39875.4368402778,39875.4379282407,45.27692569068709,-1
450269.2261904761,4427473.3904761905,39875.6051388889,39875.6061805556,43.87824062099234,367
450455.05500000017,4424498.762500001,39876.0109027778,39876.5018171296,44.54862511889235,356
450252.5764705882,4427486.226470588,39876.5173958333,39876.5181597222,45.81113401782588,367
450459.77878787875,4424487.36969697,39877.0042361111,39877.3499074074,49.42519600338867,356
450384.91521739133,4422381.278260871,39877.3599074074,39877.3609490741,46.13133425394826,363
450461.8226415095,4424488.843396225,39877.4249074074,39877.4273842593,11.825819211069922,356
450250.18,4427505.226,39877.6181944444,39877.9879861111,47.40168773391758,367
450491.0444444444,4424456.399999999,39878.0096180556,39878.0098726852,36.30895206420117,356
450803.3822222221,4425489.233333333,39878.3092361111,39878.3102546296,48.78042640258567,-1
450456.79090909095,4424517.136363636,39878.4036805556,39878.4052314815,44.211536955860836,356
450396.6658536583,4422400.573170733,39879.0396527778,39879.0405787037,49.020199918171556,363
445694.13636363635,4426051.563636363,39879.1496064815,39879.1553009259,24.107467723238287,-1
450455.9727272727,4424505.613636363,39879.3089583333,39880.2851041667,49.90751446390148,356
450559.43469387764,4425121.465306122,39880.2928356482,39880.341412037,48.184852391529176,-1
450448.22857142857,4424505.607142856,39880.3525925926,39880.5000925926,47.87243465715404,356
450271.48000000004,4427264.271111111,39880.5189583333,39880.5199768519,48.920445623530135,-1
450445.9866666667,4424572.093333333,39881.0190046296,39881.0193287037,45.50274716981382,356
450387.3357142857,4422363.116666667,39881.35625,39881.3571990741,46.61265922542943,363
450468.11489361717,4424482.508510639,39881.4303819444,39882.4288773148,47.56490302777321,356
450480.26571428584,4424473.548571429,39882.4708101852,39882.5484837963,45.86610949225975,356
450306.65128205146,4427452.992307694,39882.5612384259,39882.5621180556,43.84632253685946,367
450712.82,4424605.57,39883.0099074074,39883.0111805556,38.54205495300124,359
450472.0466666666,4420728.8133333335,39883.2649652778,39883.2666550926,29.830353668527067,366
450393.51111111115,4422342.9555555545,39883.3620717593,39883.3631828704,49.37944916737526,363
450455.0066666667,4424502.459999999,39883.4537037037,39883.4554166667,26.882894190087956,356
450241.0372093023,4427592.989922479,39883.6328356481,39884.0000231481,15.107613974505776,367
450456.9666666666,4424513.791666667,39884.0140277778,39884.6117824074,34.30641339383624,356
450277.4,4427479.265517241,39884.6252430556,39884.9961689815,11.801694793537061,367
450526.471875,4424540.453125,39885.0224305556,39885.0233333333,38.700129198444515,356
450378.9020408164,4422359.500000001,39885.3155555556,39885.3166666667,28.36511942492062,363
450460.1893617022,4424509.808510638,39885.3909490741,39885.4424189815,37.11091483666911,356
443693.1307692308,4416678.369230769,39885.4919791667,39886.154224537,39.905513403350305,-1
450098.5641025641,4421225.585897435,39886.258912037,39886.2753009259,40.73389252203722,-1
450440.7681415929,4424509.095575223,39886.3209259259,39886.3244212963,15.132745950421556,356
450385.84594594577,4422387.25945946,39887.2948263889,39887.2956597222,48.459467599594745,363
450411.8125,4424589.175,39887.3690046296,39887.3691666667,18.060177185951233,356
450286.590909091,4427492.036363638,39887.6273032407,39887.6292939815,46.87568666170705,367
450677.7568181819,4424631.6886363635,39888.006087963,39888.0070833333,48.29182125359986,359
450277.9,4427485.0775,39888.4626388889,39888.9797222222,47.97384704185817,367
450707.9166666667,4424608.0,39888.9921296296,39888.9933564815,45.615019456858874,359
450378.56103896105,4422376.294805193,39889.3017708333,39889.3483912037,49.60816465021642,363
450395.2484848483,4424915.3515151525,39889.3569097222,39889.357650463,45.60405683690848,-1
450269.3787878787,4427492.7636363655,39889.5212615741,39889.5220023148,48.880466446396554,367
450506.8583333334,4424532.841666666,39890.1457523148,39890.1472337963,43.22094399704034,356
450578.2199999999,4427943.9399999995,39890.615625,39890.6157175926,9.972462083307388,-1
450387.3472222221,4422365.463888889,39891.3579050926,39891.3586458333,44.101814022126945,363
450473.7030303031,4424520.490909091,39891.4206944444,39891.5668981481,45.83939353856055,356
450311.2219512195,4427470.621951221,39891.5772453704,39891.5781597222,46.51881339845203,367
450727.1217391304,4424584.565217392,39892.0058333333,39892.0086805556,44.83971453949318,359
450799.73199999996,4425555.199999999,39892.2819907407,39892.3702083333,48.12036990679096,-1
450452.98,4424539.11,39892.3764814815,39892.4577546296,44.402815226436715,356
450108.975,4427574.965,39892.5912962963,39892.5917361111,43.76756790108343,-1
450456.7804347827,4424527.723913043,39893.0723726852,39893.2867708333,43.05124853010676,356
450389.0868421054,4422381.013157895,39893.2962731481,39893.2971296296,48.923205127866865,363
450460.44693877554,4424483.956122451,39893.3649537037,39893.469212963,48.66086723443056,356
450273.2666666667,4427442.877777778,39893.4923611111,39893.4927546296,38.47076812315931,367
446247.9318181818,4417516.909090908,39894.3874189815,39894.3879050926,48.52751796645967,-1
450284.20740740735,4427469.518518518,39894.5032175926,39894.5038194444,45.00244437789874,367
450483.4000000001,4424485.023529412,39895.0194097222,39895.0580555556,46.98638100500641,356
450439.69666666666,4424527.806666667,39895.167037037,39895.1681712963,45.699124718111875,356
450392.0433333333,4422388.446666666,39895.3754050926,39895.3760763889,46.51730860709988,363
450461.5568965518,4424472.1034482755,39895.4397222222,39895.4410416667,23.990831582074428,356
450431.35,4424812.175,39896.4661574074,39896.4662268519,4.440720661685953,-1
450461.2374999999,4424519.687499999,39897.0578240741,39897.0583564815,33.689909468202956,356
450390.7173913046,4422380.613043479,39897.3892592593,39897.3903009259,43.829214001809774,363
450455.9688888888,4424495.999999999,39897.4494560185,39897.5078935185,44.459532160725594,356
450275.99999999994,4427474.036,39897.5197916667,39897.5203472222,49.25464445106288,367
450724.60930232547,4424582.623255813,39898.0129976852,39898.0139699074,41.17523527527696,359
450264.25,4427609.15,39898.6101157407,39898.6101851852,33.966601242886135,-1
450327.638888889,4427461.711111111,39899.1187962963,39899.1191898148,1.2041594577728842,367
450475.2261904761,4420771.864285713,39899.2565972222,39899.2575462963,33.99999999963364,366
450383.4571428572,4422326.628571429,39899.3018402778,39899.3029282407,44.73712105139054,-1
450447.5771428571,4424585.745714287,39899.4247800926,39899.4258449074,36.50342449688796,356
451378.07407407416,4424428.751851852,39899.4994791667,39899.5000810185,48.730791087371806,-1
441007.1157894737,4425849.457894736,39900.0880208333,39900.0888773148,43.79680353646227,-1
450263.9509433962,4427501.522641508,39900.2918518518,39901.195162037,49.86792556341263,367
450462.0625,4424525.5875,39901.2055555556,39901.2071064815,49.40060728336851,356
450390.9648648648,4422386.408108109,39901.4263425926,39901.4271759259,47.97051177490549,363
450268.61515151506,4427487.336363636,39901.5199884259,39901.9871180556,5.905929224279438,367
450491.69999999995,4424510.233333333,39902.0009953704,39902.0021990741,33.0103014225044,356
450382.35,4422373.126923078,39903.290787037,39903.2913657407,48.51267875443297,363
450400.93902439025,4424914.078048781,39903.3392592593,39903.3401851852,44.715321758867276,365
450452.61066666665,4424494.9799999995,39903.460150463,39903.5960416667,47.49578928686403,356
450236.1275862069,4427521.448275862,39903.609537037,39903.6101851852,35.80460864206124,367
450460.68118811876,4424494.924752475,39904.0128703704,39904.4709722222,49.12484096709334,356
450292.06976744183,4427472.088372094,39904.4855787037,39904.9958449074,45.556668008093716,367
450742.4225806451,4424607.172580647,39905.0086458333,39905.0105902778,26.633249895413115,359
450678.9666666667,4424440.994444445,39905.3691782407,39905.3695717593,47.60546187209551,-1
450291.8693548387,4427475.053225805,39905.6036921296,39906.0025231481,48.206327385149734,367
450725.2555555555,4424612.333333333,39906.0128935185,39906.0143287037,48.9252491058018,359
450756.2368421053,4424560.947368422,39906.1849652778,39906.1853819444,41.10437932928771,359
450281.4777777777,4427477.272222222,39906.2876736111,39906.2880671296,46.20097401571707,367
450315.57083333336,4427468.910416667,39908.498900463,39909.1787268519,45.52944102465325,367
450454.52205882355,4424501.576470589,39909.1910648148,39909.1935648148,13.060245021018856,356
450459.34693877574,4424510.953061225,39909.3658912037,39910.3458564815,42.311818679705105,356
450276.98749999993,4427489.492857141,39910.3838194444,39911.0003356481,20.99761891325617,367
450438.76666666666,4424456.141666667,39911.0388078704,39911.0390625,44.00602231579333,356
450313.2255319148,4427470.142553192,39911.6188888889,39911.6199537037,46.57692561772138,367
450440.8567796609,4424460.583050849,39912.0368055556,39912.0424305556,9.40319094757562,356
450272.7627906976,4427507.172093023,39912.3898842593,39912.392037037,37.194623267347545,367
450440.2625,4424510.1125,39913.0062615741,39913.0078819444,38.94624500550226,356
450339.01951219526,4425020.9902439015,39913.1751736111,39913.176099537,44.047814928792015,-1
450484.7612903225,4420738.296774195,39913.3241203704,39913.4385416667,37.503333185566966,366
450337.7779069767,4427543.872093023,39913.5621527778,39913.5647685185,25.67586415310828,-1
450464.20169491525,4424475.755932205,39914.4781134259,39914.4794560185,45.272729097929705,356
441261.24729907844,4418827.69011857,39915.1304282407,39915.1743287037,48.16741637230387,-1
441171.2899470896,4418942.059259264,39915.1747685185,39915.2069560185,44.28837319164155,-1
450332.26875,4427475.69375,39915.3722337963,39915.4617476852,37.215588132205575,367
450454.0875,4424507.3,39915.479224537,39915.4795717593,49.322814193653166,356
450266.54000000015,4427483.83,39917.2740509259,39917.2754166667,44.002840816968764,367
450443.7166666666,4424543.116666667,39918.0097337963,39918.0114930556,48.80163931747263,356
450290.1851851852,4427481.192592593,39918.608275463,39918.9944560185,45.03087829497931,367
450733.38653846167,4424594.532692308,39919.0056365741,39919.0068171296,30.74833328809289,359
450267.70806451613,4427498.674193549,39919.3618171296,39919.3632291667,42.28959682894659,367
450441.55483870953,4424510.454838711,39920.0075115741,39920.2129861111,48.91676604117669,356
450358.5199999999,4427460.22,39920.2254861111,39920.2256944444,47.09999999997672,-1
450248.06249999994,4427483.933333334,39921.3926851852,39921.3946064815,48.9287236705226,367
450341.19411764713,4427468.841176472,39921.5511805556,39921.5515509259,34.03659794912717,367
450460.96551724133,4424490.862068965,39922.1776388889,39922.178287037,46.72098029812155,356
450268.6369863014,4427512.795890409,39922.38,39922.9912962963,49.32555118830126,367
450441.1727272727,4424553.2,39923.0023148148,39923.0039814815,20.700241544829755,356
450528.55,4427589.175000001,39924.1697106481,39924.1697800926,42.994185653810845,-1
450472.82380952383,4424500.26904762,39925.0253703704,39925.4413657407,47.468410548490034,356
450268.01538461517,4427488.815384615,39925.4540046296,39925.5440740741,35.62527192880987,367
450263.01081081067,4427476.62972973,39925.595625,39925.5968518518,33.266950566737556,367
450395.1714285714,4424612.738095238,39926.0040972222,39926.0046527778,46.10639868894838,-1
450253.69999999995,4427587.25,39926.414849537,39926.4148726852,2.0615528131476486,367
450462.06190476194,4424542.742857142,39927.4493865741,39927.5443402778,46.324939287954955,356
450183.2392857143,4427588.560714286,39927.5572569444,39927.5578819444,34.89068643656146,-1
443763.8,4416655.466666666,39928.2796296296,39928.2797453704,11.822859214829892,-1
443918.74000000005,4414073.76,39928.3616435185,39928.3620833333,30.636579442978565,-1
450285.2,4427576.05,39928.5560648148,39928.556087963,0.09999999962747097,-1
450497.9571428572,4424512.271428571,39930.00875,39930.0101157407,47.88527957524811,356
450271.0302325581,4427474.38372093,39930.3696527778,39930.370625,46.84111441880773,367
450755.9666666666,4424575.166666667,39931.0095023148,39931.0095486111,44.39391850205279,359
450253.32083333324,4427511.524999999,39931.2868055556,39931.2875925926,46.5800386430084,367
450496.5,4424519.471428571,39932.0077199074,39932.0099189815,47.49873682522001,356
450143.7,4428115.499999999,39932.4049768519,39932.4050231481,31.537279527749515,-1
450471.54857142863,4424526.98,39933.0073726852,39933.0081597222,36.30220379059803,356
450479.46883116895,4420793.172727271,39933.245787037,39933.3675,46.422623794852576,368
450468.95423728816,4424524.538983051,39933.4151273148,39933.4958912037,47.40042193942286,356
450220.45,4427474.67,39933.5071412037,39933.507349537,34.024256053264615,-1
437352.3343749999,4417999.771875,39934.2738888889,39934.2759027778,49.323523799531046,-1
450329.7105263157,4427463.97368421,39934.483587963,39934.4848842593,49.87604635460512,367
450325.8541666667,4427466.158333332,39935.5373148148,39935.5378472222,36.9120576505835,367
450253.55000000016,4427541.220000002,39936.355775463,39936.3569097222,28.236324123206288,367
450460.54035087716,4424518.864912281,39937.0107638889,39937.0121064815,41.100486615124154,356
450266.83571428555,4427492.357142857,39937.3998148148,39938.0365856481,49.41588813321137,367
450463.59069767455,4424519.80232558,39938.0473032407,39938.2104166667,45.96737973769474,356
450231.8193548385,4427599.077419355,39938.2448958333,39938.2455902778,5.0,367
450381.7,4424159.8,39939.0212962963,39939.0212962963,0.0,-1
450245.3142857143,4427575.928571428,39939.389212963,39939.3893518519,6.931089380336388,367
450697.3972222223,4424565.925000001,39940.0125578704,39940.0141087963,24.858197843709316,-1
450300.51666666666,4427473.38888889,39940.4188194444,39941.4539583333,46.93165243221235,367
450427.15844155836,4424518.389610389,39941.468587963,39941.4715277778,20.12013916452206,356
450262.734375,4427474.284375001,39942.4233449074,39942.4250115741,48.13003220462188,367
450266.3947368422,4427486.331578948,39943.5909490741,39943.5917824074,49.48130960279343,367
450681.59705882345,4425490.861764707,39944.0159375,39944.1140046296,47.84025501595005,-1
450477.14444444445,4424535.711111111,39944.1302083333,39944.1306018519,48.220016590339185,356
450254.3,4427590.0,39944.4249537037,39944.4249537037,0.0,367
450461.23023255804,4424528.8,39945.0561921296,39945.1782060185,49.172451637261034,356
450251.05263157893,4427530.257894737,39945.2088310185,39945.2092476852,48.27338811359899,367
450468.5961538461,4424525.811538462,39946.0034837963,39946.4642013889,37.86000528250539,356
450303.65789473674,4427460.263157896,39946.4755902778,39947.0014467593,45.463391865863834,367
450571.19230769237,4426778.203846154,39947.0170949074,39947.0183449074,46.59999999962747,-1
450454.95,4424510.44,39947.1768981481,39947.3891435185,47.44533696757926,356
450403.74375,4427867.356249999,39947.409375,39947.4100925926,45.59879384386598,-1
450469.0736842104,4426769.378947369,39948.2803472222,39948.2807638889,49.065772183980194,-1
450244.97692307684,4427551.653846154,39948.5914467593,39948.591724537,43.660622991432454,367
450442.5038461539,4424525.438461537,39949.0572916667,39949.0578703704,47.30602498676219,356
450260.67000000004,4427511.072500001,39949.1959027778,39949.1968055556,29.025850547882076,367
451994.3372093022,4423429.720930234,39950.0907407407,39950.091712963,49.35929497050163,360
450461.3999999999,4424493.0676470585,39950.2011689815,39950.2019328704,46.5966737010272,356
450530.0866666665,4426782.3066666685,39950.2937731481,39950.6108217593,47.88193813958515,373
450246.87333333335,4427484.253333335,39950.636400463,39950.6370717593,49.746256140529944,367
450437.38947368425,4426767.378947369,39951.0355092593,39951.0369907407,47.72525536862715,-1
450292.7555555556,4427455.455555555,39951.118599537,39951.1189930556,42.944149776297046,367
450452.815909091,4424515.136363637,39951.1870601852,39951.1880555556,38.48025467706752,356
450293.99534883717,4427465.7325581405,39951.4237847222,39952.0030439815,46.4811789867684,367
450450.2763157895,4424484.739473684,39952.0136689815,39952.014525463,36.28291608990295,356
457141.64800000004,4419909.616,39952.231724537,39952.2322337963,48.2468651831475,-1
450327.59428571415,4427474.039999999,39952.3305671296,39952.3313541667,13.386933928522655,367
450229.9714285714,4427513.814285713,39952.621400463,39952.6223263889,7.787810988640171,367
450450.3767857142,4424474.148214286,39953.0190046296,39953.0222337963,25.124689052802225,356
450419.3810810811,4420690.051351352,39953.2600462963,39953.2608796296,37.9444330569577,-1
450465.23428571434,4424494.211428571,39953.3620833333,39953.3628703704,43.70926675221539,356
450269.77272727276,4427468.954545453,39953.4527430556,39953.4534837963,48.4372790313408,367
450400.86086956516,4420757.000000001,39954.3056134259,39954.3061226852,48.5989711825283,366
450367.8913793103,4424604.053448276,39954.3757291667,39954.3770486111,43.603325561183425,364
450280.95769230765,4427481.896153846,39954.4533796296,39954.4539583333,49.692353536477405,367
450399.24615384615,4420798.980769231,39955.0240625,39955.0246412037,47.22711085732197,-1
450255.6297872342,4427486.719148936,39957.5167708333,39957.5179050926,45.49648338091328,367
450512.2695652174,4420828.082608696,39958.4079282407,39958.4084375,40.82070553028431,-1
450257.8498839903,4427483.878886305,39958.555150463,39958.5725347222,24.466303357545097,367
450488.8060606061,4420808.060606061,39959.117650463,39959.1194328704,40.63889762253456,368
450260.5763779527,4427482.315748034,39959.2116319444,39959.4496643519,46.78514721590248,367
450453.0177777777,4424514.468888889,39959.4639699074,39959.4664236111,45.58618211678056,356
450264.1333333333,4427475.821212122,39959.517650463,39959.5183912037,48.28270912061184,367
450492.4321428571,4420734.374999999,39960.0109490741,39960.0115740741,47.12462201432225,366
450253.4090909091,4427524.545454546,39960.2174537037,39960.2176851852,13.418271125254913,367
450481.6548387097,4420723.712903226,39961.0027546296,39961.0034490741,48.94946373546917,366
450214.3,4427753.233333333,39961.2035648148,39961.2036342593,4.6097722286464435,-1
450399.0666666667,4420767.550000001,39962.0048263889,39962.0052083333,49.19776417646714,-1
450313.15769230766,4427460.8711538445,39962.2374768518,39963.4565046296,45.88605452657175,367
450372.04799999995,4424395.596000001,39963.4702777778,39963.4708333333,47.107111989640195,-1
450274.1314285713,4427480.522857143,39963.5596064815,39963.5604398148,36.2012430725316,367
450467.5588235294,4420729.282352942,39964.0178703704,39964.0182407407,49.64000402915947,366
450327.49411764723,4427454.223529412,39964.1356365741,39964.4066319444,7.211102550785912,367
450509.1111111111,4426776.844444444,39964.4140856481,39964.4152430556,49.09185268447645,373
450308.9333333334,4427467.914285714,39964.6154282407,39964.6158912037,48.05205510709914,367
450517.7264705882,4426764.813235295,39965.4543865741,39965.5959837963,47.5673207150192,373
450297.0933333332,4427477.113333332,39965.6015625,39966.4631018518,49.96518788171545,367
450492.23783783783,4426765.064864865,39966.4690509259,39966.6107638889,22.135943621178654,-1
450264.8,4427488.596,39966.6200462963,39966.6206018519,46.93825731758854,367
450346.5703703703,4427445.740740742,39967.5775231481,39967.578125,49.82579653181026,367
450540.3538461538,4426782.569230769,39968.4325115741,39968.4327893518,49.67262827724725,373
450280.10333333345,4427473.883333333,39968.5816782407,39969.1175578704,47.19343174601129,367
450281.2454545455,4427561.7,39969.2233912037,39969.2251041667,33.969692374223634,367
450283.99090909096,4427500.854545455,39970.5246759259,39970.5249074074,37.504666376159534,367
450351.0727272727,4424582.136363637,39971.0976041667,39971.099525463,47.61606871634526,364
450269.4828124999,4427520.242187502,39971.2186805556,39971.2924189815,48.764023623920075,367
450422.17999999993,4427311.386666667,39971.3699652778,39971.3713310185,46.000108695219254,-1
450449.9736842105,4424610.468421053,39972.1060416667,39972.1064583333,47.247433792429916,-1
442629.4000000001,4400783.733333333,39972.4406481481,39972.4409722222,47.69675041360389,-1
450292.29374999995,4427479.937499999,39972.5485416667,39973.0094212963,42.18649072858132,367
450676.0253968253,4424420.482539683,39973.0342939815,39973.0363773148,32.71238297642283,-1
450265.3724137931,4427476.075862069,39973.3523032407,39973.3529513889,47.042533945356304,367
450321.8880000001,4427501.111999999,39973.5794791667,39973.5800347222,49.141835538094924,367
450738.72117647046,4424579.388235294,39974.0203587963,39974.0223032407,49.28539337388374,359
450277.7555555555,4427488.938888889,39974.544837963,39975.0041782407,47.25589910272701,367
450728.34814814816,4424589.600000001,39975.0169791667,39975.0175810185,36.43212867715896,359
450301.6466666667,4427609.286666666,39975.3828240741,39975.3831481481,36.8179304140351,-1
450463.23199999996,4424473.192,39976.0230787037,39976.0236342593,47.18315377335432,356
450546.8938775508,4420795.24489796,39976.2857060185,39976.2877430556,23.61778990545391,-1
450282.0938775509,4427486.85510204,39976.528900463,39977.3364583333,46.824139074074445,367
450453.81111111114,4424498.359259259,39977.3490046296,39977.3496064815,11.201785571967322,356
443744.5499999999,4416685.167567567,39977.5072106481,39977.508900463,37.38943701128474,-1
443082.0318181818,4416492.586363637,39978.2030324074,39978.2035185185,48.20663854699708,-1
450482.8426229508,4420744.101639342,39978.2877199074,39978.2922800926,42.00964175043554,366
450445.2304878047,4424509.017073171,39978.4221643518,39978.4276041667,24.39057194883085,356
450313.25714285724,4427431.161904762,39978.5261574074,39979.0059722222,49.64393215666838,-1
450459.77692307683,4424476.871794871,39979.0214814815,39979.022349537,46.433177793465084,356
450464.74166666664,4424504.508333334,39979.3074421296,39979.3091319444,46.18246420487493,356
450824.6,4427279.35,39979.3929861111,39979.3930092593,9.786214794216768,-1
450484.02388059703,4424475.364179105,39980.0219212963,39980.024375,42.240383521257364,356
450243.7,4427845.1,39980.3144444444,39980.3144444444,0.0,-1
450411.3772727272,4424484.0636363635,39981.0211458333,39981.0216782407,43.88541899034355,356
450276.49090909096,4427475.727272727,39981.3876851852,39981.3882638889,46.628424807169424,367
450727.2666666667,4424583.663888888,39982.0164699074,39982.0172800926,41.45600077208527,359
450311.56956521736,4426863.945652174,39982.5887962963,39982.5898611111,49.938462131264856,-1
450393.1141891893,4424501.32635135,39983.046087963,39983.2292824074,48.159838039590085,356
450250.4199999999,4427600.340000001,39983.2506828704,39983.250775463,11.510864433501988,-1
436218.2973684209,4417325.281578946,39983.5005092593,39983.5013657407,48.433975678982044,-1
437447.121875,4417466.756249999,39983.6177430556,39983.6184606481,46.28714724413247,-1
450471.9777777778,4424516.233333333,39984.1580787037,39984.1591666667,48.963864226962656,356
450311.84693877556,4427483.68367347,39984.546412037,39985.0868634259,48.564390246231625,367
439168.0120000001,4427448.494,39985.1273032407,39985.272337963,47.282237679726876,-1
450271.5153846154,4427482.565384615,39985.3137037037,39985.3142824074,49.93796151216994,367
450368.51,4424502.56,39986.0052662037,39986.006400463,32.768429928841385,358
450479.05238095246,4420741.428571428,39986.283275463,39986.2849305556,18.652613758417058,366
450467.4722222223,4424499.877777778,39986.3503935185,39986.350787037,42.34631034693612,356
449898.35555555555,4427788.755555555,39986.5498842593,39986.5502777778,36.63836786726576,-1
450443.43076923076,4424525.215384616,39987.0158333333,39987.0164351852,29.971319623698584,356
450252.3185185186,4427527.170370371,39987.1874537037,39987.1890277778,49.77117639788162,367
450447.4777777778,4424516.411111111,39987.4202893519,39987.422962963,48.5619192371917,356
450266.8957142858,4427472.667142858,39987.5292013889,39987.9936111111,46.067884692399076,367
450719.3103448275,4424569.413793104,39988.0053472222,39988.007337963,36.41373367326015,359
450222.9714285714,4427625.128571428,39988.4655555556,39988.4656944444,45.18462127831493,-1
450714.94000000006,4424578.375,39989.0093865741,39989.0098263889,34.87262536682997,359
450272.9333333334,4427507.51111111,39989.3918287037,39989.3922222222,49.73047355547895,367
450426.8481481482,4424497.274074074,39990.0198263889,39990.0204282407,38.90308471077322,356
450479.31599999993,4424530.471999999,39990.3534027778,39990.3539583333,45.765489181099305,356
449847.12235294125,4422660.090588236,39991.1507986111,39991.2067476852,49.64242137523938,-1
449753.95238095237,4423607.771428572,39991.2371180556,39991.2375694444,49.22966585247059,361
450299.5690909091,4427460.116363636,39991.4874884259,39992.0734953704,40.27033647792009,367
442183.5370370371,4421047.651851852,39992.1477662037,39992.1552662037,36.37829022893146,55
442764.38800000004,4416469.752,39992.2302430556,39992.2307986111,49.812849747902085,-1
443777.54000000004,4416682.279999999,39992.3269675926,39992.3272453704,40.65464303059776,-1
449716.17826086964,4416697.173913044,39992.4837615741,39992.4842708333,49.94847345051928,-1
450202.9,4427721.7,39992.5893518519,39992.5893518519,0.0,-1
450434.1835616439,4424489.71643836,39993.3503125,39993.3567476852,15.264337522473747,356
450221.95384615386,4427542.038461539,39993.7431944444,39993.7434722222,43.727565676409995,367
450438.2131578948,4424440.694736841,39994.3430208333,39994.3438773148,45.25527593551815,356
450297.875,4427464.794999999,39994.8803240741,39995.3262615741,43.43558448958523,367
450715.4090909091,4424581.072727273,39995.3379513889,39995.3386921296,36.63495598502943,359
450278.0374999999,4427477.7375,39995.7748263889,39996.3254513889,49.763942770114596,367
450462.3356202356,4424521.564726265,39996.3623032407,39996.4344328704,49.13857954767719,356
450474.4387096775,4424470.509677418,39996.4353819444,39996.4360763889,12.000416659432927,356
450271.775,4427566.324999999,39996.8832291667,39996.8833912037,37.88192180992291,367
450718.23863636365,4424583.604545453,39997.3301851852,39997.3312962963,30.63608982845876,359
450209.2428571429,4427563.785714285,39997.7984027778,39997.7985416667,46.26240374182086,367
450469.64838709676,4424475.122580644,39998.4777430556,39998.4784375,44.964986378778775,356
460753.68799999997,4420571.127999999,39998.7678587963,39998.7684143518,48.58065458578461,-1
450338.52941176493,4427466.717647059,39998.9109375,39998.9117013889,21.8277346514897,367
438438.60322580644,4417630.961290322,39999.5456597222,39999.5463541667,45.13490888438403,-1
450498.8956521739,4424451.739130435,39999.8046412037,39999.805150463,43.30046189134401,356
450279.8375000001,4427489.8625,39999.9239583333,39999.9246759259,47.539877997358246,367
450475.73,4424480.4399999995,40000.0177546296,40000.017962963,47.470095849642234,356
450258.25,4424482.9,40000.4165393518,40000.4165625,17.910053042956182,-1
450006.9,4428197.7,40000.6379976852,40000.6379976852,0.0,-1
450459.91777777777,4424511.195555556,40001.0065740741,40001.0075925926,43.06425431911977,356
450447.0499999998,4420726.785714286,40001.3250231481,40001.3662962963,49.2154447302713,366
450273.93499999994,4427475.075,40001.4043634259,40001.4048032407,38.878528778760106,367
450772.842857143,4425030.704761905,40002.0197916667,40002.0202546296,43.4994252831926,-1
450296.19130434765,4427469.015217391,40002.6253819444,40002.9856018518,47.08640992915373,367
450730.6321428572,4424588.935714286,40002.9967361111,40002.9973611111,33.04572589646607,359
454378.8681818184,4430141.931818183,40003.0529166667,40003.0534027778,43.70102973540641,-1
450477.1500000001,4424502.7,40003.0989699074,40003.0990856481,42.66438796004671,356
441293.14594594593,4429827.232432433,40003.4581944444,40003.46125,49.30283967466615,-1
450276.87343750003,4427486.006249999,40003.6506481481,40003.9941898148,47.90010438369484,367
450675.6000000001,4424470.881481482,40004.0220717593,40004.0226736111,48.2544298486273,-1
450248.40844155836,4427504.568181819,40004.3936689815,40004.3988773148,11.386395391734098,367
450213.6,4424839.3,40005.1191898148,40005.1191898148,0.0,-1
440030.09743589733,4427579.664102565,40005.4612962963,40005.4621759259,44.87426879643867,-1
450332.9,4427483.753846155,40005.6141087963,40005.6143865741,8.875246475675782,367
440943.5693693693,4420365.514414414,40006.4552546296,40006.4578009259,41.507228286052225,-1
450469.1884615384,4424496.311538461,40006.5788425926,40006.5794212963,47.40854353328172,356
450271.4075471699,4427489.886792453,40007.2094328704,40007.2112384259,43.94360021664801,367
450341.6594202896,4424601.25942029,40007.2849074074,40007.2881481481,38.67932264142822,-1
450246.7799999999,4427440.286666667,40007.7026851852,40007.7033564815,44.820754121411625,367
450208.156,4427516.591999999,40007.9655902778,40007.9661458333,40.07043798113784,367
450228.3722222223,4427574.916666667,40008.1312731481,40008.1316666667,19.19426997789166,367
450262.370212766,4427526.668085105,40008.3967592593,40009.0205671296,38.46348918147554,367
450471.8708333333,4424456.541666667,40009.0347106481,40009.0357986111,34.472307726597506,356
450249.82500000007,4427575.287500001,40009.5270949074,40009.5277893519,25.17717220018641,367
439966.6666666667,4416109.7,40010.0023032407,40010.002349537,43.835373843551736,-1
639127.4176470588,4186691.6352941175,40010.1663773148,40010.1667476852,20.536065835217023,-1
637781.8545454546,4186679.2636363637,40010.4710300926,40010.4721759259,49.87233702163956,-1
638954.3923076923,4186390.823076924,40010.6041782407,40010.6050578704,48.70164268238903,-1
639145.5909090909,4191288.054545454,40011.3456481481,40011.3461342593,48.49793810058714,-1
450206.51333333337,4427487.933333333,40011.9308680556,40011.9311921296,44.26759537194559,-1
450461.39302325586,4424522.779069768,40012.1414351852,40012.1424305556,5.217278984839557,356
450293.96749999997,4427466.7475,40012.4315625,40013.1276041667,49.86481725625794,367
449735.48947368417,4424823.089473683,40013.1439236111,40013.1443402778,48.380264571774404,-1
450235.0048231512,4427530.527974277,40013.2231481481,40013.2370601852,17.28612160056427,367
450231.0866666667,4427551.126666667,40013.6089236111,40013.6092476852,26.23451924500931,367
447717.80000000005,4448159.875,40014.0549652778,40014.0576041667,46.951890270885535,370
447684.54000000004,4448163.275,40014.4599305556,40014.4608333333,41.376925936750865,-1
447620.03103448276,4447755.84137931,40015.4707523148,40015.4724189815,6.676076692536991,-1
447705.3794871794,4448167.558974357,40015.5259259259,40015.5268055556,49.75670809051714,370
450490.01666666666,4424497.016666667,40016.0383912037,40016.0396180556,34.383862493846095,356
450280.1666666666,4427473.978787879,40016.1156944444,40016.1164583333,32.84585209690144,367
440362.06666666677,4431759.386666667,40016.2821180556,40016.2841319444,49.50686820965262,-1
440716.20499999996,4431586.864999999,40016.3191898148,40016.3196296296,48.45544345053932,-1
441299.9161764707,4429792.942647059,40016.3817939815,40016.3862962963,35.383612026645245,-1
440610.99375,4426163.575,40016.4840625,40016.4844097222,47.539141767966434,-1
450323.675,4427443.665000001,40016.6694791667,40016.6699189815,47.300422830904594,367
450472.17272727273,4424494.675757576,40017.1101041667,40017.1116087963,28.694424545058013,356
450456.09411764704,4427365.635294117,40017.2255324074,40017.2278935185,43.668066135291646,-1
448064.29583333334,4412275.458333333,40018.3330555556,40018.3344907407,48.92647544967438,-1
450264.88000000006,4427494.140000001,40018.4902314815,40018.4906712963,49.560064568634004,367
450275.7688888892,4427471.555555554,40018.5852777778,40018.5884953704,36.948071668527575,367
443756.99230769224,4416647.592307692,40019.1627314815,40019.3378935185,32.478454396641396,-1
449813.70263157896,4423270.85263158,40019.3974768519,40019.3983333333,47.183895557793534,-1
450290.8256410256,4427473.230769231,40019.6159027778,40020.0599074074,45.62126697048147,367
450477.6116279071,4424495.165116279,40020.0703703704,40020.0713425926,48.82673448075221,356
450278.0633333334,4427475.643333334,40020.2043402778,40020.2050115741,49.18556698864487,367
440387.86190476187,4431851.347619047,40020.6075462963,40020.6080092593,41.5085533357987,374
450294.2196428571,4427486.612499999,40021.2260763889,40021.2824189815,46.60321877295834,367
450455.1133333334,4424474.410000001,40021.3003935185,40021.3031944444,46.426931839216124,356
450151.6416666668,4427599.704166667,40021.4546643518,40021.4551967593,49.429748128581494,-1
450434.8484375,4420760.9578125,40022.0666319444,40022.0716782407,38.22368375766547,366
450392.01578947355,4424496.07368421,40022.2269212963,40022.2294907407,39.962107051273186,356
450220.3,4427593.95,40022.2847916667,40022.2848611111,28.90069203323685,367
287089.4,4168866.3,40023.1739236111,40023.1739236111,0.0,-1
240156.69166666668,3380177.9499999997,40023.5074537037,40023.5102083333,46.774031256682264,-1
240180.96756756754,3380190.702702702,40024.2303703704,40024.2312037037,49.14804167022882,375
239948.6755102041,3383038.92244898,40024.4893865741,40024.4931365741,23.938462774332248,-1
240183.11842105264,3380195.0631578946,40024.6188657407,40024.6197222222,47.64283786679085,375
240173.83333333328,3380181.2666666657,40025.1985069444,40025.1995949074,46.11398920058734,375
240183.52537313435,3380203.125373136,40025.5313888889,40026.0319444444,49.09511177273762,375
236686.0355555556,3390619.88,40026.081087963,40026.0841898148,48.61244696572489,-1
217725.1,3493793.4,40026.1758912037,40026.1758912037,0.0,-1
286872.8,4170576.0,40026.387974537,40026.387974537,0.0,-1
450277.9478260869,4427495.134782609,40026.5247800926,40026.5282291667,46.40387914808068,367
453394.85624999995,4426582.6875,40027.3321412037,40027.3338078704,47.1153902663194,-1
450370.9444444444,4427518.341666665,40027.6099305556,40027.6110416667,42.86175451359875,-1
450403.2571428571,4424615.835714286,40028.4246527778,40028.4249537037,11.125196627671109,-1
440384.8020833333,4431725.587499999,40028.5854398148,40028.5865277778,46.206601260309206,-1
436819.19444444455,4423818.205555555,40029.0562731481,40029.0566666667,45.01777426732876,-1
440276.6810810811,4431773.508108107,40029.2457407407,40029.2465740741,45.17012286900536,-1
448950.0375000001,4418217.064999999,40030.2545486111,40030.2554513889,38.23820079447939,-1
440802.0,4431751.366666666,40030.4804166667,40030.480462963,28.448198537255788,-1
425567.425,4401683.65,40030.9531597222,40030.9533217593,49.580338845137675,-1
450166.8214285714,4427614.171428571,40031.2434953704,40031.2437962963,34.82082710104361,-1
450490.0363636364,4424654.118181818,40032.3313310185,40032.3315625,34.03792003036982,-1
440389.6029411765,4431768.23235294,40032.5624421296,40033.2321064815,49.073108726019015,-1
440770.4321428573,4431053.071428571,40033.2365046296,40033.2371296296,47.77656329276852,-1
440409.73658536584,4431844.505487805,40033.5820601852,40033.6053935185,21.360009363293827,374
440708.8500000001,4431633.999999999,40033.9242592593,40033.9246990741,49.09755594760447,-1
441063.31481481483,4425960.0148148155,40034.4204050926,40034.4210069444,19.81161275615895,-1
450297.4349206351,4427464.055555557,40034.602025463,40035.14,46.75745929795221,367
450458.1741935485,4424526.864516128,40035.1518518519,40035.1525462963,27.9958925555238,356
440412.64057971,4431849.569565219,40035.4875462963,40035.4917824074,48.66867575763632,374
442563.7764705883,4444114.270588236,40035.8892013889,40035.8895717593,49.67172233782346,-1
440362.15714285715,4431679.442857143,40036.1524305556,40036.1525694444,49.58709509521218,-1
449701.5,4426646.75,40038.0896759259,40038.0896990741,33.702373802891124,-1
446152.7311475411,4417708.552459016,40038.3342592593,40038.3356481481,24.742069436861296,-1
438918.77727272734,4413193.077272727,40038.5311342593,40038.5316203704,48.83379977026284,-1
440775.7346153846,4431469.911538461,40039.3651041667,40039.3656828704,32.46166970387984,-1
442842.6928571429,4443907.757142858,40039.8783333333,40039.8786342593,49.34146329393869,-1
440395.2770329672,4431850.012417581,40040.1622569444,40040.2150578704,49.30324532876819,374
440400.20070422534,4431825.661854456,40040.2338773148,40040.2767013889,49.13043863041712,374
440412.0934306574,4431830.376642331,40040.2913310185,40040.3356134259,46.812925565302095,-1
440422.9680272109,4431859.365306123,40040.4013541667,40040.4116782407,19.554283417882104,-1
441108.43461538455,4425445.407692308,40040.5000810185,40040.5006597222,33.71527843629701,8
450324.0870967742,4427427.283870967,40040.632037037,40041.222974537,48.21877227838971,-1
450338.8552050473,4424898.22176656,40041.2361226852,40041.2583912037,24.443608571420263,376
450278.0357142858,4427477.439285715,40041.5878472222,40041.5884722222,47.90250515349222,367
441016.77499999997,4425395.625,40042.4812384259,40042.4813078704,11.063905277651623,-1
450254.77249999996,4427505.407500001,40042.6118634259,40042.6131597222,45.055188380200015,367
450274.8181818181,4427480.472727273,40043.1435185185,40043.1440046296,48.51061739460003,367
451776.08666666655,4423286.073333334,40043.4390740741,40043.4393981481,43.668753131180225,-1
450251.7148148149,4427517.837037035,40043.5993055556,40043.5999074074,36.18646155733308,367
448997.17142857146,4419340.787755103,40044.1305671296,40044.1365625,18.2999999999979,-1
450270.4612903225,4427460.258064516,40044.5575694444,40044.5582638889,37.417776524010726,367
453012.9833333334,4414001.250000001,40045.0778472222,40045.0782407407,46.43414691800362,-1
450226.3499999999,4427572.283333334,40045.2303935185,40045.2305092593,14.166156852936092,367
422524.3727272728,4421261.822727271,40045.4422569444,40045.4427430556,49.16197717733406,-1
429209.81875,4419781.871875,40045.5919907407,40045.5927083333,45.96194077738748,-1
450435.0571428571,4424380.642857143,40046.4030555556,40046.4031944444,42.979646345315516,-1
450321.6523809523,4427462.81904762,40046.600474537,40046.6009375,49.54038756436895,367
450466.565,4424479.023333334,40047.4695601852,40047.471087963,23.55949914553374,356
450259.4,4427535.449999999,40047.5980555556,40047.5980787037,5.341348144323533,367
450457.4109090909,4424507.521818181,40048.3326967593,40048.3345949074,38.94162297589319,356
450465.13947368413,4424454.602631578,40048.4316666667,40048.4325231481,16.060199251669186,356
450242.90645161277,4427482.653225807,40048.6346875,40048.636099537,41.730684154027216,367
450563.124,4417248.044000001,40049.1787615741,40049.1793171296,48.296169620500386,-1
440356.53478260856,4431742.960869566,40049.4082986111,40049.4088078704,49.48141065084988,-1
450313.2148936169,4427476.6553191515,40049.5678935185,40049.5689583333,33.69999999999005,367
450415.55094339617,4424554.886792453,40050.3822685185,40050.3834722222,48.65480449051583,356
450266.93191489374,4427477.336170213,40050.6006712963,40050.6017361111,35.41892149679232,367
450392.675,4420786.506250001,40051.0344444444,40051.0391898148,48.813625146528615,-1
450453.2727272727,4424544.890909091,40051.1381944444,40051.1384259259,48.701642682401335,356
450152.8346534653,4424402.60990099,40051.5228125,40051.5251273148,34.18435314640635,-1
450040.7818181818,4427671.245454546,40051.6060532407,40051.6062847222,43.36473221427856,-1
450333.99523809523,4424688.542857142,40052.1307291667,40052.1311921296,45.28454482563855,372
450280.52499999997,4427480.871874999,40052.479525463,40052.4802430556,46.79540575737076,367
450455.20999999996,4424510.6899999995,40053.0934722222,40053.0958101852,33.25612725535259,356
450460.309090909,4424572.018181818,40053.480462963,40053.4809490741,29.53811097583955,356
450255.9690909089,4427489.509090909,40053.5854166667,40053.5884953704,29.024472432920703,367
455465.47118644085,4419767.642372883,40054.3181944444,40054.3298842593,49.62912451395962,-1
441177.70799999987,4425164.550000001,40054.4709953704,40054.4721296296,49.57358167412468,-1
450252.1681318682,4427514.272527468,40054.5945486111,40055.2334143519,38.228392589824715,367
446077.25102040847,4434849.521428572,40055.2777430556,40055.3334953704,49.86391480819145,-1
449518.9637254903,4434242.122549018,40055.3550694444,40055.4814930556,48.225511920260736,-1
450289.3785714285,4427482.55,40055.5104282407,40055.5110532407,49.62710952702534,367
450263.38333333336,4427214.266666667,40056.1080324074,40056.1084259259,46.82445942031647,-1
449822.30999999994,4426476.75,40056.3531712963,40056.3543981481,46.85648300916527,-1
450464.3111111111,4424483.866666667,40056.414212963,40056.4155092593,45.95095211200507,356
450478.72758620686,4427115.8068965515,40056.5028009259,40056.5034490741,44.5917032644315,-1
450431.95517241396,4424444.208620689,40058.0526736111,40058.0546643519,42.252218876639105,356
450457.1126760563,4427288.780281692,40058.344224537,40058.3458449074,28.1101405188449,-1
450400.1000000001,4424534.685714285,40060.0137268519,40060.0152083333,47.898434212714385,-1
450424.49666666676,4420750.806666667,40060.2991087963,40060.3879976852,18.732058082153777,366
450286.02727272734,4427480.263636364,40060.4470601852,40060.4475462963,48.558521394401346,367
451831.60000000003,4426307.199999999,40061.1635185185,40061.1635532407,24.080074750927984,-1
450263.28461538453,4427513.199999999,40061.5121412037,40061.5124189815,49.96498774096676,367
451306.9222222222,4426822.780555556,40062.1052314815,40062.1060416667,8.357032966136623,-1
450315.94236842083,4427408.750789474,40062.2887615741,40063.0049421296,47.87995405190327,-1
450450.47272727266,4424512.754545454,40063.0186458333,40063.020474537,36.09168879396945,356
450456.43333333323,4427230.028571429,40063.6083680556,40063.6088310185,46.97765426227376,-1
450704.98571428575,4424584.685714286,40063.9929861111,40063.9936111111,39.062129998080174,359
450452.6,4427258.108571429,40064.1822800926,40064.1830671296,42.71545387797998,-1
450326.6105263157,4427483.57894737,40064.5963194444,40064.5971759259,34.51753177736755,367
450456.2767605633,4424460.483802817,40065.0358217593,40065.041099537,16.2360709532594,356
450532.3727272728,4427210.7272727275,40065.367662037,40065.3678935185,18.26170857286973,-1
450461.28387096786,4424474.819354839,40066.0139583333,40066.0146759259,40.968280412957185,356
450232.2087719298,4427463.082456141,40066.1996875,40066.2009837963,39.77059215030354,367
450722.3137254901,4424597.882352941,40067.0103935185,40067.0115509259,40.7315602451065,359
450440.2925925926,4427257.02962963,40067.210162037,40067.2119212963,43.261183525149384,-1
455436.73888888885,4420087.394444444,40067.3357060185,40067.3501967593,48.612138402022566,-1
450489.86888888886,4420756.028888887,40067.4581365741,40067.4592013889,16.315023751186477,366
450284.3207547171,4427472.511320755,40067.5718518518,40067.5730555556,37.220693169371316,367
453354.5199999999,4412670.446666667,40068.1747800926,40068.1751041667,11.727318534274575,-1
450338.40434782614,4427482.156521739,40068.5445023148,40068.5450115741,11.352973178686572,367
450260.25,4427482.375,40069.1569097222,40069.1569791667,23.50531854708632,367
455446.5368421052,4419953.957894736,40069.2939930556,40069.3401967593,49.03152047408042,-1
454653.60625,4412002.896875,40069.3768865741,40069.3776041667,48.07598152910609,-1