441851.44000000006,4426285.5,39741.2395833333,39741.2881828704,41.46926572757528,89
441936.87142857147,4426318.271428571,39741.3136111111,39741.3141898148,48.96059640162174,89
460459.92500000005,4444721.2,39741.4708449074,39741.4708796296,45.34313619520236,-1
441851.44000000006,4426285.5,39741.5729166667,39741.6215162037,41.46926572757528,89
441936.87142857147,4426318.271428571,39741.6469444444,39741.6475231481,48.96059640162174,89
460459.92500000005,4444721.2,39741.8041782407,39741.804212963,45.34313619520236,-1
460454.8444444444,4444536.677777778,39742.0505787037,39742.0508449074,47.06952304847456,148
442950.8333333333,4425331.966666667,39742.1783449074,39742.2584722222,47.059643007587866,4
442923.72222222225,4425309.522222223,39742.2886574074,39742.3224189815,48.52020197814581,4
441891.9250000001,4426397.920833332,39742.3464930556,39742.4058101852,48.60874406882678,-1
442950.8333333333,4425331.966666667,39742.5116782407,39742.5918055556,47.059643007587866,4
442923.72222222225,4425309.522222223,39742.6219907407,39742.6557523148,48.52020197814581,4
441891.9250000001,4426397.920833332,39742.6798263889,39742.7391435185,48.60874406882678,-1
460454.1,4444497.5,39742.778900463,39742.7789930556,49.97729484456787,-1
441928.3176470589,4426328.582352941,39743.0459027778,39743.1512962963,49.186685190298874,89
443009.22000000003,4426961.72,39743.1566435185,39743.1568171296,42.781421201083774,-1
441948.65714285715,4426313.1,39743.2384837963,39743.2387384259,47.31553656055233,89
441834.0199999999,4426444.319999999,39743.3075347222,39743.3076273148,46.43888456923421,-1
441928.3176470589,4426328.582352941,39743.3792361111,39743.4846296296,49.186685190298874,89
443009.22000000003,4426961.72,39743.4899768519,39743.490150463,42.781421201083774,-1
441948.65714285715,4426313.1,39743.5718171296,39743.5720717593,47.31553656055233,89
441834.0199999999,4426444.319999999,39743.6408680556,39743.6409606481,46.43888456923421,-1
442520.2,4424941.133333334,39744.4869791667,39744.4872337963,24.560130292452815,149
446682.10000000003,4427849.433333333,39744.5432291667,39744.5434722222,46.648579828248124,150
442520.2,4424941.133333334,39744.8203125,39744.8205671296,24.560130292452815,149
446682.10000000003,4427849.433333333,39744.8765625,39744.8768055556,46.648579828248124,150
441936.06666666665,4426311.255555555,39745.0027893518,39745.0034027778,36.62963281284548,89
442386.73333333334,4427545.366666666,39745.0703472222,39745.0703703704,43.738312724652964,18
441895.7333333333,4426345.283333333,39745.1123263889,39745.2265046296,22.214634815807056,89
441885.6322580646,4426289.529032257,39745.2270833333,39745.2994791667,43.91446230976448,89
441936.06666666665,4426311.255555555,39745.3361226852,39745.3367361111,36.62963281284548,89
442386.73333333334,4427545.366666666,39745.4036805556,39745.4037037037,43.738312724652964,18
441895.7333333333,4426345.283333333,39745.4456597222,39745.559837963,22.214634815807056,89
441885.6322580646,4426289.529032257,39745.5604166667,39745.6328125,43.91446230976448,89
439475.2944444445,4424083.399999999,39745.7572916667,39745.8287152778,42.37074462334865,-1
446753.2666666666,4427890.149999999,39745.8722106481,39745.8723611111,49.00653017710703,150
441452.1333333333,4424502.649999999,39746.0783333333,39746.1260069444,46.202705548495935,-1
454733.5875,4422260.187499999,39746.1789583333,39746.2624652778,42.78177181922634,151
446713.2428571428,4427931.6,39746.2788194444,39746.3403125,47.844121896029584,150
441452.1333333333,4424502.649999999,39746.4116666667,39746.4593402778,46.202705548495935,-1
454733.5875,4422260.187499999,39746.5122916667,39746.5957986111,42.78177181922634,151
446713.2428571428,4427931.6,39746.6121527778,39746.6736458333,47.844121896029584,150
460494.75000000006,4444557.677777778,39746.7288425926,39746.7300115741,49.34065260987883,-1
445994.33333333326,4412742.05,39747.0399305556,39747.0401273148,46.37294469824646,-1
440661.6,4432750.3,39747.4515509259,39747.4515509259,0.0,-1
440661.6,4432750.3,39747.7848842593,39747.7848842593,0.0,-1
441913.9,4426351.699999999,39748.0736574074,39748.0738657407,49.15872252223707,89
446703.07499999995,4427958.125,39748.4529861111,39748.4530902778,44.87538300653477,150
441938.0428571429,4426317.671428571,39749.0179398148,39749.0181944444,45.632663739923444,89
442610.75333333336,4425573.073333333,39749.1909837963,39749.2450462963,48.511545018006565,152
441917.54545454547,4426314.245454545,39749.2475925926,39749.4301273148,43.924594477547664,89
446710.82857142854,4427901.571428571,39749.4416319444,39749.4418634259,46.28574294551449,150
446670.9666666666,4427933.233333333,39749.5762384259,39749.5764236111,46.2788288529656,150
442963.4,4424978.64,39750.0493981481,39750.0495023148,46.30269970512251,4
441909.6375,4426309.125,39750.1620023148,39750.3600810185,49.02509561441239,89
439456.9466666666,4424174.62,39750.4253009259,39750.4994560185,41.04400077963941,153
446700.45,4427925.524999999,39750.5188425926,39750.5189583333,44.45953216072258,150
441945.7666666666,4426309.544444445,39751.0189814815,39751.0194212963,11.76860229593982,89
443667.39999999997,4423488.116666666,39751.1749768518,39751.205775463,47.1094470349345,154
442988.95999999996,4424989.9,39751.2803472222,39751.2805092593,46.38458795745292,4
462414.11428571434,4440770.435714285,39751.432650463,39751.4752893519,49.59697571425315,-1
460561.07500000007,4444264.5875,39751.4933217593,39751.4938888889,40.98255726573184,155
441937.48571428563,4426297.142857144,39752.0387731481,39752.1349421296,39.76895774358633,89
441909.95,4426263.699999999,39752.1354166667,39752.1729398148,11.182575731740506,89
441878.06666666665,4426358.433333333,39752.2858449074,39752.3178819444,35.84689665786984,89
441873.4,4426454.3,39752.3246412037,39752.3246412037,0.0,-1
439463.31250000006,4424143.075,39752.4263078704,39752.4271759259,36.62703919237417,153
446604.3,4427912.74,39752.5365856481,39752.5367013889,43.608370755906655,156
448856.14999999997,4447400.4,39753.4181365741,39753.4184027778,46.3993534439941,-1
460462.3500000001,4444555.609999999,39753.4960416667,39754.9739351852,47.991353388184244,148
441931.5363636364,4426313.627272728,39755.0234259259,39756.4651157407,41.09513353181241,89
446577.73999999993,4427555.34,39757.4442361111,39757.4454976852,45.79716148427322,-1
444538.8,4423608.8,39757.5365393519,39757.5365393519,0.0,-1
441911.325,4426290.875,39758.0259143518,39758.0259606481,39.55666821155364,89
456075.0,4428730.2,39758.275462963,39758.275462963,0.0,-1
441940.0555555555,4426301.977777777,39758.3858217593,39758.3862962963,43.36000461258916,89
446727.22000000003,4427875.840000001,39758.5112962963,39758.511412037,44.37623237736759,150
441942.5571428572,4426313.7142857155,39759.0172337963,39759.0175925926,42.60011737053893,89
441904.1,4426309.75,39759.151412037,39759.1514467593,15.989058759205678,89
435343.49230769224,4422767.461538462,39759.2685300926,39759.3142476852,41.88711018898882,-1
439484.0857142857,4424161.785714286,39759.4125578704,39759.4131828704,35.523794842332386,153
446776.48,4427892.5,39759.5354398148,39759.5355324074,49.20162598940652,-1
453064.9083333334,4403265.216666666,39761.1089583333,39761.2664583333,36.391757308114855,-1
452863.2294117646,4406978.623529412,39761.2756018518,39761.3258333333,38.414710723880084,-1
446702.3333333333,4427854.6,39761.3531712963,39761.3532407407,28.110140518858778,150
441936.72500000003,4426311.6,39762.0195833333,39762.0529166667,43.42464737906364,89
442967.5,4425000.359999999,39762.0756134259,39762.0758217593,42.41697773368886,4
441946.3428571428,4426307.928571429,39762.1954050926,39762.1956481481,43.76528304505692,89
446694.9571428572,4427891.885714286,39762.5297337963,39762.5299189815,48.07130121004143,150
448247.2,4429209.5,39762.6930092593,39762.6930092593,0.0,-1
441934.52499999997,4426307.8,39763.027337963,39763.0281018519,42.569942447700804,89
443656.85000000003,4423512.250000001,39763.203587963,39763.2046412037,12.764011908182088,154
441159.38333333336,4427518.05,39763.285162037,39763.3344560185,46.10813377272003,-1
441948.81249999994,4426296.7625,39763.3528587963,39763.3531481481,49.61945183101213,89
446666.62,4427935.32,39763.5665740741,39763.5666666667,41.123837369573494,150
441937.5444444445,4426306.677777778,39763.9921643519,39764.1441203704,48.696714468290914,89
423311.3961538461,4433864.680769229,39764.1818634259,39764.2433217593,44.08321676095983,-1
441935.22857142857,4426311.999999999,39764.2724421296,39764.2727662037,49.27402967083321,89
446820.8333333333,4427638.216666667,39764.4565625,39764.4568171296,48.24209779812906,157
446697.14,4427922.42,39764.5006365741,39764.5008217593,48.862767010933425,150
441935.54444444436,4426298.061111111,39765.0230902778,39765.4107986111,46.00173909756345,89
462404.423076923,4440797.607692308,39765.4447106481,39765.4915625,47.24616386533716,-1
460412.07999999996,4444466.180000001,39765.5140046296,39765.5141782407,43.49678148988769,-1
460565.8,4444258.7,39765.5627546296,39765.6284259259,47.073771890523254,155
460580.5,4444240.2,39765.6285185185,39765.6285185185,0.0,-1
441947.0428571429,4426306.314285713,39766.0427662037,39766.0430092593,45.72723477321221,89
443640.61999999994,4423539.43,39766.1831944444,39766.2765740741,49.65360007072805,-1
442957.9,4424988.9375,39766.3190625,39766.3581944444,42.304255104944396,4
439465.8666666667,4424143.433333334,39766.4193171296,39766.4195601852,49.49545433692452,153
446660.4857142857,4427926.657142857,39766.5395717593,39766.5397685185,46.9233417396132,150
446820.9600000001,4427616.28,39767.3604398148,39767.3606018518,44.25076270510528,157
446705.43333333335,4427881.399999999,39767.4480555556,39767.4481597222,43.23944958054358,150
459189.8214285715,4450131.978571429,39768.0848148148,39768.1267939815,47.4852608713272,-1
457849.0111111111,4436929.144444444,39768.1640393519,39768.1644675926,39.35492345311753,-1
441032.0857142857,4424020.957142857,39768.4715277778,39768.519212963,37.610902674795554,-1
442606.6833333333,4425556.525,39768.5256365741,39768.5260300926,14.008925725679804,152
441937.87142857147,4426308.342857143,39769.0238425926,39769.0242708333,46.25343230500861,89
441879.43333333335,4426324.066666666,39769.0825347222,39769.1481944444,46.63153439465616,89
454380.84444444446,4420108.333333333,39769.2054282407,39769.2064930556,18.094197965146428,-1
441933.1857142857,4426315.000000001,39769.3192708333,39769.3196180556,46.898400825581824,89
446835.4,4427696.9,39769.4632175926,39769.4632175926,0.0,-1
446698.02499999997,4428002.375,39769.509375,39769.5094212963,45.87472070778224,-1
441706.6461538462,4425721.592307692,39770.1656828704,39770.2141898148,44.5926002830066,-1
442560.6,4425571.12,39770.2184837963,39770.2186111111,42.96603309607054,44
446717.85000000003,4427882.766666667,39770.4673032407,39770.4675810185,48.72586582097228,150
441938.25,4426308.63,39772.0310185185,39772.2197106481,49.38117050021676,89
440092.12857142853,4432563.428571428,39772.2434722222,39772.2438310185,43.69313447179825,-1
441944.7166666666,4426312.433333333,39772.325462963,39772.3256481481,47.586552722289674,89
446704.5285714286,4427885.528571428,39772.4884259259,39772.4886574074,49.90921758487012,150
441933.2,4426309.660000001,39773.0042013889,39773.2030208333,48.51082353450015,89
442900.1333333333,4424652.333333333,39773.2112037037,39773.2112268518,41.885200250495544,-1
439463.8857142857,4424178.342857143,39773.4256944444,39773.4261342593,37.253321999180066,153
446695.05,4427903.399999999,39773.5486342593,39773.5488657407,48.76935513208265,150
442961.06000000006,4424993.0600000005,39774.0908796296,39774.0910648148,42.767394122345344,4
460476.2823529412,4444565.105882353,39774.3666087963,39775.0841435185,38.37877017313436,148
459185.76923076925,4450171.63076923,39775.0913888889,39775.1540162037,48.715500613978826,-1
460477.125,4444530.516666667,39775.1654398148,39775.2964467593,48.01301906760104,148
460558.5333333334,4444257.416666667,39775.337650463,39775.3377893518,42.387262237707745,155
441943.6928571429,4426323.171428571,39776.1000462963,39776.2378009259,43.85362014702254,89
448237.54500000004,4414124.545,39776.3218981481,39776.3716087963,40.61095911204265,-1
446714.0875,4427888.9,39776.4663888889,39776.466724537,43.32678155600408,150
441892.5583333333,4426309.466666667,39777.0006134259,39777.1546527778,47.268276888259564,89
443008.0833333333,4425104.416666666,39777.1621875,39777.1623263889,49.42974812827415,4
441915.48333333334,4426308.716666667,39777.285150463,39777.2853240741,46.23299687453825,89
449023.5,4425891.316666667,39777.3766666667,39777.3772685185,44.960871877639796,-1
446694.2166666666,4427881.933333334,39777.4780324074,39777.4782060185,45.56424036513495,150
441930.75,4426305.12,39777.995462963,39778.1601041667,48.142392960896515,89
442606.32,4424896.42,39778.1678703704,39778.2171412037,48.00677035622957,-1
440407.6,4420724.52,39778.2513310185,39778.2514583333,40.60160095365289,-1
441944.2249999999,4426309.331250001,39778.4321527778,39778.5949074074,48.88783079685094,89
446704.46666666673,4427906.566666667,39778.6196759259,39778.6198263889,48.89028533360237,150
441943.67142857146,4426308.242857143,39778.9944212963,39778.9946064815,41.47866921693742,89
448287.05000000005,4427003.1454545455,39779.4766550926,39779.5180787037,42.66427076606051,-1
446731.1666666667,4427895.8,39779.5256597222,39779.5256944444,22.999347816706035,150
441924.5571428571,4426313.500000001,39780.0009722222,39780.0012037037,49.20162598939895,89
439476.5083333333,4424139.55,39780.4295717593,39780.4506018519,45.30275929767551,153
446804.15,4428034.3,39780.5416898148,39780.5417013889,9.918165152832527,-1
448235.3521739131,4414125.795652174,39781.2806828704,39781.3326388889,42.957886353994944,-1
446686.4166666667,4427937.266666667,39781.3626851852,39781.3628587963,45.82717534384894,150
448007.73333333334,4416277.833333333,39782.0673726852,39782.0684027778,48.43810483475941,-1
460561.0,4444257.066666666,39782.1482523148,39782.1484490741,43.549052802232474,155
446662.01666666666,4427981.25,39782.2489583333,39782.2490277778,43.800114155148094,-1
441939.04999999993,4426306.800000001,39783.0260185185,39783.0264814815,42.91211950023522,89
446708.2833333334,4427876.416666667,39783.5078587963,39783.5080671296,49.78604222037805,150
441941.64285714284,4426312.071428572,39785.0069675926,39785.0071875,42.23032086076035,89
441932.3,4426257.4363636365,39785.2910416667,39785.3373148148,49.65652021674036,-1
440631.1692307693,4419537.384615385,39785.4185300926,39785.4209722222,45.69387267460639,-1
441864.0,4426294.274999999,39786.0182638889,39786.0183101852,29.938770849700603,89
447986.25,4426714.7,39786.4900810185,39786.4900925926,35.734717012638164,-1
441896.65714285715,4426311.314285714,39787.0258796296,39787.026099537,43.31708669782467,89
443704.505,4423445.965,39787.2340393519,39787.2747916667,44.541778141755046,-1
439468.4789473684,4424096.552631578,39787.4316319444,39787.5140393519,46.81580929595118,-1
446693.87,4427911.77,39787.5274768519,39787.5277430556,49.85198090356406,150
441448.9857142857,4426259.257142858,39788.0759027778,39788.0760185185,48.40661111895845,-1
441901.2000000001,4426001.468,39788.147650463,39788.2351041667,40.82401254145403,-1
439876.8096774193,4417113.629032258,39788.2597569444,39788.3064699074,43.2135395451563,-1
460471.78571428574,4444571.814285713,39788.3695486111,39788.3697337963,48.51360633850269,148
460547.7375,4444263.55,39790.0783796296,39790.1145138889,39.51265620026069,155
441930.5307692308,4426298.823076922,39790.1491319444,39790.4631597222,39.32073244528491,89
446611.66,4427936.279999999,39790.5049305556,39790.5050347222,42.42381406718943,156
441944.3571428571,4426303.999999999,39791.021412037,39791.0216782407,42.55126320107317,89
441943.2285714285,4426309.1,39792.0371527778,39792.0374768519,43.191202807831985,89
446664.5333333334,4427937.316666666,39792.4313888889,39792.4315046296,46.16080588541883,150
441908.10000000003,4426320.3,39793.021400463,39793.0215972222,45.41860852113751,89
446700.51666666666,4427914.883333334,39793.5108564815,39793.5110185185,49.576809095061456,150
441941.4571428571,4426307.857142857,39794.0353587963,39794.0356018519,46.01141162805874,89
442957.82,4425018.5,39794.0945601852,39794.0946643518,46.011411628358815,4
443727.6,4426093.9,39794.1681018519,39794.1681134259,30.788309469640218,107
442968.93333333335,4424910.583333333,39794.3221527778,39794.3632986111,44.16163493387214,-1
438880.7,4424908.8,39794.4433101852,39794.4433101852,0.0,-1
446711.2571428572,4427909.0571428565,39794.528125,39794.5282986111,48.021349418511356,150
442887.3142857143,4420895.742857142,39796.05625,39796.0565162037,48.75674312345754,-1
446706.05,4427907.666666666,39796.1560069444,39796.1561689815,41.79437761203958,150
441938.84285714285,4426305.671428571,39797.0057523148,39797.0059375,43.94143830142102,89
446666.14,4427936.76,39797.4499421296,39797.4500347222,45.83153935879091,150
460458.4571428572,4444563.899999999,39798.0349189815,39798.0765856481,44.68064457850154,148
433997.22142857144,4417521.814285715,39798.154849537,39798.2310763889,46.26229566214012,-1
441952.22857142857,4426308.600000001,39798.2500925926,39798.2503009259,44.31128524432558,89
446711.1,4427901.9428571435,39798.4903472222,39798.4905092593,49.04936289098968,150
441930.10000000003,4426313.533333333,39799.0218287037,39799.0219907407,48.175720025742905,89
441770.58749999997,4426167.8875,39799.195162037,39799.1955671296,45.069945640260435,-1
441944.27142857143,4426313.585714286,39799.3221180556,39799.3223842593,44.34974633519426,89
446661.55,4427929.449999999,39799.4600231481,39799.460162037,48.775506148123746,150
441954.6714285714,4426305.157142856,39800.0321412037,39800.0323726852,47.52904375224848,89
439486.675,4433174.825,39800.1566898148,39800.1567592593,44.305530129049465,-1
441937.5571428571,4426307.585714285,39800.2490393519,39800.2493171296,47.98854029878332,89
441947.67142857146,4426306.314285715,39800.425474537,39800.4257060185,45.56237482837215,89
446588.61999999994,4427917.9399999995,39800.5887731481,39800.5888657407,45.521423528552404,156
441936.81428571424,4426312.314285715,39801.0276736111,39801.0279282407,47.82896611882624,89
441900.85000000003,4426309.925,39801.2812731481,39801.3686921296,45.699124717914835,89
439466.21666666673,4424160.749999999,39801.4101851852,39801.4103935185,32.44225639501667,153
446620.48,4427939.16,39801.5284375,39801.5285300926,41.701918421114264,156
442576.075,4426100.1625,39802.4266666667,39802.4595138889,49.777304065398134,-1
442600.61428571434,4426138.942857143,39802.4632175926,39802.4997337963,19.81161275615895,-1
446678.4833333334,4427945.350000001,39802.509224537,39802.5093402778,41.54635964783332,150
439007.1,4423340.9399999995,39803.0617708333,39803.0618634259,44.45424614140192,158
446670.7571428571,4427938.271428571,39803.1478240741,39803.1480671296,49.56944623445966,150
446819.275,4427638.55,39803.3521412037,39803.3523032407,35.72366162662038,157
441934.28571428574,4426311.785714285,39804.0137384259,39804.0139930556,43.81346824878233,89
441909.1,4426303.6,39804.2707060185,39804.2707060185,0.0,89
446711.7333333334,4427895.533333332,39804.434224537,39804.4344097222,41.686088806804726,150
441951.5125,4426309.262500001,39806.0189467593,39806.0194328704,43.94268994919679,89
441929.476923077,4426295.9,39806.2532175926,39806.3813078704,49.34774564249012,89
461720.71538461547,4434868.884615384,39806.4365046296,39806.5333912037,49.62348234459527,-1
446714.18333333335,4427890.100000001,39806.5568865741,39806.5570138889,49.510099979786936,150
441943.7428571429,4426308.114285715,39807.0190856481,39807.0193402778,44.651203791217945,89
446589.78571428574,4427937.700000001,39807.4958217593,39807.4959606482,37.3894370113207,156
445380.3571428571,4423692.235714286,39808.0231134259,39808.1849537037,43.45123703644165,-1
441934.01249999995,4426301.050000001,39808.2030324074,39808.2033680556,26.192556194668615,89
404657.26666666666,4386752.466666666,39808.4206018519,39808.420625,47.02393007820593,-1
446688.25,4427891.1,39822.5302083333,39822.5303935185,46.55856527014327,150
441930.5571428572,4426303.342857143,39825.0154050926,39825.0156365741,49.79528090076487,89
441897.5333333334,4426266.316666666,39825.1557986111,39825.2165277778,41.497228822796295,89
441879.9,4426264.5,39825.2301851852,39825.2301851852,0.0,89
441894.71111111116,4426450.866666667,39825.3313773148,39825.3467476852,45.50032966929435,-1
446740.0,4427893.46,39825.4533101852,39825.4533912037,48.203423114864144,150
441937.5714285714,4426310.5571428565,39826.019849537,39826.0203125,46.7933755994944,89
441889.88181818184,4426336.072727273,39826.1041666667,39826.2490740741,42.665325499582146,89
449035.7833333334,4427618.100000001,39826.4042592593,39826.405,43.292147094270604,-1
446709.9,4427912.625,39826.5963310185,39826.5966203704,46.72098029815868,150
441943.7857142858,4426307.542857142,39827.0121990741,39827.0124074074,48.92954117922251,89
442938.23333333334,4425318.716666666,39827.2196412037,39827.2976273148,47.360848809220556,4
441920.45,4426305.033333332,39827.3140277778,39827.314224537,47.81767455663196,89
446840.0333333334,4427944.399999999,39827.5319675926,39827.532037037,29.12936662573165,-1
441933.79999999993,4426303.828571429,39828.0163888889,39828.0165856481,48.541219597369,89
441882.15714285715,4426311.871428572,39828.1042592593,39828.4553009259,46.538693578509616,89
446720.52,4427891.0600000005,39828.4956828704,39828.4958217593,44.76661702648235,150
445264.4166666667,4423669.516666668,39829.0227662037,39829.0230092593,41.60156247066741,-1
442966.60000000003,4424926.366666667,39829.0755555556,39829.1843287037,49.742537128342484,4
441940.3333333333,4426302.666666667,39829.189837963,39829.1901041667,39.25315273951071,89
442961.265,4424965.965,39829.4198726852,39829.5070949074,31.60253154379295,4
446714.87142857147,4427934.271428572,39829.608900463,39829.6091782407,49.081157280591505,150
459195.68000000005,4450154.34,39830.1293171296,39830.1709259259,46.589698431603445,-1
446704.5,4427905.7,39830.205775463,39830.2060763889,49.42924235678344,150
441910.7857142856,4426307.857142857,39832.0177546296,39832.0180324074,48.18142795723879,89
446834.8142857143,4427651.471428571,39832.0763657407,39832.0766782407,47.29873148376679,157
446878.9,4427650.130000001,39832.1474189815,39832.1945023148,44.23674942897783,-1
446710.2625,4427911.575,39832.1964699074,39832.1968402778,46.52418725824335,150
441941.3625,4426306.75,39833.037349537,39833.037662037,49.40253029946437,89
442710.67058823537,4425415.788235294,39833.183287037,39833.251087963,48.40041322155885,49
441898.27692307706,4426293.9,39833.2616666667,39833.2657175926,31.48412298286233,89
446704.8285714286,4427905.085714285,39833.4652314815,39833.4654398148,45.85073609017908,150
439108.1571428571,4427355.0571428565,39834.0210185185,39834.0599305556,49.884366288457564,-1
487728.325,4464967.465000001,39834.1077199074,39834.2490625,48.20995747783437,-1
441943.6428571429,4426314.157142857,39834.2971180556,39834.2974421296,44.66598258199026,89
446707.9285714286,4427901.828571429,39834.4682523148,39834.4684027778,48.478036264128534,150
441942.37857142865,4426297.850000001,39835.0099189815,39835.1210300926,47.82321611934884,89
443641.0,4423574.680000001,39835.1452314815,39835.1453356481,44.91870434461525,-1
441991.24000000005,4425863.18,39835.2236921296,39835.2237847222,43.64309796518338,-1
442963.75833333336,4424952.633333334,39835.3294212963,39835.429375,45.20176987703974,4
446714.58749999997,4427902.6625,39835.4429282407,39835.4431481481,41.71162907389821,150
441770.1235294118,4425741.623529412,39836.0427893519,39836.089375,49.861508200152656,-1
441938.00000000006,4426309.600000001,39836.0906481481,39836.0908333333,48.735408072616956,89
441801.675,4426387.35,39836.321875,39836.3219560185,48.737049562043865,-1
446708.6714285715,4427902.842857143,39836.417962963,39836.4181365741,49.61451400534373,150
449078.425,4427610.075,39837.0630208333,39837.1323611111,30.684360837494438,-1
446709.05,4427900.316666666,39837.1469560185,39837.1471875,45.80043667907929,150
437723.8875,4416982.556249999,39838.0628587963,39838.1360069444,46.201731569230716,-1
446709.8333333333,4427893.222222222,39838.1543518519,39838.154837963,48.66466890876789,150
446017.74999999994,4431359.185714286,39838.4820601852,39838.5194328704,41.4208884499783,-1
446701.7,4427704.1,39838.5564583333,39838.5564583333,0.0,-1
487632.8529411765,4464587.429411764,39841.154537037,39841.1960069444,39.765814464432154,-1
487564.7,4464359.300000001,39841.223599537,39841.2236574074,38.76248185994266,-1
487607.5066666667,4464585.6,39841.3219212963,39841.3650578704,42.45951012432978,-1
461182.0,4446257.6,39841.4293981481,39841.4293981481,0.0,-1
460448.80000000016,4444536.45125,39842.3899421296,39842.4377199074,46.73767217170856,148
460446.42916666664,4444521.4729166655,39842.4433217593,39842.4611111111,21.290608258039047,148
444874.41,4427716.53,39844.107962963,39844.1433912037,35.926174302433445,-1
447379.0999999999,4425730.678571428,39844.1852893519,39844.3061574074,40.827074350794156,-1
446704.64285714284,4427903.414285714,39844.3188657407,39844.3190277778,46.00391287707097,150
446707.07499999995,4427893.725000001,39849.6231134259,39849.6233217593,49.9235415411853,150
441926.27,4426310.92,39850.0602199074,39850.1977199074,44.6189421659439,89
442955.52,4424945.5200000005,39850.2045717593,39850.2046759259,43.54595273960601,4
442938.9,4425318.92,39850.3534027778,39850.3535648148,44.4162132563449,4
441813.68000000005,4425420.26,39850.4957175926,39850.4961111111,43.70286031797158,-1
446714.98,4427893.859999999,39850.555775463,39850.5559375,46.95157079367469,150
453459.93333333335,4447394.944444444,39852.0868634259,39852.1915046296,46.29352006489995,-1
460559.13846153836,4444266.707692307,39852.1978125,39852.239537037,44.59260028375076,155
446699.4625000001,4427896.25,39852.3072222222,39852.3074305556,45.608442200854846,150
444624.6999999999,4425753.695,39852.9994791667,39853.2018287037,49.91392591215406,159
441895.51249999995,4426315.35,39853.2585763889,39853.2591435185,46.6647618658063,89
446613.3,4427940.32,39853.4846064815,39853.4846990741,45.10399095420995,156
441897.1666666667,4426312.683333334,39854.0187268518,39854.018900463,43.44939585289918,89
442966.45,4424997.65,39854.2072569444,39854.2074652778,35.83434107128461,4
441900.34285714285,4426308.285714285,39855.0324652778,39855.0327314815,43.86342439892262,89
441939.575,4426317.799999999,39855.220775463,39855.221099537,47.270498199193966,89
443016.49999999994,4426975.2,39855.3289699074,39855.3727546296,49.77640003053918,-1
441919.25999999995,4426315.1,39855.3825347222,39855.3826273148,42.72821082158506,89
445251.40833333344,4423678.225,39855.4468171296,39855.4941666667,41.26887446979409,-1
446597.31666666665,4427926.383333333,39855.5015625,39855.5017013889,49.88647111193106,156
441941.3357142857,4426298.878571428,39857.0484837963,39857.1499305556,45.40418482914339,89
443034.6533333333,4427725.026666667,39857.1719212963,39857.2202546296,37.00621569412936,-1
441933.5857142857,4426307.9428571435,39857.2786458333,39857.3601851852,33.06508732755197,89
438843.42500000005,4423000.774999999,39857.3997569444,39857.4000462963,42.51458573233284,-1
446702.56666666665,4427891.0,39857.5354398148,39857.5356481481,48.0035415360267,150
487757.0368421052,4464980.236842104,39859.1123032407,39859.3885069444,47.005212476927106,-1
460455.443478261,4444571.595652174,39859.4164583333,39859.4183101852,34.85312037676312,148
441938.375,4426311.312500001,39861.149849537,39861.1501041667,48.289543381615225,89
449075.4833333334,4427611.85,39861.3737384259,39861.373900463,45.60010964896688,-1
446728.85714285716,4427905.214285715,39861.4915972222,39861.4918055556,49.65883607175602,150
446773.27999999997,4424841.880000001,39862.3079513889,39862.3080671296,48.19979253030057,160
446636.375,4424891.775,39862.3873032407,39862.3874652778,31.617242131514896,-1
446706.92000000004,4427907.02,39862.4821990741,39862.4823263889,43.35262391117259,150
444644.35833333334,4425758.291666666,39863.0083333333,39863.1077662037,42.59870890070547,159
439214.1,4427166.720000001,39863.137974537,39863.1380787037,41.07286208672103,-1
442612.225,4425555.275,39863.2007986111,39863.2012962963,27.76940762776383,152
442960.18000000005,4425005.44,39863.3737037037,39863.3738078704,45.80698636652404,4
441925.925,4426283.65,39864.0211574074,39864.0213194444,27.00240730016863,89
446329.6222222222,4425202.3444444435,39864.162037037,39864.1628356481,43.24361224527467,-1
441874.37857142865,4426255.571428571,39864.2893981481,39864.2920949074,10.2181211579993,89
439452.95,4424165.6899999995,39864.4086805556,39864.4106481481,33.43112322355511,153
441942.4428571429,4426307.842857143,39867.040625,39867.0409143518,46.85402864228783,89
442959.9,4425006.959999999,39867.2272106481,39867.2273148148,49.84014446188382,4
441857.409090909,4426251.854545454,39867.3658912037,39867.4615046296,49.51464429855626,-1
446710.81666666665,4427905.75,39867.4875,39867.487662037,44.26488450213793,150
441883.65882352943,4426356.541176472,39868.1152777778,39868.225474537,48.55687387009426,89
446306.08,4416834.9399999995,39868.2427199074,39868.3496759259,37.70649811390685,161
441934.28571428574,4426313.657142857,39868.3704513889,39868.3706481481,49.467666207411845,89
442957.5333333333,4424926.122222221,39868.4176041667,39868.487650463,45.113412639330164,4
446498.2,4429305.4,39868.5051041667,39868.5051041667,0.0,-1
441923.3,4426307.266666667,39870.0213194444,39870.0215046296,46.19534608591974,89
443010.33333333326,4425107.666666667,39870.26,39870.2601736111,47.98416405400739,4
446716.0833333333,4427887.783333333,39870.6646296296,39870.6647569444,47.90260953228154,150
441920.0833333333,4426309.083333333,39871.0289814815,39871.0292476852,46.383294406522204,89
447378.1846153847,4425685.346153846,39871.1860185185,39871.1872337963,27.46343022985323,-1
441940.0857142857,4426307.185714287,39871.2406597222,39871.2409953704,41.96724913548659,89
442956.83076923084,4424963.899999999,39871.3259259259,39871.3705092593,43.7539712483391,4
442254.8055555555,4427159.949999999,39871.4016087963,39871.4480439815,43.33428204052639,-1
439491.2100000001,4424130.999999999,39871.4700462963,39871.5225,43.165379646006144,-1
446714.16,4427883.3,39871.5385416667,39871.5386458333,40.76824744843408,150
460413.77142857143,4444454.142857143,39874.0241203704,39874.0639930556,40.55613393855947,-1
441935.39230769227,4426297.807692308,39874.1084375,39874.2105787037,48.39349129817176,89
444356.39999999997,4422279.883333334,39874.2175578704,39874.2179398148,44.93072445429794,-1
442959.94000000006,4424985.5600000005,39874.3451851852,39874.3452893518,47.27716150550545,4
442787.8,4424744.0,39874.3924074074,39874.392662037,39.11892125302627,-1
446632.85,4427938.35,39874.5223148148,39874.5223842593,45.200995564273796,156
441922.9090909091,4426298.536363636,39875.0172569444,39875.2275578704,48.08326112068523,89
446289.35714285716,4416847.6,39875.2474768519,39875.247962963,48.91472171042382,161
441937.30625,4426306.89375,39875.3896875,39875.4568171296,39.39352738671195,89
446646.175,4427938.9,39875.4812037037,39875.4812731481,37.35358081896743,-1
441938.8571428572,4426310.428571429,39876.0140393519,39876.0142824074,46.08730844821655,89
441896.4833333334,4426316.858333333,39876.0581597222,39876.153287037,43.790638268483974,89
442700.23999999993,4425347.08,39876.1650231481,39876.1651736111,48.50371119821629,-1
441943.96875,4426304.09375,39876.2354166667,39876.4693865741,45.24289999544075,89
446649.775,4427941.274999999,39876.4966203704,39876.4966898148,42.40047169551359,-1
441942.7,4426305.100000001,39877.0238657407,39877.0241319444,43.91651170121485,89
441400.7,4426888.8,39877.3600231481,39877.3600231481,0.0,-1
462453.94000000006,4440805.24,39877.4586226852,39877.512962963,44.48651481057283,-1
460555.70999999996,4444257.17,39877.5181481481,39877.6052546296,43.495402055307416,155
470895.4,4439593.0,39877.6181944444,39877.6181944444,0.0,-1
441936.12500000006,4426308.1625,39877.9997685185,39878.2590162037,49.48019805938886,89
441894.12857142865,4426318.100000001,39878.2834375,39878.4590162037,47.905114550131884,89
446617.9,4427962.85,39878.4697337963,39878.4697685185,23.10779089454157,156
441942.08888888895,4426306.811111111,39881.0227546296,39881.2393171296,45.95758914473144,89
443656.22857142857,4425307.771428571,39881.2604976852,39881.2930671296,16.234839081087053,-1
441943.6269230769,4426310.434615385,39881.3134837963,39881.32,45.15584126112925,89
446661.0,4425370.9,39881.4900810185,39881.4902083333,9.720082304056609,-1
441938.5529411765,4426305.547058824,39882.0193402778,39882.2420833333,40.93531482720682,89
441942.2571428572,4426306.914285715,39882.282349537,39882.2827199074,44.20644749351737,89
442640.11428571434,4425525.085714286,39882.5085069444,39882.5454861111,42.40436298288228,-1
446708.26666666666,4427946.433333334,39882.5526388889,39882.5528356481,49.93085218562892,150
443010.4142857143,4424989.914285715,39883.0345486111,39883.0349537037,49.92995093107407,4
442933.36153846164,4425322.507692308,39883.1108564815,39883.1906944444,47.870345727106255,4
446296.52142857143,4416843.521428572,39883.2425,39883.3208796296,37.36107600128174,161
441935.66666666674,4426306.199999999,39883.3866782407,39883.4639236111,46.720017123463144,89
446705.1666666667,4427878.100000001,39883.4949652778,39883.4951041667,45.57389603718462,150
441945.81428571424,4426306.842857143,39884.0222337963,39884.0224884259,44.83848793142567,89
441920.10000000003,4426314.466666666,39884.3006134259,39884.635462963,12.398790263684527,89
442285.65,4425723.85,39885.4386689815,39885.4386805556,6.074537019599077,-1
446710.3,4427901.02,39885.5199537037,39885.5200462963,37.99328888107519,150
446719.25,4427888.683333333,39886.1597222222,39886.1598842593,44.78973096611114,150
460455.9857142857,4444559.185714286,39886.3820949074,39886.3833449074,49.0169358487418,148
460450.7571428571,4444600.828571429,39886.6987384259,39886.6990972222,11.173182179290862,-1
441939.4899999999,4426302.62,39888.1175694444,39888.463599537,46.28228602833867,89
446697.2166666666,4427879.05,39888.4891087963,39888.4893402778,40.909901002401895,150
441934.5571428571,4426315.814285715,39889.0199884259,39889.0202893519,47.62268367069185,89
443669.675,4423490.041666667,39889.2565625,39889.3218634259,42.64270160278233,154
442954.68,4424977.720000001,39889.3359490741,39889.3716550926,48.482264799322046,4
441938.19375,4426299.26875,39889.3788310185,39889.4913310185,47.02052743219685,89
441570.22500000003,4426424.9625,39889.4921527778,39889.5286111111,44.80100445377035,-1
446708.3857142857,4427915.757142857,39889.5558101852,39889.5560300926,49.905610906757616,150
441945.7428571429,4426304.5571428565,39889.9986342593,39889.9989351852,45.97956067631673,89
446304.69999999995,4416848.883333334,39890.2618287037,39890.2621412037,47.8352380573364,161
442958.38,4424976.58,39890.3743055556,39890.3744328704,46.124397014656495,4
442555.48148148163,4432329.937037037,39892.468900463,39892.7240625,44.557603166830255,-1
440574.24000000005,4433382.680000001,39892.7273958333,39892.7275694444,45.274717006481886,162
442910.4142857143,4424965.357142856,39903.4352662037,39903.4793055556,47.25589910228309,163
446750.98,4427885.04,39903.5053587963,39903.5054513889,43.583712554106896,150
441941.5857142857,4426310.0,39904.0061458333,39904.0063657407,47.9576896857941,89
441942.5428571428,4426306.928571428,39904.2927199074,39904.2929513889,44.697203491992035,89
446706.8142857143,4427897.757142858,39904.4496412037,39904.4497800926,48.95232374476853,150
441941.29999999993,4426316.957142857,39906.045150463,39906.0454166667,47.551235525530856,89
442192.70000000007,4427228.090476191,39906.294837963,39906.3327430556,41.09123994227652,-1
439466.0,4424152.033333333,39906.4079513889,39906.4081597222,44.49730328943082,153
446712.7,4427896.342857143,39906.5380787037,39906.5382523148,49.452300249417185,150
442119.12,4426300.779999999,39910.015787037,39910.0158449074,38.90115679510278,-1
441737.40499999997,4426974.33,39910.1746412037,39910.211099537,49.57459026550045,-1
441933.9142857143,4426311.442857143,39910.2130902778,39910.2133333333,48.649768755917165,89
441863.0857142858,4426380.678571428,39910.2718865741,39910.4179513889,49.014691675048084,89
441941.4647058824,4426307.111764707,39910.4629398148,39910.5130092593,47.59873947906971,89
460473.6,4444566.714285715,39910.5345601852,39910.5347337963,47.90041753438681,148
441878.66000000003,4426362.040000001,39911.0428587963,39911.0429861111,47.788073825262295,89
446282.3,4416860.58,39911.2508912037,39911.2981828704,48.932606715818196,-1
444895.8333333333,4427695.65,39911.3581365741,39911.4209027778,48.818541559367844,-1
441937.78823529417,4426301.764705882,39911.4303472222,39911.4681018519,45.79716148415883,89
446700.1333333333,4427893.083333333,39911.4923611111,39911.4925115741,49.272406070521235,150
443630.0,4423607.833333333,39912.1288888889,39912.2047453704,41.80107654132904,-1
441936.9285714286,4426309.571428572,39912.2523611111,39912.2526273148,47.10382150106253,89
442955.64999999997,4424965.166666667,39912.4291319444,39912.4295601852,46.52794858988599,4
446702.5999999999,4427882.216666666,39912.5461226852,39912.5462847222,49.80863378967106,150
460461.9642857142,4444543.0571428565,39914.3994675926,39916.0330787037,43.558007300716575,148
441949.38000000006,4426287.075,39916.1155439815,39916.28125,45.25538641986696,89
464722.74999999994,4436551.325,39916.3175231481,39916.3176851852,44.16174815378023,-1
441938.4571428571,4426310.171428571,39916.3743171296,39916.3748611111,44.06540593256772,89
446689.4857142857,4427895.114285714,39916.4492476852,39916.4495486111,42.360476862550186,150
441912.11999999994,4426311.540000001,39917.0019791667,39917.0021064815,38.13200755308487,89
445705.9384615384,4423251.807692308,39917.198287037,39917.2925231481,44.90746040453289,-1
441895.72222222225,4426309.3,39917.3412847222,39917.3771527778,37.89063208747443,89
441925.98888888885,4426297.177777778,39917.4503009259,39917.4924074074,44.05110668319142,89
446696.85000000003,4427907.916666667,39917.5055439815,39917.5057523148,47.11528414394777,150
441947.3,4426307.714285715,39918.0298032407,39918.0300925926,43.45135210806021,89
441940.91428571433,4426307.214285715,39918.1158564815,39918.1161111111,47.151352048468624,89
446282.31666666665,4416845.566666666,39918.2565972222,39918.2568634259,44.371725231150386,161
441940.81111111114,4426308.672222223,39918.3613425926,39918.42375,40.45862083659932,89
446929.825,4427818.475,39918.4540856481,39918.4541319444,48.03176032550132,-1
443672.74000000005,4423470.86,39919.1318287037,39919.1319907407,41.307263284015505,154
442071.3857142857,4425720.2,39919.2176273148,39919.2178125,47.798012510681055,-1
441931.3666666667,4426310.866666667,39919.2646759259,39919.264849537,48.25619131259539,89
442956.46,4424991.026666666,39919.4298263889,39919.5466435185,47.40263705781901,4
446718.35000000003,4427906.95,39919.5585763889,39919.55875,42.52175913590857,150