442878.25384615373,4425467.503846153,40611.4533912037,40611.454537037,33.841542517980734,4
442182.0583333333,4435603.433333334,40611.5652893518,40611.5666319444,46.31133770470342,-1
442867.77999999997,4425284.0600000005,40612.0777893519,40612.0786458333,42.988486830604124,4
442685.8,4425392.95,40612.1567939815,40612.1568055556,42.09049773982858,49
442809.6714285714,4425631.385714286,40612.4571064815,40612.4574189815,48.38729171985778,-1
442201.39999999997,4435915.2,40612.5812847222,40612.5813078704,23.58495283014151,-1
442896.86666666664,4425278.875,40613.066712963,40613.0672916667,47.65679384950927,4
442827.8727272728,4425356.945454546,40613.1561458333,40613.1565509259,32.6496554346447,4
442888.309090909,4425421.463636363,40613.4619791667,40613.4630787037,37.59694136504053,4
442163.91538461536,4435570.799999999,40613.6178587963,40613.6185532407,40.11383801119852,-1
429382.01428571425,4427101.242857141,40614.2084606481,40614.2110648148,47.29746293403056,-1
441545.8256830604,4426350.585792351,40614.4392939815,40614.4814236111,20.18960128375349,-1
442668.1,4425540.2,40784.4990393519,40784.4990393519,0.0,-1