443009.5,4425519.5,39295.0339814815,39295.0339814815,0.0,4
442826.89999999997,4425269.833333333,39295.4498148148,39295.4506712963,35.86028443847725,4
442855.4600000001,4425245.32,39296.0746296296,39296.0757407407,43.42211418174299,4
442970.38,4425497.5600000005,39296.1906712963,39296.2617361111,42.7126444981751,4
442841.3666666667,4425364.7,39296.2641319444,39296.2643634259,26.147275192545415,4
442967.93333333335,4425477.833333333,39296.440150463,39296.4405092593,41.201092218549334,4
442845.10000000003,4425419.566666666,39296.5278472222,39296.5284143519,41.43235450702719,4
442835.69999999995,4425427.633333334,39297.1891087963,39297.189837963,38.60777123846685,4
442831.5,4425949.366666666,39297.4930902778,39297.4938078704,40.56316062649077,120
450564.19999999995,4416897.85,39297.5943634259,39297.5953472222,19.64306493353443,-1
512484.2,4333400.3,39297.6671412037,39297.6675578704,49.803614326348445,-1
512208.3666666667,4333265.5,39298.3260300926,39298.3270486111,42.46751699827795,-1
512209.8,4333285.85,39298.5342939815,39298.5346643519,14.041723541360753,-1
513495.2,4332551.2,39299.2019328704,39299.203587963,38.14459332594518,-1
513643.5333333334,4334223.466666667,39300.0700925926,39300.071875,29.024127893990293,-1
442831.60000000003,4425958.633333333,39300.2496296296,39300.2503472222,38.43969302690237,120
442686.5333333334,4425654.466666668,39300.4651736111,39300.4655787037,40.13103537131559,316
442660.0333333334,4425794.033333333,39301.4402314815,39301.440462963,34.01940622695712,117
442797.725,4425415.125,39302.0473958333,39302.0479398148,48.6260218402422,4