Location:0;0	NaN	NaN	0.0; PointsCount:0; UsersCount:0; Diameter:0.0; Radius:0.0
Location:-1;-1	442597.8789373212	4426862.503446388	9618.602007642157; PointsCount:43; UsersCount:1; Diameter:15582.35656897174; Radius:9618.602007642157
Location:10;10	442547.02163785766	4425528.2038407745	27.835310027929573; PointsCount:22; UsersCount:1; Diameter:46.15106778624839; Radius:27.835310027929573
Location:11;11	440799.9205391759	4429526.968143618	27.460780114692373; PointsCount:40; UsersCount:1; Diameter:48.34500053303454; Radius:27.460780114692373
Location:12;12	442513.38462477335	4425562.440040922	31.569798633385176; PointsCount:8; UsersCount:1; Diameter:51.54708549213752; Radius:31.569798633385176
