Location:0;0	NaN	NaN	0.0; PointsCount:0; UsersCount:0; Diameter:0.0; Radius:0.0
Location:-1;-1	433314.0475126466	4342337.435246745	906179.525259516; PointsCount:275; UsersCount:1; Diameter:1015777.1390259928; Radius:906179.525259516
Location:22;22	442574.35803372227	4427983.551407608	105.6594432291317; PointsCount:300; UsersCount:1; Diameter:167.30274689271886; Radius:105.6594432291317
Location:23;23	442446.26217973215	4428656.9995753635	27.853602554346033; PointsCount:15; UsersCount:1; Diameter:49.22188354366089; Radius:27.853602554346033
Location:24;24	441935.8118121609	4428840.9976152945	67.32020541864033; PointsCount:107; UsersCount:1; Diameter:110.07024015431921; Radius:67.32020541864033
Location:25;25	442083.58305952384	4428091.627445731	11.88938304002172; PointsCount:4; UsersCount:1; Diameter:23.056522664712563; Radius:11.88938304002172
Location:26;26	442629.73466666666	4428065.2917142855	20.10162499835904; PointsCount:5; UsersCount:1; Diameter:33.61287864955676; Radius:20.10162499835904
Location:27;27	446022.58023687423	4417534.763382173	27.949202469386915; PointsCount:5; UsersCount:1; Diameter:45.091199149920136; Radius:27.949202469386915
Location:28;28	442011.8464871831	4428673.132548609	25.524069753074745; PointsCount:5; UsersCount:1; Diameter:42.26566178411266; Radius:25.524069753074745
Location:29;29	442543.95561868686	4427140.449116161	17.072133125555887; PointsCount:4; UsersCount:1; Diameter:26.214010014077953; Radius:17.072133125555887
Location:30;30	442590.18042084726	4427910.383890747	19.57034271600577; PointsCount:4; UsersCount:1; Diameter:36.124967941694095; Radius:19.57034271600577
Location:31;31	442123.09807706694	4429199.715010155	17.45430243275212; PointsCount:9; UsersCount:1; Diameter:27.337237559059776; Radius:17.45430243275212
Location:32;32	442604.0067920794	4426915.918816412	35.751605345789585; PointsCount:15; UsersCount:1; Diameter:63.340809233932035; Radius:35.751605345789585
Location:33;33	443530.83629357273	4427840.112720962	53.80221647612535; PointsCount:19; UsersCount:1; Diameter:92.69223948192098; Radius:53.80221647612535
Location:34;34	483066.9518101178	4422474.710095201	18.214398933938124; PointsCount:4; UsersCount:1; Diameter:28.54969916996452; Radius:18.214398933938124
Location:35;35	442007.4169620412	4429013.087820513	22.846647368410554; PointsCount:5; UsersCount:1; Diameter:32.89803222605844; Radius:22.846647368410554
Location:36;36	336807.5045135739	3547980.7730586943	24.999744218306592; PointsCount:6; UsersCount:1; Diameter:38.40403165041564; Radius:24.999744218306592
Location:37;37	296190.5357852749	3542421.445336451	32.78224430948154; PointsCount:14; UsersCount:1; Diameter:59.910892557816105; Radius:32.78224430948154
Location:38;38	441537.55800647085	4429076.6674321545	47.39199945507474; PointsCount:32; UsersCount:1; Diameter:74.34197334735673; Radius:47.39199945507474
Location:39;39	442107.1785416666	4420844.284647436	15.59329781634864; PointsCount:4; UsersCount:1; Diameter:22.391004510443146; Radius:15.59329781634864
Location:40;40	439809.1002137218	4401657.900793469	25.829528368771722; PointsCount:7; UsersCount:1; Diameter:36.45722684814371; Radius:25.829528368771722
Location:41;41	442495.1289686717	4428265.640402256	5.473533806550225; PointsCount:4; UsersCount:1; Diameter:10.559285013937348; Radius:5.473533806550225
