Location:0;0	NaN	NaN	0.0; PointsCount:0; UsersCount:0; Diameter:0.0; Radius:0.0
Location:-1;-1	477285.0736116487	4189536.2041155724	1761629.6137743054; PointsCount:65; UsersCount:1; Diameter:2145719.2982022977; Radius:1761629.6137743054
Location:62;62	442564.72324640903	4428003.634500342	59.01433611141523; PointsCount:48; UsersCount:1; Diameter:115.96573588862957; Radius:59.01433611141523
Location:63;63	442106.2873801347	4429179.150155553	52.94518569248666; PointsCount:33; UsersCount:1; Diameter:95.56439114571143; Radius:52.94518569248666
Location:64;64	442552.65230610745	4428096.6887799855	21.09730264896612; PointsCount:5; UsersCount:1; Diameter:39.840370722461884; Radius:21.09730264896612
Location:65;65	442062.0054559574	4429253.400706687	26.039654531347416; PointsCount:10; UsersCount:1; Diameter:49.8803073639946; Radius:26.039654531347416
