Location:0;0	NaN	NaN	0.0; PointsCount:0; UsersCount:0; Diameter:0.0; Radius:0.0
Location:-1;-1	453138.94195678417	4412358.000092819	104052.06108807313; PointsCount:43; UsersCount:1; Diameter:147644.03253242944; Radius:104052.06108807313
Location:67;67	443622.5018987913	4425884.955980939	26.128096653291504; PointsCount:7; UsersCount:1; Diameter:40.9333816839073; Radius:26.128096653291504
