Location:0;0	NaN	NaN	0.0; PointsCount:0; UsersCount:0; Diameter:0.0; Radius:0.0
Location:-1;-1	442442.0294160743	4426206.038903878	76745.88903938627; PointsCount:90; UsersCount:1; Diameter:120576.84330797382; Radius:76745.88903938627
Location:51;51	444165.2387380323	4425824.887580986	42.47985208194978; PointsCount:36; UsersCount:1; Diameter:77.36099320162707; Radius:42.47985208194978
