Location:0;0	NaN	NaN	0.0; PointsCount:0; UsersCount:0; Diameter:0.0; Radius:0.0
Location:-1;-1	448414.41511542577	4418570.933186983	23682.69798668857; PointsCount:61; UsersCount:1; Diameter:36364.213749971794; Radius:23682.69798668857
Location:286;286	440648.0087462257	4424808.599655858	34.00166851434941; PointsCount:6; UsersCount:1; Diameter:52.49140970345396; Radius:34.00166851434941
Location:287;287	472593.9349134829	4415301.177493434	29.936285224932522; PointsCount:18; UsersCount:1; Diameter:50.248240297528966; Radius:29.936285224932522
Location:288;288	460781.7335650361	4406412.024488784	8.55891967037747; PointsCount:4; UsersCount:1; Diameter:13.8477826996216; Radius:8.55891967037747
Location:289;289	458136.1506959899	4405607.819260461	5.423332282493114; PointsCount:4; UsersCount:1; Diameter:9.621198270716608; Radius:5.423332282493114
