Location:0;0	NaN	NaN	0.0; PointsCount:0; UsersCount:0; Diameter:0.0; Radius:0.0
Location:-1;-1	425754.15575589536	4283059.664991305	899255.0327723838; PointsCount:317; UsersCount:1; Diameter:1106260.0957633608; Radius:899255.0327723838
Location:239;239	440514.63711184205	4426577.472282912	82.83360977492286; PointsCount:98; UsersCount:1; Diameter:123.99690563911999; Radius:82.83360977492286
Location:240;240	440438.87336121063	4426484.203908801	25.276318499015062; PointsCount:6; UsersCount:1; Diameter:49.25076423542606; Radius:25.276318499015062
Location:241;241	244503.10194779368	3498404.3304500235	21.369666593297378; PointsCount:8; UsersCount:1; Diameter:39.58660940774478; Radius:21.369666593297378
Location:242;242	454557.40716004616	4418638.895460955	18.596782998044986; PointsCount:8; UsersCount:1; Diameter:27.712037082314; Radius:18.596782998044986
