Location:0;0	NaN	NaN	0.0; PointsCount:0; UsersCount:0; Diameter:0.0; Radius:0.0
Location:-1;-1	440971.1437802031	4396628.926987973	1625268.5845702416; PointsCount:59; UsersCount:1; Diameter:1657024.3204609074; Radius:1625268.5845702416
Location:275;275	440573.51357964793	4425519.246140341	40.48553087698773; PointsCount:13; UsersCount:1; Diameter:66.96277825822237; Radius:40.48553087698773
Location:276;276	440525.6929158812	4425488.796552555	26.891478701928943; PointsCount:7; UsersCount:1; Diameter:47.50392155496284; Radius:26.891478701928943
Location:277;277	442909.2610670358	4425527.550988522	24.741810750425067; PointsCount:12; UsersCount:1; Diameter:45.810772103945716; Radius:24.741810750425067
