Location:0;0	NaN	NaN	0.0; PointsCount:0; UsersCount:0; Diameter:0.0; Radius:0.0
Location:-1;-1	447700.8767527991	4427534.720420059	20987.93371286308; PointsCount:12; UsersCount:1; Diameter:29241.086506916883; Radius:20987.93371286308
Location:390;390	442888.31639813137	4425152.881200678	30.888264863473996; PointsCount:29; UsersCount:1; Diameter:54.351732883399364; Radius:30.888264863473996
