Location:0;0	NaN	NaN	0.0; PointsCount:0; UsersCount:0; Diameter:0.0; Radius:0.0
Location:-1;-1	456779.97373434686	4425554.146397155	258804.9764963788; PointsCount:59; UsersCount:1; Diameter:283699.6499869688; Radius:258804.9764963788
Location:395;395	442850.1127104004	4425254.080546399	38.13086029832746; PointsCount:28; UsersCount:1; Diameter:62.250398592969596; Radius:38.13086029832746
Location:396;396	442346.2325929002	4424843.99098183	30.21162263479222; PointsCount:22; UsersCount:1; Diameter:57.78678642564276; Radius:30.21162263479222
