Location:0;0	NaN	NaN	0.0; PointsCount:0; UsersCount:0; Diameter:0.0; Radius:0.0
Location:-1;-1	441680.4583639349	4416141.839931084	1054787.7691699765; PointsCount:109; UsersCount:1; Diameter:1102427.5802215035; Radius:1054787.7691699765
Location:366;366	442851.63302046905	4425254.972148199	53.822461667999455; PointsCount:57; UsersCount:1; Diameter:86.7741898112553; Radius:53.822461667999455
Location:367;367	442924.2051412836	4425270.859137931	24.759955102737365; PointsCount:6; UsersCount:1; Diameter:38.5844113698067; Radius:24.759955102737365
Location:368;368	442840.84472222213	4425356.341481482	20.459758571551614; PointsCount:6; UsersCount:1; Diameter:35.598702848246; Radius:20.459758571551614
Location:369;369	442338.823090599	4424851.210536645	46.87263098137678; PointsCount:55; UsersCount:1; Diameter:80.65048292672488; Radius:46.87263098137678
