Location:0;0	NaN	NaN	0.0; PointsCount:0; UsersCount:0; Diameter:0.0; Radius:0.0
Location:-1;-1	471303.3778273355	4264858.458035198	1300362.8414932743; PointsCount:92; UsersCount:1; Diameter:1674006.0532292363; Radius:1300362.8414932743
Location:377;377	466887.682995599	4418148.033517415	25.763340609131447; PointsCount:52; UsersCount:1; Diameter:45.39032813000003; Radius:25.763340609131447
Location:378;378	442931.52233333327	4425315.965666668	29.207669270778794; PointsCount:10; UsersCount:1; Diameter:50.423790020593536; Radius:29.207669270778794
Location:379;379	442957.7499232358	4425241.961138967	34.20760221187942; PointsCount:61; UsersCount:1; Diameter:58.64259373586489; Radius:34.20760221187942
