Location:0;0	NaN	NaN	0.0; PointsCount:0; UsersCount:0; Diameter:0.0; Radius:0.0
Location:-1;-1	517088.27446054964	3813522.6973498557	1354939.7299456287; PointsCount:25; UsersCount:1; Diameter:2074223.1129016639; Radius:1354939.7299456287
Location:390;390	448724.1982549955	4424399.145460359	19.0068778187178; PointsCount:14; UsersCount:1; Diameter:33.445039159776364; Radius:19.0068778187178
