Location:0;0	NaN	NaN	0.0; PointsCount:0; UsersCount:0; Diameter:0.0; Radius:0.0
Location:-1;-1	443597.9049059134	4426300.078939034	11424.017078775956; PointsCount:22; UsersCount:1; Diameter:19736.783702641776; Radius:11424.017078775956
Location:561;561	443879.35834293487	4428596.937565232	22.001426233979853; PointsCount:5; UsersCount:1; Diameter:36.95969442401618; Radius:22.001426233979853
