Location:0;0	NaN	NaN	0.0; PointsCount:0; UsersCount:0; Diameter:0.0; Radius:0.0
Location:-1;-1	443052.67647058837	4428193.90560224	12392.354882524029; PointsCount:17; UsersCount:1; Diameter:20048.855318603415; Radius:12392.354882524029
Location:577;577	442840.6041666667	4425247.475	19.648054840701757; PointsCount:4; UsersCount:1; Diameter:36.768967139006854; Radius:19.648054840701757
