Location:0;0	NaN	NaN	0.0; PointsCount:0; UsersCount:0; Diameter:0.0; Radius:0.0
Location:-1;-1	454956.2585151562	4458244.147582816	1470409.5399551461; PointsCount:230; UsersCount:1; Diameter:2300150.7447968987; Radius:1470409.5399551461
Location:433;433	442837.29833211703	4425263.219270044	61.322679064470805; PointsCount:84; UsersCount:1; Diameter:80.10785738857425; Radius:61.322679064470805
Location:434;434	449939.380792786	4427025.302471472	36.76173013486675; PointsCount:20; UsersCount:1; Diameter:67.87579842644992; Radius:36.76173013486675
Location:435;435	450011.6869126183	4427073.264956275	48.176996961602605; PointsCount:102; UsersCount:1; Diameter:85.70284844398167; Radius:48.176996961602605
