Location:0;0	NaN	NaN	0.0; PointsCount:0; UsersCount:0; Diameter:0.0; Radius:0.0
Location:-1;-1	443136.50778496644	4425856.456963457	9865.250932384582; PointsCount:51; UsersCount:1; Diameter:11337.541305846307; Radius:9865.250932384582
Location:462;462	442851.75496794865	4425346.411266969	27.066517432582884; PointsCount:6; UsersCount:1; Diameter:41.001923430730905; Radius:27.066517432582884
Location:463;463	444743.9315523747	4426596.745991103	24.792606464932398; PointsCount:17; UsersCount:1; Diameter:41.716611809603684; Radius:24.792606464932398
Location:464;464	442862.8364705883	4425251.63260796	13.73667790219463; PointsCount:6; UsersCount:1; Diameter:22.79639745566606; Radius:13.73667790219463
