Location:0;0	NaN	NaN	0.0; PointsCount:0; UsersCount:0; Diameter:0.0; Radius:0.0
Location:-1;-1	442625.9162602887	4425600.496323598	9596.288935258277; PointsCount:35; UsersCount:1; Diameter:11337.541305846307; Radius:9596.288935258277
Location:617;617	444629.2841680672	4427022.472052288	13.086778249223869; PointsCount:5; UsersCount:1; Diameter:25.402444641330142; Radius:13.086778249223869
Location:618;618	442840.44776785705	4425357.533377102	15.599698684544979; PointsCount:4; UsersCount:1; Diameter:26.059175325202; Radius:15.599698684544979
Location:619;619	442855.8932380953	4425298.660476191	15.00319780418793; PointsCount:5; UsersCount:1; Diameter:25.10880943277222; Radius:15.00319780418793
Location:620;620	444743.9315523747	4426596.745991103	24.792606464932398; PointsCount:17; UsersCount:1; Diameter:41.716611809603684; Radius:24.792606464932398
Location:621;621	442862.8364705883	4425251.63260796	13.73667790219463; PointsCount:6; UsersCount:1; Diameter:22.79639745566606; Radius:13.73667790219463
Location:622;622	444411.04560160433	4426402.5020098025	13.347381889480793; PointsCount:4; UsersCount:1; Diameter:24.187918165478155; Radius:13.347381889480793
Location:623;623	444683.3743055556	4426523.649305556	23.401968272753656; PointsCount:4; UsersCount:1; Diameter:38.09754339193792; Radius:23.401968272753656
