Location:0;0	NaN	NaN	0.0; PointsCount:0; UsersCount:0; Diameter:0.0; Radius:0.0
Location:-1;-1	442157.7484661098	4425085.705669579	7654.153942400081; PointsCount:24; UsersCount:1; Diameter:9206.736413231702; Radius:7654.153942400081
Location:709;709	440610.53203396057	4425654.647606148	29.91505781344066; PointsCount:9; UsersCount:1; Diameter:53.34768802042018; Radius:29.91505781344066
