Location:0;0	NaN	NaN	0.0; PointsCount:0; UsersCount:0; Diameter:0.0; Radius:0.0
Location:-1;-1	449207.9349161427	4358284.691863207	720651.9549838997; PointsCount:106; UsersCount:1; Diameter:792223.9752572712; Radius:720651.9549838997
Location:537;537	440547.57314814813	4424787.537962962	27.34089216588467; PointsCount:9; UsersCount:1; Diameter:51.567991795157226; Radius:27.34089216588467
Location:538;538	536217.2597222222	3642882.740277778	13.554198616819761; PointsCount:6; UsersCount:1; Diameter:24.86910175693327; Radius:13.554198616819761
