443835.2,4426110.3,39717.4675347222,39717.4675347222,0.0,2008-09-26,11:13:15,2008-09-26,11:13:15,-1
444483.71923076926,4420653.961538462,39718.2434953704,39718.2447916667,27.005369836422112,2008-09-27,05:50:38,2008-09-27,05:52:30,-1
444778.7147058823,4426302.935294118,39718.5506712963,39718.9702314815,28.420063335700895,2008-09-27,13:12:58,2008-09-27,23:17:08,126
444285.9,4420947.0,39718.9947916667,39718.9949884259,46.045629542443834,2008-09-27,23:52:30,2008-09-27,23:52:47,127
445930.86521739134,4417816.256521739,39719.3741898148,39719.3749189815,27.037936311948577,2008-09-28,08:58:50,2008-09-28,08:59:53,128
445968.0516129031,4417703.090322581,39719.4275347222,39719.4866087963,38.036824262869885,2008-09-28,10:15:39,2008-09-28,11:40:43,92
445388.21111111116,4425418.688888889,39719.5708101852,39719.5710532407,37.48332962798263,2008-09-28,13:41:58,2008-09-28,13:42:19,-1
444303.67499999993,4420895.749999999,39719.9934837963,39719.9941550926,45.159495124909384,2008-09-28,23:50:37,2008-09-28,23:51:35,127
449261.05294117646,4412272.5058823535,39720.5215856481,39720.5221527778,46.00141302174675,2008-09-29,12:31:05,2008-09-29,12:31:54,129
449273.1620000001,4412289.9399999995,39721.5634722222,39722.0377662037,38.70206712838506,2008-09-30,13:31:24,2008-10-01,00:54:23,129
445420.1178571428,4425774.153571429,39722.1377546296,39722.1793634259,49.62509445840997,2008-10-01,03:18:22,2008-10-01,04:18:17,130
445387.1461538462,4425470.592307692,39722.183587963,39722.1840046296,48.62314263801866,2008-10-01,04:24:22,2008-10-01,04:24:58,131
449259.8157894737,4412277.915789474,39722.5377314815,39722.5383796296,47.603781362408256,2008-10-01,12:54:20,2008-10-01,12:55:16,129
449266.92068965524,4412289.313793103,39723.5552777778,39724.0850115741,45.69660818941248,2008-10-02,13:19:36,2008-10-03,02:02:25,129
450124.8,4412860.542857142,39724.1126736111,39724.1128819444,48.49907215605425,2008-10-03,02:42:15,2008-10-03,02:42:33,-1
449266.2533333333,4412278.013333334,39724.202037037,39724.2025231481,46.54728778346783,2008-10-03,04:50:56,2008-10-03,04:51:38,129
449216.34,4412261.399999999,39724.4607986111,39724.4610763889,49.29137855650971,2008-10-03,11:03:33,2008-10-03,11:03:57,-1
449262.0962962963,4412282.548148147,39725.5504166667,39725.9443402778,48.80860579870399,2008-10-04,13:12:36,2008-10-04,22:39:51,129
444321.31764705887,4420885.976470588,39725.9971527778,39726.4042824074,45.42092028990655,2008-10-04,23:55:54,2008-10-05,09:42:10,127
445350.7833333334,4425610.166666667,39726.4379398148,39726.4380555556,40.97816491744901,2008-10-05,10:30:38,2008-10-05,10:30:48,-1
444302.69062500005,4420898.94375,39727.0024189815,39727.0034722222,28.927668416221824,2008-10-06,00:03:29,2008-10-06,00:05:00,127
445419.9777777778,4425541.98888889,39727.4047916667,39727.4050694444,40.227975340737395,2008-10-06,09:42:54,2008-10-06,09:43:18,132
444972.9666666666,4425785.800000001,39727.5034027778,39727.5035532407,45.609757727924844,2008-10-06,12:04:54,2008-10-06,12:05:07,-1
444281.4833333332,4420893.883333333,39728.0001273148,39728.0004513889,39.436658073421995,2008-10-07,00:00:11,2008-10-07,00:00:39,127
445519.35,4425631.5,39728.476712963,39728.4767361111,28.125611103837702,2008-10-07,11:26:28,2008-10-07,11:26:30,-1
449474.4444444444,4435099.648148148,39729.0901967593,39729.091099537,49.59445533522751,2008-10-08,02:09:53,2008-10-08,02:11:11,-1
449491.5,4434979.6,39729.3961342593,39729.3961342593,0.0,2008-10-08,09:30:26,2008-10-08,09:30:26,-1
445395.6,4425555.566666666,39729.4424189815,39729.4426967593,46.959557068013375,2008-10-08,10:37:05,2008-10-08,10:37:29,132
444782.37200000003,4426341.847999999,39729.4854282407,39729.4867708333,42.404009244551695,2008-10-08,11:39:01,2008-10-08,11:40:57,126
444271.88,4420902.220000001,39729.9773958333,39729.9775231481,38.172503192754526,2008-10-08,23:27:27,2008-10-08,23:27:38,127
444861.1473684211,4426304.4052631585,39730.4818402778,39730.4855902778,36.324096685444026,2008-10-09,11:33:51,2008-10-09,11:39:15,133
444857.6,4426275.6,39731.4038657407,39731.4038888889,37.72161184303707,2008-10-10,09:41:34,2008-10-10,09:41:36,133
441018.31333333324,4426126.086666667,39732.2057175926,39732.2063773148,18.30956034425299,2008-10-11,04:56:14,2008-10-11,04:57:11,-1
445296.26000000007,4425463.12,39732.3781597222,39733.2539467593,49.229361157624304,2008-10-11,09:04:33,2008-10-12,06:05:41,-1
445515.0,4425801.7,39733.3413888889,39733.3413888889,0.0,2008-10-12,08:11:36,2008-10-12,08:11:36,-1
445412.65,4425518.5,39740.3570949074,39740.3571296296,2.816025568288569,2008-10-19,08:34:13,2008-10-19,08:34:16,132
444748.06666666677,4426248.238888889,39740.485,39740.4855902778,49.85107822320798,2008-10-19,11:38:24,2008-10-19,11:39:15,126
444283.575,4420922.458333333,39740.9731712963,39740.9734490741,42.269255966883634,2008-10-19,23:21:22,2008-10-19,23:21:46,127
444819.07999999996,4426457.8,39741.2736342593,39741.2737731481,44.492246515541254,2008-10-20,06:34:02,2008-10-20,06:34:14,-1
444285.95999999996,4420928.9399999995,39741.9868518518,39741.9870833333,41.1098528334285,2008-10-20,23:41:04,2008-10-20,23:41:24,127
444746.98,4426480.9399999995,39742.4111689815,39742.4112962963,46.78888756909299,2008-10-21,09:52:05,2008-10-21,09:52:16,-1
444275.2100000001,4420930.63,39742.9918865741,39742.9921412037,48.75910171477698,2008-10-21,23:48:19,2008-10-21,23:48:41,127
444806.31111111114,4426368.066666666,39743.2719675926,39743.2722222222,19.03706910240154,2008-10-22,06:31:38,2008-10-22,06:32:00,134
444257.19999999995,4420903.875,39743.9924421296,39743.9926851852,48.81936091330517,2008-10-22,23:49:07,2008-10-22,23:49:28,127
445875.9,4427787.1,39744.4462615741,39744.4462615741,0.0,2008-10-23,10:42:37,2008-10-23,10:42:37,-1
444268.6857142857,4420908.085714286,39744.9859027778,39744.9862731481,49.40941205893253,2008-10-23,23:39:42,2008-10-23,23:40:14,127
445411.55714285705,4425527.014285714,39745.3625810185,39745.3627893519,32.5098446626473,2008-10-24,08:42:07,2008-10-24,08:42:25,132
445649.4444444445,4425948.883333333,39746.1799189815,39746.2560648148,47.68196724075241,2008-10-25,04:19:05,2008-10-25,06:08:44,-1
445392.14,4425453.35,39746.3978587963,39747.111875,48.97193073570442,2008-10-25,09:32:55,2008-10-26,02:41:06,131
444038.41428571433,4419965.2,39747.1393287037,39747.1397800926,48.8144445836093,2008-10-26,03:20:38,2008-10-26,03:21:17,-1
445400.6083333334,4425565.116666666,39747.2800462963,39747.2804282407,43.62934792082937,2008-10-26,06:43:16,2008-10-26,06:43:49,-1
444831.61,4426197.09,39747.4691435185,39747.4693518518,48.52236597671114,2008-10-26,11:15:34,2008-10-26,11:15:52,-1
444279.6090909091,4420923.590909091,39747.9899768519,39747.9902662037,47.41023096362835,2008-10-26,23:45:34,2008-10-26,23:45:59,127
444813.84736842103,4426369.52631579,39748.467662037,39748.468587963,32.339449593362865,2008-10-27,11:13:26,2008-10-27,11:14:46,134
444280.8181818182,4420916.6,39748.9884027778,39748.9886574074,47.80847205256472,2008-10-27,23:43:18,2008-10-27,23:43:40,127
445392.2857142858,4425552.4428571435,39753.2021990741,39753.2024189815,45.061957347820396,2008-11-01,04:51:10,2008-11-01,04:51:29,132
445465.7411764706,4425716.864705883,39753.2552777778,39753.2558217593,12.278843594021863,2008-11-01,06:07:36,2008-11-01,06:08:23,130
444312.85454545455,4420912.527272727,39761.9977546296,39761.9980324074,43.27609039644061,2008-11-09,23:56:46,2008-11-09,23:57:10,127
445432.15714285715,4425758.414285715,39762.3719444444,39762.4656712963,48.956817707058256,2008-11-10,08:55:36,2008-11-10,11:10:34,130
444745.3891891891,4426381.805405405,39762.4729282407,39762.4740625,37.5289221804265,2008-11-10,11:21:01,2008-11-10,11:22:39,-1
455276.45,4451875.9,39762.9891550926,39762.9891898148,39.19502519453232,2008-11-10,23:44:23,2008-11-10,23:44:26,-1
444795.3571428572,4426360.0,39763.4234027778,39763.4242592593,32.705504123928655,2008-11-11,10:09:42,2008-11-11,10:10:56,134
444317.2636363636,4420914.493939394,39764.0080902778,39764.3834722222,46.104338190711125,2008-11-12,00:11:39,2008-11-12,09:12:12,127
445434.61111111107,4425758.872222221,39764.4856365741,39764.4862268518,47.921289632329625,2008-11-12,11:39:19,2008-11-12,11:40:10,130
444857.890909091,4426206.2727272725,39764.5379050926,39764.5381597222,45.32604108042657,2008-11-12,12:54:35,2008-11-12,12:54:57,-1
444301.8454545455,4420904.190909091,39764.9952893518,39764.9960185185,23.81134183554222,2008-11-12,23:53:13,2008-11-12,23:54:16,127
444815.8,4426235.4399999995,39765.2869444444,39765.9818287037,43.94553447168488,2008-11-13,06:53:12,2008-11-13,23:33:50,135
444313.3575757576,4420903.527272728,39766.0049305556,39766.3036805556,45.900435727735186,2008-11-14,00:07:06,2008-11-14,07:17:18,127
451665.01249999995,4423546.6625,39766.4390162037,39766.4392708333,49.395748804795716,2008-11-14,10:32:11,2008-11-14,10:32:33,-1
444785.5846153846,4426281.584615384,39766.5467476852,39766.5471527778,47.38881724637374,2008-11-14,13:07:19,2008-11-14,13:07:54,126
445460.22500000003,4425726.025,39767.1697800926,39767.1705439815,16.37131637968206,2008-11-15,04:04:29,2008-11-15,04:05:35,130
445429.1555555556,4425753.025925925,39767.4267939815,39768.2311689815,48.40661111873095,2008-11-15,10:14:35,2008-11-16,05:32:53,130
441109.69090909086,4425690.130303031,39768.3046296296,39768.3062384259,47.04550988123953,2008-11-16,07:18:40,2008-11-16,07:20:59,136
445452.1583333334,4425748.691666667,39768.3622685185,39768.3631944444,45.260357930533424,2008-11-16,08:41:40,2008-11-16,08:43:00,130
444908.3,4426184.133333333,39768.5049305556,39768.5049768519,10.23962889970808,2008-11-16,12:07:06,2008-11-16,12:07:10,-1
444377.72647058824,4418136.188235294,39768.996724537,39769.3520138889,46.75179140954822,2008-11-16,23:55:17,2008-11-17,08:26:54,-1
444812.93888888886,4426258.744444443,39769.3862847222,39770.1398032407,48.50834979671069,2008-11-17,09:16:15,2008-11-18,03:21:19,135
445349.74642857147,4425481.853571428,39770.1595833333,39770.2005787037,49.43885111921557,2008-11-18,03:49:48,2008-11-18,04:48:50,-1
441108.8410256411,4425395.42820513,39770.2992592593,39770.3487152778,43.54549345227274,2008-11-18,07:10:56,2008-11-18,08:22:09,8
444840.88,4426304.7,39770.3780902778,39770.3782291667,18.866372200283248,2008-11-18,09:04:27,2008-11-18,09:04:39,133
445435.4815789475,4425745.515789473,39770.4205324074,39770.4219560185,48.685932260040076,2008-11-18,10:05:34,2008-11-18,10:07:37,130
440187.56363636366,4425841.859090909,39771.0322800926,39771.0332523148,49.46524032048584,2008-11-19,00:46:29,2008-11-19,00:47:53,-1
445446.05,4425734.735714286,39771.3615046296,39771.3619907407,41.276870036202766,2008-11-19,08:40:34,2008-11-19,08:41:16,130
445244.2,4425775.0,39772.3854282407,39772.3854282407,0.0,2008-11-20,09:15:01,2008-11-20,09:15:01,-1
445430.1,4421582.1,39773.0826967593,39773.0826967593,0.0,2008-11-21,01:59:05,2008-11-21,01:59:05,-1
444308.614,4420918.1280000005,39773.2010763889,39773.2841203704,47.94204835014768,2008-11-21,04:49:33,2008-11-21,06:49:08,127
451267.6647058824,4420408.394117646,39773.3058449074,39773.3066898148,46.04041702638772,2008-11-21,07:20:25,2008-11-21,07:21:38,-1
444826.00384615373,4426237.057692308,39773.5012962963,39774.1588310185,48.457197607630825,2008-11-21,12:01:52,2008-11-22,03:48:43,135
445443.7523809524,4425741.547619047,39774.1705208333,39774.1712268519,36.86475281324017,2008-11-22,04:05:33,2008-11-22,04:06:34,130
445993.50000000006,4427214.121428571,39774.2984375,39774.2988657407,49.09103787850569,2008-11-22,07:09:45,2008-11-22,07:10:22,-1
445441.0970588235,4425763.25882353,39774.3758680556,39774.3773148148,20.47071078411353,2008-11-22,09:01:15,2008-11-22,09:03:20,130
444352.5705882353,4418142.341176472,39783.9838425926,39783.9843981481,49.32930163672128,2008-12-01,23:36:44,2008-12-01,23:37:32,-1
444824.6916666666,4426289.5583333345,39784.1984722222,39784.1988541667,48.71149761582621,2008-12-02,04:45:48,2008-12-02,04:46:21,-1
442623.5,4426913.0,39784.3764814815,39784.3764814815,0.0,2008-12-02,09:02:08,2008-12-02,09:02:08,67
444814.14705882355,4426394.776470588,39784.5041666667,39784.504849537,29.428727461459914,2008-12-02,12:06:00,2008-12-02,12:06:59,134
444150.5470588235,4419973.688235294,39785.1143171296,39785.1148726852,46.761629569534946,2008-12-03,02:44:37,2008-12-03,02:45:25,-1
445408.08947368414,4425430.852631579,39785.4128356481,39785.4133217593,40.44007912954937,2008-12-03,09:54:29,2008-12-03,09:55:11,-1
444784.075,4426225.949999999,39785.5273958333,39785.5274884259,42.904195598659385,2008-12-03,12:39:27,2008-12-03,12:39:35,-1
445376.7615384615,4425553.369230769,39786.3716319444,39786.3719791667,45.91089195414183,2008-12-04,08:55:09,2008-12-04,08:55:39,-1
445303.36,4425407.2,39786.4228125,39786.4229282407,25.570686341983244,2008-12-04,10:08:51,2008-12-04,10:09:01,-1
444301.03809523815,4420901.985714285,39786.9843518519,39786.9849884259,45.131031452902846,2008-12-04,23:37:28,2008-12-04,23:38:23,127
444808.0368421053,4426280.194736841,39787.1617361111,39787.162337963,42.859071384447546,2008-12-05,03:52:54,2008-12-05,03:53:46,135
445397.47692307696,4425469.646153845,39787.4084027778,39787.4087847222,49.745351541521174,2008-12-05,09:48:06,2008-12-05,09:48:39,131
445446.9208333334,4425733.4875,39787.4929050926,39788.2874305556,49.491009284360445,2008-12-05,11:49:47,2008-12-06,06:53:54,130
445271.9,4435169.3,39788.3355787037,39788.3355787037,0.0,2008-12-06,08:03:14,2008-12-06,08:03:14,-1
445425.2,4425536.466666667,39788.4592592593,39788.4593287037,23.930942313062683,2008-12-06,11:01:20,2008-12-06,11:01:26,132
445422.52222222224,4425760.111111112,39788.5590046296,39788.5599768519,41.69148594147288,2008-12-06,13:24:58,2008-12-06,13:26:22,130
444624.3452380953,4425798.933333333,39789.1361342593,39789.1974305556,47.36887163531822,2008-12-07,03:16:02,2008-12-07,04:44:18,-1
445454.03103448276,4425737.493103448,39789.3141898148,39789.3152546296,39.95459923431388,2008-12-07,07:32:26,2008-12-07,07:33:58,130
444788.4000000001,4426302.858333333,39789.513275463,39789.5136805556,43.52987479903353,2008-12-07,12:19:07,2008-12-07,12:19:42,126
444298.7684210526,4420900.400000002,39789.9882523148,39790.1939236111,49.03274416105823,2008-12-07,23:43:05,2008-12-08,04:39:15,127
444862.65625000006,4426294.475,39790.2187847222,39790.2203587963,46.048018415924865,2008-12-08,05:15:03,2008-12-08,05:17:19,133
445379.1153846154,4425600.984615385,39790.4119097222,39790.4122800926,46.926538334033154,2008-12-08,09:53:09,2008-12-08,09:53:41,-1
444762.7620689656,4426325.97586207,39790.5148148148,39790.5159837963,2.109502311254348,2008-12-08,12:21:20,2008-12-08,12:23:01,126
443491.8,4426400.0,39790.9713541667,39790.9713541667,0.0,2008-12-08,23:18:45,2008-12-08,23:18:45,-1
444377.5681818182,4421048.022727273,39791.2210069444,39791.2251388889,38.20209418362039,2008-12-09,05:18:15,2008-12-09,05:24:12,-1
444790.9666666666,4426376.5,39792.5237962963,39792.5242592593,43.73213921133976,2008-12-10,12:34:16,2008-12-10,12:34:56,134
444303.85,4420874.1033333335,39792.9778819444,39792.9788888889,49.57580054834454,2008-12-10,23:28:09,2008-12-10,23:29:36,127
444800.6785714285,4426245.6714285705,39793.1418518518,39793.1423032407,45.468340633479094,2008-12-11,03:24:16,2008-12-11,03:24:55,135
440794.07575757586,4426779.154545456,39793.2411458333,39793.2922222222,44.271887242670225,2008-12-11,05:47:15,2008-12-11,07:00:48,137
444797.0,4426271.8,39793.3219675926,39793.3219675926,0.0,2008-12-11,07:43:38,2008-12-11,07:43:38,135
445367.53750000003,4425394.412500001,39793.4010763889,39793.4013773148,37.43180465861224,2008-12-11,09:37:33,2008-12-11,09:37:59,-1
444769.06363636366,4426295.381818182,39793.4931944444,39793.4934375,46.49182723878348,2008-12-11,11:50:12,2008-12-11,11:50:33,126
444313.0217391305,4420913.765217391,39793.9906481481,39794.1214583333,43.51057342705739,2008-12-11,23:46:32,2008-12-12,02:54:54,127
442316.25200000004,4422506.272000001,39794.1396296296,39794.2876736111,43.01825193999588,2008-12-12,03:21:04,2008-12-12,06:54:15,-1
444180.7,4426284.2,39794.3796759259,39794.3796759259,0.0,2008-12-12,09:06:44,2008-12-12,09:06:44,138
445484.48,4425511.82,39794.4209375,39794.4211689815,42.96102885196665,2008-12-12,10:06:09,2008-12-12,10:06:29,-1
445435.24347826093,4425733.047826087,39794.5093634259,39794.510150463,31.329219588526897,2008-12-12,12:13:29,2008-12-12,12:14:37,130
438147.7756756755,4413793.71891892,39795.1231944444,39795.1258333333,49.39443288469956,2008-12-13,02:57:24,2008-12-13,03:01:12,-1
445385.7916666667,4425462.741666666,39795.3680439815,39795.3684259259,48.16772778527851,2008-12-13,08:49:59,2008-12-13,08:50:32,131
445922.87857142865,4418194.335714286,39795.5158680556,39795.5164814815,46.30431945293955,2008-12-13,12:22:51,2008-12-13,12:23:44,-1
445694.26666666666,4425023.3,39795.577962963,39795.5780092593,23.323807579343267,2008-12-13,13:52:16,2008-12-13,13:52:20,-1
442582.4346938776,4426993.799999998,39796.3363310185,39796.337962963,30.295379185284702,2008-12-14,08:04:19,2008-12-14,08:06:40,14
441888.5253012048,4426990.775903614,39796.3893287037,39796.4491435185,49.555019927225636,2008-12-14,09:20:38,2008-12-14,10:46:46,139