442910.96666666673,4425474.675,40508.8062615741,40508.8068981481,25.22578046375327,2010-11-26,19:21:01,2010-11-26,19:21:56,4
441035.50625,4410212.5125,40510.6258680556,40510.6267361111,46.612015618216276,2010-11-28,15:01:15,2010-11-28,15:02:30,-1
441012.2214285713,4410193.4,40510.7530092593,40510.7537615741,41.90107397149634,2010-11-28,18:04:20,2010-11-28,18:05:25,-1
444291.8846153846,4421244.323076922,40518.841875,40518.8425694444,37.48933181583327,2010-12-06,20:12:18,2010-12-06,20:13:18,60
523507.98333333316,3522943.0452380953,40519.3568055556,40519.3589467593,45.70787678281233,2010-12-07,08:33:48,2010-12-07,08:36:53,-1
524086.0,3522734.04,40519.7508449074,40519.7510763889,35.976937057133235,2010-12-07,18:01:13,2010-12-07,18:01:33,-1
523463.31973684224,3522817.1644736845,40519.8890393519,40519.8986458333,1.7888543820779257,2010-12-07,21:20:13,2010-12-07,21:34:03,-1
523854.12478632486,3522824.3247863236,40520.3935416667,40520.4357291667,4.21900462213343,2010-12-08,09:26:42,2010-12-08,10:27:27,-1
523870.73333333334,3522904.1333333333,40520.5455092593,40520.545625,28.869360921039995,2010-12-08,13:05:32,2010-12-08,13:05:42,-1
523830.46666666673,3522830.4000000004,40520.7663541667,40520.7838310185,47.21408688099814,2010-12-08,18:23:33,2010-12-08,18:48:43,-1
523519.9954545455,3522985.6181818172,40520.9198611111,40520.9209027778,34.11231449205706,2010-12-08,22:04:36,2010-12-08,22:06:06,-1
535429.2,3643150.8,40521.9410416667,40521.9410416667,0.0,2010-12-09,22:35:06,2010-12-09,22:35:06,-1
443015.20625,4425576.381250001,40522.3286342593,40522.3293865741,49.86150820024791,2010-12-10,07:53:14,2010-12-10,07:54:19,4
442806.3083333333,4425250.833333334,40522.5092824074,40522.5098032407,17.77301325101696,2010-12-10,12:13:22,2010-12-10,12:14:07,4
498790.775,4057923.5,40574.1119212963,40574.1148032407,34.58916015168751,2011-01-31,02:41:10,2011-01-31,02:45:19,-1
431644.73571428575,4048130.257142857,40575.4811111111,40575.6086921296,49.48019805931357,2011-02-01,11:32:48,2011-02-01,14:36:31,-1
431646.1493506492,4048140.001298701,40575.7972569444,40575.807037037,6.627216610408269,2011-02-01,19:08:03,2011-02-01,19:22:08,-1
415486.0,4062256.44,40577.4122106481,40577.4179398148,38.989357522218555,2011-02-03,09:53:35,2011-02-03,10:01:50,-1
433162.35882352944,4049977.2882352937,40581.6817476852,40581.6833680556,45.82455673543317,2011-02-07,16:21:43,2011-02-07,16:24:03,-1