443034.93513513485,4425283.078378378,40758.3847800926,40762.3792592593,45.59385923601348,2011-08-03,09:14:05,2011-08-07,09:06:08,-1
440647.64799999987,4425602.78,40762.3972453704,40762.3985069444,40.2435087933381,2011-08-07,09:32:02,2011-08-07,09:33:51,188
442904.1,4425234.08,40763.9520486111,40764.3942939815,34.50797009399234,2011-08-08,22:50:57,2011-08-09,09:27:47,4
440624.17058823525,4425646.217647059,40764.4115625,40764.4123148148,44.81350242951336,2011-08-09,09:52:39,2011-08-09,09:53:44,188
442889.7394202898,4425147.900869566,40764.9400925926,40764.9819907407,47.531042488223655,2011-08-09,22:33:44,2011-08-09,23:34:04,4
442889.53275434335,4425172.476178656,40764.9821064815,40765.011724537,36.4972601709657,2011-08-09,23:34:14,2011-08-10,00:16:53,4
442884.9440097798,4425154.484352079,40765.0224768519,40765.1041087963,48.27690959455738,2011-08-10,00:32:22,2011-08-10,02:29:55,4
442891.7103117509,4425143.845803355,40765.1110300926,40765.1496412037,46.37208211882079,2011-08-10,02:39:53,2011-08-10,03:35:29,4
442886.9612903224,4425149.657320104,40765.160787037,40765.2004861111,45.213382974232545,2011-08-10,03:51:32,2011-08-10,04:48:42,4
442890.8763157894,4425147.586842105,40765.2025462963,40765.2040162037,15.621779667966342,2011-08-10,04:51:40,2011-08-10,04:53:47,4
442879.73143459926,4425155.465189879,40779.6530439815,40779.759212963,46.442760469023774,2011-08-24,15:40:23,2011-08-24,18:13:16,4
442886.7042087542,4425141.585858582,40779.7864583333,40779.8476851852,49.725747857295325,2011-08-24,18:52:30,2011-08-24,20:20:40,4
442892.94398496224,4425138.409022563,40779.8696527778,40779.9116550926,44.35414298559984,2011-08-24,20:52:18,2011-08-24,21:52:47,4
442888.14735657955,4425153.267379075,40779.9172453704,40780.0105671296,37.04497266841914,2011-08-24,22:00:50,2011-08-25,00:15:13,4
440159.2,4424152.0,40780.0833449074,40780.0833449074,0.0,2011-08-25,02:00:01,2011-08-25,02:00:01,-1
442900.0,4425173.415384615,40782.6352662037,40782.6358796296,15.226949793020557,2011-08-27,15:14:47,2011-08-27,15:15:40,4
440610.56363636366,4425645.2,40783.3928472222,40783.3933912037,42.826276980365726,2011-08-28,09:25:42,2011-08-28,09:26:29,188
442891.2659033081,4425140.214503808,40783.7059027778,40783.7843171296,42.69074841227312,2011-08-28,16:56:30,2011-08-28,18:49:25,4
442887.354392299,4425165.046329726,40783.784375,40783.8531597222,25.885324027145014,2011-08-28,18:49:30,2011-08-28,20:28:33,4
442884.85331664607,4425141.696245308,40783.8915277778,40783.9488078704,48.001041655620696,2011-08-28,21:23:48,2011-08-28,22:46:17,4
442885.3284671528,4425154.077372261,40783.9497222222,40784.0117476852,47.63192206881374,2011-08-28,22:47:36,2011-08-29,00:16:55,4
442884.1004950492,4425145.921039602,40784.0118055556,40784.0466087963,49.2646932396799,2011-08-29,00:17:00,2011-08-29,01:07:07,4
442892.9461538463,4425155.460083163,40784.046724537,40784.0959837963,49.07310872583516,2011-08-29,01:07:17,2011-08-29,02:18:13,4
440583.6384615385,4425683.123076922,40784.1649189815,40784.1656018518,49.54926841050598,2011-08-29,03:57:29,2011-08-29,03:58:28,188
442889.80967741937,4425098.0,40785.6176273148,40785.6189467593,10.163660757798057,2011-08-30,14:49:23,2011-08-30,14:51:17,334
442886.2712620025,4425160.667489713,40788.4213310185,40788.5840393519,49.84505993594803,2011-09-02,10:06:43,2011-09-02,14:01:01,4
442889.62631578976,4425151.901754388,40788.621712963,40788.6712268519,49.50191915472177,2011-09-02,14:55:16,2011-09-02,16:06:34,4
442885.75805243425,4425140.587640453,40788.6713425926,40788.6949305556,38.108398024299575,2011-09-02,16:06:44,2011-09-02,16:40:42,4
442886.1771551722,4425173.075000001,40788.7066203704,40788.7449884259,48.5223659774669,2011-09-02,16:57:32,2011-09-02,17:52:47,4
442882.3513812151,4425175.358563539,40788.7977893518,40788.8338194444,27.24720169116636,2011-09-02,19:08:49,2011-09-02,20:00:42,4
442877.89534883754,4425155.85921288,40788.8559259259,40788.9009143518,48.69661179175507,2011-09-02,20:32:32,2011-09-02,21:37:19,4
442907.2500000003,4425159.2900900915,40788.9009722222,40788.9122337963,39.19502519453202,2011-09-02,21:37:24,2011-09-02,21:53:37,4
442886.6772357716,4425159.731056919,40788.9893402778,40789.0538888889,49.016323811212466,2011-09-02,23:44:39,2011-09-03,01:17:36,4
442869.0655405404,4425128.725675672,40789.1030787037,40789.1124884259,48.149974039269416,2011-09-03,02:28:26,2011-09-03,02:41:59,4
442898.1287056372,4425140.933820462,40789.2250462963,40789.2726388889,48.04674806893335,2011-09-03,05:24:04,2011-09-03,06:32:36,4
442900.3551630437,4425143.14592391,40789.2732175926,40789.310787037,45.045421520957596,2011-09-03,06:33:26,2011-09-03,07:27:32,4
442884.4795698926,4425163.768817206,40789.4007060185,40789.4095949074,4.70425339455518,2011-09-03,09:37:01,2011-09-03,09:49:49,4
440370.41904761916,4425190.228571428,40816.3735648148,40816.3747222222,15.074813431681335,2011-09-30,08:57:56,2011-09-30,08:59:36,-1
466606.73222591396,4434011.163787379,40816.4524074074,40816.4882291667,49.83783703123057,2011-09-30,10:51:28,2011-09-30,11:43:03,335
466613.154261364,4434003.223579541,40816.4884606482,40816.5304861111,45.19081765138408,2011-09-30,11:43:23,2011-09-30,12:43:54,335
467366.15,4434867.55,40816.580474537,40816.5804861111,28.317132622832133,2011-09-30,13:55:53,2011-09-30,13:55:54,-1