442593.4,4437589.050000001,39303.6108101852,39303.6117476852,35.99236030049311,2007-08-09,14:39:34,2007-08-09,14:40:55,415
441464.4,4435743.1,39304.0797222222,39304.0797222222,0.0,2007-08-10,01:54:48,2007-08-10,01:54:48,314
442872.5,4425276.3,39308.058287037,39308.058287037,0.0,2007-08-14,01:23:56,2007-08-14,01:23:56,4
442602.6,4437580.65,39308.6131365741,39308.613587963,37.67505806243615,2007-08-14,14:42:55,2007-08-14,14:43:34,415
440371.1,4435884.8,39309.0993865741,39309.0993865741,0.0,2007-08-15,02:23:07,2007-08-15,02:23:07,-1
442592.6666666667,4437586.266666667,39315.5729166667,39316.0811574074,20.520477577104234,2007-08-21,13:45:00,2007-08-22,01:56:52,415
440397.9,4435858.7,39316.099849537,39316.099849537,0.0,2007-08-22,02:23:47,2007-08-22,02:23:47,-1
442601.8,4437576.95,39391.562349537,39391.5628009259,47.53325151927554,2007-11-05,13:29:47,2007-11-05,13:30:26,415
442677.9,4436459.0,39392.0060300926,39392.0060300926,0.0,2007-11-06,00:08:41,2007-11-06,00:08:41,-1
442603.25,4437578.800000001,39392.6127546296,39392.6132175926,38.30052218969921,2007-11-06,14:42:22,2007-11-06,14:43:02,415
442592.35,4437549.3,39394.5412731481,39394.5417361111,48.386051709148845,2007-11-08,12:59:26,2007-11-08,13:00:06,-1
440732.3,4426062.2,39395.2675115741,39395.2675115741,0.0,2007-11-09,06:25:13,2007-11-09,06:25:13,-1
442624.25,4437630.45,39395.5456597222,39395.5461574074,44.81450657990662,2007-11-09,13:05:45,2007-11-09,13:06:28,-1
442887.6666666667,4435689.7,39398.0115393519,39398.0161921296,42.844486226437496,2007-11-12,00:16:37,2007-11-12,00:23:19,416
442608.3,4437584.300000001,39398.6070833333,39398.6075578704,38.54400083016781,2007-11-12,14:34:12,2007-11-12,14:34:53,415
442599.75,4437585.3,39400.6044907407,39400.605162037,43.13896150829407,2007-11-14,14:30:28,2007-11-14,14:31:26,415
442899.55,4425276.575,39401.0581134259,39401.5349189815,33.36615051246339,2007-11-15,01:23:41,2007-11-15,12:50:17,4
442599.65,4437574.2,39401.5633796296,39401.5637847222,40.902444914665104,2007-11-15,13:31:16,2007-11-15,13:31:51,415
442193.1,4437270.199999999,39401.9948842593,39401.9949537037,38.4629692041337,2007-11-15,23:52:38,2007-11-15,23:52:44,-1
440750.3,4425993.6,39402.2315393519,39402.2315393519,0.0,2007-11-16,05:33:25,2007-11-16,05:33:25,-1
442846.3,4425396.7,39402.3224421296,39402.3224421296,0.0,2007-11-16,07:44:19,2007-11-16,07:44:19,4
442471.2,4437315.3,39405.9917013889,39405.9917013889,0.0,2007-11-19,23:48:03,2007-11-19,23:48:03,-1
441793.3,4436373.2,39406.6078125,39406.6080555556,29.5296461204668,2007-11-20,14:35:15,2007-11-20,14:35:36,-1
442249.4,4436922.9,39407.0323263889,39407.0323263889,0.0,2007-11-21,00:46:33,2007-11-21,00:46:33,-1
442600.4,4437576.05,39407.606087963,39407.6067592593,32.66756801478666,2007-11-21,14:32:46,2007-11-21,14:33:44,415
441447.1,4435717.3,39408.0251967593,39408.0251967593,0.0,2007-11-22,00:36:17,2007-11-22,00:36:17,314
442598.3,4437581.65,39408.6124189815,39408.6131134259,42.626400270231784,2007-11-22,14:41:53,2007-11-22,14:42:53,415
442801.3514285714,4425352.760000001,39408.7040856481,39408.7060648148,16.194134740553558,2007-11-22,16:53:53,2007-11-22,16:56:44,4
442607.8727272727,4437596.459090909,39408.9457523148,39409.0100810185,19.398195792865078,2007-11-22,22:41:53,2007-11-23,00:14:31,415
442877.5,4425279.05,39409.0438657407,39409.0441550926,33.95600094237368,2007-11-23,01:03:10,2007-11-23,01:03:35,4
442887.46486486506,4435690.367567567,39409.3573726852,39409.3603935185,41.29757862150276,2007-11-23,08:34:37,2007-11-23,08:38:58,416
442602.5884615384,4437598.576923077,39409.9441666667,39410.3862152778,47.48905137004866,2007-11-23,22:39:36,2007-11-24,09:16:09,415
439558.975,4417496.275,39410.4140277778,39410.4140972222,20.682843131502437,2007-11-24,09:56:12,2007-11-24,09:56:18,-1
437993.9,4441803.7,39410.895162037,39410.895162037,0.0,2007-11-24,21:29:02,2007-11-24,21:29:02,-1
441455.9315789474,4435725.478947368,39412.3616550926,39412.3661226852,36.694686263623225,2007-11-26,08:40:47,2007-11-26,08:47:13,314
442864.5,4438575.3,39412.9420601852,39412.9420601852,0.0,2007-11-26,22:36:34,2007-11-26,22:36:34,-1
442801.90625000006,4425338.28125,39413.8406134259,39413.8739583333,6.229767250339794,2007-11-27,20:10:29,2007-11-27,20:58:30,4
442565.47500000003,4437664.7,39413.963599537,39413.9637731481,11.541230437187398,2007-11-27,23:07:35,2007-11-27,23:07:50,-1
442923.3,4425267.414285715,39414.4062152778,39414.4065625,47.24828039210764,2007-11-28,09:44:57,2007-11-28,09:45:27,4
442591.8545454545,4437596.636363636,39414.9473263889,39415.3417824074,22.995651762346007,2007-11-28,22:44:09,2007-11-29,08:12:10,415
442872.1714285715,4425279.214285715,39415.3718171296,39415.3721412037,48.929030237473704,2007-11-29,08:55:25,2007-11-29,08:55:53,4
442623.4666666666,4437605.5,39415.9636805556,39415.9637962963,8.626702730195998,2007-11-29,23:07:42,2007-11-29,23:07:52,415
442880.70999999996,4425266.880000001,39416.4405902778,39416.9074884259,45.18683436567212,2007-11-30,10:34:27,2007-11-30,21:46:47,4
442525.1,4437561.1,39416.9522337963,39416.9522337963,0.0,2007-11-30,22:51:13,2007-11-30,22:51:13,-1
442555.1545454545,4437488.781818182,39419.9441319444,39419.9446412037,49.97129175825515,2007-12-03,22:39:33,2007-12-03,22:40:17,417
442839.25,4425268.95,39420.4179398148,39420.4179976852,36.73608580133447,2007-12-04,10:01:50,2007-12-04,10:01:55,4
442552.9,4437501.46,39420.9018171296,39420.9020486111,18.435834670424146,2007-12-04,21:38:37,2007-12-04,21:38:57,417
440392.1,4435922.7,39421.4096527778,39421.4096527778,0.0,2007-12-05,09:49:54,2007-12-05,09:49:54,-1
442560.55555555556,4437387.866666666,39421.9377546296,39421.9381712963,38.73422259449938,2007-12-05,22:30:22,2007-12-05,22:30:58,-1
441523.25,4431449.35,39422.422337963,39422.4223726852,34.66323701001079,2007-12-06,10:08:10,2007-12-06,10:08:13,-1
442581.44444444444,4437577.955555555,39422.9164583333,39423.3858680556,36.00736035878581,2007-12-06,21:59:42,2007-12-07,09:15:39,415
442971.190909091,4425242.718181818,39423.412349537,39423.4128125,47.25219571629946,2007-12-07,09:53:47,2007-12-07,09:54:27,4
442616.58461538464,4437602.884615385,39423.9735648148,39424.5155324074,48.43810483493342,2007-12-07,23:21:56,2007-12-08,12:22:22,415
446305.6,4420435.7,39424.5761226852,39424.5761226852,0.0,2007-12-08,13:49:37,2007-12-08,13:49:37,-1
442575.9444444445,4437510.144444444,39424.9444328704,39424.9448263889,42.701873495659434,2007-12-08,22:39:59,2007-12-08,22:40:33,417
443088.0399999999,4425224.279999999,39425.4349421296,39425.4352199074,36.531219525131355,2007-12-09,10:26:19,2007-12-09,10:26:43,4
442532.9,4435688.3,39426.3550694444,39426.3550694444,0.0,2007-12-10,08:31:18,2007-12-10,08:31:18,-1
442557.809090909,4437403.1454545455,39426.9698958333,39426.9702662037,47.57699023725232,2007-12-10,23:16:39,2007-12-10,23:17:11,-1
442825.875,4435693.3625,39427.3711111111,39427.3715162037,49.16879091451992,2007-12-11,08:54:24,2007-12-11,08:54:59,313
442608.1333333333,4437606.516666667,39427.9735069444,39427.9737962963,45.34357727395311,2007-12-11,23:21:51,2007-12-11,23:22:16,415
442874.1818181818,4435703.727272727,39428.3364236111,39428.3396296296,15.469001260407428,2007-12-12,08:04:27,2007-12-12,08:09:04,416
442629.9666666666,4437591.899999999,39428.9179166667,39428.9180092593,25.800193797535627,2007-12-12,22:01:48,2007-12-12,22:01:56,415
464369.3,4435978.5,39430.4002430556,39430.4002430556,0.0,2007-12-14,09:36:21,2007-12-14,09:36:21,-1
692052.6,3312046.3,39430.7598958333,39430.7598958333,0.0,2007-12-14,18:14:15,2007-12-14,18:14:15,-1
700305.4,3302290.1,39430.8369212963,39430.8369212963,0.0,2007-12-14,20:05:10,2007-12-14,20:05:10,-1
442606.93,4437598.779999999,39435.946712963,39436.3322685185,29.37771264039549,2007-12-19,22:43:16,2007-12-20,07:58:28,415
442872.075,4425240.525,39436.3675462963,39436.3677199074,43.451237035930454,2007-12-20,08:49:16,2007-12-20,08:49:31,4
442602.5,4437603.7272727275,39436.8240393519,39437.3778935185,21.284971223499543,2007-12-20,19:46:37,2007-12-21,09:04:10,415
442865.5,4425269.5,39437.4039699074,39437.4039699074,0.0,2007-12-21,09:41:43,2007-12-21,09:41:43,4
442536.5714285714,4437483.285714285,39437.8335300926,39437.8338773148,26.266708967814246,2007-12-21,20:00:17,2007-12-21,20:00:47,417
443400.0,4425034.3,39438.3852430556,39438.3852430556,0.0,2007-12-22,09:14:45,2007-12-22,09:14:45,-1
442556.85714285716,4437504.971428571,39438.9728703704,39438.9731944444,48.17302149540082,2007-12-22,23:20:56,2007-12-22,23:21:24,417
442962.18571428576,4425242.221428571,39439.5320717593,39439.6123148148,41.8896168519012,2007-12-23,12:46:11,2007-12-23,14:41:44,4
442947.375,4425214.125,39439.656875,39439.6570486111,11.700427342952835,2007-12-23,15:45:54,2007-12-23,15:46:09,4
442588.3,4437516.066666666,39439.9711226852,39439.9712384259,8.297590011797197,2007-12-23,23:18:25,2007-12-23,23:18:35,-1
442865.35000000003,4425262.65,39440.4090162037,39440.4093055556,44.32031137073693,2007-12-24,09:48:59,2007-12-24,09:49:24,4
442564.6,4437523.8,39440.9043981481,39440.9043981481,0.0,2007-12-24,21:42:20,2007-12-24,21:42:20,-1
442886.0374999999,4425291.7375,39441.4124537037,39441.4127199074,26.32128416314343,2007-12-25,09:53:56,2007-12-25,09:54:19,4
442429.3333333333,4427098.199999999,39441.5205439815,39441.5209722222,14.993998799161524,2007-12-25,12:29:35,2007-12-25,12:30:12,30
441457.6,4435721.644444445,39442.3910185185,39442.3941550926,25.204959829370473,2007-12-26,09:23:04,2007-12-26,09:27:35,314
442600.35714285716,4437608.485714286,39442.9455787037,39442.9459259259,43.1453357852173,2007-12-26,22:41:38,2007-12-26,22:42:08,415
456391.5,4286259.5,39445.8998726852,39445.8998726852,0.0,2007-12-29,21:35:49,2007-12-29,21:35:49,-1
442607.96249999997,4437598.8375,39446.1146643519,39446.1149537037,47.52430956886505,2007-12-30,02:45:07,2007-12-30,02:45:32,415
442839.0,4425125.9,39446.6607291667,39446.6607291667,0.0,2007-12-30,15:51:27,2007-12-30,15:51:27,4
442756.36666666664,4437551.166666667,39447.9746643519,39447.9748726852,22.233533232496395,2007-12-31,23:23:31,2007-12-31,23:23:49,-1
442105.8333333333,4437253.2,39448.3943402778,39448.394537037,40.801960737250084,2008-01-01,09:27:51,2008-01-01,09:28:08,-1
441672.1473684211,4436677.505263157,39448.4971875,39448.5361805556,4.527692569068709,2008-01-01,11:55:57,2008-01-01,12:52:06,-1
424633.7,4436149.1,39448.5534375,39448.5534375,0.0,2008-01-01,13:16:57,2008-01-01,13:16:57,-1
442590.2,4437675.3,39450.9810185185,39450.9810185185,0.0,2008-01-03,23:32:40,2008-01-03,23:32:40,-1
440265.3,4435878.6,39451.4465393518,39451.4465393518,0.0,2008-01-04,10:43:01,2008-01-04,10:43:01,-1
442563.35555555555,4437392.944444444,39451.9728125,39451.9732523148,48.83287826882596,2008-01-04,23:20:51,2008-01-04,23:21:29,-1
442630.56666666665,4437599.800000001,39452.6000462963,39452.600162037,10.796758773240516,2008-01-05,14:24:04,2008-01-05,14:24:14,415
442599.93076923076,4437592.592307693,39453.9458217593,39454.4138773148,38.73938564304293,2008-01-06,22:41:59,2008-01-07,09:55:59,415
441509.3000000001,4435742.307692307,39454.4256712963,39454.4265509259,14.62771342312817,2008-01-07,10:12:58,2008-01-07,10:14:14,-1
442583.55,4437552.100000001,39454.940162037,39454.9404513889,29.334280287377172,2008-01-07,22:33:50,2008-01-07,22:34:15,-1
441458.1166666667,4435724.483333333,39455.3995138889,39455.4025347222,31.831116850951357,2008-01-08,09:35:18,2008-01-08,09:39:39,314
442581.125,4437573.925000001,39455.9757986111,39455.9759143519,4.981967483145817,2008-01-08,23:25:09,2008-01-08,23:25:19,415
442552.15,4437455.25,39456.9481365741,39456.9481712963,3.3015148045896097,2008-01-09,22:45:19,2008-01-09,22:45:22,-1
442939.04000000004,4427080.24,39457.3723842593,39457.3727314815,33.765366872173274,2008-01-10,08:56:14,2008-01-10,08:56:44,418
442603.2687500001,4437596.5875,39457.9352777778,39457.9360763889,46.9345288674587,2008-01-10,22:26:48,2008-01-10,22:27:57,415
442526.62222222215,4437381.922222222,39458.406099537,39458.4064236111,38.35322672177425,2008-01-11,09:44:47,2008-01-11,09:45:15,-1
443473.5,4436961.6,39458.9501736111,39458.9501736111,0.0,2008-01-11,22:48:15,2008-01-11,22:48:15,-1
442616.0,4437624.2,39461.9499074074,39461.9499074074,0.0,2008-01-14,22:47:52,2008-01-14,22:47:52,-1
441403.35,4435707.1,39462.3387384259,39462.3415277778,18.377431811923746,2008-01-15,08:07:47,2008-01-15,08:11:48,-1
485769.5,4480457.9,39462.5347685185,39462.5347685185,0.0,2008-01-15,12:50:04,2008-01-15,12:50:04,-1
486481.8,4470256.433333333,39464.4642361111,39464.4643055556,2.1400934553043554,2008-01-17,11:08:30,2008-01-17,11:08:36,-1