456712.5333333334,4422783.94,39657.5920717593,39657.5928819444,43.48666462245545,2008-07-28,14:12:35,2008-07-28,14:13:45,440
455941.5888888889,4424872.888888889,39658.2177546296,39658.2181597222,48.73817805321068,2008-07-29,05:13:34,2008-07-29,05:14:09,441
456693.19090909086,4422787.077272728,39658.4769212963,39658.4802777778,37.21088550394503,2008-07-29,11:26:46,2008-07-29,11:31:36,440
456000.9,4424897.75,39659.0551967593,39659.0552546296,8.558621384311845,2008-07-30,01:19:29,2008-07-30,01:19:34,-1
456726.8246753243,4422771.419294992,39659.6152199074,39659.6678240741,10.143470806387702,2008-07-30,14:45:55,2008-07-30,16:01:40,440
456724.6637583895,4422769.20671141,39659.6989583333,39659.7627893519,43.73785545743534,2008-07-30,16:46:30,2008-07-30,18:18:25,440
456717.3493975909,4422774.77204819,39659.7669560185,39659.8967013889,44.6221917883778,2008-07-30,18:24:25,2008-07-30,21:31:15,440
456709.70544464653,4422780.441197824,39659.9161458333,39659.9778356481,26.027101260010774,2008-07-30,21:59:15,2008-07-30,23:28:05,440
455938.2181818182,4424914.145454545,39660.0431365741,39660.0441782407,42.78703074548957,2008-07-31,01:02:07,2008-07-31,01:03:37,442
446638.94912280707,4427170.015438597,39660.1728240741,39660.2148958333,45.315891252458734,2008-07-31,04:08:52,2008-07-31,05:09:27,-1
447394.44000000006,4427835.7,39660.2716666667,39660.2718981481,14.511374848566113,2008-07-31,06:31:12,2008-07-31,06:31:32,-1
455929.76666666666,4424954.841666667,39661.0422222222,39661.0428009259,46.77018280860918,2008-08-01,01:00:48,2008-08-01,01:01:38,-1
447466.7166666666,4427892.833333334,39661.2886921296,39661.2889814815,23.654597861669103,2008-08-01,06:55:43,2008-08-01,06:56:08,-1
454797.87237048685,4419799.582731553,39661.3912037037,39661.4666087963,49.50070706606439,2008-08-01,09:23:20,2008-08-01,11:11:55,380
454808.70453920227,4419780.385969742,39661.4666666667,39661.5380787037,24.701821795172584,2008-08-01,11:12:00,2008-08-01,12:54:50,380
456721.45257410256,4422765.709204374,39661.6100347222,39661.683125,49.93525808500284,2008-08-01,14:38:27,2008-08-01,16:23:42,440
456726.28137254907,4422751.506862745,39661.7702777778,39661.7875231481,49.41710230326244,2008-08-01,18:29:12,2008-08-01,18:54:02,440
456702.8655532367,4422777.664926929,39661.8957407407,39661.9558680556,44.66855717435907,2008-08-01,21:29:52,2008-08-01,22:56:27,440
456713.4441520472,4422781.814766084,39662.0192939815,39662.1050578704,32.307584248895935,2008-08-02,00:27:47,2008-08-02,02:31:17,440
454799.0678921572,4419801.655882353,39662.2528703704,39662.2927430556,1.2369316876514163,2008-08-02,06:04:08,2008-08-02,07:01:33,380
455903.8,4424844.036363636,39664.0519212963,39664.1653125,44.50280890011326,2008-08-04,01:14:46,2008-08-04,03:58:03,-1
455956.7,4424885.321428572,39664.2774074074,39664.2781018519,45.00711054916546,2008-08-04,06:39:28,2008-08-04,06:40:28,441
448289.25749999966,4416874.71,39664.4691666667,39664.4740277778,14.103191128295126,2008-08-04,11:15:36,2008-08-04,11:22:36,-1
448413.8,4416840.779999999,39664.6152893519,39664.6155208333,33.65352878970781,2008-08-04,14:46:01,2008-08-04,14:46:21,-1
456722.3154929574,4422773.017840375,39664.7162731481,39664.7529050926,46.975419104221,2008-08-04,17:11:26,2008-08-04,18:04:11,440
456714.7771084338,4422771.626506029,39664.7549305556,39664.7919675926,45.042757464691555,2008-08-04,18:07:06,2008-08-04,19:00:26,440
456607.8,4423083.7,39664.8176273148,39664.8176273148,0.0,2008-08-04,19:37:23,2008-08-04,19:37:23,-1
455952.5199999999,4425013.895,39665.4224884259,39665.4235300926,49.65178748111471,2008-08-05,10:08:23,2008-08-05,10:09:53,-1
447519.6500000001,4427828.060526316,39666.0958680556,39666.0980092593,46.14336355317682,2008-08-06,02:18:03,2008-08-06,02:21:08,-1
456724.9272727273,4422766.863636363,39666.4344675926,39666.4350462963,48.92862148070139,2008-08-06,10:25:38,2008-08-06,10:26:28,440
451588.5,4418839.0,39667.1287731482,39667.1287731482,0.0,2008-08-07,03:05:26,2008-08-07,03:05:26,-1
453647.98571428575,4422211.492857142,39668.0691666667,39668.0698611111,45.073495538021376,2008-08-08,01:39:36,2008-08-08,01:40:36,-1
456706.39999999997,4422775.562500001,39668.1289930556,39668.1317708333,31.77058387898938,2008-08-08,03:05:45,2008-08-08,03:09:45,440
454786.85833333334,4419844.791666667,39679.2404513889,39679.241087963,44.93606569338264,2008-08-19,05:46:15,2008-08-19,05:47:10,380
442872.86363636353,4425271.113636363,39680.3629861111,39680.3641435185,47.22298169304115,2008-08-20,08:42:42,2008-08-20,08:44:22,4
437534.8374999999,4417631.243749999,39681.2737731481,39681.2745833333,48.63712573755082,2008-08-21,06:34:14,2008-08-21,06:35:24,-1
456716.15624999994,4422784.6125,39683.6205208333,39684.0149189815,44.43028246555455,2008-08-23,14:53:33,2008-08-24,00:21:29,440
445802.24666666664,4428257.193333333,39684.0610416667,39684.0616550926,9.97246208352802,2008-08-24,01:27:54,2008-08-24,01:28:47,-1
456731.01969696995,4422740.958585857,39685.4856828704,39685.5223263889,48.84147827426154,2008-08-25,11:39:23,2008-08-25,12:32:09,440
456725.3531183928,4422754.246088801,39685.5331365741,39685.7285185185,47.538615882018775,2008-08-25,12:47:43,2008-08-25,17:29:04,440
456725.6012836965,4422755.89306804,39685.7285763889,39685.8794444444,48.60370356279869,2008-08-25,17:29:09,2008-08-25,21:06:24,440
456724.8428267051,4422755.807457394,39685.8795023148,39685.9985185185,49.02295380697475,2008-08-25,21:06:29,2008-08-25,23:57:52,440
456714.39966499206,4422774.948073706,39685.9985763889,39686.0297222222,29.757856105399657,2008-08-25,23:57:57,2008-08-26,00:42:48,440
455942.04000000004,4424867.42,39686.0572685185,39686.0577893518,47.7821096225719,2008-08-26,01:22:28,2008-08-26,01:23:13,441
446400.61578947376,4412740.542105263,39689.030150463,39689.0308796296,21.332135383038302,2008-08-29,00:43:25,2008-08-29,00:44:28,-1
518737.80810810806,4328134.84054054,39689.2083449074,39689.2133333333,26.931208661899326,2008-08-29,05:00:01,2008-08-29,05:07:12,-1
515685.35467625887,4330996.501438851,39689.4054166667,39689.4218055556,13.598897013922961,2008-08-29,09:43:48,2008-08-29,10:07:24,-1
519322.9,4329950.85,39689.7490393519,39689.7490509259,18.62605701715902,2008-08-29,17:58:37,2008-08-29,17:58:38,-1
456706.6871794871,4422800.815384616,39693.1965046296,39693.235150463,9.40478601532987,2008-09-02,04:42:58,2008-09-02,05:38:37,440
456051.56666666665,4424984.966666666,39693.2534837963,39693.253599537,2.5495097567963922,2008-09-02,06:05:01,2008-09-02,06:05:11,-1
453908.98103448265,4419344.605172414,39693.4683333333,39693.531412037,41.095498536943616,2008-09-02,11:14:24,2008-09-02,12:45:14,-1
454809.89182561374,4419801.279836511,39693.5934027778,39693.6319907407,45.01310920147133,2008-09-02,14:14:30,2008-09-02,15:10:04,380
454802.1890728475,4419787.19652318,39693.6538194444,39693.7735532407,49.611792952715795,2008-09-02,15:41:30,2008-09-02,18:33:55,380
454800.0679131492,4419799.272738236,39693.7831018518,39693.8752777778,49.562586695905274,2008-09-02,18:47:40,2008-09-02,21:00:24,380
454794.03235294146,4419809.617647057,39693.9300694444,39693.9814583333,15.250245899880955,2008-09-02,22:19:18,2008-09-02,23:33:18,380
455945.30000000005,4424876.05625,39696.0605439815,39696.0613541667,40.28808757004213,2008-09-05,01:27:11,2008-09-05,01:28:21,441
454921.8325,4417583.3100000005,39696.1287268519,39696.1306944444,40.188182342580724,2008-09-05,03:05:22,2008-09-05,03:08:12,-1
455955.51428571437,4424926.528571429,39696.2535416667,39696.2542361111,43.09106635951279,2008-09-05,06:05:06,2008-09-05,06:06:06,442
455791.74999999994,4424695.375,39696.4325,39696.4325578704,31.51586901863885,2008-09-05,10:22:48,2008-09-05,10:22:53,-1
454844.35789473687,4419893.915789473,39697.6635185185,39697.6643518518,41.91336302420782,2008-09-06,15:55:28,2008-09-06,15:56:40,-1
456706.31,4422775.675454546,39698.1467939815,39698.1545138889,28.469281690792165,2008-09-07,03:31:23,2008-09-07,03:42:30,440
450467.8123809524,4434627.67904762,39698.2873611111,39698.3333217593,48.323286312076036,2008-09-07,06:53:48,2008-09-07,07:59:59,-1
454795.71041666664,4419798.939583334,39698.5267708333,39698.5292592593,30.725884853178588,2008-09-07,12:38:33,2008-09-07,12:42:08,380
455937.7444444445,4424832.855555555,39699.0562152778,39699.0571412037,48.100935541465205,2008-09-08,01:20:57,2008-09-08,01:22:17,-1
456713.29040000023,4422772.534400001,39699.1958912037,39699.2313888889,49.13369515886453,2008-09-08,04:42:05,2008-09-08,05:33:12,440
456018.8,4424934.066666667,39699.245474537,39699.2455324074,45.55008232656759,2008-09-08,05:53:29,2008-09-08,05:53:34,-1
456718.3692307692,4422737.046153847,39699.4618287037,39699.4625231481,31.246439797214645,2008-09-08,11:05:02,2008-09-08,11:06:02,440
454782.8985074628,4419833.338805971,39699.5416203704,39699.5449189815,45.973905642410124,2008-09-08,12:59:56,2008-09-08,13:04:41,380
453659.29230769235,4422209.607692307,39700.0776157407,39700.0782523148,42.63531400166666,2008-09-09,01:51:46,2008-09-09,01:52:41,-1
447698.6463414633,4427870.087804877,39700.2364814815,39700.2386689815,31.80597428125348,2008-09-09,05:40:32,2008-09-09,05:43:41,-1
454839.3044444445,4418116.833333333,39700.4179861111,39700.4926851852,41.20934360067006,2008-09-09,10:01:54,2008-09-09,11:49:28,-1
454410.7,4417609.7,39700.5337268518,39700.5337268518,0.0,2008-09-09,12:48:34,2008-09-09,12:48:34,-1
454798.72905198816,4419792.350152905,39700.6669212963,39700.7243865741,49.76635409591708,2008-09-09,16:00:22,2008-09-09,17:23:07,380
454821.76136363635,4419755.83181818,39700.7609375,39700.7629976852,13.884163640425019,2008-09-09,18:15:45,2008-09-09,18:18:43,380
455953.6230769231,4424876.276923077,39702.0596875,39702.0603125,36.10498580473488,2008-09-11,01:25:57,2008-09-11,01:26:51,441
456703.87812500005,4422794.715625001,39702.1813310185,39702.2334143519,36.76139279179887,2008-09-11,04:21:07,2008-09-11,05:36:07,440
455934.2727272728,4424957.445454544,39702.2446180556,39702.2451157407,35.4132743476598,2008-09-11,05:52:15,2008-09-11,05:52:58,-1
456710.54365079355,4422764.382804231,39702.4296643519,39702.468275463,47.880371761119775,2008-09-11,10:18:43,2008-09-11,11:14:19,440
456734.44919354835,4422725.974193548,39702.4747453704,39702.4871875,30.967240755880347,2008-09-11,11:23:38,2008-09-11,11:41:33,-1
455986.8125,4424951.912500001,39703.0591550926,39703.0596875,28.03176769320948,2008-09-12,01:25:11,2008-09-12,01:25:57,-1
456721.4006535952,4422765.139215687,39703.1865046296,39703.2286226852,43.008138764840886,2008-09-12,04:28:34,2008-09-12,05:29:13,440
455953.63571428566,4424876.992857143,39703.2385648148,39703.239224537,40.50530829428213,2008-09-12,05:43:32,2008-09-12,05:44:29,441
456689.30625,4422813.09375,39703.4533564815,39703.4541666667,45.65796754139402,2008-09-12,10:52:50,2008-09-12,10:54:00,-1
456717.8923076927,4422756.529467458,39704.2621759259,39704.342650463,45.70525133976864,2008-09-13,06:17:32,2008-09-13,08:13:25,440
456721.39076923067,4422790.006153847,39704.3427083333,39704.436724537,46.31306511116328,2008-09-13,08:13:30,2008-09-13,10:28:53,440
456734.3220385675,4422743.749862252,39704.4554861111,39704.4934722222,22.730816087421996,2008-09-13,10:55:54,2008-09-13,11:50:36,440
456724.7133333332,4422764.515555556,39704.4938888889,39704.4962615741,2.433105011571925,2008-09-13,11:51:12,2008-09-13,11:54:37,440
456698.10555555555,4422767.838888889,39705.1761226852,39705.177025463,49.678969393496885,2008-09-14,04:13:37,2008-09-14,04:14:55,440
456058.2571428572,4424663.8,39705.4460532407,39705.4463425926,41.90477299833542,2008-09-14,10:42:19,2008-09-14,10:42:44,-1
449934.28918918915,4411888.05945946,39706.0159953704,39706.0178472222,48.0130190677487,2008-09-15,00:23:02,2008-09-15,00:25:42,-1
447823.68333333323,4425375.788888889,39706.0744097222,39706.0753356481,48.40010330593792,2008-09-15,01:47:09,2008-09-15,01:48:29,-1
456707.0333333333,4422737.326666666,39706.3347800926,39706.3355902778,45.045754517052565,2008-09-15,08:02:05,2008-09-15,08:03:15,440
454813.0370165749,4419783.985635354,39706.5443287037,39706.553287037,13.354400023818476,2008-09-15,13:03:50,2008-09-15,13:16:44,380
454806.8489795914,4419780.946122446,39707.3531597222,39707.3961574074,11.780067911802247,2008-09-16,08:28:33,2008-09-16,09:30:28,380
456725.60437956196,4422759.47116788,39707.4789351852,39707.5211111111,16.216349774576255,2008-09-16,11:29:40,2008-09-16,12:30:24,440
456715.2249999999,4422779.860000001,39708.1848842593,39708.1858680556,32.988028131956554,2008-09-17,04:26:14,2008-09-17,04:27:39,440
455984.7571428572,4425013.057142857,39708.2575578704,39708.2578472222,46.91620189234343,2008-09-17,06:10:53,2008-09-17,06:11:18,-1
452379.04545454547,4423771.309090909,39708.4884027778,39708.4890740741,19.842630873991386,2008-09-17,11:43:18,2008-09-17,11:44:16,-1
447492.3185185186,4427860.885185186,39709.2415972222,39709.2430439815,39.76342540558784,2008-09-18,05:47:54,2008-09-18,05:49:59,-1
456711.1408469947,4422771.650683055,39711.8681828704,39711.9506828704,43.4079485807666,2008-09-20,20:50:11,2008-09-20,22:48:59,440
456706.1137440755,4422765.252132703,39711.9898263889,39712.0313194444,44.479770683244496,2008-09-20,23:45:21,2008-09-21,00:45:06,440
456709.2710906709,4422772.719710905,39712.0432175926,39712.1081828704,48.93362851863736,2008-09-21,01:02:14,2008-09-21,02:35:47,440
456713.74637681176,4422769.591304349,39712.1087037037,39712.1478356481,48.649152099716076,2008-09-21,02:36:32,2008-09-21,03:32:53,440
456707.15494071116,4422773.732806321,39712.1532638889,39712.2078356481,47.664242362485574,2008-09-21,03:40:42,2008-09-21,04:59:17,440
456708.3006578946,4422776.6243421035,39712.244837963,39712.284212963,46.2455403255923,2008-09-21,05:52:34,2008-09-21,06:49:16,440
456713.88769230765,4422770.137115385,39712.3366782407,39712.3950810185,44.37668306663934,2008-09-21,08:04:49,2008-09-21,09:28:55,440
456709.9648734168,4422782.608386073,39712.4193055556,39712.4873148148,34.92763948518374,2008-09-21,10:03:48,2008-09-21,11:41:44,440
455956.3416666666,4424907.175,39713.0370138889,39713.037974537,36.221816629991366,2008-09-22,00:53:18,2008-09-22,00:54:41,442
455922.38499999995,4424826.885,39713.2437268518,39713.2447106481,47.30507372343546,2008-09-22,05:50:58,2008-09-22,05:52:23,-1
456709.93289473676,4422775.463947369,39713.6375810185,39713.6638310185,13.729530217464047,2008-09-22,15:18:07,2008-09-22,15:55:55,440
455348.36,4425114.13,39714.4425578704,39714.4430787037,48.764741360860256,2008-09-23,10:37:17,2008-09-23,10:38:02,-1
456003.3272727272,4424856.3,39714.4816550926,39714.4820486111,42.88228072292504,2008-09-23,11:33:35,2008-09-23,11:34:09,-1
455976.5727272728,4425441.345454546,39715.1165277778,39715.1170023148,44.02465218459633,2008-09-24,02:47:48,2008-09-24,02:48:29,-1
455995.0333333332,4425001.858333333,39715.1959953704,39715.1965393518,21.15703192781431,2008-09-24,04:42:14,2008-09-24,04:43:01,-1
455980.43333333335,4424923.133333334,39715.3600694444,39715.3601388889,7.1028163433908045,2008-09-24,08:38:30,2008-09-24,08:38:36,-1
454793.0714285714,4419821.928571428,39715.5350578704,39715.5374189815,26.224034777014705,2008-09-24,12:50:29,2008-09-24,12:53:53,380
455948.56923076935,4424886.384615385,39716.0425462963,39716.0431828704,43.81152816288671,2008-09-25,01:01:16,2008-09-25,01:02:11,441
455944.11249999993,4424882.9,39718.0454398148,39718.0462152778,42.24523641785388,2008-09-27,01:05:26,2008-09-27,01:06:33,441
456722.843783784,4422744.288378377,39718.19375,39718.2290740741,41.598677863329016,2008-09-27,04:39:00,2008-09-27,05:29:52,440
455954.89230769244,4424920.292307693,39718.2502662037,39718.2508912037,41.45322665422059,2008-09-27,06:00:23,2008-09-27,06:01:17,442
456788.36666666664,4422700.988888889,39718.5937847222,39718.5946527778,44.42127868503625,2008-09-27,14:15:03,2008-09-27,14:16:18,-1
467923.0250000001,4416529.083333333,39721.3693981481,39721.3697800926,32.255542159277006,2008-09-30,08:51:56,2008-09-30,08:52:29,-1
456011.12,4424868.74,39726.1845833333,39726.1847569444,46.54137943845646,2008-10-05,04:25:48,2008-10-05,04:26:03,-1
456687.43928571435,4422822.5571428565,39726.4390277778,39726.4403703704,23.745315327443052,2008-10-05,10:32:12,2008-10-05,10:34:08,-1
456056.9,4424913.6,39727.0368171296,39727.0368171296,0.0,2008-10-06,00:53:01,2008-10-06,00:53:01,-1
455955.5384615386,4424927.761538462,39727.2405324074,39727.2411458333,49.52272205765753,2008-10-06,05:46:22,2008-10-06,05:47:15,442
454797.8,4419807.271505375,39727.490787037,39727.528287037,47.5063153699907,2008-10-06,11:46:44,2008-10-06,12:40:44,380
456715.914965986,4422761.772108841,39727.5792939815,39727.632650463,30.59444394034873,2008-10-06,13:54:11,2008-10-06,15:11:01,440