509403.54444444436,4338019.744444444,40090.4986574074,40090.4991203704,38.829499095245176,2009-10-04,11:58:04,2009-10-04,11:58:44,-1
512444.17777777783,4336883.333333333,40091.4988657407,40091.4993287037,15.184531602544581,2009-10-05,11:58:22,2009-10-05,11:59:02,-1
513028.3,4342850.3,40094.7163541667,40094.7163541667,0.0,2009-10-08,17:11:33,2009-10-08,17:11:33,-1
442764.0933333332,4425849.06,40094.7842361111,40094.8043171296,33.90943821453312,2009-10-08,18:49:18,2009-10-08,19:18:13,118
445717.77619047614,4425270.823809524,40095.8754282407,40095.8764699074,32.68332908399,2009-10-09,21:00:37,2009-10-09,21:02:07,-1
446233.575,4417555.633333333,40097.6921180556,40097.6927546296,46.90469059715652,2009-10-11,16:36:39,2009-10-11,16:37:34,-1