441631.22500000003,4426743.787500001,39718.047974537,39718.0483217593,34.11158161079692,2008-09-27,01:09:05,2008-09-27,01:09:35,140
441736.06999999995,4426656.14,39718.1483796296,39718.1488425926,47.970199082372964,2008-09-27,03:33:40,2008-09-27,03:34:20,-1
442751.0083333333,4425946.258333334,39718.4746064815,39718.4752430556,23.245214561771608,2008-09-27,11:23:26,2008-09-27,11:24:21,115
441389.0888888889,4426585.133333334,39719.1015740741,39719.102037037,48.746897337166274,2008-09-28,02:26:16,2008-09-28,02:26:56,-1
444303.2250000001,4421241.76875,39720.1957407407,39720.1974189815,45.71061145946914,2008-09-29,04:41:52,2008-09-29,04:44:17,60
450630.56666666665,4416936.600000001,39720.2641203704,39720.2642361111,22.405579662183154,2008-09-29,06:20:20,2008-09-29,06:20:30,-1
269279.5,4467448.2,39720.6228240741,39720.6228240741,0.0,2008-09-29,14:56:52,2008-09-29,14:56:52,-1
637421.3,4653891.9,39720.8778356481,39720.8778356481,0.0,2008-09-29,21:04:05,2008-09-29,21:04:05,-1
747565.6342857139,4626391.28857143,39721.2409027778,39721.2462268519,45.53877468726227,2008-09-30,05:46:54,2008-09-30,05:54:34,-1
263341.35500000004,4555864.505,39721.3824768519,39721.3833449074,48.993264843234265,2008-09-30,09:10:46,2008-09-30,09:12:01,-1
374135.79411764693,4670985.561764704,39722.5430902778,39722.9568287037,19.388914358505296,2008-10-01,13:02:03,2008-10-01,22:57:50,-1
389217.7,4656394.7,39723.2346527778,39723.2346527778,0.0,2008-10-02,05:37:54,2008-10-02,05:37:54,-1
428510.44810126576,4699954.307341776,39723.5108912037,39723.8860648148,36.61106390146686,2008-10-02,12:15:41,2008-10-02,21:15:56,-1
442756.01363636367,4425964.200000001,39726.4160416667,39726.4171412037,35.921302871689434,2008-10-05,09:59:06,2008-10-05,10:00:41,115
441650.28750000003,4426774.274999999,39727.0372569444,39727.0380092593,48.67853736515417,2008-10-06,00:53:39,2008-10-06,00:54:44,140
441620.6,4426752.7625,39727.1948958333,39727.1952430556,37.71949098240836,2008-10-06,04:40:39,2008-10-06,04:41:09,140