440828.23098591523,4426787.458098592,40509.3823842593,40509.4065277778,11.1892805843795,2010-11-27,09:10:38,2010-11-27,09:45:24,-1
622435.9052631578,2726457.7614035085,40573.657349537,40573.7109027778,43.10742395465275,2011-01-30,15:46:35,2011-01-30,17:03:42,-1
615254.9,2736336.5,40573.8281365741,40573.8282407407,44.203732874063896,2011-01-30,19:52:31,2011-01-30,19:52:40,-1
524061.6,3522810.8,40652.6145486111,40652.6145486111,0.0,2011-04-19,14:44:57,2011-04-19,14:44:57,-1
524081.89545454545,3522903.4272727277,40653.134224537,40653.2022222222,6.074537019466843,2011-04-20,03:13:17,2011-04-20,04:51:12,-1
523594.0739130434,3522916.4673913037,40653.2154282407,40653.2213541667,41.67601228506395,2011-04-20,05:10:13,2011-04-20,05:18:45,-1
523708.09473684203,3522663.210526316,40653.3021064815,40653.3023148148,16.160445538433354,2011-04-20,07:15:02,2011-04-20,07:15:20,-1
523723.4,3522768.8,40653.3526273148,40653.3526273148,0.0,2011-04-20,08:27:47,2011-04-20,08:27:47,-1
523516.3634146342,3522885.6243902436,40653.3909375,40653.4015509259,47.4178236530927,2011-04-20,09:22:57,2011-04-20,09:38:14,-1
523460.7,3522841.0,40653.4376967593,40653.4376967593,0.0,2011-04-20,10:30:17,2011-04-20,10:30:17,-1
528612.5,3516335.8666666667,40654.3904976852,40654.3905787037,11.591807451856765,2011-04-21,09:22:19,2011-04-21,09:22:26,-1