442865.7299999999,4425346.913333332,39829.3572916667,39829.3587962963,22.13255520776412,2009-01-16,08:34:30,2009-01-16,08:36:40,4
442864.76000000007,4425388.0,39832.2016550926,39832.2018865741,38.091075069969186,2009-01-19,04:50:23,2009-01-19,04:50:43,4
442827.9285714286,4425228.371428571,39833.051087963,39833.0514351852,47.14923117091573,2009-01-20,01:13:34,2009-01-20,01:14:04,4
442907.02857142856,4425274.5571428565,39833.2218171296,39833.4247916667,43.722419877980656,2009-01-20,05:19:25,2009-01-20,10:11:42,4
442913.1444444445,4425548.333333333,39833.4403472222,39833.4407523148,43.37211085460183,2009-01-20,10:34:06,2009-01-20,10:34:41,4
442858.8625,4425250.7625,39834.0416782407,39834.0420833333,38.45841910446366,2009-01-21,01:00:01,2009-01-21,01:00:36,4
442570.06666666665,4425298.316666667,39835.0633796296,39835.0636342593,40.964618880388656,2009-01-22,01:31:16,2009-01-22,01:31:38,-1
442916.75,4425580.666666667,39836.4361805556,39836.4364699074,19.349677000093177,2009-01-23,10:28:06,2009-01-23,10:28:31,4
442887.77142857143,4425259.028571429,39837.0770486111,39837.0773958333,48.12691554634626,2009-01-24,01:50:57,2009-01-24,01:51:27,4
442849.01666666666,4425410.1,39837.1547222222,39837.1550115741,11.527792503203203,2009-01-24,03:42:48,2009-01-24,03:43:13,4
442981.00656934315,4425561.26350365,39837.3625578704,39837.377662037,39.69408016302247,2009-01-24,08:42:05,2009-01-24,09:03:50,4
356114.32,3459158.4800000004,39840.2913078704,39840.2917708333,40.04460013536438,2009-01-27,06:59:29,2009-01-27,07:00:09,-1
355962.0,3459050.9846153837,39840.4003240741,39840.4010185185,47.873165761390624,2009-01-27,09:36:28,2009-01-27,09:37:28,-1
358396.5888888889,3463276.4888888886,39840.5446990741,39840.5451041667,48.86153906694811,2009-01-27,13:04:22,2009-01-27,13:04:57,-1
358439.2888888889,3463567.5444444446,39841.2569907407,39841.2574537037,10.346496991902423,2009-01-28,06:10:04,2009-01-28,06:10:44,-1
358385.4875,3463331.9625,39841.3777777778,39841.3781828704,44.37409153998136,2009-01-28,09:04:00,2009-01-28,09:04:35,-1
442252.73076923087,4427166.315384615,39851.4040046296,39851.4046412037,36.058424812702086,2009-02-07,09:41:46,2009-02-07,09:42:41,-1
442880.1333333333,4425549.366666666,39851.5229861111,39851.5234490741,44.293679007185844,2009-02-07,12:33:06,2009-02-07,12:33:46,4
441150.77058823535,4426009.923529411,39857.505150463,39857.5060185185,37.31179438225523,2009-02-13,12:07:25,2009-02-13,12:08:40,234
442875.11818181816,4425528.5,39857.5825810185,39857.5831018519,40.8221753461969,2009-02-13,13:58:55,2009-02-13,13:59:40,4
357193.44999999995,3463429.0875,39862.0733912037,39862.0737962963,49.3758037909891,2009-02-18,01:45:41,2009-02-18,01:46:16,-1
358329.0,3463244.1,39862.3869560185,39862.3870138889,15.678010077907853,2009-02-18,09:17:13,2009-02-18,09:17:18,-1
443370.78666666656,4425230.793333333,39876.4107060185,39876.4115162037,45.04986126515346,2009-03-04,09:51:25,2009-03-04,09:52:35,103