442888.72857142857,4425251.628571427,39594.344537037,39594.345462963,3.201562118647337,2008-05-26,08:16:08,2008-05-26,08:17:28,4
442984.9733333333,4425542.426666667,39594.5815625,39594.5822337963,47.622368693723864,2008-05-26,13:57:27,2008-05-26,13:58:25,4
442890.3,4425340.0,39595.0314236111,39595.0314236111,0.0,2008-05-27,00:45:15,2008-05-27,00:45:15,4
442886.49000000005,4425244.19,39597.3324074074,39597.3332407407,5.2630789464124454,2008-05-29,07:58:40,2008-05-29,07:59:52,4
443915.5333333334,4424299.466666666,39597.6212847222,39597.6213310185,37.602127599007005,2008-05-29,14:54:39,2008-05-29,14:54:43,411
442857.13488372095,4427169.995348837,39600.4320601852,39600.4928009259,49.483835744947754,2008-06-01,10:22:10,2008-06-01,11:49:38,-1