448593.4,4423718.6,39508.2614814815,39508.2614814815,0.0,2008-03-01,06:16:32,2008-03-01,06:16:32,-1
442817.5,4425249.85,39509.336712963,39509.3375115741,48.03134393248847,2008-03-02,08:04:52,2008-03-02,08:06:01,4
442882.30000000005,4425166.15,39509.4808796296,39509.4809837963,32.2479456708709,2008-03-02,11:32:28,2008-03-02,11:32:37,4
441872.7,4428355.7,39513.3199768519,39513.3267592593,32.664353659631196,2008-03-06,07:40:46,2008-03-06,07:50:32,-1
442848.4,4425291.300000001,39513.4734027778,39513.4758680556,46.72986197267889,2008-03-06,11:21:42,2008-03-06,11:25:15,4
442874.25,4425321.6,39514.0850925926,39517.7154282407,48.28426244597238,2008-03-07,02:02:32,2008-03-10,17:10:13,4
441981.8,4428670.3,39517.7279513889,39517.7279513889,0.0,2008-03-10,17:28:15,2008-03-10,17:28:15,20
442844.0,4425272.8,39518.0959143518,39518.0959143518,0.0,2008-03-11,02:18:07,2008-03-11,02:18:07,4
441991.7,4428662.8,39518.682974537,39518.682974537,0.0,2008-03-11,16:23:29,2008-03-11,16:23:29,20
442819.8,4425267.4,39519.1041782407,39519.1041782407,0.0,2008-03-12,02:30:01,2008-03-12,02:30:01,4
442001.5,4428644.3,39520.7207060185,39520.7207060185,0.0,2008-03-13,17:17:49,2008-03-13,17:17:49,20
442410.0,4428112.1,39521.3043981481,39521.3043981481,0.0,2008-03-14,07:18:20,2008-03-14,07:18:20,-1
450711.75,4424623.050000001,39521.4507638889,39521.4511805556,47.02531233297736,2008-03-14,10:49:06,2008-03-14,10:49:42,359
451342.6,4425339.6,39521.5858912037,39521.5858912037,0.0,2008-03-14,14:03:41,2008-03-14,14:03:41,-1
442853.8666666667,4425259.8,39521.6226041667,39521.7649884259,37.694827231336276,2008-03-14,14:56:33,2008-03-14,18:21:35,4
441978.9,4428660.15,39521.7766666667,39521.7770717593,37.73022660900733,2008-03-14,18:38:24,2008-03-14,18:38:59,20
442330.75,4428168.15,39522.2445023148,39522.2452546296,40.600738909873556,2008-03-15,05:52:05,2008-03-15,05:53:10,-1
445577.9,4425441.5,39522.3668981481,39522.3668981481,0.0,2008-03-15,08:48:20,2008-03-15,08:48:20,-1
442021.6,4428666.3,39522.5849884259,39522.5856944444,34.618492168214466,2008-03-15,14:02:23,2008-03-15,14:03:24,20
442731.95,4425228.3,39523.0931481481,39523.0971643519,39.62032306755675,2008-03-16,02:14:08,2008-03-16,02:19:55,4
450455.6,4424855.0,39524.5364814815,39524.5364814815,0.0,2008-03-17,12:52:32,2008-03-17,12:52:32,371
442865.30000000005,4425269.9,39524.650787037,39524.6510069444,31.400636935656454,2008-03-17,15:37:08,2008-03-17,15:37:27,4
441992.6615384615,4428664.100000001,39527.0391898148,39527.0424305556,37.010944327455135,2008-03-20,00:56:26,2008-03-20,01:01:06,20
442809.3857142857,4425265.257142858,39527.4354282407,39527.4356712963,45.08769233411445,2008-03-20,10:27:01,2008-03-20,10:27:22,4
441987.08571428567,4428685.028571429,39527.9758796296,39527.9761574074,49.727758847660326,2008-03-20,23:25:16,2008-03-20,23:25:40,20
442563.8333333333,4425247.383333333,39528.4264930556,39528.4266898148,40.948015825130796,2008-03-21,10:14:09,2008-03-21,10:14:26,69
442005.4571428571,4428651.442857143,39529.1310069444,39529.1312384259,44.87939393527862,2008-03-22,03:08:39,2008-03-22,03:08:59,20
442812.63999999996,4425257.78,39529.5606481481,39529.560787037,43.69462209422863,2008-03-22,13:27:20,2008-03-22,13:27:32,4
442987.1,4425079.3,39529.9174537037,39529.9174537037,0.0,2008-03-22,22:01:08,2008-03-22,22:01:08,4
443053.3,4428196.0,39530.0302662037,39530.0302662037,0.0,2008-03-23,00:43:35,2008-03-23,00:43:35,-1
444241.7,4421228.8,39530.4280671296,39530.4280671296,0.0,2008-03-23,10:16:25,2008-03-23,10:16:25,-1
442879.125,4425209.825,39530.8813425926,39530.8814930556,40.205720986119076,2008-03-23,21:09:08,2008-03-23,21:09:21,4
442009.5857142857,4428661.557142857,39531.1239236111,39531.1241550926,48.05039021694641,2008-03-24,02:58:27,2008-03-24,02:58:47,20
442834.83999999997,4425246.9399999995,39531.4187615741,39531.7362268518,27.066769293174552,2008-03-24,10:03:01,2008-03-24,17:40:10,4
442431.3,4428389.8,39531.8222222222,39531.8222222222,0.0,2008-03-24,19:44:00,2008-03-24,19:44:00,-1
442556.44999999995,4425335.325,39532.4181481482,39532.4184606481,49.647255714864286,2008-03-25,10:02:08,2008-03-25,10:02:35,-1
441996.60000000003,4428668.014285714,39535.0170717593,39535.0173032407,42.509528343662794,2008-03-28,00:24:35,2008-03-28,00:24:55,20
442578.5285714286,4425231.8,39535.4265625,39535.4267939815,32.85254936816879,2008-03-28,10:14:15,2008-03-28,10:14:35,-1
441191.8,4428383.3,39535.5141203704,39535.5141203704,0.0,2008-03-28,12:20:20,2008-03-28,12:20:20,-1
442593.0,4425814.1,39535.5769097222,39535.5769097222,0.0,2008-03-28,13:50:45,2008-03-28,13:50:45,-1
442026.1,4428741.0,39535.9072453704,39535.9072453704,0.0,2008-03-28,21:46:26,2008-03-28,21:46:26,422
441942.575,4428649.05,39535.9753703704,39535.9754976852,26.2194584227164,2008-03-28,23:24:32,2008-03-28,23:24:43,-1
442805.2555555556,4425253.955555555,39536.8987037037,39536.8990277778,46.08253465235318,2008-03-29,21:34:08,2008-03-29,21:34:36,4
442011.98,4428666.42,39538.0931597222,39538.0933217593,43.576369743170616,2008-03-31,02:14:09,2008-03-31,02:14:23,20
442692.75,4425221.033333333,39538.4484490741,39538.4486574074,38.83606571218163,2008-03-31,10:45:46,2008-03-31,10:46:04,4
442001.77142857143,4428675.5,39539.152025463,39539.1522800926,24.04682931266524,2008-04-01,03:38:55,2008-04-01,03:39:17,20
442808.41000000003,4425247.04,39539.5336111111,39539.5339467593,49.63970185208708,2008-04-01,12:48:24,2008-04-01,12:48:53,4
441999.51666666666,4428664.183333334,39540.0243402778,39540.0245138889,40.03198721021488,2008-04-02,00:35:03,2008-04-02,00:35:18,20
442918.10000000003,4425102.45,39540.5051736111,39540.5057638889,7.877182237389696,2008-04-02,12:07:27,2008-04-02,12:08:18,334
450727.0833333333,4424600.066666666,39540.784537037,39540.7848263889,47.223087573235595,2008-04-02,18:49:44,2008-04-02,18:50:09,359
443070.0,4425235.766666667,39540.939224537,39540.9392939815,4.751841748108448,2008-04-02,22:32:29,2008-04-02,22:32:35,4
442003.65714285715,4428662.714285715,39541.1018981481,39541.1021296296,44.00090908152404,2008-04-03,02:26:44,2008-04-03,02:27:04,20
442587.95999999996,4425483.2,39541.4154050926,39541.4155671296,34.767945006840925,2008-04-03,09:58:11,2008-04-03,09:58:25,44
441983.85,4428662.9,39541.6967013889,39541.6969675926,49.39726713102515,2008-04-03,16:43:15,2008-04-03,16:43:38,20
433933.80000000005,4425798.15,39542.0888425926,39542.0948726852,38.62499190937348,2008-04-04,02:07:56,2008-04-04,02:16:37,-1
442404.7,4429092.6,39542.1948263889,39542.1948263889,0.0,2008-04-04,04:40:33,2008-04-04,04:40:33,-1
441986.1,4428677.7,39542.2452546296,39542.2452546296,0.0,2008-04-04,05:53:10,2008-04-04,05:53:10,20
442839.75,4425272.85,39542.347037037,39542.3473032407,42.701053851116036,2008-04-04,08:19:44,2008-04-04,08:20:07,4
450738.4,4424559.1,39543.1586574074,39543.1586574074,0.0,2008-04-05,03:48:28,2008-04-05,03:48:28,359
448681.19999999995,4423750.35,39543.2427430556,39543.2487847222,36.20842443374087,2008-04-05,05:49:33,2008-04-05,05:58:15,-1
447733.2,4420966.2,39543.4874884259,39543.4874884259,0.0,2008-04-05,11:41:59,2008-04-05,11:41:59,-1
447628.15,4421005.800000001,39543.5334375,39543.5382291667,41.096593532654744,2008-04-05,12:48:09,2008-04-05,12:55:03,-1
448721.4,4423695.5,39543.6396990741,39543.6396990741,0.0,2008-04-05,15:21:10,2008-04-05,15:21:10,-1
442817.2,4425268.7,39544.5392013889,39545.0211805556,25.653069991694924,2008-04-06,12:56:27,2008-04-07,00:30:30,4
442000.19999999995,4428669.25,39545.0323032407,39545.5189351852,25.890731932936916,2008-04-07,00:46:31,2008-04-07,12:27:16,20
442802.775,4425251.5375,39545.565474537,39545.5657407407,45.66333321167421,2008-04-07,13:34:17,2008-04-07,13:34:40,4
442803.625,4425251.399999999,39545.6365856482,39545.6368518519,38.23820079450283,2008-04-07,15:16:41,2008-04-07,15:17:04,4
442022.43636363634,4428656.027272727,39546.0690393519,39546.4265046296,34.948104383054826,2008-04-08,01:39:25,2008-04-08,10:14:10,20
442801.96,4425242.126666667,39546.4453125,39546.4456944444,43.44801491422563,2008-04-08,10:41:15,2008-04-08,10:41:48,4
442008.93333333335,4428668.21111111,39550.1574305556,39550.1576273148,46.519243330056995,2008-04-12,03:46:42,2008-04-12,03:46:59,20
442539.58181818185,4426980.309090909,39550.5225810185,39550.5228240741,46.04345773288535,2008-04-12,12:32:31,2008-04-12,12:32:52,14
447449.6,4423884.4,39550.6336921296,39550.6336921296,0.0,2008-04-12,15:12:31,2008-04-12,15:12:31,-1
440150.5,4425137.0,39550.6998842593,39550.6998842593,0.0,2008-04-12,16:47:50,2008-04-12,16:47:50,-1
442125.89999999997,4428056.533333334,39551.0528009259,39551.0529166667,19.811612755503763,2008-04-13,01:16:02,2008-04-13,01:16:12,-1
442803.58823529416,4425244.752941176,39551.4871527778,39551.4875115741,46.56114259766741,2008-04-13,11:41:30,2008-04-13,11:42:01,4
441993.65,4429010.95,39551.7577777778,39551.7624074074,15.672268502325679,2008-04-13,18:11:12,2008-04-13,18:17:52,2
442837.2352941177,4425268.770588235,39551.8668981481,39551.8674305556,47.386495966648226,2008-04-13,20:48:20,2008-04-13,20:49:06,4
442001.73,4428676.840000001,39552.169224537,39552.1694560185,46.88219278143665,2008-04-14,04:03:41,2008-04-14,04:04:01,20
442916.58333333343,4425264.149999999,39552.4986921296,39552.5018865741,14.579780519084311,2008-04-14,11:58:07,2008-04-14,12:02:43,4
450529.3,4424496.973333333,39552.7247685185,39552.7252546296,46.94017469070991,2008-04-14,17:23:40,2008-04-14,17:24:22,356
442912.5,4425450.8,39552.8936921296,39552.8936921296,0.0,2008-04-14,21:26:55,2008-04-14,21:26:55,4
442012.54545454547,4428670.690909091,39553.0433796296,39553.0436226852,47.33550464511725,2008-04-15,01:02:28,2008-04-15,01:02:49,20
442797.59,4425358.570000001,39553.4700347222,39553.4702662037,48.72309513903475,2008-04-15,11:16:51,2008-04-15,11:17:11,4
442008.39999999997,4428667.409090908,39554.0495833333,39554.0498032407,43.04253709996656,2008-04-16,01:11:24,2008-04-16,01:11:43,20
442545.64444444445,4425261.300000001,39554.4797685185,39554.4799652778,46.20497808659474,2008-04-16,11:30:52,2008-04-16,11:31:09,69
440180.5071428572,4425950.257142858,39554.7979976852,39554.7983680556,48.59958847506955,2008-04-16,19:09:07,2008-04-16,19:09:39,236
442002.5222222222,4428674.411111112,39554.9496875,39554.9498842593,45.574225171669816,2008-04-16,22:47:33,2008-04-16,22:47:50,20
442810.6,4425387.6,39555.4020138889,39555.4020138889,0.0,2008-04-17,09:38:54,2008-04-17,09:38:54,4
442041.1,4428787.475,39555.7529050926,39555.7530208333,14.806079831752497,2008-04-17,18:04:11,2008-04-17,18:04:21,-1
442005.69999999995,4428675.5125,39556.6129398148,39556.6131134259,42.501882311261205,2008-04-18,14:42:38,2008-04-18,14:42:53,20
442810.7470588236,4425314.417647058,39556.8894212963,39556.8898842593,40.286598267495656,2008-04-18,21:20:46,2008-04-18,21:21:26,4
442007.72727272735,4428666.100000001,39557.0791550926,39557.079375,43.96282520493001,2008-04-19,01:53:59,2008-04-19,01:54:18,20
442775.8,4425342.95,39557.4375231481,39557.4430902778,45.83939353874569,2008-04-19,10:30:02,2008-04-19,10:38:03,4
441992.30500000005,4428666.615,39559.6902430556,39559.6915162037,49.648766349517324,2008-04-21,16:33:57,2008-04-21,16:35:47,20
442772.66222222225,4425194.588888889,39560.0832175926,39560.0840509259,26.797761100571385,2008-04-22,01:59:50,2008-04-22,02:01:02,4
441989.06764705887,4428677.223529411,39560.6586805556,39560.6594212963,46.981911412679686,2008-04-22,15:48:30,2008-04-22,15:49:34,20
442832.1634146341,4425359.53902439,39561.0866550926,39561.0875694444,43.37568443231508,2008-04-23,02:04:47,2008-04-23,02:06:06,4
442004.2281250001,4428653.918750001,39561.6359259259,39561.6366319444,44.1255028299729,2008-04-23,15:15:44,2008-04-23,15:16:45,20
442825.4636363637,4425426.545454546,39562.0936921296,39562.0938657407,15.415900881913386,2008-04-24,02:14:55,2008-04-24,02:15:10,4
442001.65833333327,4428663.558333334,39563.7311458333,39563.7316666667,47.3050737236332,2008-04-25,17:32:51,2008-04-25,17:33:36,20
448644.61769911496,4423794.969026549,39564.2537152778,39564.25625,22.89825320829535,2008-04-26,06:05:21,2008-04-26,06:09:00,-1
448404.4340961097,4420401.636041191,39564.5046180556,39564.5574305556,14.422205101826899,2008-04-26,12:06:39,2008-04-26,13:22:42,385
448720.3391304348,4423743.747826086,39564.5893055556,39564.5898032407,46.027817675837206,2008-04-26,14:08:36,2008-04-26,14:09:19,-1
450312.742857143,4425306.402857143,39565.2808912037,39565.2880902778,48.662100242385755,2008-04-27,06:44:29,2008-04-27,06:54:51,444
450751.15263157897,4424744.631578948,39565.3525347222,39565.3530208333,49.97729484477833,2008-04-27,08:27:39,2008-04-27,08:28:21,-1
442876.87541589676,4425250.115526799,39565.5550578704,39565.5793518518,21.388314566763256,2008-04-27,13:19:17,2008-04-27,13:54:16,4
441975.5217391304,4428666.969565217,39565.6964467593,39565.6981134259,36.00902664605709,2008-04-27,16:42:53,2008-04-27,16:45:17,20
442909.16295503185,4425271.017344752,39566.0732986111,39566.0951736111,9.964436762419208,2008-04-28,01:45:33,2008-04-28,02:17:03,4
441979.8653061224,4428670.885714285,39566.7876967593,39566.7933680556,40.17586340095694,2008-04-28,18:54:17,2008-04-28,19:02:27,20
441085.27837837825,4424520.9567567585,39567.0479398148,39567.0501157407,31.499365072943164,2008-04-29,01:09:02,2008-04-29,01:12:10,-1
442819.8878787879,4425365.446969695,39567.2899421296,39567.2914467593,46.132201334686854,2008-04-29,06:57:31,2008-04-29,06:59:41,4
441983.61428571417,4428684.874025974,39567.6411111111,39568.0693171296,49.80732877785713,2008-04-29,15:23:12,2008-04-30,01:39:49,20
443067.63684210525,4425908.747368421,39568.0828240741,39568.1183101852,47.269863548895046,2008-04-30,01:59:16,2008-04-30,02:50:22,-1
442829.1837209303,4425252.4604651155,39568.1237268519,39568.1246990741,34.40959168579823,2008-04-30,02:58:10,2008-04-30,02:59:34,4
442715.5,4425557.733333333,39568.4363425926,39568.4363657407,24.698178070086925,2008-04-30,10:28:20,2008-04-30,10:28:22,-1
441991.8161290323,4428657.027419355,39568.6619212963,39568.6633333333,45.39306114380942,2008-04-30,15:53:10,2008-04-30,15:55:12,20
562905.1778301889,4644020.5216981135,39569.3449421296,39569.3565162037,25.05673562137194,2008-05-01,08:16:43,2008-05-01,08:33:23,-1
562828.416,4644556.420000001,39569.3916550926,39569.3922569444,48.27059146070354,2008-05-01,09:23:59,2008-05-01,09:24:51,-1
578776.3750000001,4538014.060714285,39570.3541898148,39570.3548148148,49.576809094103396,2008-05-02,08:30:02,2008-05-02,08:30:56,-1
578758.5,4538049.2,39570.4047685185,39570.4047685185,0.0,2008-05-02,09:42:52,2008-05-02,09:42:52,-1
576022.7388888889,4538006.822222222,39570.5547337963,39570.5551273148,47.64546148370906,2008-05-02,13:18:49,2008-05-02,13:19:23,-1
442823.56091954,4425240.035632184,39571.3647106481,39571.6681828704,49.30821432580501,2008-05-03,08:45:11,2008-05-03,16:02:11,4
442011.2833333334,4428705.666666667,39571.6799305556,39571.6801851852,47.80376554220699,2008-05-03,16:19:06,2008-05-03,16:19:28,20
442329.1136363637,4428202.045454546,39572.2133564815,39572.2143518519,44.25494322655216,2008-05-04,05:07:14,2008-05-04,05:08:40,-1
442861.7142857142,4425304.164285715,39572.592025463,39572.5923032407,1.3601470507922335,2008-05-04,14:12:31,2008-05-04,14:12:55,4
441998.10399999993,4428665.556,39572.699224537,39572.6997800926,46.7508288697539,2008-05-04,16:46:53,2008-05-04,16:47:41,20
442835.45238095237,4425344.014285714,39573.1080555556,39573.1085185185,47.053267686818266,2008-05-05,02:35:36,2008-05-05,02:36:16,4
441747.60000000015,4422651.528358208,39573.1877662037,39573.231412037,38.289554711436764,2008-05-05,04:30:23,2008-05-05,05:33:14,-1
442884.4592592592,4425272.155555555,39573.2402893519,39573.2408912037,48.6498715313942,2008-05-05,05:46:01,2008-05-05,05:46:53,4
442166.6,4428651.2,39573.6828935185,39573.6828935185,0.0,2008-05-05,16:23:22,2008-05-05,16:23:22,-1
442822.43492063484,4425353.461904763,39574.1067361111,39574.6386111111,32.64597984475485,2008-05-06,02:33:42,2008-05-06,15:19:36,4
441995.93249999994,4428658.6625,39574.6489930556,39574.6498958333,48.6230398063088,2008-05-06,15:34:33,2008-05-06,15:35:51,20
442818.3153846157,4425260.810256411,39575.090462963,39575.699224537,49.95558026890745,2008-05-07,02:10:16,2008-05-07,16:46:53,4
441998.7192307692,4428664.18846154,39575.7110300926,39575.7139699074,42.361539159947796,2008-05-07,17:03:53,2008-05-07,17:08:07,20
442811.43333333323,4425360.607017544,39576.0839467593,39576.0852430556,43.368652273260736,2008-05-08,02:00:53,2008-05-08,02:02:45,4
450380.2441860464,4426462.667441861,39576.4335763889,39576.4345486111,48.114966486570545,2008-05-08,10:24:21,2008-05-08,10:25:45,-1
450451.55086705176,4424912.358381502,39576.5377083333,39576.5792013889,49.478985438802354,2008-05-08,12:54:18,2008-05-08,13:54:03,-1
442866.07333333325,4425273.38,39576.6286342593,39576.6293055556,49.00989695956577,2008-05-08,15:05:14,2008-05-08,15:06:12,4
441977.57999999984,4428676.090526316,39576.7221759259,39576.7246875,28.10017793570951,2008-05-08,17:19:56,2008-05-08,17:23:33,20
442810.9379310345,4425341.372413793,39577.083587963,39577.0852314815,49.00459162163755,2008-05-09,02:00:22,2008-05-09,02:02:44,4
441992.11714285705,4428661.908571428,39577.605775463,39577.6065625,40.263631232125256,2008-05-09,14:32:19,2008-05-09,14:33:27,20
442868.0687500001,4425348.36875,39578.2485069444,39578.2490277778,17.003823099573253,2008-05-10,05:57:51,2008-05-10,05:58:36,4
441994.0958333334,4428665.266666668,39578.7012037037,39578.7017361111,42.100118764755685,2008-05-10,16:49:44,2008-05-10,16:50:30,20
442840.6652173914,4425354.143478262,39579.2428703704,39579.2443981481,42.54703279912932,2008-05-11,05:49:44,2008-05-11,05:51:56,4
441991.690625,4428671.175000001,39579.6678125,39580.0667592593,42.335918556228236,2008-05-11,16:01:39,2008-05-12,01:36:08,20
442804.45,4425351.333333333,39580.0875,39580.0893287037,46.38469575193271,2008-05-12,02:06:00,2008-05-12,02:08:38,4
450628.4261538462,4424552.676923077,39580.5346759259,39580.5364351852,47.33962399513684,2008-05-12,12:49:56,2008-05-12,12:52:28,445
442844.390909091,4425270.027272727,39580.6408680556,39580.6413541667,48.27297380511624,2008-05-12,15:22:51,2008-05-12,15:23:33,4
442005.9833333334,4428670.425,39580.7789351852,39581.1140740741,46.95977001672116,2008-05-12,18:41:40,2008-05-13,02:44:16,20
442820.2824999999,4425358.0875,39581.1520486111,39581.1529398148,47.199682202354445,2008-05-13,03:38:57,2008-05-13,03:40:14,4
441951.5617021277,4428691.219148938,39581.7036111111,39581.7046759259,47.501578921263395,2008-05-13,16:53:12,2008-05-13,16:54:44,20
442828.63793103455,4425348.100000001,39582.115775463,39582.117349537,41.060077934198205,2008-05-14,02:46:43,2008-05-14,02:48:59,4
441985.0059701493,4428668.60149254,39582.6775462963,39583.0788773148,45.99228196130799,2008-05-14,16:15:40,2008-05-15,01:53:35,20
442840.3157894737,4425351.578947368,39583.0953587963,39583.0967939815,47.16948165920387,2008-05-15,02:17:19,2008-05-15,02:19:23,4
441195.43200000003,4428456.723999999,39583.4643634259,39583.5132638889,44.5495230052852,2008-05-15,11:08:41,2008-05-15,12:19:06,-1
442806.813207547,4425365.149056603,39583.5309837963,39583.5321875,48.827144090158484,2008-05-15,12:44:37,2008-05-15,12:46:21,4
441999.79318181815,4428663.202272728,39583.6897800926,39584.0970486111,49.72293233529211,2008-05-15,16:33:17,2008-05-16,02:19:45,20
441667.63542857143,4428143.494857144,39584.1065972222,39584.121099537,44.098979579852276,2008-05-16,02:33:30,2008-05-16,02:54:23,-1
441999.8897959184,4428668.851020409,39584.1749189815,39584.2923148148,49.191564317448915,2008-05-16,04:11:53,2008-05-16,07:00:56,20
442835.60370370373,4425348.729629629,39584.3084722222,39584.3090740741,45.63956616795664,2008-05-16,07:24:12,2008-05-16,07:25:04,4
440661.6666666667,4426742.966666666,39584.4624768518,39584.4710416667,44.89109043006657,2008-05-16,11:05:58,2008-05-16,11:18:18,-1
441953.4682539684,4428673.288888889,39584.6045833333,39584.6060185185,43.11159936719688,2008-05-16,14:30:36,2008-05-16,14:32:40,20
450660.8931034481,4424681.174137931,39585.1306018519,39585.1319097222,45.30176596999283,2008-05-17,03:08:04,2008-05-17,03:09:57,359
448658.39767441864,4423780.3232558165,39585.2083680556,39585.2165509259,29.24414471321984,2008-05-17,05:00:03,2008-05-17,05:11:50,-1
450355.355,4424529.031249998,39586.262662037,39586.3007638889,49.99859998063713,2008-05-18,06:18:14,2008-05-18,07:13:06,358
450571.62857142853,4424610.671428571,39586.3089930556,39586.3091087963,28.517012465768907,2008-05-18,07:24:57,2008-05-18,07:25:07,-1
442011.79750000004,4428664.4275,39586.6205671296,39586.6214583333,48.67956450091463,2008-05-18,14:53:37,2008-05-18,14:54:54,20
442860.36250000005,4425308.641666667,39587.0505324074,39587.0510532407,40.22039283727893,2008-05-19,01:12:46,2008-05-19,01:13:31,4
442009.39503546094,4428660.509219857,39587.6077893519,39588.0589699074,48.794774310441525,2008-05-19,14:35:13,2008-05-20,01:24:55,20
442823.8029411766,4425335.179411765,39588.0766203704,39588.0778587963,49.79256972694217,2008-05-20,01:50:20,2008-05-20,01:52:07,4
442452.5184210526,4425237.792105263,39588.4877777778,39588.4888773148,33.39955089515768,2008-05-20,11:42:24,2008-05-20,11:43:59,394
442514.337037037,4425179.285185186,39588.5639583333,39588.5645601852,45.45327270942818,2008-05-20,13:32:06,2008-05-20,13:32:58,-1
442532.07499999995,4426206.7875,39588.6446527778,39588.6448611111,46.200974015892825,2008-05-20,15:28:18,2008-05-20,15:28:36,-1
442898.0272727273,4425200.461363637,39589.1537384259,39589.1548263889,48.12036990679096,2008-05-21,03:41:23,2008-05-21,03:42:57,4
441072.48,4425312.91,39589.4292708333,39589.429375,32.26050216595082,2008-05-21,10:18:09,2008-05-21,10:18:18,-1
442851.7697674419,4425296.490697675,39589.5694212963,39589.6104976852,45.92439438885221,2008-05-21,13:39:58,2008-05-21,14:39:07,4
442017.4290322581,4428661.485483873,39589.6241087963,39590.0668171296,48.06256339399209,2008-05-21,14:58:43,2008-05-22,01:36:13,20
442831.5933333333,4425358.506666666,39590.0944097222,39590.0956944444,46.74537410256895,2008-05-22,02:15:57,2008-05-22,02:17:48,4
442453.76,4429061.216666668,39590.1739467593,39590.2679976852,49.73952150901721,2008-05-22,04:10:29,2008-05-22,06:25:55,-1
442825.00333333336,4425342.473333334,39590.2826157407,39590.2829513889,49.487170054522814,2008-05-22,06:46:58,2008-05-22,06:47:27,4
450753.71111111116,4424612.727777777,39590.4781134259,39590.4787268518,42.00309512408343,2008-05-22,11:28:29,2008-05-22,11:29:22,359
442033.74406779674,4428656.09661017,39590.6765625,39591.0472685185,49.81967482818113,2008-05-22,16:14:15,2008-05-23,01:08:04,20
442832.761904762,4425344.307142856,39591.064849537,39591.066099537,49.808633789924656,2008-05-23,01:33:23,2008-05-23,01:35:11,4
442000.65641025634,4428665.387179487,39594.6534375,39594.653912037,48.350077559396894,2008-05-26,15:40:57,2008-05-26,15:41:38,20
442914.65999999986,4425308.0875,39596.0729976852,39596.0746064815,35.961090083227354,2008-05-28,01:45:07,2008-05-28,01:47:26,4
441986.48292682937,4429075.717073171,39596.4260069444,39596.4266666667,46.94645886572368,2008-05-28,10:13:27,2008-05-28,10:14:24,447
441996.66250000003,4428664.206250001,39596.6160648148,39597.0562268518,10.667708282473487,2008-05-28,14:47:08,2008-05-29,01:20:58,20
442812.8457446808,4425347.381914893,39597.0747569444,39597.0759027778,40.9547311064409,2008-05-29,01:47:39,2008-05-29,01:49:18,4
442859.60714285716,4425365.835714286,39597.4735532407,39597.4738657407,46.231590930792144,2008-05-29,11:21:55,2008-05-29,11:22:22,4
441993.3861111111,4428678.922222222,39597.6683796296,39598.0599768519,33.37364229453097,2008-05-29,16:02:28,2008-05-30,01:26:22,20
442820.521875,4425345.30625,39598.0725462963,39598.0736342593,48.89867073869328,2008-05-30,01:44:28,2008-05-30,01:46:02,4
442873.2162790697,4425279.51627907,39598.2469907407,39598.2475462963,48.558418425789505,2008-05-30,05:55:40,2008-05-30,05:56:28,4
461003.17469512107,4429466.180182923,39598.353125,39598.3993865741,48.798770476324655,2008-05-30,08:28:30,2008-05-30,09:35:07,-1
460713.7369158881,4429771.507943924,39598.4327546296,39598.5015393518,49.2646932394547,2008-05-30,10:23:10,2008-05-30,12:02:13,-1
442808.28469945333,4425248.055191257,39598.537025463,39598.7324652778,49.00295909431582,2008-05-30,12:53:19,2008-05-30,17:34:45,4
442002.4659793812,4428665.474226806,39598.7490046296,39599.1175347222,49.45401904815367,2008-05-30,17:58:34,2008-05-31,02:49:15,20
450710.87297297304,4424575.813513515,39599.1572800926,39599.1577083333,49.33892986292279,2008-05-31,03:46:29,2008-05-31,03:47:06,359
454715.38513513526,4428747.668918918,39599.2595023148,39599.2608333333,48.46462627551711,2008-05-31,06:13:41,2008-05-31,06:15:36,-1
453560.4222222222,4426790.188888889,39599.4515625,39599.4516550926,47.149655354000636,2008-05-31,10:50:15,2008-05-31,10:50:23,-1
442858.3380952381,4425281.0476190485,39599.5884837963,39599.5908796296,46.80598252323573,2008-05-31,14:07:25,2008-05-31,14:10:52,4
441996.638095238,4428667.907142857,39599.6526967593,39599.6534837963,47.96342356420057,2008-05-31,15:39:53,2008-05-31,15:41:01,20
449717.4521739131,4428668.078260871,39600.3646296296,39600.4182060185,48.83973791854887,2008-06-01,08:45:04,2008-06-01,10:02:13,-1
441992.71777777787,4428663.446666666,39600.5638078704,39600.5647337963,48.62972342101102,2008-06-01,13:31:53,2008-06-01,13:33:13,20
442842.33793103445,4425340.7862068955,39601.0769097222,39601.0772337963,40.002624913850376,2008-06-02,01:50:45,2008-06-02,01:51:13,4
442468.22826086957,4425743.610869566,39601.451412037,39601.4519560185,42.11436809450272,2008-06-02,10:50:02,2008-06-02,10:50:49,48
442389.41575121146,4428067.056946688,39601.5416666667,39601.5788541667,49.896392655395296,2008-06-02,13:00:00,2008-06-02,13:53:33,-1
442026.15396825376,4428670.026984128,39601.6121527778,39602.0321296296,48.031343932911405,2008-06-02,14:41:30,2008-06-03,00:46:16,20
442832.67246376816,4425338.171014493,39602.0640509259,39602.6678935185,37.06426850706473,2008-06-03,01:32:14,2008-06-03,16:01:46,4
442007.4588235295,4428676.305882353,39602.6798726852,39603.0788657407,47.60262597802063,2008-06-03,16:19:01,2008-06-04,01:53:34,20
442835.87428571424,4425344.0600000005,39603.0949421296,39603.0953587963,37.903298009563294,2008-06-04,02:16:43,2008-06-04,02:17:19,4
442004.0903225807,4428671.267741936,39603.730150463,39603.7305671296,49.02448367906946,2008-06-04,17:31:25,2008-06-04,17:32:01,20
442804.6818181817,4425435.472727273,39604.0986574074,39604.0991666667,42.252218876822056,2008-06-05,02:22:04,2008-06-05,02:22:48,4
441968.3470588234,4428661.04117647,39604.4703356481,39604.4718055556,49.3222059524405,2008-06-05,11:17:17,2008-06-05,11:19:24,20
442847.2902439023,4425257.092682926,39604.5634490741,39604.563912037,49.77640003057847,2008-06-05,13:31:22,2008-06-05,13:32:02,4
442011.07831325295,4428670.81566265,39604.702662037,39605.0884837963,49.63718364250266,2008-06-05,16:51:50,2008-06-06,02:07:25,20
442802.1306818183,4425360.074999999,39605.1028819444,39605.1039467593,45.459432464384186,2008-06-06,02:28:09,2008-06-06,02:29:41,4
442001.28750000003,4428660.9125,39605.7698148148,39605.7701273148,46.91630846519244,2008-06-06,18:28:32,2008-06-06,18:28:59,20
450517.5799999999,4417126.563999999,39606.0008217593,39606.0059722222,49.19044622682257,2008-06-07,00:01:11,2008-06-07,00:08:36,-1
706770.6248322147,4413901.21946309,39606.1961574074,39606.2426388889,49.46311757294632,2008-06-07,04:42:28,2008-06-07,05:49:24,-1
712082.1974358977,4410873.338461538,39606.4428935185,39606.4478240741,46.3624848343831,2008-06-07,10:37:46,2008-06-07,10:44:52,446
712075.5002481384,4410896.147394547,39607.4568171296,39608.072337963,47.66182959119554,2008-06-08,10:57:49,2008-06-09,01:44:10,446
712089.3957446807,4410878.319148935,39608.2285648148,39608.2303125,48.04508299514184,2008-06-09,05:29:08,2008-06-09,05:31:39,446
706802.2551724138,4413922.84137931,39608.3693634259,39608.3701851852,49.87233702199111,2008-06-09,08:51:53,2008-06-09,08:53:04,-1
442013.72043010767,4428672.770967743,39608.6814583333,39608.9969560185,49.595161054412294,2008-06-09,16:21:18,2008-06-09,23:55:37,20
442845.32608695666,4425328.408695653,39609.0239236111,39609.0253356481,40.80747480536901,2008-06-10,00:34:27,2008-06-10,00:36:29,4
442010.87812499993,4428662.040625001,39609.7380439815,39609.7384953704,49.622676268047705,2008-06-10,17:42:47,2008-06-10,17:43:26,20
442175.4925925926,4428192.381481483,39610.0615740741,39610.0628935185,47.37678756556142,2008-06-11,01:28:40,2008-06-11,01:30:34,-1
442858.8909090909,4425443.445454545,39610.172662037,39610.1727777778,47.39134942159402,2008-06-11,04:08:38,2008-06-11,04:08:48,4
441987.947826087,4428664.64347826,39610.7790277778,39610.7794097222,43.49252809378374,2008-06-11,18:41:48,2008-06-11,18:42:21,20
442804.6357142857,4425241.628571428,39611.031099537,39611.0335763889,22.961271742288986,2008-06-12,00:44:47,2008-06-12,00:48:21,4
442012.99393939396,4428640.3090909105,39611.7741435185,39611.7746527778,49.342983290394436,2008-06-12,18:34:46,2008-06-12,18:35:30,20
442303.3379746835,4428239.507594937,39613.0893055556,39613.0902662037,49.17529867726008,2008-06-14,02:08:36,2008-06-14,02:09:59,-1
445571.6469999999,4425495.059000001,39613.4117939815,39613.4130208333,9.847842403156216,2008-06-14,09:52:59,2008-06-14,09:54:45,-1
441991.6297297297,4428668.337837838,39613.6412268518,39613.6425,35.085182057242996,2008-06-14,15:23:22,2008-06-14,15:25:12,20
442848.7136363636,4425277.620454543,39614.060162037,39614.0702662037,48.5627429207116,2008-06-15,01:26:38,2008-06-15,01:41:11,4
450243.2274336283,4426594.13982301,39614.2087268519,39614.2101157407,32.055108797087335,2008-06-15,05:00:34,2008-06-15,05:02:34,-1
442517.5,4427493.975,39615.4946527778,39615.4947453704,47.88788991040806,2008-06-16,11:52:18,2008-06-16,11:52:26,-1
442872.2312977099,4425271.712213739,39616.4366898148,39616.4387615741,40.314017412940274,2008-06-17,10:28:50,2008-06-17,10:31:49,4
442571.09534883715,4426992.506976745,39616.6798958333,39616.6804166667,44.516176834948965,2008-06-17,16:19:03,2008-06-17,16:19:48,14
442843.1687499999,4425341.029166667,39617.0415046296,39617.0421527778,36.71648131295454,2008-06-18,00:59:46,2008-06-18,01:00:42,4
441993.2629629631,4428664.214814815,39618.6515509259,39618.6519444444,46.7269729385135,2008-06-19,15:38:14,2008-06-19,15:38:48,20
456692.42099236656,4412395.339312978,39619.0135185185,39619.0566087963,49.63839239907449,2008-06-20,00:19:28,2008-06-20,01:21:31,-1
456219.2148148152,4413145.9218518445,39619.0930439815,39619.1456365741,49.18099226301416,2008-06-20,02:13:59,2008-06-20,03:29:43,369
442809.9978723404,4425269.591489362,39619.5500694444,39619.550775463,20.632256299130166,2008-06-20,13:12:06,2008-06-20,13:13:07,4
442000.6888888888,4428666.111111111,39620.7032175926,39620.703587963,48.95681770694601,2008-06-21,16:52:38,2008-06-21,16:53:10,20
442855.56071428565,4425312.521428573,39621.0758333333,39621.0765740741,16.623477373855827,2008-06-22,01:49:12,2008-06-22,01:50:16,4
442420.02291666676,4427642.95625,39624.0327199074,39624.0334837963,39.537324138181006,2008-06-25,00:47:07,2008-06-25,00:48:13,-1
442855.9166666667,4425295.325,39624.2083333333,39624.2084606481,9.626006440612331,2008-06-25,05:00:00,2008-06-25,05:00:11,4
442001.30441176455,4428685.445588237,39624.6018055556,39624.6028125,30.125072613985434,2008-06-25,14:26:36,2008-06-25,14:28:03,20
442853.2327868853,4425274.486885246,39625.1253125,39625.1260648148,49.87714907669255,2008-06-26,03:00:27,2008-06-26,03:01:32,4
441687.03333333327,4428574.896296296,39625.4719212963,39625.4723842593,46.95529789070497,2008-06-26,11:19:34,2008-06-26,11:20:14,85
450357.5523560212,4426386.8340314105,39626.0864351852,39626.0904398148,24.544653185616955,2008-06-27,02:04:28,2008-06-27,02:10:14,-1
442845.11555555556,4425228.155555555,39626.2579282407,39626.258587963,48.00604128655622,2008-06-27,06:11:25,2008-06-27,06:12:22,4
442068.0038461539,4428634.315384615,39626.7395949074,39626.7409259259,48.791085251046546,2008-06-27,17:45:01,2008-06-27,17:46:56,-1
450757.3904761904,4424593.109523808,39627.1886342593,39627.1893865741,4.972926703479712,2008-06-28,04:31:38,2008-06-28,04:32:43,359
448734.45641025645,4423783.860897439,39627.3820833333,39627.392025463,36.19129729620153,2008-06-28,09:10:12,2008-06-28,09:24:31,-1
450695.6470588235,4424671.623529412,39628.3105787037,39628.3109027778,24.028524715898644,2008-06-29,07:27:14,2008-06-29,07:27:42,359
442899.48500000004,4425235.32,39628.5417592593,39628.5426736111,31.681066901238133,2008-06-29,13:00:08,2008-06-29,13:01:27,4
441999.075,4428663.117857143,39629.6953819444,39629.6973958333,48.72217154447518,2008-06-30,16:41:21,2008-06-30,16:44:15,20
442801.842,4425345.691999999,39630.077962963,39630.0785416667,43.499195395024834,2008-07-01,01:52:16,2008-07-01,01:53:06,4
442015.7071428571,4428668.35,39630.6403009259,39630.6414236111,47.500947358972624,2008-07-01,15:22:02,2008-07-01,15:23:39,20
442853.4978723407,4425255.029787235,39631.1132291667,39631.1138310185,49.8092360912859,2008-07-02,02:43:03,2008-07-02,02:43:55,4
441996.7333333333,4428655.85,39631.7379282407,39631.7383333333,48.895398556532975,2008-07-02,17:42:37,2008-07-02,17:43:12,20
442844.84705882357,4425240.52647059,39632.1916203704,39632.1925925926,49.35139309074586,2008-07-03,04:35:56,2008-07-03,04:37:20,4
449797.6428571428,4428828.014285714,39635.2827430556,39635.2828587963,38.34383914007569,2008-07-06,06:47:09,2008-07-06,06:47:19,-1
449391.1448571432,4427684.170571428,39635.387337963,39635.4103240741,27.16210595683357,2008-07-06,09:17:46,2008-07-06,09:50:52,-1
442852.638888889,4425266.275555557,39635.5419560185,39635.5429976852,41.78959200530931,2008-07-06,13:00:25,2008-07-06,13:01:55,4
442834.06000000006,4425270.415000001,39635.7298032407,39635.7313078704,41.77774527196166,2008-07-06,17:30:55,2008-07-06,17:33:05,4
442857.32181818207,4425233.834545455,39638.2230671296,39638.2237152778,49.71850762029748,2008-07-09,05:21:13,2008-07-09,05:22:09,4
442374.3,4427169.4,39638.4720949074,39638.4720949074,0.0,2008-07-09,11:19:49,2008-07-09,11:19:49,-1
442894.9421052632,4425239.010526314,39638.5363541667,39638.5365625,47.09193136807732,2008-07-09,12:52:21,2008-07-09,12:52:39,4
441894.1282608696,4425226.530434782,39642.1624768519,39642.163900463,17.604544867835205,2008-07-13,03:53:58,2008-07-13,03:56:01,-1
441122.7352941177,4425381.091764707,39644.1713425926,39644.1724768518,30.7766144986681,2008-07-15,04:06:44,2008-07-15,04:08:22,8
442845.98780487804,4425234.734146342,39644.2462847222,39644.2469907407,48.50742211266492,2008-07-15,05:54:39,2008-07-15,05:55:40,4
442900.40980392176,4425272.809803921,39645.4787037037,39645.4792824074,49.67594991554171,2008-07-16,11:29:20,2008-07-16,11:30:10,4
441981.3297297297,4428646.110810812,39645.6787731481,39645.6792013889,47.097876809569435,2008-07-16,16:17:26,2008-07-16,16:18:03,20
442835.47599999997,4425251.390666668,39646.0817592593,39646.4569212963,48.61460685859532,2008-07-17,01:57:44,2008-07-17,10:57:58,4
442506.48227848083,4425735.124683545,39646.4629513889,39646.4658912037,24.89437687516046,2008-07-17,11:06:39,2008-07-17,11:10:53,48
442831.5629629631,4425350.240740741,39646.5053703704,39646.5056712963,44.30914126903882,2008-07-17,12:07:44,2008-07-17,12:08:10,4
442486.1382812498,4425739.690625004,39646.6461921296,39646.6478240741,11.527792503324388,2008-07-17,15:30:31,2008-07-17,15:32:52,48
441999.16538461536,4428665.607692307,39646.7555787037,39646.7559490741,47.607667449637056,2008-07-17,18:08:02,2008-07-17,18:08:34,20
442861.1,4425352.7,39647.0959837963,39647.0959837963,0.0,2008-07-18,02:18:13,2008-07-18,02:18:13,4
441981.498,4429074.349999998,39647.4253472222,39647.426087963,41.93149174546501,2008-07-18,10:12:30,2008-07-18,10:13:34,447
442012.775,4428667.97,39647.6417824074,39647.6420949074,48.03748536313938,2008-07-18,15:24:10,2008-07-18,15:24:37,20
442916.8399999999,4425199.217142857,39648.3295717593,39648.3412152778,49.37367719748087,2008-07-19,07:54:35,2008-07-19,08:11:21,4
450523.68082191783,4421233.973972604,39648.4274305556,39648.4284375,28.057797490168923,2008-07-19,10:15:30,2008-07-19,10:16:57,-1
450752.5570588233,4424558.801176471,39648.5077893519,39648.5507638889,49.258501804441444,2008-07-19,12:11:13,2008-07-19,13:13:06,359
442800.7548387098,4425288.29032258,39648.5806365741,39648.5811689815,17.05813588866622,2008-07-19,13:56:07,2008-07-19,13:56:53,4
442000.30666666664,4428673.97,39649.7650694444,39649.7654976852,47.90845436873563,2008-07-20,18:21:42,2008-07-20,18:22:19,20
442820.5210526315,4425298.142105264,39650.0642708333,39650.0653703704,42.18684629124522,2008-07-21,01:32:33,2008-07-21,01:34:08,4
442826.48333333334,4425404.649999999,39650.4817476852,39650.4818634259,41.995475946300736,2008-07-21,11:33:43,2008-07-21,11:33:53,4
441214.54324324324,4425368.237837837,39652.399537037,39652.4017592593,12.625371281816834,2008-07-23,09:35:20,2008-07-23,09:38:32,-1
440923.171111111,4425109.5600000005,39652.4400231481,39652.4410416667,47.80794912977795,2008-07-23,10:33:38,2008-07-23,10:35:06,-1
442862.48125000007,4425259.603125001,39652.5875810185,39652.5882986111,49.151703937240434,2008-07-23,14:06:07,2008-07-23,14:07:09,4
449739.00985915476,4423560.7830985915,39654.4496875,39654.4905902778,49.95768209177568,2008-07-25,10:47:33,2008-07-25,11:46:27,-1
450352.68,4424901.380000001,39654.495625,39654.4972685185,36.85552875747506,2008-07-25,11:53:42,2008-07-25,11:56:04,376
442863.785106383,4425232.119148937,39654.612337963,39654.6134027778,39.605681410606614,2008-07-25,14:41:46,2008-07-25,14:43:18,4
441981.3940000001,4428679.553999999,39656.9964351852,39656.9975694444,48.58662367362195,2008-07-27,23:54:52,2008-07-27,23:56:30,20
442865.82830188685,4425247.673584906,39657.2925115741,39657.2937152778,39.084012076250005,2008-07-28,07:01:13,2008-07-28,07:02:57,4
450712.3765957447,4424730.061702127,39658.4521759259,39658.4532407407,46.66904755849323,2008-07-29,10:51:08,2008-07-29,10:52:40,362
442879.93666666665,4425248.13,39658.6223726852,39658.6230439815,48.42003717470692,2008-07-29,14:56:13,2008-07-29,14:57:11,4
450343.57058823534,4424688.652941177,39660.4975925926,39660.497962963,49.64876634940993,2008-07-31,11:56:32,2008-07-31,11:57:04,372
442819.31111111114,4425256.755555556,39660.6221990741,39660.6234953704,48.329907924408964,2008-07-31,14:55:58,2008-07-31,14:57:50,4
447636.9162162162,4426195.494594594,39662.435474537,39662.5285300926,28.64000698392835,2008-08-02,10:27:05,2008-08-02,12:41:05,-1
450299.7333333335,4425302.009999999,39662.6090625,39662.6117476852,49.987398411980514,2008-08-02,14:37:03,2008-08-02,14:40:55,444
442047.3,4428764.5,39662.6737384259,39662.6738541667,45.62455479166558,2008-08-02,16:10:11,2008-08-02,16:10:21,422
450273.8999999998,4426582.24054054,39663.1884027778,39663.1892361111,41.651530583956635,2008-08-03,04:31:18,2008-08-03,04:32:30,448
450367.6677419355,4424902.403225807,39663.4305671296,39663.4312615741,49.58638926131437,2008-08-03,10:20:01,2008-08-03,10:21:01,376
441996.0943396227,4428686.318867925,39663.5564236111,39663.6568171296,45.59232391535434,2008-08-03,13:21:15,2008-08-03,15:45:49,20
442858.13636363624,4425234.305454547,39663.669224537,39665.4484027778,49.79447760544187,2008-08-03,16:03:41,2008-08-05,10:45:42,4
442800.94722222234,4425348.188888888,39665.4834259259,39665.4842361111,26.194655943564488,2008-08-05,11:36:08,2008-08-05,11:37:18,4
442466.2794871795,4425293.887179487,39666.4667013889,39666.531875,49.047426028292875,2008-08-06,11:12:03,2008-08-06,12:45:54,-1
442847.07499999995,4425244.9125,39666.5362037037,39666.5365509259,49.87033186191276,2008-08-06,12:52:08,2008-08-06,12:52:38,4
442874.854,4425253.572000001,39667.2961111111,39667.9144560185,49.175705383673574,2008-08-07,07:06:24,2008-08-07,21:56:49,4
712443.4206367923,4410730.890094338,39668.1244675926,39668.1628240741,20.382345301629524,2008-08-08,02:59:14,2008-08-08,03:54:28,-1
712070.1963922292,4410910.235892686,39668.1772685185,39668.2260416667,43.75077142182477,2008-08-08,04:15:16,2008-08-08,05:25:30,446
712072.6316446692,4410905.87106675,39668.4126157407,39668.4774768518,32.64597984475485,2008-08-08,09:54:10,2008-08-08,11:27:34,446
698120.3592485548,4389572.759537587,39669.1237615741,39669.1317476852,40.74825149591064,2008-08-09,02:58:13,2008-08-09,03:09:43,-1
697933.1533783787,4389860.145945944,39669.228275463,39669.2351851852,43.30011547333284,2008-08-09,05:28:43,2008-08-09,05:38:40,-1
713954.0123287672,4411498.1280821925,39669.4900115741,39669.5010763889,48.09656952407254,2008-08-09,11:45:37,2008-08-09,12:01:33,-1
713916.4057692309,4411480.281089746,39670.1392013889,39670.172650463,48.03051113621635,2008-08-10,03:20:27,2008-08-10,04:08:37,-1
713761.3026548671,4411373.405752209,39670.2471527778,39670.2523611111,43.42027176295252,2008-08-10,05:55:54,2008-08-10,06:03:24,-1
450347.5333333334,4424527.233333333,39670.5839930556,39670.5840393519,36.05551275463989,2008-08-10,14:00:57,2008-08-10,14:01:01,358
442028.5777777777,4428647.9296296295,39670.7138078704,39670.7144097222,46.14693922680971,2008-08-10,17:07:53,2008-08-10,17:08:45,20
442866.59791666665,4425238.268750002,39671.1646412037,39671.1657291667,46.174126954545216,2008-08-11,03:57:05,2008-08-11,03:58:39,4
441142.22461538465,4425324.644615384,39671.4098148148,39671.5471064815,49.27037649533137,2008-08-11,09:50:08,2008-08-11,13:07:50,326
442838.182352941,4425238.16764706,39671.555,39671.6718402778,47.52693972894539,2008-08-11,13:19:12,2008-08-11,16:07:27,4
442004.8181818182,4428673.304545455,39671.6815625,39671.6820486111,29.275416307937054,2008-08-11,16:21:27,2008-08-11,16:22:09,20
442862.59047619055,4425259.695238096,39672.1047453704,39672.1056944444,47.79131720349226,2008-08-12,02:30:50,2008-08-12,02:32:12,4
442007.2509803921,4428645.713725491,39673.6523842593,39673.6535648148,12.913945949461962,2008-08-13,15:39:26,2008-08-13,15:41:08,20
442839.85000000003,4425381.0,39674.1209259259,39674.1209953704,30.170515408381345,2008-08-14,02:54:08,2008-08-14,02:54:14,4
442852.0852941177,4425235.347058824,39675.0756134259,39675.0763773148,42.61419951122355,2008-08-15,01:48:53,2008-08-15,01:49:59,4
450262.54705882363,4426563.441176471,39676.2811689815,39676.2815393518,43.34570336277373,2008-08-16,06:44:53,2008-08-16,06:45:25,448
453664.53793103434,4425191.179310346,39676.4459837963,39676.4496180556,49.87955493021489,2008-08-16,10:42:13,2008-08-16,10:47:27,202
442859.77894736844,4425262.394736842,39676.5964583333,39677.7486805556,32.504153580802786,2008-08-16,14:18:54,2008-08-17,17:58:06,4
442019.9777777779,4428668.974074075,39677.7609490741,39678.0449884259,44.91436295882469,2008-08-17,18:15:46,2008-08-18,01:04:47,20
442861.67222222226,4425254.163888888,39678.0951388889,39678.3591087963,48.61985191262197,2008-08-18,02:17:00,2008-08-18,08:37:07,4
442856.3909090909,4425235.245454545,39678.4071180556,39678.4076388889,35.717362724464465,2008-08-18,09:46:15,2008-08-18,09:47:00,4
443454.6142857143,4425188.380952381,39679.1740740741,39679.2212152778,46.905543382598516,2008-08-19,04:10:40,2008-08-19,05:18:33,-1
442878.31111111096,4425279.233333332,39679.2285069444,39679.2299537037,36.717979247117206,2008-08-19,05:29:03,2008-08-19,05:31:08,4
442026.2846153845,4428667.323076923,39679.6278356481,39679.6284143519,43.61524962666555,2008-08-19,15:04:05,2008-08-19,15:04:55,20
442861.84285714297,4425242.235714286,39680.1274074074,39680.1281018518,34.97770718615469,2008-08-20,03:03:28,2008-08-20,03:04:28,4
442863.06666666665,4425261.583333333,39680.2215277778,39680.2218171296,49.244085939499456,2008-08-20,05:19:00,2008-08-20,05:19:25,4
454853.406451613,4422077.122580646,39680.5467708333,39680.5685185185,43.788697171937486,2008-08-20,13:07:21,2008-08-20,13:38:40,-1
442862.5263157895,4425264.100000001,39680.6473263889,39680.7291898148,48.07535751369653,2008-08-20,15:32:09,2008-08-20,17:30:02,4
442029.8222222222,4428674.199999999,39680.7417476852,39680.7421527778,42.792639553998484,2008-08-20,17:48:07,2008-08-20,17:48:42,20
442841.3466666666,4425270.706666666,39681.1733796296,39681.1741898148,45.60701700396552,2008-08-21,04:09:40,2008-08-21,04:10:50,4
442524.69999999995,4427434.691666666,39682.4085069444,39682.4090856481,38.11889295312288,2008-08-22,09:48:15,2008-08-22,09:49:05,-1
442800.0,4425335.3,39682.5615625,39682.5615625,0.0,2008-08-22,13:28:39,2008-08-22,13:28:39,4
444518.8434782608,4419780.060869565,39683.1495023148,39683.1506018518,43.4736701924314,2008-08-23,03:35:17,2008-08-23,03:36:52,-1
450460.64444444445,4424807.927777778,39685.4219907407,39685.4229166667,48.00354153618931,2008-08-25,10:07:40,2008-08-25,10:09:00,-1
440876.59655172424,4425915.7862068955,39685.5050231481,39685.6425,38.827052424932496,2008-08-25,12:07:14,2008-08-25,15:25:12,253
442844.6333333333,4425246.7,39685.6521990741,39685.652662037,46.38469575182994,2008-08-25,15:39:10,2008-08-25,15:39:50,4
442027.1666666667,4428671.673333334,39686.1563888889,39686.1960069444,42.757923242183175,2008-08-26,03:45:12,2008-08-26,04:42:15,20
442853.8823529412,4425259.494117647,39686.2068287037,39687.4144328704,34.93322201006102,2008-08-26,04:57:50,2008-08-27,09:56:47,4
442004.43999999994,4428684.479999999,39687.436724537,39687.4377777778,28.16558183262843,2008-08-27,10:28:53,2008-08-27,10:30:24,20
442855.8846153846,4425238.292307692,39687.511724537,39687.512337963,46.60686644674751,2008-08-27,12:16:53,2008-08-27,12:17:46,4
442853.1733333333,4425238.926666667,39688.4667013889,39688.4674537037,42.29160673239122,2008-08-28,11:12:03,2008-08-28,11:13:08,4
442221.33999999973,4421058.129999999,39689.4121180556,39689.4139699074,37.71962354002275,2008-08-29,09:53:27,2008-08-29,09:56:07,55
442880.88,4425196.880000001,39689.529212963,39689.5294444444,36.94157549443255,2008-08-29,12:42:04,2008-08-29,12:42:24,4
452851.021875,4420502.2,39691.2748842593,39691.2765046296,42.101425154061424,2008-08-31,06:35:50,2008-08-31,06:38:10,-1
450682.7,4424744.427272728,39691.406875,39691.4074537037,47.70932822841009,2008-08-31,09:45:54,2008-08-31,09:46:44,362
442888.18666666665,4425241.466666667,39691.5179513889,39691.5186805556,47.71121461430982,2008-08-31,12:25:51,2008-08-31,12:26:54,4
442012.812,4428675.6959999995,39692.6371296296,39693.1203125,38.33431882828834,2008-09-01,15:17:28,2008-09-02,02:53:15,20
442851.3357142857,4425237.521428571,39693.1637037037,39693.1643402778,43.62350283976633,2008-09-02,03:55:44,2008-09-02,03:56:39,4
440871.5105263158,4425935.884210527,39695.4448958333,39695.5398032407,48.4145639240153,2008-09-04,10:40:39,2008-09-04,12:57:19,253
442855.3368421054,4425231.857894736,39695.5565277778,39695.5573958333,47.17732506198604,2008-09-04,13:21:24,2008-09-04,13:22:39,4
442025.5125,4428669.8875,39698.1137037037,39698.1140509259,39.74720115928335,2008-09-07,02:43:44,2008-09-07,02:44:14,20
442853.2249999999,4425236.591666667,39698.1618518519,39698.1624305556,44.90400872944297,2008-09-07,03:53:04,2008-09-07,03:53:54,4
450696.72500000003,4424735.275,39698.4207291667,39698.4211342593,37.42325480250655,2008-09-07,10:05:51,2008-09-07,10:06:26,362
442858.80000000005,4425249.347619047,39698.6172106481,39698.6182523148,40.49111013557115,2008-09-07,14:48:47,2008-09-07,14:50:17,4
452854.9636363636,4420526.3,39700.4630555556,39700.4636342593,49.1855669884915,2008-09-09,11:06:48,2008-09-09,11:07:38,-1
442861.6055555556,4425249.1555555565,39700.5752662037,39700.5763657407,48.097505133134746,2008-09-09,13:48:23,2008-09-09,13:49:58,4
442901.5571428571,4425273.928571428,39701.6452546296,39701.6456018519,46.539553070455945,2008-09-10,15:29:10,2008-09-10,15:29:40,4
442861.073076923,4425245.880769231,39703.0925462963,39703.0939351852,49.010305038858185,2008-09-12,02:13:16,2008-09-12,02:15:16,4
440771.91428571433,4426159.364285714,39703.4483680556,39703.5254282407,43.13560014696849,2008-09-12,10:45:39,2008-09-12,12:36:37,-1
442856.475,4425251.135714286,39703.5734027778,39703.5747916667,28.018922177881326,2008-09-12,13:45:42,2008-09-12,13:47:42,4
443221.5545454545,4425584.027272727,39704.1567476852,39704.1647337963,17.04142012859951,2008-09-13,03:45:43,2008-09-13,03:57:13,265
442863.73500000004,4425242.690000001,39704.231412037,39704.2333796296,36.88793840814958,2008-09-13,05:33:14,2008-09-13,05:36:04,4
442854.7571428572,4425253.828571429,39704.5798263889,39704.5801736111,33.828538248471034,2008-09-13,13:54:57,2008-09-13,13:55:27,4
442851.61333333334,4425231.033333333,39705.4360648148,39705.4367592593,40.4589915840287,2008-09-14,10:27:56,2008-09-14,10:28:56,4
450696.425,4424753.45,39706.4082638889,39706.408900463,49.19613805979218,2008-09-15,09:47:54,2008-09-15,09:48:49,362
442846.26363636367,4425250.518181819,39706.5382523148,39706.5388310185,45.40539615498708,2008-09-15,12:55:05,2008-09-15,12:55:55,4
442002.64230769227,4428662.276923077,39706.8604861111,39707.2553009259,41.735356713428175,2008-09-15,20:39:06,2008-09-16,06:07:38,20
442860.50384615373,4425250.103846154,39707.2678009259,39707.2691319444,32.045592520568405,2008-09-16,06:25:38,2008-09-16,06:27:33,4
441987.02424242423,4428679.106060607,39707.794212963,39708.1446064815,44.73209138842512,2008-09-16,19:03:40,2008-09-17,03:28:14,20
442854.54117647064,4425229.199999999,39708.1714814815,39708.172349537,33.6867926642773,2008-09-17,04:06:56,2008-09-17,04:08:11,4
442854.32571428566,4425243.537142858,39708.2439236111,39708.6974652778,39.91804103434033,2008-09-17,05:51:15,2008-09-17,16:44:21,4
441994.6444444445,4428661.1,39708.7083449074,39708.70875,34.468101195188204,2008-09-17,17:00:01,2008-09-17,17:00:36,20
442854.2071428571,4425230.149999999,39709.1646296296,39709.1653240741,48.676277589919444,2008-09-18,03:57:04,2008-09-18,03:58:04,4
450406.8870967742,4426493.4451612905,39709.357349537,39709.358912037,31.51586901863885,2008-09-18,08:34:35,2008-09-18,08:36:50,-1
442890.4375,4425270.375,39709.5461805556,39709.5465856481,44.50404476002098,2008-09-18,13:06:30,2008-09-18,13:07:05,4
441111.9999999999,4425399.9399999995,39710.1696527778,39710.1701736111,49.70160963152202,2008-09-19,04:04:18,2008-09-19,04:05:03,8
442872.87499999994,4425238.875,39710.259525463,39710.2599305556,47.40042193849155,2008-09-19,06:13:43,2008-09-19,06:14:18,4
442877.88,4425269.300000001,39710.7789236111,39710.7791550926,49.42974812802344,2008-09-19,18:41:39,2008-09-19,18:41:59,4
442442.65,4428649.125,39711.1988657407,39711.2019907407,40.1601792826177,2008-09-20,04:46:22,2008-09-20,04:50:52,10
448648.76406249986,4423812.799999997,39711.3182060185,39711.3221875,25.681510858967837,2008-09-20,07:38:13,2008-09-20,07:43:57,-1
442923.85833333334,4425293.183333334,39712.2941087963,39712.2946412037,49.79407595293453,2008-09-21,07:03:31,2008-09-21,07:04:17,4
450329.1555555556,4424731.311111111,39714.4865509259,39714.4887268519,47.93881517082163,2008-09-23,11:40:38,2008-09-23,11:43:46,-1
450434.4971428572,4424862.559999999,39714.5764814815,39714.5772685185,49.05547879695869,2008-09-23,13:50:08,2008-09-23,13:51:16,-1
442423.0884615385,4427099.661538461,39720.464375,39720.4649768519,42.28711387619932,2008-09-29,11:08:42,2008-09-29,11:09:34,30
450632.8384615385,4424644.215384616,39720.5558217593,39720.5666550926,47.464723743136545,2008-09-29,13:20:23,2008-09-29,13:35:59,-1
442870.1187499999,4425246.721875001,39721.1668981481,39721.1699074074,5.688585060964429,2008-09-30,04:00:20,2008-09-30,04:04:40,4
442439.04029850726,4428653.829850745,39721.2741782407,39721.3109375,45.609757727924844,2008-09-30,06:34:49,2008-09-30,07:27:45,10
442430.4758620688,4427060.841379311,39721.4000694444,39721.4007175926,12.242957158991777,2008-09-30,09:36:06,2008-09-30,09:37:02,-1
450671.5315789473,4424699.9052631585,39721.5904513889,39721.5908680556,49.14346345122034,2008-09-30,14:10:15,2008-09-30,14:10:51,-1
450599.08571428555,4424524.34,39722.4238541667,39722.4254513889,46.64354188964593,2008-10-01,10:10:21,2008-10-01,10:12:39,445
450622.65588235296,4424525.117647059,39723.1539236111,39723.1556828704,49.118733697349185,2008-10-02,03:41:39,2008-10-02,03:44:11,445
449763.6446428572,4424821.044642857,39723.3671064815,39723.3698611111,46.20789975803318,2008-10-02,08:48:38,2008-10-02,08:52:36,-1
442871.4142857143,4425332.799999999,39723.4915046296,39723.4916435185,11.574109037158035,2008-10-02,11:47:46,2008-10-02,11:47:58,4
442007.6355555556,4428662.435555558,39727.7360648148,39728.1869097222,48.711908194626524,2008-10-06,17:39:56,2008-10-07,04:29:09,20
442860.7199999999,4425397.819999999,39728.2007523148,39728.2008449074,9.831073186774946,2008-10-07,04:49:05,2008-10-07,04:49:13,4
442862.62098765426,4425249.4296296295,39729.2062615741,39729.2086689815,48.72217154419849,2008-10-08,04:57:01,2008-10-08,05:00:29,4
442012.23513513524,4428664.899999999,39729.7676273148,39730.1838541667,46.62038180852988,2008-10-08,18:25:23,2008-10-09,04:24:45,20
442816.85,4425209.65,39730.1969328704,39730.1970023148,14.78681845446821,2008-10-09,04:43:35,2008-10-09,04:43:41,4
448484.9069767445,4448027.024418606,39732.2879398148,39732.2960648148,46.40775797199609,2008-10-11,06:54:38,2008-10-11,07:06:20,449
448504.95851183747,4448040.0564825265,39733.0374884259,39733.0801851852,49.940965149045454,2008-10-12,00:53:59,2008-10-12,01:55:28,449
448575.2842578713,4447057.304947512,39733.1616550926,39733.2178587963,45.0564090892272,2008-10-12,03:52:47,2008-10-12,05:13:43,-1
442905.0718750001,4425280.296875001,39733.3106018519,39733.3113194444,48.380264571169356,2008-10-12,07:27:16,2008-10-12,07:28:18,4
442001.43448275863,4428669.403448277,39733.6823032407,39733.6829513889,40.80747480548141,2008-10-12,16:22:31,2008-10-12,16:23:27,20
441822.4348314607,4428766.744943818,39734.1773726852,39734.1794097222,36.81480680305431,2008-10-13,04:15:25,2008-10-13,04:18:21,-1
441953.79749999987,4428660.0200000005,39734.5010763889,39734.5019791667,49.85147941631346,2008-10-13,12:01:33,2008-10-13,12:02:51,20
442874.74000000005,4425229.41,39735.1309953704,39735.1325,43.965554699148655,2008-10-14,03:08:38,2008-10-14,03:10:48,4
441990.2136363637,4428645.081818182,39735.4379398148,39735.4384259259,43.3175484071063,2008-10-14,10:30:38,2008-10-14,10:31:20,20
442838.2,4425348.0,39736.1693055556,39736.1693055556,0.0,2008-10-15,04:03:48,2008-10-15,04:03:48,4
447515.440909091,4427578.163636364,39736.5618981481,39736.5628472222,49.86070597192257,2008-10-15,13:29:08,2008-10-15,13:30:30,-1
441976.3999999999,4428655.494117648,39736.6415740741,39736.642337963,41.21674417037735,2008-10-15,15:23:52,2008-10-15,15:24:58,20
442863.48000000016,4425314.6680000005,39737.1577314815,39737.1584953704,20.624742422807827,2008-10-16,03:47:08,2008-10-16,03:48:14,4
441966.5259259262,4428660.512962963,39737.4378240741,39737.4390509259,45.38039224171833,2008-10-16,10:30:28,2008-10-16,10:32:14,20
442834.46428571414,4425237.278571429,39738.0975810185,39738.0984375,49.568235796696094,2008-10-17,02:20:31,2008-10-17,02:21:45,4
442866.8911111109,4425274.424444445,39738.2593055556,39738.2598148148,32.45242671974242,2008-10-17,06:13:24,2008-10-17,06:14:08,4
441807.0474576272,4428793.488135593,39738.438900463,39738.4413541667,20.09278477430823,2008-10-17,10:32:01,2008-10-17,10:35:33,450
441782.1724137933,4428797.956896552,39739.1279050926,39739.1314236111,48.94742076931572,2008-10-18,03:04:11,2008-10-18,03:09:15,450
443099.08333333343,4425183.083333331,39739.2345717593,39739.2356597222,15.74960316905516,2008-10-18,05:37:47,2008-10-18,05:39:21,4
447881.568,4417567.228,39739.5098032407,39739.5103587963,48.11257631849016,2008-10-18,12:14:07,2008-10-18,12:14:55,-1
441964.2913043478,4428653.8304347815,39739.578287037,39739.5787962963,49.08971378961278,2008-10-18,13:52:44,2008-10-18,13:53:28,20
442014.9619047618,4428667.271428574,39740.1401273148,39740.1405902778,49.17570538373253,2008-10-19,03:21:47,2008-10-19,03:22:27,20
441303.6,4426020.7,39740.2374305556,39740.2374305556,0.0,2008-10-19,05:41:54,2008-10-19,05:41:54,-1
442871.0022569439,4425236.498958323,39740.5527662037,39740.6076851852,48.90480548975567,2008-10-19,13:15:59,2008-10-19,14:35:04,4
441780.5483870967,4428698.3048387095,39740.6246990741,39740.6273842593,39.1541824071674,2008-10-19,14:59:34,2008-10-19,15:03:26,451
442865.4636363636,4425325.336363638,39741.089837963,39741.0900694444,10.948059188710939,2008-10-20,02:09:22,2008-10-20,02:09:42,4
441777.5157894736,4428706.605263158,39741.407037037,39741.4074537037,45.94790528413997,2008-10-20,09:46:08,2008-10-20,09:46:44,451
441769.88999999996,4428742.239999999,39741.4829282407,39741.4842939815,49.438851119523804,2008-10-20,11:35:25,2008-10-20,11:37:23,25
442857.3627906979,4425240.683720929,39742.1486342593,39742.1496064815,49.32930163705427,2008-10-21,03:34:02,2008-10-21,03:35:26,4
442936.6922222223,4425270.873333336,39743.3383101852,39743.4139814815,47.02393007820593,2008-10-22,08:07:10,2008-10-22,09:56:08,4
442856.4086956521,4425232.678260868,39743.4720023148,39743.4725115741,43.23389873697734,2008-10-22,11:19:41,2008-10-22,11:20:25,4
441998.66190476186,4428667.309523811,39743.7086805556,39743.7091435185,44.41125983353847,2008-10-22,17:00:30,2008-10-22,17:01:10,20
442864.80677966104,4425238.330508474,39744.1267824074,39744.128125,49.679170685050366,2008-10-23,03:02:34,2008-10-23,03:04:30,4
441991.7877551021,4428674.893877552,39744.7240046296,39744.7251157407,40.42301324739413,2008-10-23,17:22:34,2008-10-23,17:24:10,20
442851.205263158,4425238.957894738,39745.0579861111,39745.2005555556,36.776351096866584,2008-10-24,01:23:30,2008-10-24,04:48:48,4
442966.2088888889,4425006.657777778,39745.2074305556,39745.2552083333,47.32229918319672,2008-10-24,04:58:42,2008-10-24,06:07:30,4
442868.15925925924,4425273.818518518,39745.2593981481,39745.2614583333,34.73974668896086,2008-10-24,06:13:32,2008-10-24,06:16:30,4
442892.89999999997,4425287.753846154,39752.1973032407,39752.1978125,26.174797038624178,2008-10-31,04:44:07,2008-10-31,04:44:51,4
442480.6411764706,4427096.205882352,39753.1953356481,39753.1957060185,32.00562450569513,2008-11-01,04:41:17,2008-11-01,04:41:49,71
442824.3428571429,4425249.157142857,39753.255787037,39753.2570833333,49.500101009997195,2008-11-01,06:08:20,2008-11-01,06:10:12,4
442018.66071428574,4428488.535714286,39753.8959259259,39753.8965509259,43.54595273960601,2008-11-01,21:30:08,2008-11-01,21:31:02,-1
441978.86363636365,4428663.790909088,39754.8568055556,39754.8578009259,45.3855703942991,2008-11-02,20:33:48,2008-11-02,20:35:14,20
442851.45,4425238.746428573,39755.0834953704,39755.0841203704,40.15295754987983,2008-11-03,02:00:14,2008-11-03,02:01:08,4
448913.6,4428329.3,39755.266412037,39755.266412037,0.0,2008-11-03,06:23:38,2008-11-03,06:23:38,-1
442845.82413793093,4425278.775862069,39755.456724537,39755.4573726852,47.30591929139578,2008-11-03,10:57:41,2008-11-03,10:58:37,4
441993.02820512827,4428673.141025641,39755.7480787037,39755.7489583333,48.530917980126326,2008-11-03,17:57:14,2008-11-03,17:58:30,20
440339.57333333336,4421611.776666667,39756.5649884259,39756.6042708333,45.98314908745805,2008-11-04,13:33:35,2008-11-04,14:30:09,-1
441970.3684931507,4428682.756164384,39756.6568402778,39756.6585069444,33.87107910873262,2008-11-04,15:45:51,2008-11-04,15:48:15,20
441988.3411764707,4428696.952941176,39756.6934837963,39756.6938541667,42.720018726587654,2008-11-04,16:38:37,2008-11-04,16:39:09,20
450778.44285714295,4424856.228571428,39757.4609837963,39757.4611226852,49.10651687896571,2008-11-05,11:03:49,2008-11-05,11:04:01,-1
449785.15250000014,4425200.135000001,39757.6266550926,39757.6275578704,47.95049530505394,2008-11-05,15:02:23,2008-11-05,15:03:41,-1
441956.4333333333,4428743.377777778,39758.7840625,39758.7842476852,31.219385003392283,2008-11-06,18:49:03,2008-11-06,18:49:19,-1
442863.32599999994,4425237.198,39759.2736342593,39759.2747685185,48.19180428283961,2008-11-07,06:34:02,2008-11-07,06:35:40,4
442865.1225806452,4425234.967741935,39769.067349537,39769.0680439815,46.952742198541216,2008-11-17,01:36:59,2008-11-17,01:37:59,4
441983.3449999999,4428652.649999999,39769.2303703704,39769.2308333333,37.75950211555291,2008-11-17,05:31:44,2008-11-17,05:32:24,20
442772.6440000001,4425237.235999999,39769.3090972222,39769.3096527778,46.083402652093014,2008-11-17,07:25:06,2008-11-17,07:25:54,4
442869.0285714286,4425330.071428572,39770.0556134259,39770.0557523148,27.954427198299122,2008-11-18,01:20:05,2008-11-18,01:20:17,4
442868.1021276598,4425247.063829786,39770.2391898148,39770.675787037,47.2411896549616,2008-11-18,05:44:26,2008-11-18,16:13:08,4
442020.8333333333,4428670.261111111,39770.6863194444,39770.686712963,26.847718711584132,2008-11-18,16:28:18,2008-11-18,16:28:52,20
442864.31590909103,4425221.736363635,39771.0837847222,39771.0847800926,37.982364328461635,2008-11-19,02:00:39,2008-11-19,02:02:05,4
442850.5233333333,4425280.206666667,39772.1009375,39772.1015625,49.47261868939327,2008-11-20,02:25:21,2008-11-20,02:26:15,4
450711.1878048782,4424761.585365853,39772.4800694444,39772.4809953704,48.120889435160905,2008-11-20,11:31:18,2008-11-20,11:32:38,362
442853.6000000001,4425254.964705883,39772.5523958333,39772.5527662037,48.685624161545945,2008-11-20,13:15:27,2008-11-20,13:15:59,4
442852.2,4425373.6,39773.0818865741,39773.0818865741,0.0,2008-11-21,01:57:55,2008-11-21,01:57:55,4
442547.2,4425102.2,39774.1761574074,39774.1761574074,0.0,2008-11-22,04:13:40,2008-11-22,04:13:40,-1
442115.4888888889,4428654.877777778,39774.6178819444,39774.6180671296,46.25883699373359,2008-11-22,14:49:45,2008-11-22,14:50:01,-1
442003.5833333333,4428670.4,39775.7425810185,39775.742974537,45.693872674553276,2008-11-23,17:49:19,2008-11-23,17:49:53,20
442861.75555555563,4425251.055555553,39776.0850694444,39776.086087963,49.097861460404765,2008-11-24,02:02:30,2008-11-24,02:03:58,4
441997.3444444444,4428668.722222222,39776.6650694444,39777.0701388889,35.06565271012241,2008-11-24,15:57:42,2008-11-25,01:41:00,20
442848.8095238095,4425294.285714285,39777.0834722222,39777.0839351852,47.83565615711646,2008-11-25,02:00:12,2008-11-25,02:00:52,4
442857.4111111111,4425293.774074075,39777.2078587963,39777.2084606481,36.277403435370815,2008-11-25,04:59:19,2008-11-25,05:00:11,4
441988.14893617015,4428682.025531913,39777.6464236111,39777.6474884259,48.077541534739346,2008-11-25,15:30:51,2008-11-25,15:32:23,20
442855.60892857146,4425243.721428571,39778.0962268518,39778.0975,49.257080709463004,2008-11-26,02:18:34,2008-11-26,02:20:24,4
450680.1324786327,4424735.136752138,39778.3392476852,39778.3758680556,49.12117669592465,2008-11-26,08:08:31,2008-11-26,09:01:15,362
450718.23750000005,4424819.100000001,39778.3789236111,39778.3790856482,42.905710574903566,2008-11-26,09:05:39,2008-11-26,09:05:53,-1
441993.8184210526,4428666.713157895,39778.6593981481,39778.6602199074,49.08543572173777,2008-11-26,15:49:32,2008-11-26,15:50:43,20
442845.5681818181,4425283.390909092,39779.1061342593,39779.1069444444,45.82630249029115,2008-11-27,02:32:50,2008-11-27,02:34:00,4
442007.17000000004,4428664.430000001,39779.6162384259,39779.6164467593,41.89367494023392,2008-11-27,14:47:23,2008-11-27,14:47:41,20
442862.90000000014,4425286.835555555,39780.1970717593,39780.1991087963,20.761743663986415,2008-11-28,04:43:47,2008-11-28,04:46:43,4
442516.05,4427136.85,39780.5430787037,39780.5431481482,46.06354306806186,2008-11-28,13:02:02,2008-11-28,13:02:08,-1
442743.1354838709,4425301.625806452,39780.5897337963,39780.5904282407,22.900218339537993,2008-11-28,14:09:13,2008-11-28,14:10:13,377
442849.3073170731,4425250.460975611,39781.212025463,39781.2129513889,41.713786689770274,2008-11-29,05:05:19,2008-11-29,05:06:39,4
451225.8181818182,4424351.736363635,39781.3786342593,39781.380462963,49.01469167505236,2008-11-29,09:05:14,2008-11-29,09:07:52,-1
442870.71666666673,4425293.024999999,39781.5077430556,39781.5079976852,44.75991510218681,2008-11-29,12:11:09,2008-11-29,12:11:31,4
441990.0210526316,4428666.394736841,39782.6771990741,39782.6780555556,35.05709628591621,2008-11-30,16:15:10,2008-11-30,16:16:24,20
442751.61600000004,4425288.898000001,39783.1039930556,39783.6668865741,49.8485706916423,2008-12-01,02:29:45,2008-12-01,16:00:19,377
441964.2604166667,4428716.258333332,39783.6911689815,39783.6933912037,12.780062597811447,2008-12-01,16:35:17,2008-12-01,16:38:29,20
441998.1484848486,4428673.157575759,39784.662650463,39784.6633912037,45.60043859425738,2008-12-02,15:54:13,2008-12-02,15:55:17,20
442863.7,4425321.750000001,39785.106099537,39785.1063078704,11.221853679340215,2008-12-03,02:32:47,2008-12-03,02:33:05,4
442001.48421052634,4428665.843859649,39785.6480902778,39785.6493865741,40.16030378369855,2008-12-03,15:33:15,2008-12-03,15:35:07,20
442854.07241379295,4425241.020689655,39786.0928240741,39786.0934722222,42.21670285565951,2008-12-04,02:13:40,2008-12-04,02:14:36,4
450539.2272727273,4424912.763636365,39790.5206134259,39790.5218171296,40.67099703701605,2008-12-08,12:29:41,2008-12-08,12:31:25,-1
442006.8266666666,4428665.333333333,39790.6701851852,39790.6705092593,46.591093569488784,2008-12-08,16:05:04,2008-12-08,16:05:32,20
442858.05,4425310.983333333,39791.1891203704,39791.1892361111,10.977249199702756,2008-12-09,04:32:20,2008-12-09,04:32:30,4
442863.4857142857,4425281.042857142,39792.1472337963,39792.148599537,41.12468844866882,2008-12-10,03:32:01,2008-12-10,03:33:59,4
442126.94999999995,4428850.25,39793.1986805556,39793.2033564815,16.664333169677086,2008-12-11,04:46:06,2008-12-11,04:52:50,-1
442851.3171428572,4425247.282857144,39793.3159490741,39793.3167361111,39.02870738298017,2008-12-11,07:34:58,2008-12-11,07:36:06,4
441994.6409090909,4428679.045454546,39793.6454861111,39793.6459722222,43.65329311757437,2008-12-11,15:29:30,2008-12-11,15:30:12,20
442865.79375000007,4425291.9906250015,39794.1594907407,39794.1604861111,31.384709652205977,2008-12-12,03:49:40,2008-12-12,03:51:06,4
445941.56666666665,4439313.066666667,39795.141412037,39795.1416666667,47.51778614384885,2008-12-13,03:23:38,2008-12-13,03:24:00,-1
448757.5782608694,4423678.769565218,39795.383900463,39795.3844097222,43.200115740585694,2008-12-13,09:12:49,2008-12-13,09:13:33,-1
442898.77999999997,4425366.126666667,39796.3057986111,39796.3061226852,39.830264874347144,2008-12-14,07:20:21,2008-12-14,07:20:49,4
442823.7828571429,4425239.762857143,39796.5729166667,39796.5737037037,41.76984558234069,2008-12-14,13:45:00,2008-12-14,13:46:08,4
442211.45,4421058.589285715,39797.420474537,39797.421099537,49.154653899615994,2008-12-15,10:05:29,2008-12-15,10:06:23,55
442848.08378378383,4425252.754054053,39797.5265393518,39797.5273726852,43.96191533606946,2008-12-15,12:38:13,2008-12-15,12:39:25,4
442010.3333333333,4428665.011111111,39802.6796296296,39802.6800347222,40.406063901360625,2008-12-20,16:18:40,2008-12-20,16:19:15,20
442092.40526315774,4420989.989473683,39803.1216203704,39803.1250347222,14.590750494737765,2008-12-21,02:55:08,2008-12-21,03:00:03,201
450709.4055555556,4424761.327777777,39803.4269907407,39803.5062962963,19.890952717113844,2008-12-21,10:14:52,2008-12-21,12:09:04,362
442121.3,4428058.15,39803.5387731481,39803.5388310185,24.32056742740489,2008-12-21,12:55:50,2008-12-21,12:55:55,-1
442852.04000000004,4425318.0,39804.1053356482,39804.1057407407,28.501578903632566,2008-12-22,02:31:41,2008-12-22,02:32:16,4
442004.3874999999,4428674.609375,39804.6582060185,39804.6598263889,19.00000000016298,2008-12-22,15:47:49,2008-12-22,15:50:09,20
442857.30833333335,4425240.116666666,39805.102349537,39805.1029861111,44.91970614344272,2008-12-23,02:27:23,2008-12-23,02:28:18,4
453648.8727272728,4425241.381818182,39805.5451273148,39805.5457060185,45.93963430443469,2008-12-23,13:04:59,2008-12-23,13:05:49,202
442870.37500000006,4425283.875,39805.6269675926,39805.6273726852,48.97887299647026,2008-12-23,15:02:50,2008-12-23,15:03:25,4
441259.0333333334,4425307.533333334,39806.4283912037,39806.4285069444,32.92612944138423,2008-12-24,10:16:53,2008-12-24,10:17:03,325
441995.0857142858,4428670.357142857,39806.6410069444,39806.641724537,30.513275799243033,2008-12-24,15:23:03,2008-12-24,15:24:05,20
442855.6999999999,4425243.075,39807.0740393519,39807.0747916667,43.865704143544086,2008-12-25,01:46:37,2008-12-25,01:47:42,4
441991.6000000001,4428675.896428571,39807.7534027778,39807.7547337963,41.06214801971835,2008-12-25,18:04:54,2008-12-25,18:06:49,20
442861.25555555563,4425275.566666666,39808.0797916667,39808.0802546296,47.14657993886295,2008-12-26,01:54:54,2008-12-26,01:55:34,4
442849.6555555556,4425260.244444445,39808.2482291667,39808.2486921296,42.09049774022907,2008-12-26,05:57:27,2008-12-26,05:58:07,4
450321.37345971604,4426621.403317535,39808.4487268519,39808.4888310185,36.144847489222606,2008-12-26,10:46:10,2008-12-26,11:43:55,-1
453659.6499999999,4425183.088888888,39808.504224537,39808.505150463,47.0558179186531,2008-12-26,12:06:05,2008-12-26,12:07:25,202
441995.9534246577,4428670.458904109,39808.7806712963,39809.031400463,5.882176468146926,2008-12-26,18:44:10,2008-12-27,00:45:13,20
434118.5833333333,4453206.483333333,39809.1608101852,39809.161099537,47.78755068059081,2008-12-27,03:51:34,2008-12-27,03:51:59,-1
442916.01875000005,4424967.2375,39809.3361805556,39809.3369328704,37.987629565581564,2008-12-27,08:04:06,2008-12-27,08:05:11,163
450383.9000000001,4426346.325,39810.1606712963,39810.1611921296,36.43473617305594,2008-12-28,03:51:22,2008-12-28,03:52:07,-1
450711.7249999999,4424587.750000001,39810.3904050926,39810.3916203704,47.82645711353506,2008-12-28,09:22:11,2008-12-28,09:23:56,359
441992.85000000003,4428459.016666667,39810.7264814815,39810.727025463,30.095846889541335,2008-12-28,17:26:08,2008-12-28,17:26:55,-1
442852.8272727273,4425237.709090909,39811.1166203704,39811.1171412037,42.40577790820492,2008-12-29,02:47:56,2008-12-29,02:48:41,4
441993.15312499995,4428664.043749999,39811.682337963,39812.0658449074,49.603729698303304,2008-12-29,16:22:34,2008-12-30,01:34:49,20
442061.82631578954,4428609.384210526,39812.0659027778,39812.0668287037,16.901183390245492,2008-12-30,01:34:54,2008-12-30,01:36:14,-1
441055.94000000006,4425477.694545455,39813.4314699074,39813.5380208333,48.580757507485394,2008-12-31,10:21:19,2008-12-31,12:54:45,349
443020.37600000016,4424548.156,39813.547337963,39813.5485532407,34.37586362501812,2008-12-31,13:08:10,2008-12-31,13:09:55,405
442944.24503546115,4425263.92925532,39814.6462615741,39814.6995601852,44.24081825680385,2009-01-01,15:30:37,2009-01-01,16:47:22,4
442857.45,4425309.9,39814.7473611111,39814.7474189815,9.042676594651082,2009-01-01,17:56:12,2009-01-01,17:56:17,4
441967.9,4428681.5,39819.4440393519,39819.4440393519,0.0,2009-01-06,10:39:25,2009-01-06,10:39:25,20
442888.625,4425308.775,39819.5571412037,39819.5573148148,3.981205847537359,2009-01-06,13:22:17,2009-01-06,13:22:32,4
442020.53478260874,4428664.173913045,39824.5660763889,39824.5671180556,43.60103209793779,2009-01-11,13:35:09,2009-01-11,13:36:39,20
442851.10000000003,4425301.425,39825.1750578704,39825.1752314815,18.21675053314933,2009-01-12,04:12:05,2009-01-12,04:12:20,4
442035.8625,4428662.524999999,39825.696724537,39825.6970717593,35.47647107555071,2009-01-12,16:43:17,2009-01-12,16:43:47,20
442861.34,4425236.890000001,39826.0913541667,39826.0918171296,36.00347205449514,2009-01-13,02:11:33,2009-01-13,02:12:13,4
442863.78125000006,4425259.79375,39826.2119791667,39826.2127314815,3.2893768403403025,2009-01-13,05:05:15,2009-01-13,05:06:20,4
442867.61500000005,4425233.1,39827.5263541667,39827.5272800926,41.10985283358184,2009-01-14,12:37:57,2009-01-14,12:39:17,4
442028.7368421053,4428668.600000001,39827.7649884259,39828.0752777778,44.93484171537418,2009-01-14,18:21:35,2009-01-15,01:48:24,20
442850.7266666667,4425248.88,39828.0883564815,39828.0890509259,45.80927853612972,2009-01-15,02:07:14,2009-01-15,02:08:14,4
450048.12,4426550.11,39828.4405324074,39828.4409953704,29.3073369654557,2009-01-15,10:34:22,2009-01-15,10:35:02,-1
442872.93846153846,4425273.984615385,39828.536087963,39828.5367824074,49.14682085340469,2009-01-15,12:51:58,2009-01-15,12:52:58,4
442854.50625000003,4425276.73125,39829.1162731481,39829.1174305556,45.94126685271974,2009-01-16,02:47:26,2009-01-16,02:49:06,4
442555.75999999995,4427004.033333332,39829.1831365741,39829.1839467593,42.20426518744246,2009-01-16,04:23:43,2009-01-16,04:24:53,14
442837.7666666666,4425441.584848484,39829.2553240741,39829.2569444444,45.621924553850725,2009-01-16,06:07:40,2009-01-16,06:10:00,4
441974.7615384615,4428665.142307692,39829.7316435185,39829.7370833333,8.030566605166555,2009-01-16,17:33:34,2009-01-16,17:41:24,20
442863.0500000001,4425234.524999999,39830.1212962963,39830.1220486111,33.00681747759335,2009-01-17,02:54:40,2009-01-17,02:55:45,4
441990.575,4429057.6125,39831.1884837963,39831.1888310185,49.30415803919907,2009-01-18,04:31:25,2009-01-18,04:31:55,447
441952.98124999995,4428690.58125,39831.4183564815,39831.419224537,32.17592267518404,2009-01-18,10:02:26,2009-01-18,10:03:41,20
442045.1111111112,4428661.966666667,39831.6099884259,39831.6103935185,41.72349458003374,2009-01-18,14:38:23,2009-01-18,14:38:58,20
442850.4777777778,4425217.022222223,39832.3034490741,39832.3038541667,39.99299938740333,2009-01-19,07:16:58,2009-01-19,07:17:33,4
442887.7388888889,4425216.46111111,39833.2551273148,39833.2559606481,15.117208736670825,2009-01-20,06:07:23,2009-01-20,06:08:35,4
442003.31666666665,4428671.483333333,39833.4405208333,39833.4407523148,36.1863233835045,2009-01-20,10:34:21,2009-01-20,10:34:41,20
442862.05833333335,4425293.366666665,39834.2900231481,39834.2906018518,19.958456854313066,2009-01-21,06:57:38,2009-01-21,06:58:28,4
442031.50833333336,4428669.8,39834.7870601852,39834.7876388889,43.522178253980115,2009-01-21,18:53:22,2009-01-21,18:54:12,20
442173.1466666666,4429176.306666667,39837.2040972222,39837.2047916667,47.271238613109624,2009-01-24,04:53:54,2009-01-24,04:54:54,5
442134.27,4429192.215,39838.1288078704,39838.1297916667,41.07967867439682,2009-01-25,03:05:29,2009-01-25,03:06:54,5
442774.2315789475,4425144.921052632,39841.2222106481,39841.2231365741,37.209138661913784,2009-01-28,05:19:59,2009-01-28,05:21:19,421
442134.7612903226,4429190.193548387,39846.4776736111,39846.4793518518,37.619808612499696,2009-02-02,11:27:51,2009-02-02,11:30:16,5
442851.3916666668,4425233.970833332,39847.2852314815,39847.2863310185,48.16658592793427,2009-02-03,06:50:44,2009-02-03,06:52:19,4
442144.99999999994,4429179.611111111,39847.6183564815,39847.6191666667,45.37851914718824,2009-02-03,14:50:26,2009-02-03,14:51:36,5
442835.9166666667,4425384.066666666,39848.2125462963,39848.2127777778,49.40708451222065,2009-02-04,05:06:04,2009-02-04,05:06:24,4
442861.8799999999,4425366.266666667,39849.1597685185,39849.160462963,38.6419461205175,2009-02-05,03:50:04,2009-02-05,03:51:04,4
442877.80999999994,4425261.535000001,39850.2544560185,39850.2553819444,37.38047618753839,2009-02-06,06:06:25,2009-02-06,06:07:45,4
442862.54166666657,4425244.004166667,39851.0438310185,39851.0451041667,44.382541613157954,2009-02-07,01:03:07,2009-02-07,01:04:57,4
441838.85454545455,4427715.481818181,39851.4553125,39851.4558333333,43.722419878447006,2009-02-07,10:55:39,2009-02-07,10:56:24,-1
438013.30714285705,4451540.100000001,39852.1170833333,39852.1177199074,25.251732613819303,2009-02-08,02:48:36,2009-02-08,02:49:31,-1
442254.4,4429228.659999999,39854.6680902778,39854.6682638889,10.929318367940413,2009-02-10,16:02:03,2009-02-10,16:02:18,82
442864.43333333335,4425345.925,39855.2070138889,39855.2075347222,43.385020456402366,2009-02-11,04:58:06,2009-02-11,04:58:51,4
442140.825,4429184.41,39855.407662037,39855.4086226852,29.71211873950783,2009-02-11,09:47:02,2009-02-11,09:48:25,5
442859.83181818185,4425250.068181818,39857.1362268519,39857.1373842593,38.63586416774525,2009-02-13,03:16:10,2009-02-13,03:17:50,4
444451.57,4415564.01,39858.3052893518,39858.3063888889,30.907927785550402,2009-02-14,07:19:37,2009-02-14,07:21:12,-1
442140.1857142858,4429176.961904762,39858.4550810185,39858.4561226852,40.57351352794944,2009-02-14,10:55:19,2009-02-14,10:56:49,5
442856.62307692313,4425251.384615385,39859.4549074074,39859.4556018518,45.050416202284026,2009-02-15,10:55:04,2009-02-15,10:56:04,4
442178.19999999995,4429187.4846153855,39859.761712963,39859.762349537,48.89764820532616,2009-02-15,18:16:52,2009-02-15,18:17:47,5
442849.8655172413,4425237.041379311,39860.1652314815,39860.7265740741,46.56006872850042,2009-02-16,03:57:56,2009-02-16,17:26:16,4
442181.66363636364,4429176.0636363635,39860.7386111111,39860.7391319444,33.10498451909301,2009-02-16,17:43:36,2009-02-16,17:44:21,5