447460.2666666666,4413028.711111111,39756.0552083333,39756.0558564815,41.949493441850585,2008-11-04,01:19:30,2008-11-04,01:20:26
441822.66,4423121.5,39756.443900463,39756.4439467593,41.09075321789923,2008-11-04,10:39:13,2008-11-04,10:39:17
441283.2428571428,4425146.857142857,39757.0767361111,39757.0771759259,48.6920938139756,2008-11-05,01:50:30,2008-11-05,01:51:08
452668.325,4423213.475,39757.149525463,39757.1501851852,38.820870675468356,2008-11-05,03:35:19,2008-11-05,03:36:16
447453.70909090916,4412999.654545454,39757.3063657407,39757.4570717593,48.929030237426474,2008-11-05,07:21:10,2008-11-05,10:58:11
441821.34,4423239.46,39757.5081944444,39757.5091087963,24.38237068047847,2008-11-05,12:11:48,2008-11-05,12:13:07
464397.2571428571,4436639.899999999,39758.1608564815,39758.1613541667,47.63202704115463,2008-11-06,03:51:38,2008-11-06,03:52:21
452528.1,4419992.7,39758.4590740741,39758.4590740741,0.0,2008-11-06,11:01:04,2008-11-06,11:01:04
447621.5,4418908.899999999,39759.0802314815,39759.0802777778,18.988944151717046,2008-11-07,01:55:32,2008-11-07,01:55:36
451216.5307692308,4414582.215384616,39759.1952314815,39759.1964467593,3.130495168343518,2008-11-07,04:41:08,2008-11-07,04:42:53
450276.5,4416423.466666667,39759.3269444444,39759.3269675926,48.141458224196775,2008-11-07,07:50:48,2008-11-07,07:50:50
455199.8,4419803.9,39759.389224537,39759.389224537,0.0,2008-11-07,09:20:29,2008-11-07,09:20:29
447493.92222222226,4412982.783333334,39759.4959375,39759.4974189815,48.24209779905318,2008-11-07,11:54:09,2008-11-07,11:56:17
427137.69999999995,4454909.225,39760.2033912037,39760.2034606481,47.31648761237475,2008-11-08,04:52:53,2008-11-08,04:52:59
415435.4666666666,4467174.999999999,39760.2979976852,39760.298125,15.58717421473824,2008-11-08,07:09:07,2008-11-08,07:09:18
447507.2024390245,4412958.458536585,39760.5682638889,39760.5752430556,24.249123694952335,2008-11-08,13:38:18,2008-11-08,13:48:21
447133.43333333335,4412989.966666666,39761.0027893518,39761.0028125,38.4567289302364,2008-11-09,00:04:01,2008-11-09,00:04:03
447382.4,4413080.1,39761.1490277778,39761.1490393518,38.504025763522655,2008-11-09,03:34:36,2008-11-09,03:34:37
447481.6279069767,4412992.0,39761.2009259259,39761.2524189815,44.34196657793853,2008-11-09,04:49:20,2008-11-09,06:03:29
447513.6,4412611.1,39761.2703587963,39761.2703587963,0.0,2008-11-09,06:29:19,2008-11-09,06:29:19
447450.8166666666,4413089.050000001,39762.0615393519,39762.0617824074,45.661581225217354,2008-11-10,01:28:37,2008-11-10,01:28:58
447254.4,4414708.1,39762.4730092593,39762.4730092593,0.0,2008-11-10,11:21:08,2008-11-10,11:21:08
453120.8818181818,4423420.945454545,39763.3379282407,39763.3384490741,45.96194077731327,2008-11-11,08:06:37,2008-11-11,08:07:22
418914.6,4416357.5,39763.4326851852,39763.4326851852,0.0,2008-11-11,10:23:04,2008-11-11,10:23:04
447003.2,4412485.7,39763.5156365741,39763.5156365741,0.0,2008-11-11,12:22:31,2008-11-11,12:22:31
449967.25,4412928.316666666,39764.0602893519,39764.0613425926,43.02057647267682,2008-11-12,01:26:49,2008-11-12,01:28:20
441662.15,4422855.55,39764.6645601852,39764.6645717593,25.653459805884705,2008-11-12,15:56:58,2008-11-12,15:56:59
467404.6,4433872.85,39764.9532523148,39764.953275463,44.838487931751764,2008-11-12,22:52:41,2008-11-12,22:52:43
441202.62857142853,4425139.792857143,39766.0639236111,39766.064849537,17.976929660192887,2008-11-14,01:32:03,2008-11-14,01:33:23
451206.12,4414511.040000001,39767.1868402778,39767.1873148148,41.25639344393061,2008-11-15,04:29:03,2008-11-15,04:29:44
449913.3,4415125.0,39767.2932060185,39767.293287037,42.63812847712233,2008-11-15,07:02:13,2008-11-15,07:02:20
447488.85555555555,4413014.944444444,39782.6370949074,39782.6375462963,1.476482306101398,2008-11-30,15:17:25,2008-11-30,15:18:04
466727.30000000005,4433653.866666667,39783.0543518519,39783.054837963,45.44106072705845,2008-12-01,01:18:16,2008-12-01,01:18:58
455708.9,4418067.4,39783.1213773148,39783.1213773148,0.0,2008-12-01,02:54:47,2008-12-01,02:54:47
449907.60000000003,4412886.8,39783.2060532407,39783.2061111111,9.932270636538197,2008-12-01,04:56:43,2008-12-01,04:56:48
449562.9666666666,4413314.633333334,39783.3180439815,39783.3180671296,42.921439864012015,2008-12-01,07:37:59,2008-12-01,07:38:01
447497.75,4412978.7,39783.4556828704,39783.457662037,9.621330469047008,2008-12-01,10:56:11,2008-12-01,10:59:02
448113.0,4420479.74,39784.0807986111,39784.0808449074,43.316624983941665,2008-12-02,01:56:21,2008-12-02,01:56:25
447482.35,4413394.75,39784.2118981481,39784.2119097222,35.0682192298099,2008-12-02,05:05:08,2008-12-02,05:05:09
447492.17000000004,4412982.320000001,39784.2790509259,39784.3843981481,45.70010940907023,2008-12-02,06:41:50,2008-12-02,09:13:32
447548.55000000005,4412983.8,39784.3844907407,39784.3845486111,8.299999999988358,2008-12-02,09:13:40,2008-12-02,09:13:45
447448.8,4412973.616666666,39784.5085763889,39784.5086921296,44.75377079090973,2008-12-02,12:12:21,2008-12-02,12:12:31
481885.9,4299357.7,39784.6006944444,39784.6006944444,0.0,2008-12-02,14:25:00,2008-12-02,14:25:00
447508.6774193548,4412978.387096775,39784.7079513889,39784.7812384259,46.83268089722687,2008-12-02,16:59:27,2008-12-02,18:44:59
447521.27288135595,4412980.998305085,39784.783275463,39784.8234259259,9.638464608670622,2008-12-02,18:47:55,2008-12-02,19:45:44
447498.5181818182,4412988.427272728,39784.8237731481,39787.0375578704,46.94187895702415,2008-12-02,19:46:14,2008-12-05,00:54:05
452662.70909090905,4423221.336363636,39787.0950925926,39787.1344212963,43.40138246638622,2008-12-05,02:16:56,2008-12-05,03:13:34
453084.35,4423432.949999999,39787.1661805556,39787.1661921296,47.096709014485526,2008-12-05,03:59:18,2008-12-05,03:59:19
447654.98,4412858.54,39787.3424421296,39787.3424884259,47.462090135418435,2008-12-05,08:13:07,2008-12-05,08:13:11
447492.28,4412982.252000001,39787.5550115741,39787.5888541667,45.85378937421444,2008-12-05,13:19:13,2008-12-05,14:07:57
418450.1,4427888.8,39787.6050578704,39787.6050578704,0.0,2008-12-05,14:31:17,2008-12-05,14:31:17
449421.62,4410327.159999999,39787.6740856481,39787.6742013889,45.024104655611744,2008-12-05,16:10:41,2008-12-05,16:10:51
447151.8,4413564.1,39788.6234375,39788.6234375,0.0,2008-12-06,14:57:45,2008-12-06,14:57:45
446423.05,4413571.55,39789.0825231481,39789.0825347222,49.11232024672544,2008-12-07,01:58:50,2008-12-07,01:58:51
447338.7545454545,4412672.754545454,39789.500150463,39789.5387731481,44.290179498336784,2008-12-07,12:00:13,2008-12-07,12:55:50
447512.73043478274,4412986.695652175,39789.5499074074,39789.5862615741,44.15620001756085,2008-12-07,13:11:52,2008-12-07,14:04:13
447527.75641025644,4412972.153846154,39789.6400462963,39789.6986342593,41.50433712226665,2008-12-07,15:21:40,2008-12-07,16:46:02
447512.678125,4412976.896875001,39789.8123148148,39790.9589467593,18.796276226910265,2008-12-07,19:29:44,2008-12-08,23:00:53
447417.5,4412070.55,39791.0029976852,39791.0030092593,45.549643247424825,2008-12-09,00:04:19,2008-12-09,00:04:20
441566.7,4416329.649999999,39791.9418171296,39791.9421759259,49.55411183781769,2008-12-09,22:36:13,2008-12-09,22:36:44
450535.15,4413353.0,39791.999837963,39791.9999074074,43.30588874481265,2008-12-09,23:59:46,2008-12-09,23:59:52
450226.25999999995,4413730.4399999995,39792.3462152778,39792.3463194444,41.71726261395177,2008-12-10,08:18:33,2008-12-10,08:18:42
447877.6875,4412514.91875,39792.4806944444,39792.4821759259,37.34983266356357,2008-12-10,11:32:12,2008-12-10,11:34:20
461062.82307692314,4473721.853846154,39793.2217361111,39793.2618171296,49.97959583672468,2008-12-11,05:19:18,2008-12-11,06:17:01
449391.4,4417835.1,39793.3540509259,39793.3540509259,0.0,2008-12-11,08:29:50,2008-12-11,08:29:50
450034.9,4489057.7,39793.4597800926,39793.4597800926,0.0,2008-12-11,11:02:05,2008-12-11,11:02:05
447999.4,4412814.95,39793.6357407407,39793.6357523148,29.916717734776274,2008-12-11,15:15:28,2008-12-11,15:15:29
447493.7,4412992.600000001,39793.7002546296,39793.7010416667,16.130716041279047,2008-12-11,16:48:22,2008-12-11,16:49:30
447471.85,4412965.0200000005,39793.8399305556,39793.8410300926,32.57882748030464,2008-12-11,20:09:30,2008-12-11,20:11:05
447578.7714285715,4412976.499999999,39796.4556481481,39796.587662037,47.02265411496225,2008-12-14,10:56:08,2008-12-14,14:06:14
447582.6642857143,4412952.45,39796.5990277778,39796.6069560185,18.287974190576815,2008-12-14,14:22:36,2008-12-14,14:34:01
448192.905882353,4412814.982352941,39797.094224537,39797.1570023148,42.76189892892666,2008-12-15,02:15:41,2008-12-15,03:46:05
447514.7333333334,4412977.399999999,39797.1806481481,39797.1815162037,16.658931538433148,2008-12-15,04:20:08,2008-12-15,04:21:23
