441948.89230769227,4426212.369230769,39822.3053587963,39822.3058217593,49.323523799531046,2009-01-09,07:19:43,2009-01-09,07:20:23
440625.3,4424853.683333334,39822.5301736111,39822.5306828704,47.55638758360141,2009-01-09,12:43:27,2009-01-09,12:44:11
441997.24864864873,4417016.848648648,39823.2177777778,39823.2194675926,34.59841036815102,2009-01-10,05:13:36,2009-01-10,05:16:02
440629.97142857144,4424796.242857142,39824.3209027778,39824.3213773148,38.241600384894525,2009-01-11,07:42:06,2009-01-11,07:42:47
440623.5538461538,4424816.815384615,39824.4307638889,39824.4311689815,41.3997584533058,2009-01-11,10:20:18,2009-01-11,10:20:53
440614.49459459464,4424766.227027026,39825.2908333333,39825.2921875,34.024256053443054,2009-01-12,06:58:48,2009-01-12,07:00:45
479540.5,4369843.0,39825.6567013889,39825.656712963,33.1602171287865,2009-01-12,15:45:39,2009-01-12,15:45:40
646744.4852459015,5164845.196174865,39826.4084259259,39826.4507523148,48.13948483300646,2009-01-13,09:48:08,2009-01-13,10:49:05
646731.5369897955,5164846.352806121,39826.4625925926,39826.4984490741,47.379531445801746,2009-01-13,11:06:08,2009-01-13,11:57:46
646733.3948849106,5164857.556521738,39826.4986458333,39826.5358912037,49.72574785746412,2009-01-13,11:58:03,2009-01-13,12:51:41
646736.1283582087,5164822.711940301,39826.5360069444,39826.5707175926,49.58800258135167,2009-01-13,12:51:51,2009-01-13,13:41:50
646731.0660351824,5164840.179702302,39826.5776041667,39826.6331481481,45.80010916952283,2009-01-13,13:51:45,2009-01-13,15:11:44
646725.4337386015,5164850.100911854,39826.6350231481,39826.6660300926,41.81411245011669,2009-01-13,15:14:26,2009-01-13,15:59:05
646736.8595460618,5164841.15914553,39826.7262384259,39826.8034722222,48.502474163631504,2009-01-13,17:25:47,2009-01-13,19:17:00
646732.5646464645,5164851.924747472,39826.8348148148,39826.8749305556,45.53372376571943,2009-01-13,20:02:08,2009-01-13,20:59:54
646733.2426307455,5164851.63248812,39826.8758333333,39826.9195023148,44.56231591863858,2009-01-13,21:01:12,2009-01-13,22:04:05
655467.9222222223,5162183.4,39827.050787037,39827.0508912037,13.624243098710956,2009-01-14,01:13:08,2009-01-14,01:13:17
655388.4584269663,5162201.784269664,39827.1373611111,39827.1441782407,21.828879952799614,2009-01-14,03:17:48,2009-01-14,03:27:37
655381.88,5162277.36,39827.342037037,39827.3420949074,37.048751665872715,2009-01-14,08:12:32,2009-01-14,08:12:37
655390.1322164943,5162199.506958764,39828.0085648148,39829.0407175926,48.52319033266921,2009-01-15,00:12:20,2009-01-16,00:58:38
655376.5014059762,5162188.523374337,39829.0441203704,39829.0934027778,48.997959140988975,2009-01-16,01:03:32,2009-01-16,02:14:30
655389.7743515848,5162207.692219018,39829.1258796296,39829.1618865741,44.38220364046691,2009-01-16,03:01:16,2009-01-16,03:53:07
655395.3853658538,5162196.612804883,39829.3054050926,39829.3424652778,46.50043010553753,2009-01-16,07:19:47,2009-01-16,08:13:09
646725.1225609755,5164864.425000001,39829.5030208333,39829.5700925926,49.41356089208612,2009-01-16,12:04:21,2009-01-16,13:40:56
646737.7427972025,5164859.095804195,39829.5741898148,39829.6742939815,41.59579305702848,2009-01-16,13:46:50,2009-01-16,16:10:59
646754.413469388,5164851.391836742,39829.7259722222,39829.7933912037,47.797175648471296,2009-01-16,17:25:24,2009-01-16,19:02:29
646741.8587586205,5164859.7466206895,39829.8187268519,39829.8856481481,43.17893004672307,2009-01-16,19:38:58,2009-01-16,21:15:20
655361.3718446601,5162184.866990291,39830.0080208333,39830.0205902778,22.051757299037536,2009-01-17,00:11:33,2009-01-17,00:29:39
646742.6412855382,5164859.243016065,39830.2274768518,39830.3023148148,49.91592932105342,2009-01-17,05:27:34,2009-01-17,07:15:20
646743.1820224718,5164858.0337078655,39830.3826388889,39830.9395717593,49.569849706754084,2009-01-17,09:11:00,2009-01-17,22:32:59
646724.6816981122,5164869.854716983,39830.9422337963,39830.995462963,48.97193073589388,2009-01-17,22:36:49,2009-01-17,23:53:28
645529.2216589861,5166628.769815665,39831.1327430556,39831.2146759259,49.65178748004016,2009-01-18,03:11:09,2009-01-18,05:09:08
645523.0768913338,5166635.682530945,39831.2150810185,39831.2527430556,49.21991466893676,2009-01-18,05:09:43,2009-01-18,06:03:57
646734.4834970535,5164850.716895872,39831.5030902778,39831.557025463,43.66165365641717,2009-01-18,12:04:27,2009-01-18,13:22:07
646742.4609550564,5164859.920365163,39831.5770949074,39831.6503703704,46.93239819115602,2009-01-18,13:51:01,2009-01-18,15:36:32
646715.1371595339,5164899.636381317,39831.6804166667,39831.7337731481,47.85394445634028,2009-01-18,16:19:48,2009-01-18,17:36:38
646818.4374131965,5164855.705729173,39831.8083564815,39831.910162037,48.909917194737936,2009-01-18,19:24:02,2009-01-18,21:50:38
645519.5981651379,5166633.162018356,39832.0195717593,39832.0913773148,15.234500320177101,2009-01-19,00:28:11,2009-01-19,02:11:35
645527.5266106445,5166633.430252101,39832.1486226852,39832.1855439815,48.93362851818987,2009-01-19,03:34:01,2009-01-19,04:27:11
655388.9193548391,5162198.5276497705,39832.3933449074,39832.405474537,19.50640920313116,2009-01-19,09:26:25,2009-01-19,09:43:53
646738.2706505293,5164856.271255667,39833.3567476852,39833.4264699074,21.489532335403798,2009-01-20,08:33:43,2009-01-20,10:14:07
646729.8227272728,5164854.018181823,39833.4428935185,39833.907974537,31.492538799029703,2009-01-20,10:37:46,2009-01-20,21:47:29
645516.0857558144,5166633.04273256,39833.9777893518,39834.016412037,49.28975552790756,2009-01-20,23:28:01,2009-01-21,00:23:38
645495.6606741573,5166615.301123597,39834.0177199074,39834.1046064815,45.40671756462255,2009-01-21,00:25:31,2009-01-21,02:30:38
646904.1111111111,5165119.422222223,39834.1878819444,39834.1882291667,44.528642467171316,2009-01-21,04:30:33,2009-01-21,04:31:03
440629.13999999996,4424822.1866666665,39847.5512731481,39847.551875,44.32786933744921,2009-02-03,13:13:50,2009-02-03,13:14:42
443658.67894736846,4423696.978947368,39848.1882523148,39848.2325231481,39.71813187971808,2009-02-04,04:31:05,2009-02-04,05:34:50
440638.125,4424821.049999999,39848.26,39848.2608101852,49.684705896338215,2009-02-04,06:14:24,2009-02-04,06:15:34
440635.43809523806,4424845.676190475,39848.5049768519,39848.5057638889,46.95955706788447,2009-02-04,12:07:10,2009-02-04,12:08:18
440649.9,4424810.223076923,39850.2778935185,39850.2782523148,29.302730248113036,2009-02-06,06:40:10,2009-02-06,06:40:41
441997.8571428571,4417033.264285715,39850.5065046296,39850.5072106481,42.10997506529777,2009-02-06,12:09:22,2009-02-06,12:10:23
440628.1666666667,4424832.706666667,39851.0031134259,39851.0037615741,44.932950047901464,2009-02-07,00:04:29,2009-02-07,00:05:25
441793.6,4424471.0,39851.0654050926,39851.0654050926,0.0,2009-02-07,01:34:11,2009-02-07,01:34:11
440354.4235294118,4424164.252941177,39851.4060532407,39851.4065740741,49.22936115793409,2009-02-07,09:44:43,2009-02-07,09:45:28
443329.6558139535,4425287.388372094,39851.4741898148,39851.4761342593,33.69643898103904,2009-02-07,11:22:50,2009-02-07,11:25:38
446384.8333333333,4424169.066666666,39851.632662037,39851.6327083333,17.827226368679966,2009-02-07,15:11:02,2009-02-07,15:11:06
443264.1272727272,4421298.036363636,39852.3102893519,39852.3105324074,37.67784494869492,2009-02-08,07:26:49,2009-02-08,07:27:10
440540.74000000005,4424207.4,39853.3749421296,39853.3749884259,26.276224995204018,2009-02-09,08:59:55,2009-02-09,08:59:59
443143.6450980392,4425024.382352941,39854.0637962963,39854.0658101852,34.15508746840543,2009-02-10,01:31:52,2009-02-10,01:34:46
440613.96249999997,4424839.887499999,39854.4548958333,39854.4555324074,41.42704430679392,2009-02-10,10:55:03,2009-02-10,10:55:58
442875.98529411765,4426945.68235294,39855.6681828704,39855.7745023148,49.29787013672711,2009-02-11,16:02:11,2009-02-11,18:35:17
440588.7136363636,4424839.4772727275,39855.796087963,39855.7987384259,43.16758042791319,2009-02-11,19:06:22,2009-02-11,19:10:11
443113.5366666668,4425013.573333334,39856.0762962963,39856.0775694444,9.33434518321909,2009-02-12,01:49:52,2009-02-12,01:51:42
440580.37222222215,4424811.216666666,39856.44625,39856.4471064815,47.71048102875884,2009-02-12,10:42:36,2009-02-12,10:43:50
441514.7666666667,4416398.699999999,39857.1502893518,39857.1509837963,31.537279527800457,2009-02-13,03:36:25,2009-02-13,03:37:25
443477.19999999995,4423251.75,39857.4847916667,39857.4848032407,5.044799302616381,2009-02-13,11:38:06,2009-02-13,11:38:07
441276.30432692333,4422427.637339741,39858.1368634259,39858.1991898148,43.767567901158436,2009-02-14,03:17:05,2009-02-14,04:46:50
440253.1043478261,4425061.034782609,39858.285,39858.2860416667,19.485892333006355,2009-02-14,06:50:24,2009-02-14,06:51:54
453533.86500000005,4414959.61,39858.3624537037,39858.3634375,49.844759002485816,2009-02-14,08:41:56,2009-02-14,08:43:21
441762.23043478257,4422356.469565216,39858.4120138889,39858.4560763889,46.98350774489911,2009-02-14,09:53:18,2009-02-14,10:56:45
440512.2666666666,4424758.863636363,39858.4864814815,39858.4877777778,5.608921464879004,2009-02-14,11:40:32,2009-02-14,11:42:24
440670.311764706,4424801.399999999,39860.4106481481,39860.4112847222,42.275406562529,2009-02-16,09:51:20,2009-02-16,09:52:15
440669.49374999997,4424821.90625,39861.495775463,39861.4965509259,47.780016743525294,2009-02-17,11:53:55,2009-02-17,11:55:02
440662.275,4424799.589999999,39863.489224537,39863.4898263889,13.152186129929843,2009-02-19,11:44:29,2009-02-19,11:45:21
440363.5777777778,4424307.133333334,39864.1909027778,39864.1912152778,44.16174815346561,2009-02-20,04:34:54,2009-02-20,04:35:21
440614.5370370371,4424821.859259259,39864.3341087963,39864.9961574074,44.94407636199221,2009-02-20,08:01:07,2009-02-20,23:54:28
443493.10000000003,4427896.441666667,39865.0349884259,39865.0353819444,39.45744543176754,2009-02-21,00:50:23,2009-02-21,00:50:57
443827.21499999985,4428080.65,39865.1619328704,39865.1626851852,33.63406011768428,2009-02-21,03:53:11,2009-02-21,03:54:16
440765.0285714286,4424238.1,39865.4434490741,39865.4440625,46.06712493755413,2009-02-21,10:38:34,2009-02-21,10:39:27
454344.9846311476,4418860.948360654,39866.2228472222,39866.2687731481,48.28084506304687,2009-02-22,05:20:54,2009-02-22,06:27:02
454329.7864734298,4418865.264734298,39866.2809143519,39866.337337963,47.452291830612765,2009-02-22,06:44:31,2009-02-22,08:05:46
441321.97027027025,4422490.8864864865,39866.4029282407,39866.4582291667,49.29999999982318,2009-02-22,09:40:13,2009-02-22,10:59:51
440606.2,4424900.55,39866.4836226852,39866.4837152778,17.23252738296877,2009-02-22,11:36:25,2009-02-22,11:36:33
443129.3072815532,4425050.690291263,39867.109537037,39867.1249421296,21.681558984513934,2009-02-23,02:37:44,2009-02-23,02:59:55
443013.79999999993,4425220.845,39867.2257523148,39867.2265856481,8.256512580892172,2009-02-23,05:25:05,2009-02-23,05:26:17
440770.5227272729,4424247.377272728,39876.4872685185,39876.4882638889,46.68543670124492,2009-03-04,11:41:40,2009-03-04,11:43:06
443039.32702702715,4425022.2081081085,39877.2607407407,39877.2622800926,10.099999999452272,2009-03-05,06:15:28,2009-03-05,06:17:41
441351.27777777787,4422546.338888888,39877.4752777778,39877.4759606481,48.28923275417577,2009-03-05,11:24:24,2009-03-05,11:25:23
440604.2363636364,4424829.6454545455,39877.5400231481,39877.5403703704,47.746204037879146,2009-03-05,12:57:38,2009-03-05,12:58:08
442878.99230769236,4426921.534615384,39877.6200925926,39877.6212152778,48.60041152051899,2009-03-05,14:52:56,2009-03-05,14:54:33
440652.4956521738,4424802.552173913,39877.7590625,39877.7601157407,42.29338009680713,2009-03-05,18:13:03,2009-03-05,18:14:34
442951.67500000005,4425038.483333334,39879.0718171296,39879.0721643518,42.76657573459541,2009-03-07,01:43:25,2009-03-07,01:43:55
443126.7458064515,4425023.508387096,39879.1355439815,39879.3941087963,28.594405047292778,2009-03-07,03:15:11,2009-03-07,09:27:31
440182.515,4424747.784999999,39879.4475462963,39879.4489930556,7.940403012749277,2009-03-07,10:44:28,2009-03-07,10:46:33
441532.48787878774,4422748.878787879,39879.5578819444,39879.5593287037,37.0912388573013,2009-03-07,13:23:21,2009-03-07,13:25:26
440627.71249999997,4424811.5875,39879.6570023148,39879.6576041667,45.50395587199722,2009-03-07,15:46:05,2009-03-07,15:46:57
443138.95151515154,4425024.442424241,39880.084212963,39880.0855324074,43.59082472238793,2009-03-08,02:01:16,2009-03-08,02:03:10
442915.456902357,4425200.765993268,39880.3824652778,39880.4174074074,47.302642632123415,2009-03-08,09:10:45,2009-03-08,10:01:04
440617.2,4424813.127272727,39880.4522222222,39880.4526851852,46.75403725881779,2009-03-08,10:51:12,2009-03-08,10:51:52
443308.4,4424958.2,39881.222662037,39881.222662037,0.0,2009-03-09,05:20:38,2009-03-09,05:20:38
446205.4199999999,4436793.5200000005,39881.5590509259,39881.5601157407,43.525854385923566,2009-03-09,13:25:02,2009-03-09,13:26:34
442691.6,4424989.2,39882.0543287037,39882.0543287037,0.0,2009-03-10,01:18:14,2009-03-10,01:18:14
440648.07333333336,4424802.546666666,39882.5659837963,39882.5674768519,43.35677571057879,2009-03-10,13:35:01,2009-03-10,13:37:10
440612.92142857146,4424806.1,39883.5465972222,39883.5471990741,43.35089387772099,2009-03-11,13:07:06,2009-03-11,13:07:58
443137.9304347825,4425015.995652175,39884.1068171296,39884.1077199074,24.340295807526036,2009-03-12,02:33:49,2009-03-12,02:35:07
440838.3,4424927.271428571,39884.5794675926,39884.5795833333,37.07775613491345,2009-03-12,13:54:26,2009-03-12,13:54:36
443135.81111111114,4425101.522222222,39885.1213657407,39885.1215046296,47.401476770381116,2009-03-13,02:54:46,2009-03-13,02:54:58
443113.90000000014,4425017.618260871,39892.5216087963,39892.5306481481,33.16926287986826,2009-03-20,12:31:07,2009-03-20,12:44:08
454114.3583333334,4428952.333333333,39892.7917476852,39892.7929050926,34.00367627183861,2009-03-20,19:00:07,2009-03-20,19:01:47
441696.6,4424015.9,39893.3293865741,39893.3295601852,44.210858394578494,2009-03-21,07:54:19,2009-03-21,07:54:34
440645.7523809524,4424799.761904761,39893.4086689815,39893.4098263889,48.88783079644899,2009-03-21,09:48:29,2009-03-21,09:50:09
440619.6,4424801.943750001,39894.5152430556,39894.5159375,43.274472844890894,2009-03-22,12:21:57,2009-03-22,12:22:57
453959.05000000005,4429134.475,39894.6458333333,39894.6460069444,6.328506933230497,2009-03-22,15:30:00,2009-03-22,15:30:15
441885.95,4426346.9,39895.1010069444,39895.1010648148,7.600657865780864,2009-03-23,02:25:27,2009-03-23,02:25:32
440585.8375000001,4424789.3,39896.3120138889,39896.3128819444,48.294306082754616,2009-03-24,07:29:18,2009-03-24,07:30:33
443124.30377358466,4425024.45256065,39898.1456481481,39898.1884722222,45.01655251138333,2009-03-26,03:29:44,2009-03-26,04:31:24
443133.2784615385,4425050.052307692,39898.2639351852,39898.2674074074,41.74649685930094,2009-03-26,06:20:04,2009-03-26,06:25:04
442994.0666666667,4424636.333333334,39898.4714814815,39898.4717708333,42.16360990271638,2009-03-26,11:18:56,2009-03-26,11:19:21
440592.22000000003,4424802.76,39898.5624189815,39898.5629398148,46.93591375479337,2009-03-26,13:29:53,2009-03-26,13:30:38
442965.75,4425047.050000001,39899.0525115741,39899.0525694444,11.10405331396474,2009-03-27,01:15:37,2009-03-27,01:15:42
441026.17739726027,4424321.236301372,39905.4836342593,39905.5206134259,49.113847334476965,2009-04-02,11:36:26,2009-04-02,12:29:41
440652.7631578947,4424791.184210527,39905.5343865741,39905.5353703704,46.9469913839068,2009-04-02,12:49:31,2009-04-02,12:50:56
443178.5214285714,4425011.671428571,39906.177349537,39906.1779282407,16.87601848782458,2009-04-03,04:15:23,2009-04-03,04:16:13
441498.04655172426,4422477.124137931,39906.5155092593,39906.519849537,13.313526955694348,2009-04-03,12:22:20,2009-04-03,12:28:35
440623.5727272727,4424851.554545455,39908.3343287037,39908.334849537,44.52527372178637,2009-04-05,08:01:26,2009-04-05,08:02:11
440573.0777777778,4424811.283333333,39911.2624884259,39911.2633564815,46.77189326918365,2009-04-08,06:17:59,2009-04-08,06:19:14
440617.16000000003,4424816.37,39911.6244444444,39911.6249652778,46.91886614141882,2009-04-08,14:59:12,2009-04-08,14:59:57
441118.7750000001,4426144.0875,39912.0862152778,39912.0866203704,35.06294340183303,2009-04-09,02:04:09,2009-04-09,02:04:44
443124.2204819277,4425018.325000002,39913.0366550926,39913.0763541667,49.57912867332793,2009-04-10,00:52:47,2009-04-10,01:49:57
443147.6202635917,4425025.967710047,39913.0775694444,39913.1294791667,43.91673940538132,2009-04-10,01:51:42,2009-04-10,03:06:27
443180.98195266264,4425006.214497043,39913.1532638889,39913.1882175926,33.729067582712986,2009-04-10,03:40:42,2009-04-10,04:31:02
443176.15988372103,4425026.741860466,39913.3344560185,39913.3699884259,49.52464033187049,2009-04-10,08:01:37,2009-04-10,08:52:47
440604.2916666667,4424808.533333332,39913.6095138889,39913.610150463,47.5135770070451,2009-04-10,14:37:42,2009-04-10,14:38:37
442920.7933333333,4426840.48,39914.7120023148,39914.7126967593,44.384344086952304,2009-04-11,17:05:17,2009-04-11,17:06:17
440646.65652173926,4424798.471739129,39914.8400115741,39914.8832407407,49.10091648895025,2009-04-11,20:09:37,2009-04-11,21:11:52
440593.41428571433,4424815.878571429,39914.9269907407,39914.9276851852,46.224776905939585,2009-04-11,22:14:52,2009-04-11,22:15:52
443143.1248756221,4425025.300165833,39916.0325462963,39916.1402430556,44.43973447277648,2009-04-13,00:46:52,2009-04-13,03:21:57
443130.2750883391,4425025.564840984,39916.1718981481,39916.218599537,45.60098683140272,2009-04-13,04:07:32,2009-04-13,05:14:47
443145.36886792467,4425015.909433963,39916.2188310185,39916.2628125,20.602184349809864,2009-04-13,05:15:07,2009-04-13,06:18:27
443137.72857142845,4425011.6928571435,39916.2643171296,39916.2729398148,44.126409325923994,2009-04-13,06:20:37,2009-04-13,06:33:02
443190.3514666668,4425018.767999999,39916.576712963,39916.6215046296,11.047624179280014,2009-04-13,13:50:28,2009-04-13,14:54:58
440612.02307692304,4424812.561538462,39916.6437847222,39916.6444212963,49.31379117454669,2009-04-13,15:27:03,2009-04-13,15:27:58
443131.02390852413,4425020.076923083,39917.0646875,39917.1228472222,18.780042598348665,2009-04-14,01:33:09,2009-04-14,02:56:54
443107.78913043474,4425013.283695654,39919.0191898148,39919.0342939815,38.31761996802816,2009-04-16,00:27:38,2009-04-16,00:49:23
441884.1423076923,4426286.776923076,39920.3734953704,39920.3757523148,14.173919711458788,2009-04-17,08:57:50,2009-04-17,09:01:05
443110.07073170744,4425178.829268294,39920.4936921296,39920.495775463,49.8658199575285,2009-04-17,11:50:55,2009-04-17,11:53:55
442255.975,4427007.075,39920.6534722222,39920.653587963,0.509901951468867,2009-04-17,15:41:00,2009-04-17,15:41:10
440640.89999999997,4424823.989285714,39920.7081018519,39920.7096064815,38.33079701753918,2009-04-17,16:59:40,2009-04-17,17:01:50
441426.9621621622,4422441.562162161,39921.2937384259,39921.2957060185,29.549450078993182,2009-04-18,07:02:59,2009-04-18,07:05:49
440628.90869565227,4424788.256521739,39921.4478356481,39921.4490509259,20.838665984174707,2009-04-18,10:44:53,2009-04-18,10:46:38
441934.5320000001,4426317.1280000005,39922.1338194444,39922.1871759259,22.42699266479805,2009-04-19,03:12:42,2009-04-19,04:29:32
441932.1307692307,4426304.492307692,39922.2058101852,39922.2070833333,48.499072155769085,2009-04-19,04:56:22,2009-04-19,04:58:12
440648.26666666666,4424809.233333334,39922.5649537037,39922.5655324074,48.41456392464577,2009-04-19,13:33:32,2009-04-19,13:34:22
443121.27866666677,4425013.945333333,39925.2802083333,39925.3185763889,14.920120642916022,2009-04-22,06:43:30,2009-04-22,07:38:45
443087.75581395347,4425025.376744187,39925.4449652778,39925.4492476852,24.596747752497688,2009-04-22,10:40:45,2009-04-22,10:46:55
440632.6928571429,4424817.499999999,39925.6605208333,39925.6612152778,41.76278247422937,2009-04-22,15:51:09,2009-04-22,15:52:09
443168.2075688078,4425038.4924311945,39926.0143287037,39926.0507291667,45.83939353874569,2009-04-23,00:20:38,2009-04-23,01:13:03
443134.84237855935,4425023.584422115,39926.050787037,39926.1065162037,47.5660593276887,2009-04-23,01:13:08,2009-04-23,02:33:23
443129.33558394137,4425021.840510943,39926.2390972222,39926.2987037037,46.875686661358245,2009-04-23,05:44:18,2009-04-23,07:10:08
443078.1125,4425055.075000001,39926.3274652778,39926.328275463,18.08535318982678,2009-04-23,07:51:33,2009-04-23,07:52:43
440538.71764705883,4424900.600000001,39926.6477430556,39926.6486111111,44.90267252644579,2009-04-23,15:32:45,2009-04-23,15:34:00
440564.5166666668,4424808.724999999,39927.6309143519,39928.2072106482,47.82133415104886,2009-04-24,15:08:31,2009-04-25,04:58:23
443149.008125,4425017.347812498,39928.236400463,39928.2807291667,49.03243824242873,2009-04-25,05:40:25,2009-04-25,06:44:15
443126.24512195087,4425017.753861786,39928.4058449074,39928.4550925926,47.88413098297854,2009-04-25,09:44:25,2009-04-25,10:55:20
443153.2462962959,4425028.427777779,39928.4967592593,39928.543287037,41.59855766799873,2009-04-25,11:55:20,2009-04-25,13:02:20
443161.0652259332,4425012.693320235,39928.5440972222,39928.5856481481,33.65546018165834,2009-04-25,13:03:30,2009-04-25,14:03:20
440603.2857142856,4424804.171428571,39928.596875,39928.5976273148,44.66866910937541,2009-04-25,14:19:30,2009-04-25,14:20:35
443130.0153846154,4425021.9846153855,39929.1477546296,39929.1484490741,12.163058825632243,2009-04-26,03:32:46,2009-04-26,03:33:46
442442.75,4424508.083333333,39929.5498032407,39929.5500925926,46.80523474983893,2009-04-26,13:11:43,2009-04-26,13:12:08
440625.03333333327,4424817.091666668,39929.6180902778,39929.6187268518,46.26499756823121,2009-04-26,14:50:03,2009-04-26,14:50:58
443139.00335195515,4425022.150465553,39930.2550115741,39930.3002662037,45.76111886754165,2009-04-27,06:07:13,2009-04-27,07:12:23
443179.0,4425084.4799999995,39930.4159722222,39930.4162037037,21.015232570678393,2009-04-27,09:59:00,2009-04-27,09:59:20
440660.18571428576,4424843.835714286,39930.5732407407,39930.5739351852,44.058597345114435,2009-04-27,13:45:28,2009-04-27,13:46:28
443124.11963190214,4425022.998773004,39931.2187152778,39931.2543055556,45.31103618324067,2009-04-28,05:14:57,2009-04-28,06:06:12
443140.24285714293,4425018.416265916,39931.2545949074,39931.3063310185,49.96488767121834,2009-04-28,06:06:37,2009-04-28,07:21:07
443104.5145038163,4425025.654198474,39931.3411111111,39931.3813888889,48.88783079650852,2009-04-28,08:11:12,2009-04-28,09:09:12
442873.6,4427026.8,39931.4522800926,39931.452337963,12.59364919282509,2009-04-28,10:51:17,2009-04-28,10:51:22
442892.73333333316,4427052.810256409,39931.5096875,39931.5547106481,11.344161493902355,2009-04-28,12:13:57,2009-04-28,13:18:47
440612.69999999995,4424800.884615384,39931.5860185185,39931.586712963,49.442491846663394,2009-04-28,14:03:52,2009-04-28,14:04:52
443145.0988610476,4425019.58473804,39932.0224652778,39932.0640740741,37.5373147680037,2009-04-29,00:32:21,2009-04-29,01:32:16
443127.1454545455,4425020.622377622,39932.0648842593,39932.0821296296,8.825531146189897,2009-04-29,01:33:26,2009-04-29,01:58:16
443167.82922252,4425020.5560321715,39932.52125,39932.5571180556,27.089665926314286,2009-04-29,12:30:36,2009-04-29,13:22:15
440587.85,4424809.26,39932.6032407407,39932.6037615741,41.65873257803481,2009-04-29,14:28:40,2009-04-29,14:29:25
443180.30391304294,4425020.701739133,39933.1142824074,39933.1541550926,48.80696671544734,2009-04-30,02:44:34,2009-04-30,03:41:59
443141.70144927554,4425024.381159419,39933.1703009259,39933.1737152778,34.34778013244831,2009-04-30,04:05:14,2009-04-30,04:10:09
443141.67958115257,4425018.170157069,39933.2461689815,39933.2951273148,48.10665234662408,2009-04-30,05:54:29,2009-04-30,07:04:59
443115.1005141387,4425017.202827761,39933.3765509259,39933.413587963,46.75307476469407,2009-04-30,09:02:14,2009-04-30,09:55:34
440604.07857142854,4424810.000000001,39933.548587963,39933.5493402778,48.31035085777197,2009-04-30,13:09:58,2009-04-30,13:11:03
441263.30801932374,4422404.021497601,39934.3545023148,39934.5750462963,46.653831568340905,2009-05-01,08:30:29,2009-05-01,13:48:04
441285.3000000001,4422398.768888889,39934.5751041667,39934.6166550926,45.89172038603744,2009-05-01,13:48:09,2009-05-01,14:47:59
440616.7166666666,4424807.611111111,39934.6554861111,39934.6564699074,49.2897555279633,2009-05-01,15:43:54,2009-05-01,15:45:19
438527.7023391815,4407996.145321639,39935.2709490741,39935.3067708333,45.58343997542325,2009-05-02,06:30:10,2009-05-02,07:21:45
438524.2078361532,4407988.60872662,39935.4109143519,39935.5396759259,46.934848460207476,2009-05-02,09:51:43,2009-05-02,12:57:08
438537.6452910053,4407990.165925923,39935.5961574074,39935.678275463,49.66165522798636,2009-05-02,14:18:28,2009-05-02,16:16:43
438520.21398963727,4407990.953367871,39935.6853356481,39935.7317476852,47.381430961748194,2009-05-02,16:26:53,2009-05-02,17:33:43
438527.0968215158,4407988.9195599025,39935.7320949074,39935.7665856481,33.09531688851212,2009-05-02,17:34:13,2009-05-02,18:23:53
438517.9557251907,4408008.25992366,39935.8189583333,39935.8794328704,49.412245446212566,2009-05-02,19:39:18,2009-05-02,21:06:23
438520.8822399996,4407998.703519998,39935.8979513889,39935.9504398148,45.98706339831682,2009-05-02,21:33:03,2009-05-02,22:48:38
438523.6996865203,4407997.439811914,39936.0175115741,39936.0591203704,48.67165499531231,2009-05-03,00:25:13,2009-05-03,01:25:08
438531.9500000005,4407990.711010832,39936.0598148148,39936.0991087963,35.8503835404867,2009-05-03,01:26:08,2009-05-03,02:22:43
438522.99236363603,4407998.889636361,39936.0996296296,39936.1808217593,49.98899878969111,2009-05-03,02:23:28,2009-05-03,04:20:23
438531.80000000016,4408009.9123711325,39936.2233564815,39936.2319328704,23.00086954877363,2009-05-03,05:21:38,2009-05-03,05:33:59
440565.22000000003,4424807.220000001,39937.0740856482,39937.0746064815,45.93843706535235,2009-05-04,01:46:41,2009-05-04,01:47:26
443151.652,4425027.956,39937.1714814815,39937.1726388889,32.22188697143388,2009-05-04,04:06:56,2009-05-04,04:08:36
442398.225,4426960.75,39938.4194675926,39938.4196412037,10.692053123724623,2009-05-05,10:04:02,2009-05-05,10:04:17
441306.88965517236,4422424.379310345,39938.5162268518,39938.554525463,48.14582017160156,2009-05-05,12:23:22,2009-05-05,13:18:31
440585.6,4424820.06,39938.5984490741,39938.604525463,14.818906842399072,2009-05-05,14:21:46,2009-05-05,14:30:31
443135.4646103901,4425021.092207791,39939.2194675926,39939.2632175926,49.90811557254986,2009-05-06,05:16:02,2009-05-06,06:19:02
443114.7318098724,4425023.906398539,39939.3392013889,39939.3948148148,43.7137278208916,2009-05-06,08:08:27,2009-05-06,09:28:32
443129.9985915492,4425024.498028171,39939.4159953704,39939.4502546296,5.122499390062638,2009-05-06,09:59:02,2009-05-06,10:48:22
440641.0416666667,4424808.425,39939.6245138889,39939.625150463,48.66795660376785,2009-05-06,14:59:18,2009-05-06,15:00:13
443188.85,4425034.8,39940.0125347222,39940.0125925926,11.610770861523704,2009-05-07,00:18:03,2009-05-07,00:18:08
440720.94210526324,4424845.584210527,39940.685,39940.6871412037,25.805619542914094,2009-05-07,16:26:24,2009-05-07,16:29:29
443159.0999999999,4425012.455263157,39942.062349537,39942.0642592593,23.819529802084684,2009-05-09,01:29:47,2009-05-09,01:32:32
440639.36250000005,4424802.125,39942.6168402778,39942.6172453704,42.48411467831433,2009-05-09,14:48:15,2009-05-09,14:48:50
440344.8408163265,4426514.434693876,39943.1941319444,39943.1966203704,48.98418111986213,2009-05-10,04:39:33,2009-05-10,04:43:08
440986.57692307694,4426072.376923077,39943.4027546296,39943.4033912037,46.90042643758377,2009-05-10,09:39:58,2009-05-10,09:40:53
440807.25,4426255.300000001,39943.4591319444,39943.459537037,25.947061490766373,2009-05-10,11:01:09,2009-05-10,11:01:44
443135.35000000003,4425006.8125,39944.0218518519,39944.0221990741,7.872102641256185,2009-05-11,00:31:28,2009-05-11,00:31:58
443124.4946462717,4425017.850478013,39944.3937847222,39944.437650463,49.777504959593465,2009-05-11,09:27:03,2009-05-11,10:30:13
443145.8018518517,4425015.205555555,39944.4650810185,39944.4983564815,20.87869727792375,2009-05-11,11:09:43,2009-05-11,11:57:38
440638.69696969714,4424815.027272727,39944.6340046296,39944.6357407407,14.703060905998592,2009-05-11,15:12:58,2009-05-11,15:15:28
443134.4229591836,4425032.216326532,39945.1405671296,39945.1792824074,45.594955861428865,2009-05-12,03:22:25,2009-05-12,04:18:10
443140.57507462724,4425024.587910445,39945.3391435185,39945.3963773148,42.1303928299007,2009-05-12,08:08:22,2009-05-12,09:30:47
443149.36928933987,4425029.4134517815,39945.4537847222,39945.4892592593,47.398945135924706,2009-05-12,10:53:27,2009-05-12,11:44:32
440560.02631578944,4424807.463157895,39945.6057523148,39945.6067361111,45.527134765964725,2009-05-12,14:32:17,2009-05-12,14:33:42
443123.9846325167,4425024.219376389,39946.2259837963,39946.2693287037,46.83855249691228,2009-05-13,05:25:25,2009-05-13,06:27:50
443649.3615384615,4425219.976923076,39946.3736111111,39946.3758680556,46.68211649032143,2009-05-13,08:58:00,2009-05-13,09:01:15
443131.89830508444,4425035.324576276,39946.8149884259,39946.8590277778,47.912002671408175,2009-05-13,19:33:35,2009-05-13,20:37:00
443135.81831955956,4425022.32465565,39946.8603587963,39946.9101273148,46.6017167066145,2009-05-13,20:38:55,2009-05-13,21:50:35
443155.2783673469,4425045.721632654,39946.9711805556,39946.9888888889,10.519030373221065,2009-05-13,23:18:30,2009-05-13,23:44:00
443353.25,4424065.85,39947.6179398148,39947.6179976852,31.453139747697612,2009-05-14,14:49:50,2009-05-14,14:49:55
440614.03333333327,4424801.246666667,39947.6633680556,39947.6641203704,42.89207385992023,2009-05-14,15:55:15,2009-05-14,15:56:20
443135.4480186478,4425010.628205129,39948.0659259259,39948.1055671296,47.83387920712232,2009-05-15,01:34:56,2009-05-15,02:32:01
443155.291904762,4425018.744285714,39948.1133796296,39948.156724537,44.646724404053295,2009-05-15,02:43:16,2009-05-15,03:45:41
443155.0640000001,4425004.528,39948.1588078704,39948.173275463,36.71648131303524,2009-05-15,03:48:41,2009-05-15,04:09:31
448860.5,4422421.407894737,39949.0036458333,39949.0103009259,44.805468416355126,2009-05-16,00:05:15,2009-05-16,00:14:50
442099.79285714275,4420987.075,39953.6018981481,39953.6033449074,28.779332862201436,2009-05-20,14:26:44,2009-05-20,14:28:49
444097.36000000004,4430926.053333333,39953.8222569444,39953.8230092593,46.150406282046895,2009-05-20,19:44:03,2009-05-20,19:45:08
444275.1,4431025.7,39954.22875,39954.2289236111,33.743295630413535,2009-05-21,05:29:24,2009-05-21,05:29:39
443771.08888888895,4431074.522222222,39954.3662037037,39954.3665509259,9.82344135219425,2009-05-21,08:47:20,2009-05-21,08:47:50
444128.6333333333,4430854.1,39960.5966550926,39960.5967708333,41.23226891677882,2009-05-27,14:19:11,2009-05-27,14:19:21
444154.8,4431914.0,39961.6420023148,39961.6420023148,0.0,2009-05-28,15:24:29,2009-05-28,15:24:29
444276.215,4431005.049999999,39962.2377314815,39962.2387731481,49.461298001432965,2009-05-29,05:42:20,2009-05-29,05:43:50
444036.10000000003,4430894.852631579,39962.6247685185,39964.6769444444,33.10498451891578,2009-05-29,14:59:40,2009-05-31,16:14:48
444201.9199999999,4431007.66,39965.1121296296,39965.112650463,32.62667620250432,2009-06-01,02:41:28,2009-06-01,02:42:13
440618.77499999997,4424834.266666667,39967.6564814815,39967.6570601852,42.22321636258926,2009-06-03,15:45:20,2009-06-03,15:46:10
449487.56999999995,4434272.14,39970.1902199074,39970.1906828704,28.540672732361532,2009-06-06,04:33:55,2009-06-06,04:34:35
453648.20558375673,4425262.632994926,39970.2838888889,39970.3217361111,42.445730056149536,2009-06-06,06:48:48,2009-06-06,07:43:18
453635.55,4425199.025,39970.3217939815,39970.3219675926,39.873424733772325,2009-06-06,07:43:23,2009-06-06,07:43:38
443131.43120567425,4425024.938297873,39970.4059953704,39970.4459837963,31.824833070822695,2009-06-06,09:44:38,2009-06-06,10:42:13
440295.9777777778,4424702.811111111,39970.6503356481,39970.6507986111,47.911272160106364,2009-06-06,15:36:29,2009-06-06,15:37:09
443127.2888888888,4425006.722222221,39972.0364583333,39972.0373842593,17.269916039170543,2009-06-08,00:52:30,2009-06-08,00:53:50
441027.39745547116,4424295.995928757,39972.1547453704,39972.1975810185,45.41464521494105,2009-06-08,03:42:50,2009-06-08,04:44:31
443143.2350253806,4425019.472588834,39972.2478125,39972.2888425926,31.963103729154337,2009-06-08,05:56:51,2009-06-08,06:55:56
443136.0558776171,4425019.715136875,39972.2952083333,39972.3403472222,44.878614060608434,2009-06-08,07:05:06,2009-06-08,08:10:06
445642.2315789474,4424989.821052631,39972.3739699074,39972.3748958333,29.15956103915274,2009-06-08,08:58:31,2009-06-08,08:59:51
440644.3923076923,4424812.715384616,39972.6129050926,39972.6135416667,48.162744938610516,2009-06-08,14:42:35,2009-06-08,14:43:30
443171.8680232557,4425004.850872091,39973.0952314815,39973.1299537037,47.38269726382203,2009-06-09,02:17:08,2009-06-09,03:07:08
443128.08965517214,4425019.646428569,39973.1308217593,39973.239212963,47.90250515374315,2009-06-09,03:08:23,2009-06-09,05:44:28
443124.70348837215,4425016.336821705,39973.2738773148,39973.3462731481,47.214404581532754,2009-06-09,06:34:23,2009-06-09,08:18:38
443622.3666666667,4425018.516666668,39973.3714467593,39973.372025463,18.480800848273734,2009-06-09,08:54:53,2009-06-09,08:55:43
440606.8,4424838.983333334,39973.6036458333,39973.604224537,48.24147593111521,2009-06-09,14:29:15,2009-06-09,14:30:05
443138.6843806101,4425017.894075403,39974.0047685185,39974.0563310185,28.442397929741684,2009-06-10,00:06:52,2009-06-10,01:21:07
443158.6010471204,4425013.992844682,39974.0891435185,39974.1418055556,24.664144015195806,2009-06-10,02:08:22,2009-06-10,03:24:12
443125.47442489816,4425019.651014885,39974.1493287037,39974.2146643519,48.97448315202446,2009-06-10,03:35:02,2009-06-10,05:09:07
443111.5128813558,4425018.081694916,39974.2772222222,39974.3211458333,38.97819903489379,2009-06-10,06:39:12,2009-06-10,07:42:27
444011.3,4425148.6,39974.3679050926,39974.3679050926,0.0,2009-06-10,08:49:47,2009-06-10,08:49:47
443136.90176817274,4425016.782318274,39974.4346296296,39974.4789583333,48.99765300553433,2009-06-10,10:25:52,2009-06-10,11:29:42
440617.3153846153,4424828.307692306,39974.618599537,39974.6192939815,48.86358562369209,2009-06-10,14:50:47,2009-06-10,14:51:47
443137.959463722,4425019.617350159,39974.9975925926,39975.060150463,23.099999999976717,2009-06-10,23:56:32,2009-06-11,01:26:37
443158.0359375,4425002.1375,39975.0887962963,39975.128900463,46.52322000928099,2009-06-11,02:07:52,2009-06-11,03:05:37
443119.50343249424,4425019.398741419,39975.1322569444,39975.1868865741,39.96961345864878,2009-06-11,03:10:27,2009-06-11,04:29:07
443128.1264566928,4425018.0363779515,39975.2002546296,39975.2589930556,48.39028828173621,2009-06-11,04:48:22,2009-06-11,06:12:57
443110.8775280896,4425021.521123597,39975.283587963,39975.3221296296,34.996142644503784,2009-06-11,06:48:22,2009-06-11,07:43:52
443073.2372549018,4425026.591666666,39975.3538425926,39975.3704513889,37.06696642561214,2009-06-11,08:29:32,2009-06-11,08:53:27
443126.01385041565,4425016.546260388,39975.4058101852,39975.4414583333,49.037332717045594,2009-06-11,09:44:22,2009-06-11,10:35:42
443130.9248394005,4425028.175802995,39975.4854976852,39975.5249652778,47.5798276583218,2009-06-11,11:39:07,2009-06-11,12:35:57
440624.95999999996,4424845.333333334,39975.6422106481,39975.642962963,47.50757834298291,2009-06-11,15:24:47,2009-06-11,15:25:52
440269.47777777776,4424853.066666666,39979.2661342593,39979.2665972222,36.67492331285659,2009-06-15,06:23:14,2009-06-15,06:23:54
440623.0681818183,4424843.627272726,39979.6440856481,39979.6452430556,46.25883699349703,2009-06-15,15:27:29,2009-06-15,15:29:09
443171.62102425884,4424999.36981132,39980.077662037,39980.1231481481,48.03509133977014,2009-06-16,01:51:50,2009-06-16,02:57:20
443124.2857904086,4425018.105683841,39980.1232060185,39980.1804976852,43.26950427255956,2009-06-16,02:57:25,2009-06-16,04:19:55
443149.54240196134,4425020.687009801,39980.3670138889,39980.4060185185,36.95416079417312,2009-06-16,08:48:30,2009-06-16,09:44:40
440734.5,4424820.088888888,39980.469212963,39980.4696759259,48.86685993589047,2009-06-16,11:15:40,2009-06-16,11:16:20
443311.5285714286,4425019.614285714,39981.3445486111,39981.344837963,13.269890730567155,2009-06-17,08:16:09,2009-06-17,08:16:34
440610.30000000005,4424834.5,39981.5943865741,39981.594849537,42.40106130731112,2009-06-17,14:15:55,2009-06-17,14:16:35
440622.02857142856,4424852.492857144,39982.6192592593,39982.6199537037,41.409781453131366,2009-06-18,14:51:44,2009-06-18,14:52:44
443144.5866156789,4425016.111472281,39984.0979976852,39984.1510648148,49.91232312759787,2009-06-20,02:21:07,2009-06-20,03:37:32
440617.10000000003,4424819.445454546,39984.2095138889,39984.2100347222,45.475707800968564,2009-06-20,05:01:42,2009-06-20,05:02:27
441636.19999999995,4422726.533333334,39984.411099537,39984.4113888889,38.41301862687454,2009-06-20,09:51:59,2009-06-20,09:52:24
441475.56190476177,4422232.812698414,39984.5953009259,39984.6391666667,46.12905808688205,2009-06-20,14:17:14,2009-06-20,15:20:24
440620.1565217392,4424816.573913043,39984.657974537,39985.0699652778,49.82218381382292,2009-06-20,15:47:29,2009-06-21,01:40:45
443146.5707838482,4425015.650593822,39985.0993634259,39985.1366319444,42.50576431469743,2009-06-21,02:23:05,2009-06-21,03:16:45
443131.6238390094,4425020.760061917,39985.183912037,39985.2236689815,49.70643821479124,2009-06-21,04:24:50,2009-06-21,05:22:05
443114.5459677418,4425020.571370969,39985.2237268519,39985.2617476852,44.873265983031665,2009-06-21,05:22:10,2009-06-21,06:16:55
443123.7278768231,4425017.196434359,39985.2621527778,39985.2972800926,43.084684053736765,2009-06-21,06:17:30,2009-06-21,07:08:05
441135.4,4422824.7,39985.5609490741,39985.5610069444,29.55266485483001,2009-06-21,13:27:46,2009-06-21,13:27:51
440616.0315789474,4424805.689473684,39985.6714236111,39985.672349537,44.19558801527797,2009-06-21,16:06:51,2009-06-21,16:08:11
449201.94347826083,4434369.691304348,39987.3805208333,39987.3816782407,39.110740212638085,2009-06-23,09:07:57,2009-06-23,09:09:37
443159.7551569506,4425018.82219731,39990.0657407407,39990.1100694444,45.17842405393414,2009-06-26,01:34:40,2009-06-26,02:38:30
443125.84885844745,4425027.031506852,39990.1115162037,39990.1713541667,42.63109193971412,2009-06-26,02:40:35,2009-06-26,04:06:45
443138.4,4425268.1,39990.3228587963,39990.3228587963,0.0,2009-06-26,07:44:55,2009-06-26,07:44:55
449169.321641791,4434372.351492536,39991.4555439815,39991.474525463,28.178892809961447,2009-06-27,10:55:59,2009-06-27,11:23:19
440580.0727272727,4424809.963636363,39991.6368287037,39991.6374074074,49.64070910045734,2009-06-27,15:17:02,2009-06-27,15:17:52
430270.8758974359,4434758.187692307,39993.1601273148,39993.1803819444,33.04784410519013,2009-06-29,03:50:35,2009-06-29,04:19:45
430259.3131972783,4434805.227619049,39993.279224537,39993.3205439815,45.459872415072226,2009-06-29,06:42:05,2009-06-29,07:41:35
430381.5843342034,4434981.13655352,39993.3793402778,39993.4289351852,48.40878019570095,2009-06-29,09:06:15,2009-06-29,10:17:40
443133.77002456976,4425020.278132676,39993.5284722222,39993.5880787037,49.02295380737476,2009-06-29,12:41:00,2009-06-29,14:06:50
440580.6461538462,4424819.561538462,39993.6574768518,39993.6581712963,49.69557324336387,2009-06-29,15:46:46,2009-06-29,15:47:46
430120.34225188545,4434692.275972132,39994.0729050926,39994.2825115741,29.524396691550326,2009-06-30,01:44:59,2009-06-30,06:46:49
449174.44708994695,4434363.822751323,39994.5599652778,39994.5960763889,42.9563732174866,2009-06-30,13:26:21,2009-06-30,14:18:21
448983.0333333334,4434575.533333332,39994.6791203704,39994.6792939815,41.8807831827091,2009-06-30,16:17:56,2009-06-30,16:18:11
447494.0,4434623.4,39994.9927662037,39994.9927662037,0.0,2009-06-30,23:49:35,2009-06-30,23:49:35
440575.91428571433,4424803.307142858,39995.4828587963,39995.4836111111,48.005416361276865,2009-07-01,11:35:19,2009-07-01,11:36:24
449167.6333333333,4434372.899999999,39996.2346643518,39996.2347800926,8.919641248804577,2009-07-02,05:37:55,2009-07-02,05:38:05
449121.75,4434478.35,40000.544224537,40000.5442824074,21.718655574825092,2009-07-06,13:03:41,2009-07-06,13:03:46
442887.7833333333,4424940.8,40001.2141203704,40001.2151041667,34.238136631397175,2009-07-07,05:08:20,2009-07-07,05:09:45
443140.605341246,4425025.0661721025,40001.6570717593,40001.7018634259,18.04882267631962,2009-07-07,15:46:11,2009-07-07,16:50:41
443157.935805085,4425018.964830507,40001.7253587963,40001.7688773148,46.58422479766039,2009-07-07,17:24:31,2009-07-07,18:27:11
443127.3125391851,4425017.671473357,40001.8450347222,40001.8832291667,46.71487985662208,2009-07-07,20:16:51,2009-07-07,21:11:51
443125.227708333,4425021.782291666,40001.9226967593,40001.9653472222,40.937024806298595,2009-07-07,22:08:41,2009-07-07,23:10:06
443110.89093567216,4425028.978947365,40002.1469444444,40002.1829976852,37.44329045378081,2009-07-08,03:31:36,2009-07-08,04:23:31
443304.26551724155,4425001.989655173,40002.2780787037,40002.2838657407,8.949860334295037,2009-07-08,06:40:26,2009-07-08,06:48:46
449163.03125,4434378.409375001,40002.5008101852,40002.5723958333,38.90308471078759,2009-07-08,12:01:10,2009-07-08,13:44:15
449157.585416667,4434305.914062498,40002.6228587963,40002.6502893518,2.773084924853012,2009-07-08,14:56:55,2009-07-08,15:36:25
443113.6523364488,4425019.4682243,40003.2175347222,40003.2680555556,36.11384775952736,2009-07-09,05:13:15,2009-07-09,06:26:00
443170.50403800467,4425045.820902619,40003.2852430556,40003.3247685185,47.06506135120736,2009-07-09,06:50:45,2009-07-09,07:47:40
443171.7156084654,4425017.278835977,40003.3277199074,40003.3714699074,47.30856159306765,2009-07-09,07:51:55,2009-07-09,08:54:55
449147.9418402774,4434364.061979166,40003.5975694444,40003.6475115741,43.461477194602324,2009-07-09,14:20:30,2009-07-09,15:32:25
449148.9133779266,4434380.339130436,40003.6483796296,40003.672974537,28.157592226289353,2009-07-09,15:33:40,2009-07-09,16:09:05
449158.2381249997,4434376.0709375,40003.7089699074,40003.7500578704,47.621213760135994,2009-07-09,17:00:55,2009-07-09,18:00:05
449161.2849557521,4434377.678982302,40003.8141782407,40003.8615162037,48.10509328598971,2009-07-09,19:32:25,2009-07-09,20:40:35
449134.57325581403,4434352.795348836,40003.8954282407,40003.9351851852,41.13404915639892,2009-07-09,21:29:25,2009-07-09,22:26:40
449135.5625,4434383.2,40003.9363541667,40003.9367592593,27.423530042823852,2009-07-09,22:28:21,2009-07-09,22:28:56
449162.86773584876,4434374.732452829,40005.8808564815,40005.9351388889,48.52762100067381,2009-07-11,21:08:26,2009-07-11,22:26:36
449175.28123620275,4434380.813465783,40005.9469444444,40005.9840972222,38.21740441176644,2009-07-11,22:43:36,2009-07-11,23:37:06
449189.85593220335,4434350.468644067,40006.0298726852,40006.0657638889,39.080046059338265,2009-07-12,00:43:01,2009-07-12,01:34:42
443262.1434782609,4419320.582608696,40006.1728240741,40006.1738657407,46.501720398397396,2009-07-12,04:08:52,2009-07-12,04:10:22
449158.55166051653,4434385.271217712,40006.4102199074,40006.4503240741,13.916896205656208,2009-07-12,09:50:43,2009-07-12,10:48:28
449499.02142857143,4434307.328571429,40006.4910648148,40006.4917592593,42.02975136733502,2009-07-12,11:47:08,2009-07-12,11:48:08
449211.70847457653,4434350.852542373,40006.5513078704,40006.554837963,27.67038127657086,2009-07-12,13:13:53,2009-07-12,13:18:58
443137.67293666076,4425015.388099805,40007.0637037037,40007.1033449074,48.30414060913449,2009-07-13,01:31:44,2009-07-13,02:28:49
443119.669036904,4425020.859855987,40007.1127199074,40007.22625,7.317103251784857,2009-07-13,02:42:19,2009-07-13,05:25:48
443133.7053677934,4425015.112127234,40008.0368634259,40008.093287037,46.90042643724954,2009-07-14,00:53:05,2009-07-14,02:14:20
443133.15191176446,4425020.687205877,40008.0936342593,40008.1640046296,49.48413887305305,2009-07-14,02:14:50,2009-07-14,03:56:10
443137.3668073139,4425017.555555558,40008.2805555556,40008.3523148148,44.75991510273117,2009-07-14,06:44:00,2009-07-14,08:27:20
443094.8333333333,4425035.7,40008.389525463,40008.3899305556,45.94649061668743,2009-07-14,09:20:55,2009-07-14,09:21:30
449209.37142857135,4434274.6,40008.4700347222,40008.474837963,45.64646755242409,2009-07-14,11:16:51,2009-07-14,11:23:46
443141.40428571455,4425021.770204086,40009.0295601852,40009.0746412037,43.54124481453193,2009-07-15,00:42:34,2009-07-15,01:47:29
443142.60931263876,4425019.83968958,40009.0949884259,40009.1390856481,46.71584313731142,2009-07-15,02:16:47,2009-07-15,03:20:17
443130.77824561397,4425026.455789472,40009.139837963,40009.2122337963,35.65276987831393,2009-07-15,03:21:22,2009-07-15,05:05:37
443080.10000000003,4425014.975862069,40009.2555208333,40009.308587963,49.06668931156269,2009-07-15,06:07:57,2009-07-15,07:24:22
443125.4069553816,4425016.398950131,40009.3144328704,40009.3790162037,45.36253961121926,2009-07-15,07:32:47,2009-07-15,09:05:47
443029.36538461543,4425066.246153845,40009.4836689815,40009.4846527778,44.53638961568347,2009-07-15,11:36:29,2009-07-15,11:37:54
449597.38421052636,4434188.921052632,40009.6468634259,40009.6482523148,41.93900332616795,2009-07-15,15:31:29,2009-07-15,15:33:29
442365.1,4425664.9,40010.0592013889,40010.0592013889,0.0,2009-07-16,01:25:15,2009-07-16,01:25:15
443145.9693156735,4425022.318101544,40010.2702199074,40010.316400463,49.40819770035353,2009-07-16,06:29:07,2009-07-16,07:35:37
443119.27146118734,4425023.80673516,40010.4724189815,40010.5692361111,49.17570538390084,2009-07-16,11:20:17,2009-07-16,13:39:42
443132.3335174952,4425022.035543273,40010.6162268519,40010.6735763889,47.42288477114464,2009-07-16,14:47:22,2009-07-16,16:09:57
443129.4917355372,4425023.1214876035,40010.6930787037,40010.7412268519,40.194651385658766,2009-07-16,16:38:02,2009-07-16,17:47:22
443126.1045323046,4425020.492092571,40010.7454513889,40010.8501967593,47.57415264608826,2009-07-16,17:53:27,2009-07-16,20:24:17
443126.8509532061,4425022.216291163,40010.8874652778,40010.9434259259,49.841548932591536,2009-07-16,21:17:57,2009-07-16,22:38:32
443139.01666666666,4425015.949999999,40011.0816782407,40011.0823148148,39.57284422431357,2009-07-17,01:57:37,2009-07-17,01:58:32
449155.8315118397,4434370.417122045,40011.6963888889,40011.7316319444,47.08768416475799,2009-07-17,16:42:48,2009-07-17,17:33:33
449174.661704211,4434374.497551414,40011.8849305556,40011.9765393519,46.47978055037434,2009-07-17,21:14:18,2009-07-17,23:26:13
449171.69260042324,4434364.77843552,40011.9911226852,40012.0326736111,48.36713760443167,2009-07-17,23:47:13,2009-07-18,00:47:03
449195.3629032258,4434349.658064515,40012.1325578704,40012.1678009259,49.46402733295035,2009-07-18,03:10:53,2009-07-18,04:01:38
449159.7248157238,4434393.603194101,40012.205474537,40012.2426851852,45.50098900019468,2009-07-18,04:55:53,2009-07-18,05:49:28
449153.68829787243,4434380.5659574475,40012.2452893518,40012.2808217593,47.039238939317485,2009-07-18,05:53:13,2009-07-18,06:44:23
449173.8316573555,4434379.036685285,40012.3040856481,40012.3555902778,45.25836939133268,2009-07-18,07:17:53,2009-07-18,08:32:03
449166.1379439254,4434381.305046731,40012.4121296296,40012.4620138889,49.113847334476965,2009-07-18,09:53:28,2009-07-18,11:05:18
449141.2038461538,4434389.878296703,40012.6020023148,40012.639212963,47.98833191488663,2009-07-18,14:26:53,2009-07-18,15:20:28
449165.52565359435,4434374.677124188,40012.6832523148,40012.7300694444,40.25344705735515,2009-07-18,16:23:53,2009-07-18,17:31:18
449153.74010025087,4434363.685213031,40012.8455787037,40012.8793171296,27.860366113661193,2009-07-18,20:17:38,2009-07-18,21:06:13
449166.96276978403,4434368.096402879,40012.8842939815,40012.9249768518,48.782988838271145,2009-07-18,21:13:23,2009-07-18,22:11:58
449171.9413690477,4434383.739285716,40012.9274652778,40012.9580208333,37.08153179137138,2009-07-18,22:15:33,2009-07-18,22:59:33
449164.30232018564,4434367.029466354,40013.1393865741,40013.1819791667,47.99885415299399,2009-07-19,03:20:43,2009-07-19,04:22:03
449153.9148241206,4434376.712814073,40013.2410069444,40013.2778125,42.933087473416116,2009-07-19,05:47:03,2009-07-19,06:40:03
449170.20642201824,4434377.341437311,40013.2911226852,40013.3515393519,48.139484833337285,2009-07-19,06:59:13,2009-07-19,08:26:13
449158.9914826496,4434385.999053628,40013.3953472222,40013.4494560185,48.08378104931245,2009-07-19,09:29:18,2009-07-19,10:47:13
449147.6402040817,4434381.950204081,40013.5949421296,40013.6413541667,37.86951280412923,2009-07-19,14:16:43,2009-07-19,15:23:33
449161.72885662457,4434377.512159712,40013.689849537,40013.7266550926,45.31942188491613,2009-07-19,16:33:23,2009-07-19,17:26:23
449171.1571759257,4434367.894675924,40013.7968518519,40013.8343518519,49.33163285355547,2009-07-19,19:07:28,2009-07-19,20:01:28
449151.7688811185,4434362.5804195795,40013.8580787037,40013.8984722222,44.637428241331286,2009-07-19,20:35:38,2009-07-19,21:33:48
449176.4460207613,4434374.81384083,40013.9074421296,40013.9576736111,49.825796531538764,2009-07-19,21:46:43,2009-07-19,22:59:03
449175.60215827345,4434360.286810555,40013.9918171296,40014.0271759259,41.12857887160298,2009-07-19,23:48:13,2009-07-20,00:39:08
449176.0719602978,4434371.529280396,40014.0846412037,40014.120462963,46.95402006221558,2009-07-20,02:01:53,2009-07-20,02:53:28
449167.46575091593,4434365.734432237,40014.1209837963,40014.1748032407,47.144458847418136,2009-07-20,02:54:13,2009-07-20,04:11:43
449157.52507739974,4434383.211455109,40014.2346412037,40014.2698263889,44.404616876750595,2009-07-20,05:37:53,2009-07-20,06:28:33
449170.8108910885,4434379.784653466,40014.295,40014.3499768519,47.9418397642033,2009-07-20,07:04:48,2009-07-20,08:23:58
449165.4734395748,4434385.519654713,40014.3988773148,40014.462650463,45.29911698955569,2009-07-20,09:34:23,2009-07-20,11:06:13
449158.62871287134,4434375.66138614,40014.486724537,40014.4921643519,42.227123984552414,2009-07-20,11:40:53,2009-07-20,11:48:43
443125.8605400701,4425017.580052266,40015.0794212963,40015.200775463,35.77946338301156,2009-07-21,01:54:22,2009-07-21,04:49:07
455109.25999999995,4427190.836666667,40015.6163541667,40015.6179166667,24.60772236513565,2009-07-21,14:47:33,2009-07-21,14:49:48
452316.6095238096,4427173.8999999985,40015.9947916667,40015.9958912037,37.700132625774536,2009-07-21,23:52:30,2009-07-21,23:54:05
453560.747826087,4420362.473913044,40017.3015277778,40017.3026851852,33.11223338884668,2009-07-23,07:14:12,2009-07-23,07:15:52
449180.6866666666,4434313.133333334,40017.5567824074,40017.5575347222,45.83535753109814,2009-07-23,13:21:46,2009-07-23,13:22:51
443111.5374999999,4425085.0,40018.4187962963,40018.4192013889,39.6608118926667,2009-07-24,10:03:04,2009-07-24,10:03:39
442826.6333333333,4426904.399999999,40018.6229282407,40018.6230439815,36.6660606006806,2009-07-24,14:57:01,2009-07-24,14:57:11
444195.64444444445,4431046.822222223,40018.7646643519,40018.7655324074,34.942524236377416,2009-07-24,18:21:07,2009-07-24,18:22:22
444971.5434782609,4435684.473913045,40020.4058449074,40020.4070023148,47.820602254648755,2009-07-26,09:44:25,2009-07-26,09:46:05
