411933.7272727273,2591919.901466278,39845.160150463,39845.244837963,41.65249092175215,2009-02-01,03:50:37,2009-02-01,05:52:34
411910.7354838709,2591919.2645161296,39845.2888194444,39845.3325810185,29.24824781067435,2009-02-01,06:55:54,2009-02-01,07:58:55
795223.1172413791,2501072.1189655163,39846.1483333333,39846.1639583333,16.25607578719684,2009-02-02,03:33:36,2009-02-02,03:56:06
798206.4434782607,2498070.815652175,39847.2860532407,39847.3233217593,48.412601665360405,2009-02-03,06:51:55,2009-02-03,07:45:35
798006.6896226415,2498376.316037736,39847.3342361111,39847.3422685185,39.34679148288155,2009-02-03,08:01:18,2009-02-03,08:12:52
795194.45,2501059.15,39847.5210532407,39847.5296643519,34.05877273173659,2009-02-03,12:30:19,2009-02-03,12:42:43
260371.40000000002,2615163.15,39848.3673726852,39848.3673842593,30.43106964945722,2009-02-04,08:49:01,2009-02-04,08:49:02
443336.22222222225,4415426.333333333,39849.2517824074,39849.2518981481,45.058739440867036,2009-02-05,06:02:34,2009-02-05,06:02:44
443588.7042372882,4425545.035593219,39850.0536574074,39850.0639699074,23.471898090952966,2009-02-06,01:17:16,2009-02-06,01:32:07
446916.2857142858,4424349.578571429,39850.2068055556,39850.2073611111,44.67538472135443,2009-02-06,04:57:48,2009-02-06,04:58:36
443583.2666666667,4425567.122222222,39850.2733101852,39850.2736574074,46.21796187648848,2009-02-06,06:33:34,2009-02-06,06:34:04
443583.2,4425537.95,39850.3160185185,39850.3160763889,0.09999999962747097,2009-02-06,07:35:04,2009-02-06,07:35:09
443570.92162162164,4425581.683783784,39851.2512152778,39851.3744791667,46.930160877622846,2009-02-07,06:01:45,2009-02-07,08:59:15
443595.6352941176,4425754.970588234,39851.3987962963,39851.3995717593,47.184001526659536,2009-02-07,09:34:16,2009-02-07,09:35:23
443571.8887218045,4425711.424812026,39852.0181712963,39852.0390393519,38.68281272088171,2009-02-08,00:26:10,2009-02-08,00:56:13
443072.6766666667,4425129.453333334,39852.2797106481,39852.2810300926,44.14804638957051,2009-02-08,06:42:47,2009-02-08,06:44:41
443537.27499999997,4425683.283333333,39852.4127430556,39852.4130902778,43.83206588714523,2009-02-08,09:54:21,2009-02-08,09:54:51
441056.3,4452999.857142857,39853.4232407407,39853.4234375,40.52270968224492,2009-02-09,10:09:28,2009-02-09,10:09:45
482664.54390243994,4487984.580487806,39853.5360416667,39853.5658101852,45.99793473621173,2009-02-09,12:51:54,2009-02-09,13:34:46
482659.80887902324,4487988.368923413,39853.577650463,39854.3765162037,27.354341519929445,2009-02-09,13:51:49,2009-02-10,09:02:11
482674.4222772279,4487992.596534649,39854.4084837963,39854.4538888889,15.060212481589105,2009-02-10,09:48:13,2009-02-10,10:53:36
482681.6388888892,4487989.575000002,39854.4598263889,39854.4617708333,45.61425215874966,2009-02-10,11:02:09,2009-02-10,11:04:57
481234.3463414634,4486328.887804877,39855.0414699074,39855.0434027778,42.30189121077224,2009-02-11,00:59:43,2009-02-11,01:02:30
483019.54654983553,4487906.16396495,39856.0037962963,39856.124849537,46.68586509881038,2009-02-12,00:05:28,2009-02-12,02:59:47
483053.6845804989,4487922.390702944,39856.1249074074,39856.1807986111,49.860004011473315,2009-02-12,02:59:52,2009-02-12,04:20:21
482849.98125,4488023.681249999,39856.1934606481,39856.1950231481,49.06088054665257,2009-02-12,04:38:35,2009-02-12,04:40:50
443568.7740740741,4425910.351851852,39857.3032523148,39857.4356481481,46.89317647618645,2009-02-13,07:16:41,2009-02-13,10:27:20
443216.9600000001,4425605.04,39857.4445486111,39857.4450347222,46.889231172684006,2009-02-13,10:40:09,2009-02-13,10:40:51
443232.05,4425574.75,39857.5138773148,39857.513900463,0.14142135595742808,2009-02-13,12:19:59,2009-02-13,12:20:01
443547.7375,4425235.9125,39858.7541666667,39858.7543981481,18.384776310109373,2009-02-14,18:06:00,2009-02-14,18:06:20
443521.8,4425407.3,39858.910462963,39858.910462963,0.0,2009-02-14,21:51:04,2009-02-14,21:51:04
443520.42721893475,4425890.027218936,39859.156087963,39859.1990509259,45.85368033209566,2009-02-15,03:44:46,2009-02-15,04:46:38
444198.3764705883,4425822.252941176,39859.2187962963,39859.2195138889,29.160246912847715,2009-02-15,05:15:04,2009-02-15,05:16:06
443155.5625,4425364.0,39859.328125,39859.328275463,47.27631542313452,2009-02-15,07:52:30,2009-02-15,07:52:43
443857.0760000001,4425707.664,39859.514849537,39859.5159490741,38.16202300716221,2009-02-15,12:21:23,2009-02-15,12:22:58
443556.22586206894,4425468.828448274,39859.5966666667,39859.6015740741,41.66353321578888,2009-02-15,14:19:12,2009-02-15,14:26:16
444149.25833333324,4425819.866666666,39860.2881481481,39860.2886458333,46.400000000404646,2009-02-16,06:54:56,2009-02-16,06:55:39
444147.55000000005,4425820.5,39860.4186921296,39860.4189699074,44.53066359279408,2009-02-16,10:02:55,2009-02-16,10:03:19
478406.70937500003,4383742.756250001,39861.3865625,39861.3879513889,48.67288772968761,2009-02-17,09:16:39,2009-02-17,09:18:39
443278.28608490556,4425500.561084902,39862.4328935185,39862.477974537,47.515155476968054,2009-02-18,10:23:22,2009-02-18,11:28:17
444161.52,4425814.42,39862.4960069444,39862.4964236111,45.34313619501854,2009-02-18,11:54:15,2009-02-18,11:54:51
444159.6230769231,4425817.576923078,39863.4469560185,39863.4474421296,49.57196788494146,2009-02-19,10:43:37,2009-02-19,10:44:19
443497.91500000004,4425772.350000001,39864.0184606481,39864.0193055556,42.32658738882976,2009-02-20,00:26:35,2009-02-20,00:27:48
452004.72037037037,4423600.35185185,39864.204537037,39864.2083912037,19.98324298012837,2009-02-20,04:54:32,2009-02-20,05:00:05
444138.12,4426196.99,39864.3342708333,39864.3369791667,48.256191312652206,2009-02-20,08:01:21,2009-02-20,08:05:15
443546.67777777783,4425416.177777777,39864.702962963,39864.7035416667,30.955451862307047,2009-02-20,16:52:16,2009-02-20,16:53:06
444160.6416666666,4425822.55,39865.3021990741,39865.3027430556,46.60686644678323,2009-02-21,07:15:10,2009-02-21,07:15:57
443437.52,4425397.0600000005,39865.6327083333,39865.6330555556,37.09123885773129,2009-02-21,15:11:06,2009-02-21,15:11:36
444168.12142857135,4425615.278571429,39867.4500694444,39867.4506134259,38.948684188300895,2009-02-23,10:48:06,2009-02-23,10:48:53
443557.82222222217,4425343.944444444,39867.6737384259,39867.6745023148,39.15418240715922,2009-02-23,16:10:11,2009-02-23,16:11:17
444154.0833333333,4425815.575,39868.0386458333,39868.0391550926,42.582860402071866,2009-02-24,00:55:39,2009-02-24,00:56:23
443567.58607594925,4425495.464556962,39868.2386342593,39868.2489583333,32.451348200047505,2009-02-24,05:43:38,2009-02-24,05:58:30
444166.07499999995,4425816.033333334,39868.4758680556,39868.4763773148,44.88128786043204,2009-02-24,11:25:15,2009-02-24,11:25:59
444162.42000000004,4425810.7,39869.4790856481,39869.4795023148,46.26153910164105,2009-02-25,11:29:53,2009-02-25,11:30:29
444198.190909091,4425828.79090909,39874.2147337963,39874.2153125,47.493683790932266,2009-03-02,05:09:13,2009-03-02,05:10:03
443476.2444444444,4425272.555555556,39875.2021759259,39875.2026388889,8.193289937674809,2009-03-03,04:51:08,2009-03-03,04:51:48
444156.2833333334,4425835.258333334,39875.3065740741,39875.3072106481,44.143062875383286,2009-03-03,07:21:28,2009-03-03,07:22:23
443995.74615384615,4425972.546153846,39875.4536921296,39875.4543287037,35.24329723492499,2009-03-03,10:53:19,2009-03-03,10:54:14
443565.70625,4425367.96875,39875.8073842593,39875.8082523148,25.979414927961383,2009-03-03,19:22:38,2009-03-03,19:23:53
443607.61,4425545.51,39876.7234953704,39876.7242476852,36.50712259236905,2009-03-04,17:21:50,2009-03-04,17:22:55
444161.47500000003,4425820.233333333,39877.0309722222,39877.0316087963,45.880278987817846,2009-03-05,00:44:36,2009-03-05,00:45:31
443573.0689655174,4425392.344827586,39877.2067592593,39877.2090740741,43.29445691968541,2009-03-05,04:57:44,2009-03-05,05:01:04
444149.0933333334,4425774.52,39877.3092476852,39877.3099421296,47.628772816750825,2009-03-05,07:25:19,2009-03-05,07:26:19
443543.60714285716,4425608.133333335,39877.5066898148,39877.5098726852,33.574395005729784,2009-03-05,12:09:38,2009-03-05,12:14:13
443567.103125,4425359.440624999,39878.1845833333,39878.1863194444,11.610770861202857,2009-03-06,04:25:48,2009-03-06,04:28:18
444143.52307692304,4425797.738461538,39878.2646180556,39878.2653125,33.974402128770066,2009-03-06,06:21:03,2009-03-06,06:22:03
443606.9551724137,4425372.548275864,39878.8868055556,39878.8885416667,32.80243893336707,2009-03-06,21:17:00,2009-03-06,21:19:30
444160.6499999999,4425828.290000001,39879.0762962963,39879.0768171296,44.95475503225966,2009-03-07,01:49:52,2009-03-07,01:50:37
444151.77,4425824.340000001,39879.2490277778,39879.2494907407,40.587929240743684,2009-03-07,05:58:36,2009-03-07,05:59:16
443617.04166666657,4425441.6125,39879.7930208333,39879.7943518519,12.94681428039,2009-03-07,19:01:57,2009-03-07,19:03:52
443675.138095238,4425209.661904762,39881.2142592593,39881.2153009259,21.411445537617787,2009-03-09,05:08:32,2009-03-09,05:10:02
444169.5291666665,4425798.508333335,39881.2624652778,39881.2686574074,46.12992521095412,2009-03-09,06:17:57,2009-03-09,06:26:52
444152.26666666666,4425823.916666667,39881.478287037,39881.4785763889,49.76946855236891,2009-03-09,11:28:44,2009-03-09,11:29:09
444171.2074999999,4425764.650000001,39882.2385185185,39882.2431481481,32.00531205909772,2009-03-10,05:43:28,2009-03-10,05:50:08
444166.8571428571,4425802.985714286,39882.4677199074,39882.4680671296,44.791293796855214,2009-03-10,11:13:31,2009-03-10,11:14:01
444165.45,4425815.300000001,39883.0344907407,39883.0347800926,42.66204402097438,2009-03-11,00:49:40,2009-03-11,00:50:05
444164.75999999995,4425833.28,39883.6219560185,39883.6224768519,43.01743832459693,2009-03-11,14:55:37,2009-03-11,14:56:22
444135.0181818182,4425826.772727273,39884.4946296296,39884.4952083333,43.829214001437386,2009-03-12,11:52:16,2009-03-12,11:53:06
444151.17500000005,4425823.683333333,39885.4741550926,39885.4747337963,43.584974474997075,2009-03-13,11:22:47,2009-03-13,11:23:37
443700.02857142856,4425316.685714286,39885.765625,39885.7659722222,43.830811080782254,2009-03-13,18:22:30,2009-03-13,18:23:00
452999.72000000003,4420536.92,39886.2537847222,39886.2540162037,27.275263518443808,2009-03-14,06:05:27,2009-03-14,06:05:47
453436.5615384615,4420505.257692308,39886.344525463,39886.3457986111,40.452070404912334,2009-03-14,08:16:07,2009-03-14,08:17:57
440662.54864864866,4426748.31081081,39886.4387268518,39886.5205671296,49.91202259922302,2009-03-14,10:31:46,2009-03-14,12:29:37
443284.8,4426733.8,39886.7911458333,39886.7911458333,0.0,2009-03-14,18:59:15,2009-03-14,18:59:15
443560.05,4425503.800000001,39887.6529398148,39887.6529976852,14.305593311868849,2009-03-15,15:40:14,2009-03-15,15:40:19
444157.48888888885,4425821.566666666,39888.0193518519,39888.0198148148,42.943916915562866,2009-03-16,00:27:52,2009-03-16,00:28:32
444152.72000000003,4425804.930000001,39888.2718634259,39888.2723842593,41.46058369087504,2009-03-16,06:31:29,2009-03-16,06:32:14
444221.5,4425813.4,39888.4596643519,39888.4596643519,0.0,2009-03-16,11:01:55,2009-03-16,11:01:55
444144.8666666667,4425703.133333333,39889.3587037037,39889.3588194444,30.61045572965675,2009-03-17,08:36:32,2009-03-17,08:36:42
440933.2,4426181.8,39889.4887847222,39889.4887847222,0.0,2009-03-17,11:43:51,2009-03-17,11:43:51
444173.45,4425813.779999999,39890.4153935185,39890.4158564815,42.94391691484029,2009-03-18,09:58:10,2009-03-18,09:58:50
443505.922,4425374.438000001,39890.8399652778,39890.9012615741,36.33249234490169,2009-03-18,20:09:33,2009-03-18,21:37:49
444179.04000000004,4425771.28,39891.0458217593,39891.0534606481,20.1692835770932,2009-03-19,01:05:59,2009-03-19,01:16:59
444119.53846153844,4425824.184615384,39891.2557060185,39891.256400463,49.62358310319802,2009-03-19,06:08:13,2009-03-19,06:09:13
444232.52,4425593.010000001,39891.367349537,39891.3678703704,38.40026041597536,2009-03-19,08:48:59,2009-03-19,08:49:44
444152.7444444445,4425831.144444445,39891.4873726852,39891.4878356481,48.7155006136371,2009-03-19,11:41:49,2009-03-19,11:42:29
444143.88,4425835.380000001,39892.4693865741,39892.469849537,45.95095211200127,2009-03-20,11:15:55,2009-03-20,11:16:35
443526.15,4425258.4,39893.2875115741,39893.2875694444,36.60723972111196,2009-03-21,06:54:01,2009-03-21,06:54:06
444149.05555555556,4425800.022222223,39894.5398958333,39894.5408217593,34.2527371169079,2009-03-22,12:57:27,2009-03-22,12:58:47
443511.58333333326,4425432.816666666,39894.8570601852,39894.857349537,46.374130719152944,2009-03-22,20:34:10,2009-03-22,20:34:35
443443.5,4425826.84,39895.0052430556,39895.0058217593,39.60707007621761,2009-03-23,00:07:33,2009-03-23,00:08:23
444411.7,4425673.6,39895.2589699074,39895.2589699074,0.0,2009-03-23,06:12:55,2009-03-23,06:12:55
444157.89999999997,4425810.3,39895.3310416667,39895.3311574074,23.777510382345575,2009-03-23,07:56:42,2009-03-23,07:56:52
444158.62857142853,4425867.114285715,39895.5008449074,39895.5011921296,45.7555461115783,2009-03-23,12:01:13,2009-03-23,12:01:43
443493.9090909091,4425453.963636363,39895.7279282407,39895.7285069444,37.24043501365393,2009-03-23,17:28:13,2009-03-23,17:29:03
444163.54545454547,4425819.20909091,39896.0319907407,39896.0325115741,41.635681812770805,2009-03-24,00:46:04,2009-03-24,00:46:49
444178.69999999995,4425715.05,39896.2996527778,39896.2999421296,45.95737155215526,2009-03-24,07:11:30,2009-03-24,07:11:55
444154.4222222222,4425835.322222222,39896.4497916667,39896.4502546296,44.97221364376914,2009-03-24,10:47:42,2009-03-24,10:48:22
444151.10900900903,4425664.108108108,39907.5583217593,39907.5802893518,31.703942972991857,2009-04-04,13:23:59,2009-04-04,13:55:37
431467.5232323228,4427286.590909089,39908.078599537,39908.1133217593,44.50000000017632,2009-04-05,01:53:11,2009-04-05,02:43:11
429671.4442622951,4426870.360655738,39908.1824768518,39908.2185300926,49.89027961435815,2009-04-05,04:22:46,2009-04-05,05:14:41
432048.5416666667,4427024.024999999,39908.3132291667,39908.3151851852,46.41228285684545,2009-04-05,07:31:03,2009-04-05,07:33:52
444158.81999999995,4425806.3,39908.5367708333,39908.5372337963,40.607388490242236,2009-04-05,12:52:57,2009-04-05,12:53:37
443568.47402597393,4425411.720779222,39908.672974537,39908.6770833333,10.507616285341411,2009-04-05,16:09:05,2009-04-05,16:15:00
444193.14999999997,4425908.583333333,39909.2282407407,39909.2285300926,20.915305400258365,2009-04-06,05:28:40,2009-04-06,05:29:05
443289.2375000001,4425774.225000001,39909.4599189815,39909.4620023148,46.217096403772764,2009-04-06,11:02:17,2009-04-06,11:05:17
443538.5230769232,4425404.038461538,39910.1685069444,39910.1691435185,43.11287510689486,2009-04-07,04:02:39,2009-04-07,04:03:34
444086.9222222222,4425824.144444445,39910.2608680556,39910.2613310185,46.20497808669717,2009-04-07,06:15:39,2009-04-07,06:16:19
443575.09391025663,4425814.094871795,39910.4277314815,39910.4738078704,6.539113089930907,2009-04-07,10:15:56,2009-04-07,11:22:17
444106.475,4425813.4875,39910.4961805556,39910.4965856481,45.886054526593064,2009-04-07,11:54:30,2009-04-07,11:55:05
444169.8,4425820.457142858,39911.4134722222,39911.4138773148,44.8973273148355,2009-04-08,09:55:24,2009-04-08,09:55:59
444021.14,4426217.32,39911.5331134259,39911.533287037,4.920365840075473,2009-04-08,12:47:41,2009-04-08,12:47:56
444158.61818181816,4425828.300000001,39911.5783680556,39911.5789467593,44.997888839665954,2009-04-08,13:52:51,2009-04-08,13:53:41
444159.0111111111,4425841.688888889,39912.0685185185,39912.0689814815,37.00608058157785,2009-04-09,01:38:40,2009-04-09,01:39:20
444157.8666666665,4425823.65,39912.262349537,39912.2629861111,39.17754458879764,2009-04-09,06:17:47,2009-04-09,06:18:42
444069.1375,4425729.764285715,39912.3905439815,39912.3933796296,22.047675614527055,2009-04-09,09:22:23,2009-04-09,09:26:28
444169.4166666667,4425830.833333334,39913.2618634259,39913.2624421296,37.283374310891006,2009-04-10,06:17:05,2009-04-10,06:17:55
444155.94000000006,4425827.23,39913.5367939815,39913.5372569444,38.697415934409065,2009-04-10,12:52:59,2009-04-10,12:53:39
443474.8333333333,4425389.833333333,39913.7557291667,39913.7563657407,24.700202428506707,2009-04-10,18:08:15,2009-04-10,18:09:10
444163.875,4425774.1,39914.0958449074,39914.0960185185,9.159148432066885,2009-04-11,02:18:01,2009-04-11,02:18:16
444167.43749999994,4425805.3,39914.1947453704,39914.195150463,44.18234941710035,2009-04-11,04:40:26,2009-04-11,04:41:01
443700.7704081637,4426052.262244903,39914.4165740741,39914.4557638889,49.34136195960938,2009-04-11,09:59:52,2009-04-11,10:56:18
444159.5555555556,4425828.855555556,39914.4594675926,39914.4599305556,41.44405868122391,2009-04-11,11:01:38,2009-04-11,11:02:18
444161.5909090909,4425818.6454545455,39915.5850578704,39915.5855787037,47.23822604564708,2009-04-12,14:02:29,2009-04-12,14:03:14
443402.4666666666,4425583.1,39915.7797916667,39915.7799074074,34.80229877417761,2009-04-12,18:42:54,2009-04-12,18:43:04
444196.01666666666,4425809.825,39916.2588888889,39916.259525463,47.24034292857038,2009-04-13,06:12:48,2009-04-13,06:13:43
444219.5,4425886.3,39920.3596180556,39920.3597916667,41.40108694243953,2009-04-17,08:37:51,2009-04-17,08:38:06
443588.9749999999,4425721.433333333,39920.448900463,39920.4894097222,48.69630376106001,2009-04-17,10:46:25,2009-04-17,11:44:45
444165.0166666666,4425808.066666667,39920.5175,39920.5177893518,17.341568556614753,2009-04-17,12:25:12,2009-04-17,12:25:37
422837.8590909091,4435156.822727273,39921.3538078704,39921.3549074074,49.593951244058616,2009-04-18,08:29:29,2009-04-18,08:31:04
443650.1333333333,4425370.266666667,39922.322025463,39922.3221412037,6.280127387426921,2009-04-19,07:43:43,2009-04-19,07:43:53
443697.2362711866,4426074.113898313,39926.4472106481,39926.4841666667,49.636377789381804,2009-04-23,10:43:59,2009-04-23,11:37:12
443796.0258620689,4425895.727586208,39926.4915046296,39926.4938310185,32.671853330276846,2009-04-23,11:47:46,2009-04-23,11:51:07
444195.4166666668,4425838.19090909,39927.6512384259,39927.6583217593,2.3021728866569093,2009-04-24,15:37:47,2009-04-24,15:47:59
443600.58749999997,4425726.91875,39929.458287037,39929.4584606481,47.95205939310054,2009-04-26,10:59:56,2009-04-26,11:00:11
450140.1800000001,4423441.4773333315,39996.2322337963,39996.3287731481,48.568508315392634,2009-07-02,05:34:25,2009-07-02,07:53:26
444125.08749999997,4417983.575,39996.3858680556,39996.3860416667,49.040799340956916,2009-07-02,09:15:39,2009-07-02,09:15:54
419999.525,4408938.212499999,39996.5380324074,39996.5382060185,47.37604880105882,2009-07-02,12:54:46,2009-07-02,12:55:01
420005.23945205513,4408991.352054798,39996.5766087963,39996.9572222222,16.228986413045913,2009-07-02,13:50:19,2009-07-02,22:58:24
420080.56666666665,4408968.233333333,39996.9574652778,39996.9580439815,12.042009798805339,2009-07-02,22:58:45,2009-07-02,22:59:35
440925.7272727276,4415260.548311685,40000.0311458333,40000.0878587963,49.787548644260546,2009-07-06,00:44:51,2009-07-06,02:06:31
451516.93333333335,4423395.744444444,40000.2654282407,40000.265625,46.09902385118598,2009-07-06,06:22:13,2009-07-06,06:22:30
444518.2120481929,4421922.360240966,40000.413599537,40000.4608680556,48.408367045700714,2009-07-06,09:55:35,2009-07-06,11:03:39
419998.86500000005,4408664.055,40000.5914583333,40000.5916782407,46.84015371452148,2009-07-06,14:11:42,2009-07-06,14:12:01
444147.1148148149,4417920.62962963,40001.1310069444,40001.1315162037,48.433459508338515,2009-07-07,03:08:39,2009-07-07,03:09:23
444148.9958333334,4417955.180277779,40001.1960763889,40001.2336226852,46.38706716317394,2009-07-07,04:42:21,2009-07-07,05:36:25
444518.16060606064,4421951.383333334,40001.2480902778,40001.2656365741,28.401584463361015,2009-07-07,05:57:15,2009-07-07,06:22:31
444127.53294460656,4417968.171137027,40002.1594212963,40002.2033333333,48.57200840061833,2009-07-08,03:49:34,2009-07-08,04:52:48
419991.2999999999,4408981.939534884,40002.4868634259,40003.0284027778,37.66430671002112,2009-07-08,11:41:05,2009-07-09,00:40:54
444184.9,4418348.819354839,40003.1312384259,40003.1317708333,47.79089871458218,2009-07-09,03:08:59,2009-07-09,03:09:45
451515.187012987,4423439.453246752,40003.2802199074,40003.2820023148,47.25261897504085,2009-07-09,06:43:31,2009-07-09,06:46:05
419997.35217391304,4408964.869565217,40003.5078819444,40003.5081365741,49.63839239907449,2009-07-09,12:11:21,2009-07-09,12:11:43
