450096.0950000001,4423449.26,39968.2670717593,39968.6036342593,23.385679378701557,2009-06-04,06:24:35,2009-06-04,14:29:14
445705.4666666666,4423568.0,39969.1312384259,39969.4863888889,45.30176596980626,2009-06-05,03:08:59,2009-06-05,11:40:24
445973.0714285715,4424291.671428571,39973.0445138889,39973.3779282407,10.431682510809813,2009-06-09,01:04:06,2009-06-09,09:04:13
450126.8423913045,4423434.177173912,39996.2690162037,39996.2737384259,42.10011876436081,2009-07-02,06:27:23,2009-07-02,06:34:11
460952.30000000005,4417973.116666666,39996.3951736111,39996.3958101852,37.50466637680951,2009-07-02,09:29:03,2009-07-02,09:29:58
431472.5480079683,4427515.215139441,40001.5525347222,40001.6315856481,47.56889740191753,2009-07-07,13:15:39,2009-07-07,15:09:29
431474.35558946984,4427513.590614264,40001.6316435185,40002.0529398148,27.546506130534524,2009-07-07,15:09:34,2009-07-08,01:16:14
441041.8875,4425819.0625,40015.2866550926,40015.2877546296,41.73871104824355,2009-07-21,06:52:47,2009-07-21,06:54:22
438651.1666666666,4423149.873333332,40015.4552893518,40015.456099537,49.740325692710016,2009-07-21,10:55:37,2009-07-21,10:56:47
431482.52272727265,4427511.613636363,40015.6338078704,40015.6350231481,41.941506887434464,2009-07-21,15:12:41,2009-07-21,15:14:26
431483.8233333333,4427503.836666665,40018.6221990741,40018.6238194444,41.63676260207401,2009-07-24,14:55:58,2009-07-24,14:58:18
445981.37619047624,4417665.697493734,40019.0517013889,40019.0933680556,47.01680550627657,2009-07-25,01:14:27,2009-07-25,02:14:27
445885.1666666667,4417701.622222222,40019.1064467593,40019.1073148148,34.50014492723345,2009-07-25,02:33:17,2009-07-25,02:34:32
431630.2947368421,4427447.5,40019.6218981481,40019.6228819444,44.57847013992397,2009-07-25,14:55:32,2009-07-25,14:56:57
431480.40423728817,4427522.609322034,40019.6633333333,40019.6692939815,15.061540425612232,2009-07-25,15:55:12,2009-07-25,16:03:47
444175.35714285716,4421441.157142857,40020.399375,40020.3997222222,38.686560973906985,2009-07-26,09:35:06,2009-07-26,09:35:36
431635.58285714296,4427425.085714285,40025.5928935185,40025.6052083333,49.391598475683615,2009-07-31,14:13:46,2009-07-31,14:31:30
431635.58285714296,4427425.085714285,40025.9262268519,40025.9385416667,49.391598475683615,2009-07-31,22:13:46,2009-07-31,22:31:30
442274.6375,4427012.40625,40026.2104050926,40026.2105787037,46.81538208750792,2009-08-01,05:02:59,2009-08-01,05:03:14
431635.1702127658,4427425.193617021,40026.5984259259,40026.5990046296,49.17977226443344,2009-08-01,14:21:44,2009-08-01,14:22:34
431635.1702127658,4427425.19574468,40026.9317592593,40026.932337963,49.17977226443344,2009-08-01,22:21:44,2009-08-01,22:22:34
440907.3095238095,4425879.023809524,40027.3059722222,40027.3186574074,48.68562416160166,2009-08-02,07:20:36,2009-08-02,07:38:52
438102.4418181817,4423260.3,40027.4296296296,40027.4310300926,33.68753478593075,2009-08-02,10:18:40,2009-08-02,10:20:41
431574.2962962963,4427256.6518518515,40027.5614814815,40027.5618055556,49.12728366211545,2009-08-02,13:28:32,2009-08-02,13:29:00
440907.3095238095,4425879.0261904765,40027.6393055556,40027.6519907407,48.68562416160166,2009-08-02,15:20:36,2009-08-02,15:38:52
438102.4418181817,4423260.3,40027.762962963,40027.7643634259,33.68753478593075,2009-08-02,18:18:40,2009-08-02,18:20:41
431574.2962962963,4427256.6518518515,40027.8948148148,40027.8951388889,49.12728366211545,2009-08-02,21:28:32,2009-08-02,21:29:00
442966.60476190475,4425023.904761906,40028.0733680556,40028.0745138889,41.41738765329773,2009-08-03,01:45:39,2009-08-03,01:47:18
442966.60476190475,4425023.904761906,40028.4067013889,40028.4078472222,41.41738765329773,2009-08-03,09:45:39,2009-08-03,09:47:18
440500.497826087,4414090.910869565,40029.2315162037,40029.305625,48.32328631283237,2009-08-04,05:33:23,2009-08-04,07:20:06
440500.497826087,4414090.910869565,40029.564849537,40029.6389583333,48.32328631283237,2009-08-04,13:33:23,2009-08-04,15:20:06
438096.1933333333,4423188.5200000005,40029.8396759259,40029.839837963,46.68404438384421,2009-08-04,20:09:08,2009-08-04,20:09:22
439806.3,4425804.9,40030.1397569444,40030.1397569444,0.0,2009-08-05,03:21:15,2009-08-05,03:21:15
431512.2818181818,4427496.196969699,40030.2352199074,40030.235625,48.929541179157916,2009-08-05,05:38:43,2009-08-05,05:39:18
439806.3,4425804.9,40030.4730902778,40030.4730902778,0.0,2009-08-05,11:21:15,2009-08-05,11:21:15
431512.2818181818,4427496.196969699,40030.5685532407,40030.5689583333,48.929541179157916,2009-08-05,13:38:43,2009-08-05,13:39:18
437799.2826810185,4413572.495890413,40031.1551157407,40031.2213078704,49.912423303221814,2009-08-06,03:43:22,2009-08-06,05:18:41
446095.69777777774,4414339.764444445,40031.3140625,40031.4362037037,40.53455316147758,2009-08-06,07:32:15,2009-08-06,10:28:08
446095.69777777774,4414339.764444445,40031.6473958333,40031.769537037,40.53455316147758,2009-08-06,15:32:15,2009-08-06,18:28:08
431629.64893617004,4427442.955319149,40031.9114583333,40032.1036458333,8.70976463517175,2009-08-06,21:52:30,2009-08-07,02:29:15
469138.3622754492,4417369.99760479,40032.2428009259,40032.2893634259,49.51817848022453,2009-08-07,05:49:38,2009-08-07,06:56:41
469108.81754385965,4417368.314035089,40032.2977199074,40032.2986226852,42.21670285548303,2009-08-07,07:08:43,2009-08-07,07:10:01
453308.1833333333,4414946.635,40032.4002314815,40032.4015509259,37.714320887317,2009-08-07,09:36:20,2009-08-07,09:38:14
469138.3622754492,4417369.997005987,40032.5761342593,40032.6226967593,49.51817848022453,2009-08-07,13:49:38,2009-08-07,14:56:41
469108.82280701754,4417368.314035089,40032.6310532407,40032.6319560185,42.21670285548303,2009-08-07,15:08:43,2009-08-07,15:10:01
453308.1833333333,4414946.635,40032.7335648148,40032.7348842593,37.714320887317,2009-08-07,17:36:20,2009-08-07,17:38:14
438178.2,4423148.3,40033.1338888889,40033.1338888889,0.0,2009-08-08,03:12:48,2009-08-08,03:12:48
431484.81551724137,4427503.423275862,40033.5371643519,40033.5411342593,47.217793256230884,2009-08-08,12:53:31,2009-08-08,12:59:14
431484.81551724137,4427503.424137931,40033.8704976852,40033.8744675926,47.217793256230884,2009-08-08,20:53:31,2009-08-08,20:59:14
446124.459090909,4414346.44090909,40034.0125115741,40034.013275463,44.62790606787408,2009-08-09,00:18:01,2009-08-09,00:19:07
446142.20288808673,4414332.720216607,40034.3458449074,40035.1097337963,48.37623383437264,2009-08-09,08:18:01,2009-08-10,02:38:01
440974.10000000003,4425901.133333333,40035.2246064815,40035.2262152778,43.74162777109085,2009-08-10,05:23:26,2009-08-10,05:25:45
438286.38958333334,4423334.581250001,40035.2989930556,40035.2996064815,39.06212999840249,2009-08-10,07:10:33,2009-08-10,07:11:26
440761.4523809525,4425961.714285715,40035.4153356481,40035.4157291667,38.808504222366054,2009-08-10,09:58:05,2009-08-10,09:58:39
433255.76608695625,4427109.781956525,40035.5201388889,40035.5576157407,37.526124233687824,2009-08-10,12:29:00,2009-08-10,13:22:58
431645.85641025635,4427341.705128206,40035.5653472222,40035.5657986111,48.00552051569247,2009-08-10,13:34:06,2009-08-10,13:34:45
438286.38749999995,4423334.581250001,40035.6323263889,40035.6329398148,39.06212999840249,2009-08-10,15:10:33,2009-08-10,15:11:26
440761.4523809525,4425961.714285715,40035.7486689815,40035.7490625,38.808504222366054,2009-08-10,17:58:05,2009-08-10,17:58:39
433255.7660869562,4427109.781956525,40035.8534722222,40035.8909490741,37.526124233687824,2009-08-10,20:29:00,2009-08-10,21:22:58
431645.85641025635,4427341.705128206,40035.8986805556,40035.8991319444,48.00552051569247,2009-08-10,21:34:06,2009-08-10,21:34:45
458604.45999999996,4432822.459999999,40042.3550231481,40042.3550694444,49.27930600123662,2009-08-17,08:31:14,2009-08-17,08:31:18
458604.45999999996,4432822.459999999,40042.6883564815,40042.6884027778,49.27930600123662,2009-08-17,16:31:14,2009-08-17,16:31:18
429312.7915789473,4427099.032631578,40043.2152083333,40043.2743287037,46.24672961376037,2009-08-18,05:09:54,2009-08-18,06:35:02
431631.20238095213,4427457.115079363,40043.3789814815,40043.4053587963,45.0362076550615,2009-08-18,09:05:44,2009-08-18,09:43:43
431627.6189224705,4427462.651708276,40043.4535300926,40043.5920138889,15.575621978136885,2009-08-18,10:53:05,2009-08-18,14:12:30
431631.20238095213,4427457.115079363,40043.7123148148,40043.7386921296,45.0362076550615,2009-08-18,17:05:44,2009-08-18,17:43:43
431627.61898817355,4427462.651511167,40043.7868634259,40043.9253472222,15.575621978136885,2009-08-18,18:53:05,2009-08-18,22:12:30
440473.404807692,4414125.71826923,40044.3007060185,40044.3372106481,46.61544808341296,2009-08-19,07:13:01,2009-08-19,08:05:35
438091.55438596493,4423175.989473683,40044.4222337963,40044.422974537,36.15314647495622,2009-08-19,10:08:01,2009-08-19,10:09:05
440473.404807692,4414125.71826923,40044.6340393518,40044.6705439815,46.61544808341296,2009-08-19,15:13:01,2009-08-19,16:05:35
438091.55438596493,4423175.9877192965,40044.7555671296,40044.7563078704,36.15314647495622,2009-08-19,18:08:01,2009-08-19,18:09:05
440497.8716981132,4414131.679245284,40045.2943518519,40045.3032523148,47.31648761255486,2009-08-20,07:03:52,2009-08-20,07:16:41
440497.8735849056,4414131.679245284,40045.6276851852,40045.6365856482,47.31648761255486,2009-08-20,15:03:52,2009-08-20,15:16:41
438107.4826923077,4423215.182692307,40046.4676041667,40046.5214236111,22.557482129008037,2009-08-21,11:13:21,2009-08-21,12:30:51
438107.4826923077,4423215.182692307,40046.8009375,40046.8547569444,22.557482129008037,2009-08-21,19:13:21,2009-08-21,20:30:51
455004.36666666664,4417650.523809524,40047.3023958333,40047.3206365741,38.4252521136817,2009-08-22,07:15:27,2009-08-22,07:41:43
445929.68317757023,4417974.066355139,40047.5042824074,40047.5064351852,38.09160012446901,2009-08-22,12:06:10,2009-08-22,12:09:16
455004.36666666664,4417650.523809524,40047.6357291667,40047.6539699074,38.4252521136817,2009-08-22,15:15:27,2009-08-22,15:41:43
445929.68317757023,4417974.066355139,40047.8376157407,40047.8397685185,38.09160012446901,2009-08-22,20:06:10,2009-08-22,20:09:16
433531.69777777785,4427252.193333333,40047.9529282407,40047.9534953704,49.077285988349125,2009-08-22,22:52:13,2009-08-22,22:53:02
431631.3150537634,4427466.350537634,40049.4833564815,40049.4989930556,35.614042174028434,2009-08-24,11:36:02,2009-08-24,11:58:33
431636.87312687386,4427467.563736259,40049.5349652778,40049.5938773148,46.51075144504291,2009-08-24,12:50:21,2009-08-24,14:15:11
431634.75860655756,4427466.242213115,40049.6075925926,40049.6459953704,49.22286054282429,2009-08-24,14:34:56,2009-08-24,15:30:14
431632.4393442623,4427466.297131152,40049.7010416667,40049.7754513889,44.77700302593075,2009-08-24,16:49:30,2009-08-24,18:36:39
431636.1251546384,4427463.941718213,40049.7755324074,40049.8553356482,49.751884386422994,2009-08-24,18:36:46,2009-08-24,20:31:41
431637.77635135077,4427465.831801809,40049.8553472222,40049.9671527778,24.999599996628536,2009-08-24,20:31:42,2009-08-24,23:12:42
431638.99217935314,4427470.16214807,40049.9961921296,40050.0715972222,44.86836301876723,2009-08-24,23:54:31,2009-08-25,01:43:06
431637.8037593982,4427465.997744362,40050.0719675926,40050.1319328704,46.88592539344338,2009-08-25,01:43:38,2009-08-25,03:09:59
431637.58909090946,4427466.101558443,40050.1323263889,40050.1393171296,36.634955984359884,2009-08-25,03:10:33,2009-08-25,03:20:37
441558.4,4416208.775,40050.2823842593,40050.2824189815,4.780167361637244,2009-08-25,06:46:38,2009-08-25,06:46:41
273710.43749999994,4054070.4249999993,40050.481724537,40050.4820833333,49.5100999796074,2009-08-25,11:33:41,2009-08-25,11:34:12
225065.36315789475,3718760.331578947,40050.6734027778,40050.6736111111,29.449787775301864,2009-08-25,16:09:42,2009-08-25,16:10:00
273710.43749999994,4054070.4249999993,40050.8150578704,40050.8154166667,49.5100999796074,2009-08-25,19:33:41,2009-08-25,19:34:12
