442832.56666666665,4425409.883333334,39416.7361574074,39416.7363541667,15.435025105269746,2007-11-30,17:40:04,2007-11-30,17:40:21
442577.86,4425280.52,39423.7659490741,39423.7661111111,12.381033882405804,2007-12-07,18:22:58,2007-12-07,18:23:12
441789.27999999997,4424359.49,39424.719212963,39424.7549421296,20.529247429171892,2007-12-08,17:15:40,2007-12-08,18:07:07
441120.32,4425433.779999999,39424.7683680556,39424.7688888889,48.50938053612852,2007-12-08,18:26:27,2007-12-08,18:27:12
440098.6,4426949.4,39424.8972569444,39424.8972569444,0.0,2007-12-08,21:32:03,2007-12-08,21:32:03
440001.5333333334,4427090.666666667,39426.5453356481,39426.5486458333,41.498192731921804,2007-12-10,13:05:17,2007-12-10,13:10:03
440073.27999999997,4426962.0200000005,39430.4924074074,39430.4926388889,15.42076522114066,2007-12-14,11:49:04,2007-12-14,11:49:24
440829.4666666666,4426695.5,39430.8098032407,39430.8098726852,24.27117632075893,2007-12-14,19:26:07,2007-12-14,19:26:13
440573.85000000003,4427278.288888889,39430.9644212963,39431.0007060185,13.787675656389567,2007-12-14,23:08:46,2007-12-15,00:01:01
440070.9,4426918.8,39431.0501041667,39431.0501041667,0.0,2007-12-15,01:12:09,2007-12-15,01:12:09
450579.075,4417126.624999999,39431.4033333333,39431.4176967593,48.303726564313855,2007-12-15,09:40:48,2007-12-15,10:01:29
447702.19999999995,4421757.95,39431.5201157407,39431.5201736111,1.920937271237127,2007-12-15,12:28:58,2007-12-15,12:29:03
449137.93333333335,4418420.066666666,39431.772037037,39431.7721527778,11.428035701422699,2007-12-15,18:31:44,2007-12-15,18:31:54
450522.29736842116,4409992.205263159,39431.8749421296,39431.9370023148,42.06376112523032,2007-12-15,20:59:55,2007-12-15,22:29:17
450686.68,4409763.840000001,39432.7975462963,39432.7977777778,47.67651413449761,2007-12-16,19:08:28,2007-12-16,19:08:48
439998.8,4427068.3,39434.8877893519,39434.8877893519,0.0,2007-12-18,21:18:25,2007-12-18,21:18:25
442845.68333333335,4425255.183333334,39436.6524652778,39436.6528935185,41.19186812984265,2007-12-20,15:39:33,2007-12-20,15:40:10
440065.91666666657,4426974.866666666,39436.7821875,39436.7827777778,48.88118247323303,2007-12-20,18:46:21,2007-12-20,18:47:12
445011.7,4423287.225,39438.745,39438.8668171296,48.205082719484075,2007-12-22,17:52:48,2007-12-22,20:48:13
440018.425,4427011.7375,39438.8895949074,39438.9008912037,31.230273774122708,2007-12-22,21:21:01,2007-12-22,21:37:17
440219.6272727272,4426456.195454546,39440.7171990741,39440.7645023148,26.181100053888773,2007-12-24,17:12:46,2007-12-24,18:20:53
441014.69999999995,4425569.55,39440.8037384259,39440.8037962963,3.324154027831,2007-12-24,19:17:23,2007-12-24,19:17:28
441330.04000000004,4424079.840000001,39440.9267939815,39440.9269675926,41.46540726900799,2007-12-24,22:14:35,2007-12-24,22:14:50
440114.4571428572,4426907.342857143,39440.9994328704,39440.9996643519,38.94868418795567,2007-12-24,23:59:11,2007-12-24,23:59:31
443237.4,4426693.8,39444.6460763889,39444.6460763889,0.0,2007-12-28,15:30:21,2007-12-28,15:30:21
440554.69999999995,4424153.8,39444.7504398148,39444.7507291667,46.072117381351475,2007-12-28,18:00:38,2007-12-28,18:01:03
441073.4,4426993.8,39444.8196990741,39444.8196990741,0.0,2007-12-28,19:40:22,2007-12-28,19:40:22
456253.36,4416178.82,39447.5062384259,39447.506400463,41.24948484544632,2007-12-31,12:08:59,2007-12-31,12:09:13
455785.94285714295,4415124.771428571,39447.633900463,39447.6341550926,43.30415684434414,2007-12-31,15:12:49,2007-12-31,15:13:11
440173.50999999995,4426853.100000001,39447.8142939815,39447.8146527778,49.1304386303041,2007-12-31,19:32:35,2007-12-31,19:33:06
434429.5,4431833.8,39447.8973611111,39447.8973611111,0.0,2007-12-31,21:32:12,2007-12-31,21:32:12
442548.92000000004,4420953.9799999995,39448.6822685185,39448.6824074074,33.45399826632044,2008-01-01,16:22:28,2008-01-01,16:22:40
445859.6142857143,4421061.200000001,39448.7377314815,39448.7494212963,33.753962730157774,2008-01-01,17:42:20,2008-01-01,17:59:10
440906.8428571429,4425585.614285714,39448.8045833333,39448.8049305556,48.96386422656869,2008-01-01,19:18:36,2008-01-01,19:19:06
439964.1,4427020.8,39448.9184490741,39448.9184490741,0.0,2008-01-01,22:02:34,2008-01-01,22:02:34
440072.9,4426995.7,39454.9111921296,39454.9111921296,0.0,2008-01-07,21:52:07,2008-01-07,21:52:07
440586.8285714286,4426729.342857143,39455.7542013889,39455.7545486111,40.43191808442137,2008-01-08,18:06:03,2008-01-08,18:06:33
441034.4,4425566.7,39459.3930555556,39459.3930555556,0.0,2008-01-12,09:26:00,2008-01-12,09:26:00
441120.7,4425676.725,39462.531712963,39462.5319560185,48.227067089115465,2008-01-15,12:45:40,2008-01-15,12:46:01
440060.52,4426986.62,39462.6047453704,39462.6051041667,47.207308756653276,2008-01-15,14:30:50,2008-01-15,14:31:21
448110.9199999999,4411481.66,39466.5281828704,39466.5284143519,18.74913331318412,2008-01-19,12:40:35,2008-01-19,12:40:55
440030.6333333333,4427002.333333333,39466.8109490741,39466.8137962963,25.223005371751846,2008-01-19,19:27:46,2008-01-19,19:31:52
448126.0999999999,4411360.066666666,39468.3960763889,39468.3963425926,41.3206969927931,2008-01-21,09:30:21,2008-01-21,09:30:44
446319.4,4408118.0,39468.4902662037,39468.4902662037,0.0,2008-01-21,11:45:59,2008-01-21,11:45:59
448040.95,4412311.95,39468.5480671296,39468.548125,13.461797800015011,2008-01-21,13:09:13,2008-01-21,13:09:18
440026.65,4427076.449999999,39468.782974537,39468.7830092593,6.243396511350914,2008-01-21,18:47:29,2008-01-21,18:47:32
450324.77499999997,4426238.225000001,39480.3731712963,39480.3735300926,14.312581877676443,2008-02-02,08:57:22,2008-02-02,08:57:53
478648.9,4367233.9,39480.9602083333,39480.9602083333,0.0,2008-02-02,23:02:42,2008-02-02,23:02:42
667851.8666666667,3551810.4,39481.6289583333,39481.6290740741,8.15843122174389,2008-02-03,15:05:42,2008-02-03,15:05:52
578457.6426086954,3421262.052173914,39482.5669328704,39482.837962963,30.912780528587437,2008-02-04,13:36:23,2008-02-04,20:06:40
578452.0692307691,3421247.4019230753,39482.8523726852,39482.9502083333,41.63616216705435,2008-02-04,20:27:25,2008-02-04,22:48:18
578464.0187499999,3421259.4499999997,39483.0195949074,39483.0529398148,35.694957627274306,2008-02-05,00:28:13,2008-02-05,01:16:14
578460.0129032258,3421254.770967743,39483.089224537,39483.1623958333,30.139177161882408,2008-02-05,02:08:29,2008-02-05,03:53:51
578455.0590909092,3421237.986363636,39483.1651736111,39483.2155671296,43.763912073573564,2008-02-05,03:57:51,2008-02-05,05:10:25
578460.812,3421253.346000001,39483.2183449074,39483.3134837963,42.65512864812395,2008-02-05,05:14:25,2008-02-05,07:31:25
578449.0241379311,3421253.9793103454,39483.3331018519,39483.3889699074,41.59062394333389,2008-02-05,07:59:40,2008-02-05,09:20:07
576615.125,3422051.275,39483.493287037,39483.4934606481,27.176828365451783,2008-02-05,11:50:20,2008-02-05,11:50:35
577388.4,3422181.4,39483.5974884259,39483.5974884259,0.0,2008-02-05,14:20:23,2008-02-05,14:20:23
578238.9,3421378.3,39483.6453935185,39483.6453935185,0.0,2008-02-05,15:29:22,2008-02-05,15:29:22
577579.8222222222,3423389.666666666,39483.7728703704,39483.7759953704,46.418638498099135,2008-02-05,18:32:56,2008-02-05,18:37:26
589678.787096774,3425076.725806451,39485.5588541667,39485.5984837963,44.40551767526755,2008-02-07,13:24:45,2008-02-07,14:21:49
578449.7444444444,3421223.651851852,39485.6257638889,39485.6622685185,32.81249761912445,2008-02-07,15:01:06,2008-02-07,15:53:40
578862.075,3421169.9625,39485.7240393519,39485.7244444444,46.15463140384199,2008-02-07,17:22:37,2008-02-07,17:23:12
577592.8,3423388.9,39485.8535532407,39485.8535532407,0.0,2008-02-07,20:29:07,2008-02-07,20:29:07
578435.5888888888,3421235.4777777777,39486.6076967593,39486.6081134259,48.899897750424344,2008-02-08,14:35:05,2008-02-08,14:35:41
577662.8333333334,3423427.6666666665,39487.8942939815,39487.8945138889,20.317726250893788,2008-02-09,21:27:47,2008-02-09,21:28:06
577485.4333333332,3423241.9166666665,39489.4260648148,39489.4263541667,49.05517301971666,2008-02-11,10:13:32,2008-02-11,10:13:57
576063.95,3420843.55,39489.5964814815,39489.5972106481,34.3455965154584,2008-02-11,14:18:56,2008-02-11,14:19:59
577578.1,3423377.714285714,39489.9195138889,39489.9197916667,43.143133868413855,2008-02-11,22:04:06,2008-02-11,22:04:30
578458.15,3421363.85,39490.5742824074,39490.5743402778,4.465422712507558,2008-02-12,13:46:58,2008-02-12,13:47:03
578457.2875,3421261.1874999995,39490.8731134259,39490.8734259259,42.15174966715863,2008-02-12,20:57:17,2008-02-12,20:57:44
574432.3,3422784.3,39491.5794328704,39491.5794328704,0.0,2008-02-13,13:54:23,2008-02-13,13:54:23
578487.6666666666,3421268.0666666664,39492.7037152778,39492.7038310185,7.720103626265608,2008-02-14,16:53:21,2008-02-14,16:53:31
577580.91,3423360.0700000003,39493.5649305556,39493.8495601852,42.573465914816005,2008-02-15,13:33:30,2008-02-15,20:23:22
577570.6105263159,3423361.4578947374,39493.8525347222,39493.8973032407,41.86991760211943,2008-02-15,20:27:39,2008-02-15,21:32:07
577587.82,3423354.6400000006,39493.9000925926,39493.9307407407,48.005416361437405,2008-02-15,21:36:08,2008-02-15,22:20:16
577564.1000000001,3423345.3,39493.9434490741,39493.9463657407,41.69844121784988,2008-02-15,22:38:34,2008-02-15,22:42:46
576813.8,3423301.3,39494.718287037,39494.718287037,0.0,2008-02-16,17:14:20,2008-02-16,17:14:20
579892.3,3421548.7,39494.7797337963,39494.7797685185,47.18304780314072,2008-02-16,18:42:49,2008-02-16,18:42:52
576689.14,3422082.6533333333,39494.8527777778,39494.8871064815,48.42850400319779,2008-02-16,20:28:00,2008-02-16,21:17:26
577653.5083333332,3423360.0833333335,39494.9149884259,39494.9155092593,47.915028957462866,2008-02-16,21:57:35,2008-02-16,21:58:20
576414.4333333333,3422791.1666666665,39495.6549652778,39495.6551273148,34.085187398518585,2008-02-17,15:43:09,2008-02-17,15:43:23
578553.2,3421071.2,39495.8299884259,39495.8299884259,0.0,2008-02-17,19:55:11,2008-02-17,19:55:11
578148.6,3421973.4,39495.9013657407,39495.9013657407,0.0,2008-02-17,21:37:58,2008-02-17,21:37:58
576712.088888889,3422116.944444444,39496.8071296296,39496.8597222222,36.423206887567595,2008-02-18,19:22:16,2008-02-18,20:38:00
577587.0,3423450.4,39496.8765856481,39496.8765856481,0.0,2008-02-18,21:02:17,2008-02-18,21:02:17
513355.4,3473824.0,39497.7361458333,39497.7361458333,0.0,2008-02-19,17:40:03,2008-02-19,17:40:03
520104.75,3521721.65,39497.8658217593,39497.8658564815,25.97883754117666,2008-02-19,20:46:47,2008-02-19,20:46:50
387259.8,4129583.6666666665,39498.3252430556,39498.3252777778,32.869438692829846,2008-02-20,07:48:21,2008-02-20,07:48:24
440513.47500000003,4426013.575,39499.4697916667,39499.4699421296,39.13885537435429,2008-02-21,11:16:30,2008-02-21,11:16:43
440817.6,4425881.6,39499.6920717593,39499.6920717593,0.0,2008-02-21,16:36:35,2008-02-21,16:36:35
440230.02857142856,4426818.685714286,39499.7716898148,39499.7720023148,36.08559269347497,2008-02-21,18:31:14,2008-02-21,18:31:41
439662.975,4427362.387499999,39500.3869212963,39500.3873032407,48.12733111248229,2008-02-22,09:17:10,2008-02-22,09:17:43
440077.6619047619,4426943.871428572,39500.4458333333,39500.4782523148,42.271148552748656,2008-02-22,10:42:00,2008-02-22,11:28:41
441711.2,4423916.1,39500.5457407407,39500.5457407407,0.0,2008-02-22,13:05:52,2008-02-22,13:05:52
440009.6333333333,4427007.833333333,39500.6978009259,39500.6978935185,12.58729518191743,2008-02-22,16:44:50,2008-02-22,16:44:58
440272.14210526313,4426784.2105263155,39516.5436921296,39516.5774537037,35.51239220346631,2008-03-09,13:02:55,2008-03-09,13:51:32
441653.80000000005,4423997.300000001,39516.6593518518,39516.6594328704,3.328663395255671,2008-03-09,15:49:28,2008-03-09,15:49:35
440651.794117647,4424798.8,39516.7336111111,39516.734537037,42.30011820356218,2008-03-09,17:36:24,2008-03-09,17:37:44
440040.8,4426970.800000001,39516.8934722222,39516.8936458333,26.166390656839592,2008-03-09,21:26:36,2008-03-09,21:26:51
440825.3833333333,4426750.033333334,39531.4393634259,39531.4396527778,40.0681918735099,2008-03-24,10:32:41,2008-03-24,10:33:06
440331.89166666666,4426560.916666667,39531.7296875,39531.7302546296,37.20483839521186,2008-03-24,17:30:45,2008-03-24,17:31:34
441300.9857142857,4425322.685714285,39533.6611458333,39533.6614930556,45.48197445150115,2008-03-26,15:52:03,2008-03-26,15:52:33
440541.94000000006,4426886.659999999,39533.7940046296,39533.794212963,9.213576938242172,2008-03-26,19:03:22,2008-03-26,19:03:40
441253.71666666673,4425309.25,39535.3736574074,39535.3738310185,40.989022920418364,2008-03-28,08:58:04,2008-03-28,08:58:19
440013.6,4426975.8,39535.6176273148,39535.6176273148,0.0,2008-03-28,14:49:23,2008-03-28,14:49:23
441158.82,4425337.76,39536.4726736111,39536.4729050926,47.224569875746475,2008-03-29,11:20:39,2008-03-29,11:20:59
441314.39999999997,4425348.216666666,39538.3796064815,39538.3798032407,18.5205291500799,2008-03-31,09:06:38,2008-03-31,09:06:55
441128.2,4426240.1,39560.3688194444,39560.3688194444,0.0,2008-04-22,08:51:06,2008-04-22,08:51:06
440452.8,4426847.5,39568.3553819444,39568.3553819444,0.0,2008-04-30,08:31:45,2008-04-30,08:31:45
