444712.85,4423718.0,39260.4429282407,39260.4431134259,19.396133634983595,2007-06-27,10:37:49,2007-06-27,10:38:05
456364.0,4424733.8,39262.0366203704,39262.0373611111,48.9094060485073,2007-06-29,00:52:44,2007-06-29,00:53:48
444621.5,4423396.8,39262.4697106481,39262.4706365741,10.628264204342955,2007-06-29,11:16:23,2007-06-29,11:17:43
454770.45,4419827.9,39267.5619444444,39267.5623032407,14.875819304982384,2007-07-04,13:29:12,2007-07-04,13:29:43
442889.55,4425277.1,39268.0825694444,39268.0827546296,17.194475857045866,2007-07-05,01:58:54,2007-07-05,01:59:10
444068.675,4424298.050000001,39268.5410763889,39269.0254050926,38.10419924382093,2007-07-05,12:59:09,2007-07-06,00:36:35
442821.0333333334,4425245.233333333,39269.0381597222,39269.0387268519,43.11473066135217,2007-07-06,00:54:57,2007-07-06,00:55:46
453699.9666666666,4425195.966666666,39269.4975925926,39269.4979513889,30.602287496092575,2007-07-06,11:56:32,2007-07-06,11:57:03
