449139.2533333333,4425426.586666666,39821.9695949074,39821.9838078704,40.04322664318253,2009-01-08,23:16:13,2009-01-08,23:36:41
449198.75,4425672.975,39822.1019675926,39822.102037037,44.820084783653165,2009-01-09,02:26:50,2009-01-09,02:26:56
449044.6777777778,4425551.422222223,39822.2797106481,39822.2798958333,33.81789467144524,2009-01-09,06:42:47,2009-01-09,06:43:03
540082.5,4808367.5,39822.4434722222,39822.4434722222,0.0,2009-01-09,10:38:36,2009-01-09,10:38:36
449145.0833333333,4425379.350000001,39822.966875,39822.9674074074,47.722217047803255,2009-01-09,23:12:18,2009-01-09,23:13:04
440376.55999999994,4426107.2,39823.518275463,39823.5185069444,43.165379646006144,2009-01-10,12:26:19,2009-01-10,12:26:39
443044.475,4427168.062500001,39823.5903240741,39823.5905324074,31.845407832145025,2009-01-10,14:10:04,2009-01-10,14:10:22
441285.3,4425720.427586206,39823.828912037,39823.834849537,38.70051679236464,2009-01-10,19:53:38,2009-01-10,20:02:11
449143.5375,4425417.3375,39825.9316666667,39825.9320717593,49.604032094153695,2009-01-12,22:21:36,2009-01-12,22:22:11
449568.1333333333,4387065.800000001,39826.4201736111,39826.4202199074,41.51457575330415,2009-01-13,10:05:03,2009-01-13,10:05:07
442858.68695652176,4425367.373913042,39826.8076967593,39826.8082291667,49.17967059670182,2009-01-13,19:23:05,2009-01-13,19:23:51
449384.6,4424841.2,39826.9133796296,39826.9133796296,0.0,2009-01-13,21:55:16,2009-01-13,21:55:16
402438.9,4401733.9,39827.8653009259,39827.8653009259,0.0,2009-01-14,20:46:02,2009-01-14,20:46:02
458142.2,4437857.1,39827.980474537,39827.980474537,0.0,2009-01-14,23:31:53,2009-01-14,23:31:53
438087.2,4420370.2,39837.4630902778,39837.4630902778,0.0,2009-01-24,11:06:51,2009-01-24,11:06:51
440752.73,4426087.13,39838.4509837963,39838.4512152778,25.985572920372565,2009-01-25,10:49:25,2009-01-25,10:49:45
440099.14999999997,4426116.675,39838.5507523148,39838.5508217593,41.500481924906374,2009-01-25,13:13:05,2009-01-25,13:13:11
446348.8,4423827.5,39839.7047800926,39839.7047800926,0.0,2009-01-26,16:54:53,2009-01-26,16:54:53
442673.4,4425090.6,39840.5677199074,39840.5677199074,0.0,2009-01-27,13:37:31,2009-01-27,13:37:31
436641.85,4425479.25,39840.72375,39840.7238194444,44.04781492864322,2009-01-27,17:22:12,2009-01-27,17:22:18
433291.0,4422459.9,39843.4293981481,39843.4293981481,0.0,2009-01-30,10:18:20,2009-01-30,10:18:20
443309.1,4425632.1,39843.4737615741,39843.4737615741,0.0,2009-01-30,11:22:13,2009-01-30,11:22:13
439828.19499999995,4426042.2299999995,39847.9407060185,39847.9411458333,47.50042105076622,2009-02-03,22:34:37,2009-02-03,22:35:15
439637.0,4426111.9,39853.9522916667,39853.9522916667,0.0,2009-02-09,22:51:18,2009-02-09,22:51:18
439770.85,4426134.800000001,39863.9111689815,39863.9112037037,22.9366518914925,2009-02-19,21:52:05,2009-02-19,21:52:08
442885.18571428576,4425347.95,39864.4250231481,39864.4253240741,43.82008671813069,2009-02-20,10:12:02,2009-02-20,10:12:28
439814.65,4426007.15,39864.9286574074,39864.9286805556,24.196280706183032,2009-02-20,22:17:16,2009-02-20,22:17:18
449147.12142857147,4425436.564285715,39865.8553356482,39865.8557175926,47.99802079249694,2009-02-21,20:31:41,2009-02-21,20:32:14
449133.1409982172,4425392.692156865,39877.9902546296,39878.0676736111,45.09467817842377,2009-03-05,23:45:58,2009-03-06,01:37:27
449123.1536585364,4425393.910975609,39878.1014236111,39878.1658449074,35.9339672176619,2009-03-06,02:26:03,2009-03-06,03:58:49
449133.0572559365,4425393.350659629,39878.1715856481,39878.2391666667,49.25657316541214,2009-03-06,04:07:05,2009-03-06,05:44:24
449125.4118181814,4425390.714545457,39878.2884953704,39878.3235648148,38.616706229299254,2009-03-06,06:55:26,2009-03-06,07:45:56
712807.5,4346712.7,39878.3567592593,39878.3567592593,0.0,2009-03-06,08:33:44,2009-03-06,08:33:44
441163.34761904756,4425729.852380954,39880.7581365741,39880.7586689815,49.753994814403896,2009-03-08,18:11:43,2009-03-08,18:12:29
449122.45446071937,4425390.176564581,39880.9460185185,39881.0580787037,41.07602707161628,2009-03-08,22:42:16,2009-03-09,01:23:38
449123.89475308673,4425396.267592593,39881.1177662037,39881.1514930556,36.21739913361995,2009-03-09,02:49:35,2009-03-09,03:38:09
449129.061764706,4425397.901470591,39881.1906365741,39881.2612268519,45.93147069313411,2009-03-09,04:34:31,2009-03-09,06:16:10
447958.6,4410006.0,39881.2772337963,39881.2772337963,0.0,2009-03-09,06:39:13,2009-03-09,06:39:13
442691.8333333333,4425259.746666667,39897.8472337963,39897.8475694444,47.80376554242835,2009-03-25,20:20:01,2009-03-25,20:20:30
443170.55862068967,4425620.324137931,39974.120462963,39974.1222222222,34.32855953838854,2009-06-10,02:53:28,2009-06-10,02:56:00
442860.144,4425247.351999999,40071.0076967593,40071.0082523148,49.800903606074016,2009-09-15,00:11:05,2009-09-15,00:11:53
442836.8794117648,4425265.823529411,40071.064224537,40071.0650925926,47.93172227250092,2009-09-15,01:32:29,2009-09-15,01:33:44
442516.06785714295,4424931.578571429,40071.1072685185,40071.1079166667,48.99489769347754,2009-09-15,02:34:28,2009-09-15,02:35:24
442854.7655172414,4425253.596551725,40071.3929513889,40071.393599537,47.79131720300508,2009-09-15,09:25:51,2009-09-15,09:26:47
442880.0764705883,4425259.017647061,40075.7026388889,40075.7035763889,45.70700165198629,2009-09-19,16:51:48,2009-09-19,16:53:09
441761.96666666673,4422663.180000001,40076.7895601852,40076.7907986111,39.57473941773555,2009-09-20,18:56:58,2009-09-20,18:58:45
443013.3,4424485.9,40076.8721527778,40076.8721527778,0.0,2009-09-20,20:55:54,2009-09-20,20:55:54
442521.876,4424922.464000001,40079.0003125,40079.0010416667,49.30405662811658,2009-09-23,00:00:27,2009-09-23,00:01:30
442822.8636363634,4425245.525454545,40079.3867824074,40079.9725810185,46.289955713984284,2009-09-23,09:16:58,2009-09-23,23:20:31
442515.2382352941,4424919.835294118,40079.9774305556,40079.9784722222,49.760727486564654,2009-09-23,23:27:30,2009-09-23,23:29:00
442574.88000000006,4425269.98,40080.3920601852,40080.3921412037,7.4793047806182065,2009-09-24,09:24:34,2009-09-24,09:24:41
442508.5035714285,4424930.403571429,40080.987962963,40080.9886226852,48.61532680154745,2009-09-24,23:42:40,2009-09-24,23:43:37
442847.94000000006,4425176.76,40081.4075231481,40081.4077430556,22.012723593405987,2009-09-25,09:46:50,2009-09-25,09:47:09
