442857.5083333333,4425249.966666666,40518.8051388889,40518.805775463,47.133958034529485,2010-12-06,19:19:24,2010-12-06,19:20:19
442711.52916666673,4425208.579166667,40519.3917361111,40519.3934143518,17.327723451163457,2010-12-07,09:24:06,2010-12-07,09:26:31
442809.0857142857,4425161.228571428,40520.0192592593,40520.0196064815,44.20011312166135,2010-12-08,00:27:44,2010-12-08,00:28:14
442845.7866666667,4425249.100000001,40526.4256828704,40526.5223263889,48.967948701256276,2010-12-14,10:12:59,2010-12-14,12:32:09
442858.87499999994,4425250.833333333,40526.5779976852,40526.5786342593,48.39855369694679,2010-12-14,13:52:19,2010-12-14,13:53:14
442827.31333333324,4425170.760000001,40526.6749884259,40526.6757986111,45.431817044726685,2010-12-14,16:11:59,2010-12-14,16:13:09
442821.47887931066,4425293.338362072,40526.769224537,40526.785625,10.3730419837885,2010-12-14,18:27:41,2010-12-14,18:51:18
442879.9000000001,4425341.366666666,40527.031412037,40527.0315277778,12.229881438768066,2010-12-15,00:45:14,2010-12-15,00:45:24
445481.3,4425542.1,40531.8235416667,40531.8235416667,0.0,2010-12-19,19:45:54,2010-12-19,19:45:54
442904.92000000004,4425256.47,40531.8673958333,40531.8679166667,48.30983336753385,2010-12-19,20:49:03,2010-12-19,20:49:48
453535.35555555555,4414950.649999999,40536.9160069444,40536.916875,46.337565754135326,2010-12-24,21:59:03,2010-12-24,22:00:18
442879.5777777778,4425289.866666667,40561.8557175926,40561.8561805556,46.400431032663874,2011-01-18,20:32:14,2011-01-18,20:32:54
442839.61129032273,4425286.985483872,40598.8076388889,40598.8190740741,32.07304163930636,2011-02-24,19:23:00,2011-02-24,19:39:28
441198.88000000006,4425297.199999999,40601.3603819444,40601.3606134259,47.21408688076981,2011-02-27,08:38:57,2011-02-27,08:39:17
441553.0015337424,4429926.184355829,40609.3811342593,40609.4177083333,48.59269492471061,2011-03-07,09:08:50,2011-03-07,10:01:30
450508.87820512813,4416886.0102564115,40609.5181134259,40609.5564236111,46.40172410627156,2011-03-07,12:26:05,2011-03-07,13:21:15
442818.525,4425343.775,40609.6413773148,40609.6415509259,39.91453369368974,2011-03-07,15:23:35,2011-03-07,15:23:50
442030.03333333327,4425846.216666667,40614.3172337963,40614.3178703704,44.652099615049856,2011-03-12,07:36:49,2011-03-12,07:37:44
442811.8999999998,4425184.128571429,40663.6852662037,40663.6859027778,48.07348541525832,2011-04-30,16:26:47,2011-04-30,16:27:42
440745.67407407414,4425590.174074074,40664.1749652778,40664.175787037,48.85949242470699,2011-05-01,04:11:57,2011-05-01,04:13:08
442809.4137254902,4425172.403921568,40664.6576851852,40664.6582638889,28.30971564673437,2011-05-01,15:47:04,2011-05-01,15:47:54
440586.5666666666,4425653.674358975,40665.0848148148,40665.0852546296,48.1614991459611,2011-05-02,02:02:08,2011-05-02,02:02:46
442791.89199999993,4425190.452,40665.6734722222,40665.6743055556,49.44046925362036,2011-05-02,16:09:48,2011-05-02,16:11:00
440595.33809523814,4425691.383333333,40666.0407986111,40666.0412731481,29.104638805707122,2011-05-03,00:58:45,2011-05-03,00:59:26
442764.077142857,4425200.339999999,40666.6532986111,40666.6540972222,47.01063709417264,2011-05-03,15:40:45,2011-05-03,15:41:54
440611.396,4425620.896000001,40667.0463657407,40667.0466435185,46.9086345999858,2011-05-04,01:06:46,2011-05-04,01:07:10
442854.8789473685,4425145.984210528,40668.6847222222,40668.6849305556,44.06472512145588,2011-05-05,16:26:00,2011-05-05,16:26:18
442806.0634615384,4425176.992307693,40670.7133680556,40670.7139583333,49.11720676085535,2011-05-07,17:07:15,2011-05-07,17:08:06
440579.2967741936,4425672.745161289,40671.2033101852,40671.2036574074,47.98603963687734,2011-05-08,04:52:46,2011-05-08,04:53:16
442779.81886792456,4425176.364150943,40671.6991319444,40671.6997337963,49.03060268852505,2011-05-08,16:46:45,2011-05-08,16:47:37
440514.4,4425512.6,40672.0814467593,40672.0814467593,0.0,2011-05-09,01:57:17,2011-05-09,01:57:17
440539.41086956527,4425579.910869565,40673.0701157407,40673.0713541667,46.53181707213432,2011-05-10,01:40:58,2011-05-10,01:42:45
442836.013580247,4425172.329629632,40673.6701388889,40673.6710648148,41.60120190574018,2011-05-10,16:05:00,2011-05-10,16:06:20
440642.4875,4425592.86875,40675.0973032407,40675.0974768519,5.366563145739183,2011-05-12,02:20:07,2011-05-12,02:20:22
442842.74500000005,4425160.853333333,40683.6979166667,40683.6997800926,35.72786027745981,2011-05-20,16:45:00,2011-05-20,16:47:41
442828.56176470604,4425167.555882354,40684.7099884259,40684.7107638889,48.9017382105113,2011-05-21,17:02:23,2011-05-21,17:03:30
442782.33606557397,4425127.321311476,40685.700474537,40685.7011689815,49.06668931159436,2011-05-22,16:48:41,2011-05-22,16:49:41
442802.62121212116,4425171.709090909,40687.681087963,40687.6819444444,49.381170500505554,2011-05-24,16:20:46,2011-05-24,16:22:00
442860.4906250002,4425173.9453125,40688.6933333333,40688.6940625,9.143850392450547,2011-05-25,16:38:24,2011-05-25,16:39:27
442816.5507692309,4425166.907692307,40691.697025463,40691.6977662037,48.84311619862407,2011-05-28,16:43:43,2011-05-28,16:44:47
