442796.99999999994,4425344.077777778,39416.6075347222,39416.7323726852,32.71161873101487,2007-11-30,14:34:51,2007-11-30,17:34:37
440024.5999999999,4420219.366666666,39416.8898611111,39416.8903240741,45.5053842968062,2007-11-30,21:21:24,2007-11-30,21:22:04
440528.6,4422394.050000001,39417.4450115741,39417.4450462963,27.95943490148237,2007-12-01,10:40:49,2007-12-01,10:40:52
456277.3,4427815.1,39418.8929398148,39418.8929398148,0.0,2007-12-02,21:25:50,2007-12-02,21:25:50
440068.6,4426952.1,39419.6337384259,39419.6337384259,0.0,2007-12-03,15:12:35,2007-12-03,15:12:35
440109.00999999995,4426928.8100000005,39420.6792361111,39420.6797569444,47.20699100768868,2007-12-04,16:18:06,2007-12-04,16:18:51
439035.1,4424779.7,39421.5246527778,39421.5246527778,0.0,2007-12-05,12:35:30,2007-12-05,12:35:30
440902.55,4426106.6,39421.5742708333,39421.5743287037,10.012492197250394,2007-12-05,13:46:57,2007-12-05,13:47:02
440040.9,4426978.0,39421.7526967593,39421.7526967593,0.0,2007-12-05,18:03:53,2007-12-05,18:03:53
440042.3,4426988.7,39422.8908449074,39422.8908449074,0.0,2007-12-06,21:22:49,2007-12-06,21:22:49
440027.5,4420019.963636363,39423.8450578704,39423.8456365741,49.12321243566852,2007-12-07,20:16:53,2007-12-07,20:17:43
439803.1888888889,4420282.711111111,39424.4174189815,39424.4178819444,45.500989000240345,2007-12-08,10:01:05,2007-12-08,10:01:45
441017.45999999996,4420378.459999999,39424.5380787037,39424.5382407407,42.7351143672835,2007-12-08,12:54:50,2007-12-08,12:55:04
440025.3538461539,4420267.515384615,39424.9492708333,39424.9499652778,47.75541854054914,2007-12-08,22:46:57,2007-12-08,22:47:57
440437.05999999994,4426161.17,39426.8020833333,39426.8026273148,46.40527987225176,2007-12-10,19:15:00,2007-12-10,19:15:47
440008.6,4426999.0,39426.9212268519,39426.9212268519,0.0,2007-12-10,22:06:34,2007-12-10,22:06:34
440860.3285714286,4426037.085714286,39428.6388541667,39428.6391203704,13.122880781615509,2007-12-12,15:19:57,2007-12-12,15:20:20
440017.375,4426965.1,39428.7619791667,39428.7621527778,15.402921800621634,2007-12-12,18:17:15,2007-12-12,18:17:30
440099.025,4427291.274999999,39430.8291666667,39430.8331018519,10.040418317511092,2007-12-14,19:54:00,2007-12-14,19:59:40
440851.95,4426285.25,39433.7205324074,39433.7205902778,21.354624791553853,2007-12-17,17:17:34,2007-12-17,17:17:39
440848.51666666666,4426241.95,39433.8366898148,39433.8458680556,25.35054240125469,2007-12-17,20:04:50,2007-12-17,20:18:03
440106.5,4426962.3,39433.9211689815,39433.9211689815,0.0,2007-12-17,22:06:29,2007-12-17,22:06:29
440212.925,4426885.1,39434.5700925926,39434.5702546296,11.940268003379021,2007-12-18,13:40:56,2007-12-18,13:41:10
440585.98333333334,4426864.483333333,39434.7357175926,39434.7359837963,34.97384737167136,2007-12-18,17:39:26,2007-12-18,17:39:49
421446.5,4403500.0,39434.9015740741,39434.9015740741,0.0,2007-12-18,21:38:16,2007-12-18,21:38:16
413624.4,4435527.1,39434.9987962963,39434.9987962963,0.0,2007-12-18,23:58:16,2007-12-18,23:58:16
440108.65,4426953.5,39435.8447453704,39435.8448032407,38.09002494096079,2007-12-19,20:16:26,2007-12-19,20:16:31
441523.4,4427915.3,39436.7972800926,39436.7972800926,0.0,2007-12-20,19:08:05,2007-12-20,19:08:05
440611.1,4426943.6,39437.436400463,39437.436400463,0.0,2007-12-21,10:28:25,2007-12-21,10:28:25
431725.5,4429962.2,39440.5375231481,39440.5375231481,0.0,2007-12-24,12:54:02,2007-12-24,12:54:02
442275.04545454547,4426242.136363637,39440.7090740741,39440.7096527778,33.47909795673728,2007-12-24,17:01:04,2007-12-24,17:01:54
442784.625,4426784.449999999,39440.7632060185,39440.7633333333,33.5959819026004,2007-12-24,18:19:01,2007-12-24,18:19:12
440876.95999999996,4425762.340000001,39440.8291898148,39440.8294212963,34.036597950035606,2007-12-24,19:54:02,2007-12-24,19:54:22
440863.9,4425983.0,39440.8786805556,39440.8786805556,0.0,2007-12-24,21:05:18,2007-12-24,21:05:18
443442.6,4436492.8,39440.9657175926,39440.9657175926,0.0,2007-12-24,23:10:38,2007-12-24,23:10:38
440592.7,4426681.4,39441.7964467593,39441.7964467593,0.0,2007-12-25,19:06:53,2007-12-25,19:06:53
440057.5555555556,4426970.088888888,39441.9206018519,39442.1459143519,25.031979545468886,2007-12-25,22:05:40,2007-12-26,03:30:07
449884.0625,4447725.5,39443.5082175926,39443.5119675926,49.20040650164073,2007-12-27,12:11:50,2007-12-27,12:17:14
442273.15,4427240.375,39443.827974537,39443.8281018519,14.746185947609982,2007-12-27,19:52:17,2007-12-27,19:52:28
439978.59,4426970.44,39443.9190393519,39443.9222800926,46.35871007714298,2007-12-27,22:03:25,2007-12-27,22:08:05
440081.0615384616,4426943.823076923,39444.1858796296,39445.41875,48.842706722355445,2007-12-28,04:27:40,2007-12-29,10:03:00
440074.8857142857,4426941.885714286,39445.4188078704,39445.9077314815,18.249657530836814,2007-12-29,10:03:05,2007-12-29,21:47:08
442358.65,4426376.05,39445.9489467593,39445.9490046296,2.9154759472928773,2007-12-29,22:46:29,2007-12-29,22:46:34
436753.0,4429376.5,39446.0154398148,39446.0154398148,0.0,2007-12-30,00:22:14,2007-12-30,00:22:14
449963.9571428572,4422081.828571429,39446.4739699074,39446.5446064815,31.534901300232626,2007-12-30,11:22:31,2007-12-30,13:04:14
441667.54090909084,4428344.322727272,39446.5637268518,39446.6057060185,20.523401277587496,2007-12-30,13:31:46,2007-12-30,14:32:13
441641.0913043478,4428413.36521739,39446.6084837963,39446.6477314815,41.997380870620276,2007-12-30,14:36:13,2007-12-30,15:32:44
442445.85000000003,4426312.725,39446.65875,39446.6590393518,49.852281793314134,2007-12-30,15:48:36,2007-12-30,15:49:01
441093.4125,4425688.95,39446.8138657407,39446.8142708333,36.41785276451318,2007-12-30,19:31:58,2007-12-30,19:32:33
440096.5,4427022.5,39446.9367824074,39446.9367824074,0.0,2007-12-30,22:28:58,2007-12-30,22:28:58
442641.52857142856,4422498.314285714,39447.7844212963,39447.9135416667,39.003204996512785,2007-12-31,18:49:34,2007-12-31,21:55:30
442270.6375,4426326.55,39447.9612847222,39448.3968055556,7.077428911982961,2007-12-31,23:04:15,2008-01-01,09:31:24
445957.21428571426,4416634.171428571,39448.4150462963,39448.4153935185,44.26341604526848,2008-01-01,09:57:40,2008-01-01,09:58:10
445970.05,4416181.75,39448.4668287037,39448.4668402778,1.772004513952152,2008-01-01,11:12:14,2008-01-01,11:12:15
446224.26249999995,4416634.0125,39448.5818634259,39448.5822337963,39.60113634733226,2008-01-01,13:57:53,2008-01-01,13:58:25
440094.5,4426943.55,39448.7583217593,39448.761099537,5.608029957356478,2008-01-01,18:11:59,2008-01-01,18:15:59
441242.95,4425252.583333333,39449.7983449074,39449.7985648148,44.36146976810481,2008-01-02,19:09:37,2008-01-02,19:09:56
440378.4,4423898.1,39449.9912384259,39449.9912384259,0.0,2008-01-02,23:47:23,2008-01-02,23:47:23
440043.0625,4426991.0875,39450.5593634259,39450.5597222222,48.701642682889684,2008-01-03,13:25:29,2008-01-03,13:26:00
440315.0,4419235.1,39450.651712963,39450.651712963,0.0,2008-01-03,15:38:28,2008-01-03,15:38:28
447781.1,4420392.0,39451.6146412037,39451.6146412037,0.0,2008-01-04,14:45:05,2008-01-04,14:45:05
441137.46666666673,4425673.366666667,39456.7798842593,39456.78,3.4365680554533635,2008-01-09,18:43:02,2008-01-09,18:43:12
441006.0,4425620.65,39456.8522916667,39456.852349537,6.139218191228889,2008-01-09,20:27:18,2008-01-09,20:27:23
440085.2,4426943.6,39456.9018402778,39456.9018402778,0.0,2008-01-09,21:38:39,2008-01-09,21:38:39
442362.63333333336,4421018.1,39457.8833680556,39457.8841550926,47.78755068061006,2008-01-10,21:12:03,2008-01-10,21:13:11
440501.44000000006,4420900.9,39458.7037962963,39458.7039583333,40.07043798113784,2008-01-11,16:53:28,2008-01-11,16:53:42
442839.8,4420862.15,39460.5839814815,39460.5840856481,22.91069619214294,2008-01-13,14:00:56,2008-01-13,14:01:05
440036.27499999997,4426992.0,39460.6503125,39460.6507175926,42.31784493581011,2008-01-13,15:36:27,2008-01-13,15:37:02
440828.4,4425823.9,39460.7496412037,39460.7496412037,0.0,2008-01-13,17:59:29,2008-01-13,17:59:29
440137.85000000003,4426822.875,39460.8560532407,39460.8566898148,49.900100199927415,2008-01-13,20:32:43,2008-01-13,20:33:38
442724.88571428566,4420933.842857143,39463.5682175926,39463.5685416667,25.000199999198518,2008-01-16,13:38:14,2008-01-16,13:38:42
440549.93333333335,4426749.566666666,39463.6543634259,39463.6544791667,10.31600697998939,2008-01-16,15:42:17,2008-01-16,15:42:27
444258.76000000007,4426115.26,39500.7022453704,39500.7024768519,14.499999999810525,2008-02-22,16:51:14,2008-02-22,16:51:34
440111.8,4420606.7,39500.795150463,39500.795150463,0.0,2008-02-22,19:05:01,2008-02-22,19:05:01
440107.80588235287,4426965.370588236,39502.6725115741,39502.7217939815,48.70657039884992,2008-02-24,16:08:25,2008-02-24,17:19:23
442438.80000000005,4426322.95,39502.7443518518,39502.7446412037,25.89401475295186,2008-02-24,17:51:52,2008-02-24,17:52:17
440084.4,4426934.6,39502.8677546296,39502.8677546296,0.0,2008-02-24,20:49:34,2008-02-24,20:49:34
444176.55555555556,4426237.766666666,39509.4129976852,39509.4134606481,49.67021240126634,2008-03-02,09:54:43,2008-03-02,09:55:23
440595.92000000004,4426183.88,39511.3255671296,39511.3284722222,20.169779374246716,2008-03-04,07:48:49,2008-03-04,07:53:00
442280.3,4429789.3,39511.7785763889,39511.7785763889,0.0,2008-03-04,18:41:09,2008-03-04,18:41:09
443979.2571428572,4426279.085714286,39514.3348148148,39514.335162037,18.496756472340646,2008-03-07,08:02:08,2008-03-07,08:02:38
439996.3,4420330.3,39519.7376388889,39519.7376388889,0.0,2008-03-12,17:42:12,2008-03-12,17:42:12
440613.60000000003,4426845.3,39520.4069560185,39520.4663425926,37.77088826078909,2008-03-13,09:46:01,2008-03-13,11:11:32
440872.1,4426633.9,39520.5200810185,39520.5200810185,0.0,2008-03-13,12:28:55,2008-03-13,12:28:55
440664.5272727273,4426842.627272728,39520.6014467593,39520.6019560185,47.53945729601885,2008-03-13,14:26:05,2008-03-13,14:26:49
442372.80000000005,4426195.875,39520.811087963,39520.8112037037,40.12605138790737,2008-03-13,19:27:58,2008-03-13,19:28:08
443949.0,4426324.125,39525.3398611111,39525.3399884259,29.651644136862842,2008-03-18,08:09:24,2008-03-18,08:09:35
440071.8,4426995.9,39531.633275463,39531.633275463,0.0,2008-03-24,15:11:55,2008-03-24,15:11:55
441078.2611111111,4418985.683333334,39535.4251967593,39535.4640972222,35.329874044444615,2008-03-28,10:12:17,2008-03-28,11:08:18
440096.0,4426881.1,39535.5540856481,39535.5541435185,6.135144659895097,2008-03-28,13:17:53,2008-03-28,13:17:58
439968.5,4419928.0,39535.7419212963,39535.7419212963,0.0,2008-03-28,17:48:22,2008-03-28,17:48:22
440912.68,4426708.66,39555.5313194444,39555.537037037,19.94492416635912,2008-04-17,12:45:06,2008-04-17,12:53:20
440073.84444444446,4427193.555555556,39555.7927430556,39555.8258217593,39.34069140197648,2008-04-17,19:01:33,2008-04-17,19:49:11
399323.9,4440903.8,39555.8424537037,39555.8424537037,0.0,2008-04-17,20:13:08,2008-04-17,20:13:08
440079.9375,4426949.75,39565.6863773148,39565.6867824074,21.780036731269547,2008-04-27,16:28:23,2008-04-27,16:28:58
440879.55,4426056.55,39565.7808217593,39565.7811111111,49.60090724963592,2008-04-27,18:44:23,2008-04-27,18:44:48
440054.0444444444,4426990.766666667,39565.885625,39565.8859606481,46.95465898077454,2008-04-27,21:15:18,2008-04-27,21:15:47
440060.39166666666,4420323.925,39569.9225578704,39569.9231944444,49.28539337362699,2008-05-01,22:08:29,2008-05-01,22:09:24
439990.5999999999,4420302.8,39572.4774537037,39572.4775115741,0.0,2008-05-04,11:27:32,2008-05-04,11:27:37
430549.3,4445592.7,39576.7960532407,39576.7960532407,0.0,2008-05-08,19:06:19,2008-05-08,19:06:19
440071.35625,4426984.981249999,39576.893900463,39577.5961342593,31.00983714881179,2008-05-08,21:27:13,2008-05-09,14:18:26
440001.9666666666,4420326.416666667,39577.6760416667,39577.6763310185,42.688171663672875,2008-05-09,16:13:30,2008-05-09,16:13:55
439944.7,4420256.6,39581.6636805556,39581.6636805556,0.0,2008-05-13,15:55:42,2008-05-13,15:55:42
442728.125,4424633.499999999,39587.8736458333,39587.8741087963,44.123576464288604,2008-05-19,20:58:03,2008-05-19,20:58:43
440074.9484848486,4426963.13030303,39587.9175694444,39588.2252083333,17.08478855590088,2008-05-19,22:01:18,2008-05-20,05:24:18
440092.98035714275,4426972.564285715,39588.2313657407,39588.3470601852,43.026735874346414,2008-05-20,05:33:10,2008-05-20,08:19:46
440545.675,4426864.325,39589.3924189815,39589.3927546296,37.066696642643954,2008-05-21,09:25:05,2008-05-21,09:25:34
440841.9,4426208.6,39589.5567592593,39589.5567592593,0.0,2008-05-21,13:21:44,2008-05-21,13:21:44
440049.5,4426996.449999999,39589.619212963,39589.6192476852,4.4553338820413515,2008-05-21,14:51:40,2008-05-21,14:51:43
440875.55999999994,4425817.380000001,39596.8007291667,39596.8014930556,29.735500668474423,2008-05-28,19:13:03,2008-05-28,19:14:09
440155.6285714285,4426462.257142858,39596.8592013889,39596.9218865741,49.518178480055255,2008-05-28,20:37:15,2008-05-28,22:07:31
440001.55000000005,4427009.533333333,39596.9638888889,39596.972349537,31.599050618858996,2008-05-28,23:08:00,2008-05-28,23:20:11
440807.6,4426134.2,39598.8175462963,39598.8175462963,0.0,2008-05-30,19:37:16,2008-05-30,19:37:16
440005.12,4426998.8,39598.8799305556,39598.8855439815,43.1872666419076,2008-05-30,21:07:06,2008-05-30,21:15:11
445415.0,4424258.45,39599.5602777778,39599.5603356481,4.085339643206414,2008-05-31,13:26:48,2008-05-31,13:26:53
439961.0,4420328.800000001,39599.7962847222,39599.7963425926,5.059644256085338,2008-05-31,19:06:39,2008-05-31,19:06:44
441399.8,4424610.5,39612.5624768519,39612.5628472222,44.675720475070676,2008-06-13,13:29:58,2008-06-13,13:30:30
441377.7,4416176.871428571,39640.8914814815,39640.8917708333,26.601691676089995,2008-07-11,21:23:44,2008-07-11,21:24:09
443238.0277777778,4420955.666666668,39666.5416087963,39666.6468055556,46.362161295567745,2008-08-06,12:59:55,2008-08-06,15:31:24
440029.0,4426984.069999999,39666.6835185185,39666.727650463,15.119854496584171,2008-08-06,16:24:16,2008-08-06,17:27:49
440032.0,4420255.15,39666.8272106481,39666.8272685185,2.2825424423719585,2008-08-06,19:51:11,2008-08-06,19:51:16
445946.76666666666,4417990.399999999,39667.4953935185,39667.4955092593,12.17538500418738,2008-08-07,11:53:22,2008-08-07,11:53:32
440024.86000000004,4420306.78,39667.781875,39667.7821064815,17.407182425677345,2008-08-07,18:45:54,2008-08-07,18:46:14
443321.85,4420867.65,39673.4258101852,39673.4909953704,14.20211251897471,2008-08-13,10:13:10,2008-08-13,11:47:02
440024.4846153846,4420258.461538461,39673.5187615741,39673.5194560185,49.540387564087546,2008-08-13,12:27:01,2008-08-13,12:28:01
455556.58809523797,4421800.690476189,39676.414224537,39676.4790509259,17.44534321828073,2008-08-16,09:56:29,2008-08-16,11:29:50
447470.32,4420555.32,39676.607662037,39676.6078935185,15.568236894072356,2008-08-16,14:35:02,2008-08-16,14:35:22
440095.1,4403974.1,39676.7173842593,39676.7173842593,0.0,2008-08-16,17:13:02,2008-08-16,17:13:02
443590.0,4422829.0,39682.4485416667,39682.4485416667,0.0,2008-08-22,10:45:54,2008-08-22,10:45:54
440947.9000000001,4425856.0,39682.6022337963,39682.6023263889,12.465151423014104,2008-08-22,14:27:13,2008-08-22,14:27:21
440878.8,4426014.08,39682.666724537,39682.7752083333,48.690245429653565,2008-08-22,16:00:05,2008-08-22,18:36:18
440097.5,4427110.8,39682.8009953704,39682.8009953704,0.0,2008-08-22,19:13:26,2008-08-22,19:13:26
440020.6166666667,4420308.433333334,39682.8807523148,39682.8810416667,31.470144582227093,2008-08-22,21:08:17,2008-08-22,21:08:42
440016.3,4426998.2,39683.4721875,39683.4721875,0.0,2008-08-23,11:19:57,2008-08-23,11:19:57
452812.6285714285,4420516.528571429,39683.5952546296,39683.6009837963,21.779348015822244,2008-08-23,14:17:10,2008-08-23,14:25:25
440050.02307692304,4426995.930769231,39683.9064814815,39684.6620023148,48.28457310552699,2008-08-23,21:45:20,2008-08-24,15:53:17
439067.9,4427640.3,39684.7393287037,39684.7393287037,0.0,2008-08-24,17:44:38,2008-08-24,17:44:38
443454.5,4425759.949999999,39684.8206365741,39684.8206712963,31.262277588129464,2008-08-24,19:41:43,2008-08-24,19:41:46
444650.0,4432778.2,39686.4557638889,39686.4557638889,0.0,2008-08-26,10:56:18,2008-08-26,10:56:18
440072.0,4426981.100000001,39686.5883449074,39686.5884027778,0.6708203929115306,2008-08-26,14:07:13,2008-08-26,14:07:18
430416.675,4425857.449999999,39687.5397685185,39687.5400462963,45.723079510662295,2008-08-27,12:57:16,2008-08-27,12:57:40
428752.4,4433158.6,39687.6726736111,39687.6726736111,0.0,2008-08-27,16:08:39,2008-08-27,16:08:39
440586.0833333333,4417762.833333333,39687.767349537,39687.7675578704,22.00772591613062,2008-08-27,18:24:59,2008-08-27,18:25:17
440411.5333333334,4417728.7,39687.8690972222,39687.9053935185,23.690715480646087,2008-08-27,20:51:30,2008-08-27,21:43:46
440040.32999999996,4420302.01,39687.9239930556,39687.9245138889,48.323286312076036,2008-08-27,22:10:33,2008-08-27,22:11:18
440089.2888888889,4426983.699999999,39688.4691666667,39688.4696296296,40.64246547639745,2008-08-28,11:15:36,2008-08-28,11:16:16
440904.9,4426039.85,39688.7970486111,39688.7972222222,17.409192973723123,2008-08-28,19:07:45,2008-08-28,19:08:00
436439.15,4425300.75,39688.9136805556,39688.9137152778,45.405946747057655,2008-08-28,21:55:42,2008-08-28,21:55:45
440107.7166666666,4426976.266666667,39691.9086689815,39691.9089583333,42.712644498413184,2008-08-31,21:48:29,2008-08-31,21:48:54
440588.33333333326,4426871.24,39692.406724537,39692.7400231481,48.48143974740399,2008-09-01,09:45:41,2008-09-01,17:45:38
440025.0,4426986.3,39692.7696527778,39692.7696527778,0.0,2008-09-01,18:28:18,2008-09-01,18:28:18
440496.5,4427679.5,39693.3961458333,39693.3962152778,42.843902715992876,2008-09-02,09:30:27,2008-09-02,09:30:33
443332.60000000003,4420865.433333334,39693.536412037,39693.5367013889,19.53586445482094,2008-09-02,12:52:26,2008-09-02,12:52:51
438835.6,4428423.45,39693.7199884259,39693.7200231481,3.505709628592285,2008-09-02,17:16:47,2008-09-02,17:16:50
440932.7444444445,4425473.611111111,39694.7439351852,39694.7444675926,48.66590182095793,2008-09-03,17:51:16,2008-09-03,17:52:02
440091.9,4426916.2,39694.8398958333,39694.8398958333,0.0,2008-09-03,20:09:27,2008-09-03,20:09:27
446212.4555555555,4416637.211111111,39694.9445486111,39694.9450115741,45.906426565289266,2008-09-03,22:40:09,2008-09-03,22:40:49
449623.26153846155,4417656.830769231,39695.7578587963,39695.7585300926,42.23091284825962,2008-09-04,18:11:19,2008-09-04,18:12:17
446225.06250000006,4416633.1625,39695.9817476852,39695.9848726852,7.792945527887791,2008-09-04,23:33:43,2008-09-04,23:38:13
440064.87142857147,4426989.114285714,39696.6459143519,39696.6462847222,33.58719994243989,2008-09-05,15:30:07,2008-09-05,15:30:39
440040.96666666673,4420352.433333334,39696.9027314815,39696.9118981481,8.579627031277507,2008-09-05,21:39:56,2008-09-05,21:53:08
440237.3,4425023.8,39697.45375,39697.45375,0.0,2008-09-06,10:53:24,2008-09-06,10:53:24
440340.2,4424729.1,39697.6270138889,39697.6270138889,0.0,2008-09-06,15:02:54,2008-09-06,15:02:54
443596.5,4425840.1,39697.7324652778,39697.7324652778,0.0,2008-09-06,17:34:45,2008-09-06,17:34:45
440026.1166666667,4420098.466666667,39697.7775462963,39697.7778356481,35.33864739906312,2008-09-06,18:39:40,2008-09-06,18:40:05
442210.59,4421064.68,39697.8508333333,39697.9074305556,46.651473717330816,2008-09-06,20:25:12,2008-09-06,21:46:42
439999.87142857147,4420331.114285715,39697.9220717593,39697.9224189815,36.96227806834235,2008-09-06,22:07:47,2008-09-06,22:08:17
440067.8142857143,4426974.742857142,39698.7097916667,39699.7653703704,40.72407150586446,2008-09-07,17:02:06,2008-09-08,18:22:08
440876.075,4426007.275,39699.7799305556,39699.7801157407,29.207190895023075,2008-09-08,18:43:06,2008-09-08,18:43:22
440074.5200000001,4426984.573333333,39699.9146643518,39701.519212963,34.39840112544624,2008-09-08,21:57:07,2008-09-10,12:27:40
440344.45333333325,4426513.753333333,39701.5362384259,39701.5916666667,34.06347016958582,2008-09-10,12:52:11,2008-09-10,14:12:00
445014.4,4426690.5,39701.6743055556,39701.6743055556,0.0,2008-09-10,16:11:00,2008-09-10,16:11:00
478191.6,4427750.7,39701.8978009259,39701.8978009259,0.0,2008-09-10,21:32:50,2008-09-10,21:32:50
440418.4444444445,4426549.4,39702.6642476852,39702.6781481481,10.701868995472196,2008-09-11,15:56:31,2008-09-11,16:16:32
435182.52857142856,4452391.678571428,39703.4170949074,39703.4324074074,38.863093032306374,2008-09-12,10:00:37,2008-09-12,10:22:40
435175.8500000001,4452393.274999999,39703.4762037037,39703.4767708333,27.197426348657547,2008-09-12,11:25:44,2008-09-12,11:26:33
434483.6,4438831.0,39703.5606712963,39703.5606712963,0.0,2008-09-12,13:27:22,2008-09-12,13:27:22
435653.7,4445307.4,39703.634849537,39703.634849537,0.0,2008-09-12,15:14:11,2008-09-12,15:14:11
441463.3,4425591.666666667,39704.4018634259,39704.4019791667,6.873136110791551,2008-09-13,09:38:41,2008-09-13,09:38:51
440056.1705882352,4426983.523529411,39704.5301041667,39704.5310300926,44.3708237469492,2008-09-13,12:43:21,2008-09-13,12:44:41
440037.69090909086,4420174.663636364,39704.6706712963,39704.67125,48.14145822432784,2008-09-13,16:05:46,2008-09-13,16:06:36
441831.83999999997,4419839.41,39704.7644907407,39704.764837963,49.83171680803998,2008-09-13,18:20:52,2008-09-13,18:21:22
443154.7,4421017.3,39704.865,39704.865,0.0,2008-09-13,20:45:36,2008-09-13,20:45:36
425944.93333333335,4398103.7,39705.4168634259,39705.4174768519,46.06712493730773,2008-09-14,10:00:17,2008-09-14,10:01:10
439873.025,4420216.175000001,39705.6435416667,39705.6437152778,22.731695933398466,2008-09-14,15:26:42,2008-09-14,15:26:57
440036.94615384616,4426992.761538462,39705.8250115741,39705.8257060185,47.99385377318882,2008-09-14,19:48:01,2008-09-14,19:49:01
447679.6,4428142.4,39706.5522569444,39706.5522569444,0.0,2008-09-15,13:15:15,2008-09-15,13:15:15
439949.0,4452078.8,39707.4491782407,39707.4491782407,0.0,2008-09-16,10:46:49,2008-09-16,10:46:49
440787.57999999996,4426175.26,39708.6645949074,39708.7051041667,25.68131616576815,2008-09-17,15:57:01,2008-09-17,16:55:21
438369.0,4435212.0,39708.7304050926,39708.7304050926,0.0,2008-09-17,17:31:47,2008-09-17,17:31:47
440812.05,4426792.542857142,39710.6530208333,39710.6537152778,42.50423508310721,2008-09-19,15:40:21,2008-09-19,15:41:21
439892.67894736846,4426986.9421052635,39710.9659027778,39711.0070138889,11.479111463777384,2008-09-19,23:10:54,2008-09-20,00:10:06
442398.82,4426384.88,39711.0387037037,39711.0393055556,40.41546733648363,2008-09-20,00:55:44,2008-09-20,00:56:36
444938.15,4419153.95,39711.3562384259,39711.356412037,31.463629797329407,2008-09-20,08:32:59,2008-09-20,08:33:14
444847.34374999994,4419075.68125,39711.520775463,39711.5432986111,36.44461551448314,2008-09-20,12:29:55,2008-09-20,13:02:21
440087.75999999995,4426934.1466666665,39711.7802314815,39712.4229976852,27.14148116775886,2008-09-20,18:43:32,2008-09-21,10:09:07
440677.6,4426848.8,39712.4324305556,39712.4324884259,6.896375859860091,2008-09-21,10:22:42,2008-09-21,10:22:47
440062.5619047618,4426975.090476192,39712.6858912037,39713.4072685185,48.71242141403175,2008-09-21,16:27:41,2008-09-22,09:46:28
440500.01111111115,4426849.566666666,39713.4122800926,39713.4127430556,44.95386523985352,2008-09-22,09:53:41,2008-09-22,09:54:21
440878.7,4425931.680000001,39713.7721990741,39713.7724305556,15.981239000884006,2008-09-22,18:31:58,2008-09-22,18:32:18
440802.49000000005,4426756.07,39714.4170949074,39714.5040972222,31.001451578991343,2008-09-23,10:00:37,2008-09-23,12:05:54
440154.51999999996,4426848.84,39714.5112962963,39714.512037037,17.042593698935168,2008-09-23,12:16:16,2008-09-23,12:17:20
440070.06666666665,4426988.791666667,39714.9352546296,39714.9413310185,40.50012345660104,2008-09-23,22:26:46,2008-09-23,22:35:31
440442.9,4426592.1,39715.4751851852,39715.4751851852,0.0,2008-09-24,11:24:16,2008-09-24,11:24:16
441587.0916666666,4422776.025,39715.7435763889,39715.7441435185,21.294130646719587,2008-09-24,17:50:45,2008-09-24,17:51:34
440105.3153846153,4427035.723076924,39715.8530555556,39715.85375,49.15811225052952,2008-09-24,20:28:24,2008-09-24,20:29:24
440056.1692307693,4426990.261538462,39716.4480208333,39716.5077546296,48.33156318591328,2008-09-25,10:45:09,2008-09-25,12:11:10
437909.1,4428264.0,39716.6986805556,39716.6986805556,0.0,2008-09-25,16:46:06,2008-09-25,16:46:06
441018.1,4425571.2,39716.8436458333,39716.8436458333,0.0,2008-09-25,20:14:51,2008-09-25,20:14:51
441478.02499999997,4431516.841666668,39716.948125,39716.9486458333,37.70676331850946,2008-09-25,22:45:18,2008-09-25,22:46:03
443074.10000000003,4423143.633333333,39719.6496064815,39719.6497106481,8.134494452356309,2008-09-28,15:35:26,2008-09-28,15:35:35
440112.0,4426750.222222221,39719.7248958333,39719.7253356481,27.937966998512724,2008-09-28,17:23:51,2008-09-28,17:24:29
441047.23333333334,4425615.166666667,39719.7965856481,39719.8059143518,5.307541804183664,2008-09-28,19:07:05,2008-09-28,19:20:31
440089.25,4426934.550000001,39719.9037731481,39720.7449305556,34.29475178454239,2008-09-28,21:41:26,2008-09-29,17:52:42
440087.1,4426958.4,39720.7632060185,39720.7632060185,0.0,2008-09-29,18:19:01,2008-09-29,18:19:01
440260.17500000005,4426656.825,39721.5496759259,39721.5498611111,21.24170426264502,2008-09-30,13:11:32,2008-09-30,13:11:48
444120.9,4421264.199999999,39721.7204166667,39721.720474537,28.17445651667957,2008-09-30,17:17:24,2008-09-30,17:17:29
443351.8722222223,4420782.899999999,39722.3610648148,39722.4830208333,47.82352977369739,2008-10-01,08:39:56,2008-10-01,11:35:33
440027.8333333334,4420237.955555555,39722.5052083333,39722.5056712963,47.61449359176177,2008-10-01,12:07:30,2008-10-01,12:08:10
447590.0,4425695.2,39722.8320601852,39722.8320601852,0.0,2008-10-01,19:58:10,2008-10-01,19:58:10
442228.8333333333,4420986.666666667,39722.9125694444,39722.9126388889,8.287943049962553,2008-10-01,21:54:06,2008-10-01,21:54:12
442179.8,4419502.8,39723.3336458333,39723.3336458333,0.0,2008-10-02,08:00:27,2008-10-02,08:00:27
439962.4,4420249.95,39723.5045833333,39723.5046180556,3.5735136768932265,2008-10-02,12:06:36,2008-10-02,12:06:39
447493.5,4423210.3,39723.6128819444,39723.6128819444,0.0,2008-10-02,14:42:33,2008-10-02,14:42:33
439948.6,4419924.324999999,39723.7727662037,39723.7731018519,30.17316688677998,2008-10-02,18:32:47,2008-10-02,18:33:16
440046.4,4420018.4,39724.38,39724.38,0.0,2008-10-03,09:07:12,2008-10-03,09:07:12
440013.9625,4420283.725,39724.4934953704,39724.6146296296,44.04327417475153,2008-10-03,11:50:38,2008-10-03,14:45:04
441883.7076923077,4414743.484615385,39724.6576041667,39724.7105208333,48.951915181994394,2008-10-03,15:46:57,2008-10-03,17:03:09
440036.41,4420178.409999999,39724.7700925926,39724.7706134259,45.90697114855513,2008-10-03,18:28:56,2008-10-03,18:29:41
440053.50769230764,4426988.261538462,39725.6049537037,39725.6052314815,49.26844832148599,2008-10-04,14:31:08,2008-10-04,14:31:32
440076.2414634145,4426957.114634148,39725.7258564815,39726.4683680556,31.470144581870116,2008-10-04,17:25:14,2008-10-05,11:14:27
449786.3875,4434482.3875,39726.5283796296,39726.5285416667,49.74836680790688,2008-10-05,12:40:52,2008-10-05,12:41:06
440026.94999999995,4427003.835294116,39726.7809837963,39726.7817476852,49.51413939467619,2008-10-05,18:44:37,2008-10-05,18:45:43
440170.1166666667,4425922.600000001,39729.4559027778,39729.4560185185,24.858197843148975,2008-10-08,10:56:30,2008-10-08,10:56:40
439998.43333333335,4426981.9,39729.5060300926,39729.5063773148,48.70492788222285,2008-10-08,12:08:41,2008-10-08,12:09:11
439430.25,4426870.65,39729.8298726852,39729.8298958333,26.16906570737024,2008-10-08,19:55:01,2008-10-08,19:55:03
442746.1109589041,4420927.5246575335,39730.5400347222,39730.5763194444,48.808298474731956,2008-10-09,12:57:39,2008-10-09,13:49:54
443287.8212121212,4420927.463636364,39730.5814814815,39730.5822222222,23.690715481455907,2008-10-09,13:57:20,2008-10-09,13:58:24
440110.85333333333,4427151.140000001,39730.6564930556,39730.6569097222,24.11327435214939,2008-10-09,15:45:21,2008-10-09,15:45:57
439714.16842105263,4421812.463157895,39731.769849537,39731.7709837963,20.324615617532814,2008-10-10,18:28:35,2008-10-10,18:30:13
440040.625,4420293.966666667,39731.862337963,39731.8625925926,39.600252524268015,2008-10-10,20:41:46,2008-10-10,20:42:08
440004.9736842105,4420326.221052632,39732.3758217593,39732.3762847222,48.59629615498446,2008-10-11,09:01:11,2008-10-11,09:01:51
440239.72173913044,4425058.073913044,39732.4644560185,39732.4649884259,49.230275238359894,2008-10-11,11:08:49,2008-10-11,11:09:35
449137.0512820513,4436041.517948719,39732.641087963,39732.6419791667,44.44007200722768,2008-10-11,15:23:10,2008-10-11,15:24:27
442655.4,4424269.6,39733.6719212963,39733.6719444444,44.99111023284727,2008-10-12,16:07:34,2008-10-12,16:07:36
