403995.8914893614,3479377.323404255,39722.2987847222,39722.3006944444,39.08068576667206,2008-10-01,07:10:15,2008-10-01,07:13:00
293895.5,3357680.0,39722.4317361111,39722.4317592593,37.82274447989407,2008-10-01,10:21:42,2008-10-01,10:21:44
316442.87419354834,3281819.974193548,39722.5335763889,39722.5339699074,49.23921201651708,2008-10-01,12:48:21,2008-10-01,12:48:55
312907.05087719293,3278893.2912280685,39722.9739930556,39722.9747106481,49.96168531958783,2008-10-01,23:22:33,2008-10-01,23:23:35
487913.26666666666,4108869.6666666665,39723.8647453704,39723.8647685185,39.21275302727539,2008-10-02,20:45:14,2008-10-02,20:45:16
690575.7,4070905.466666667,39724.0066203704,39724.0066782407,49.25768975491842,2008-10-03,00:09:32,2008-10-03,00:09:37
751833.0199999999,4055425.9279999994,39724.073287037,39724.073912037,49.684705896370076,2008-10-03,01:45:32,2008-10-03,01:46:26
234735.63798449616,4046271.2620155,39724.2309490741,39724.2350578704,47.2347329831914,2008-10-03,05:32:34,2008-10-03,05:38:29
236344.46666666667,4046089.5666666664,39724.3219907407,39724.3220138889,48.035091339562506,2008-10-03,07:43:40,2008-10-03,07:43:42
451091.8,4422692.266666667,39724.4661921296,39724.4662268519,43.2074067726365,2008-10-03,11:11:19,2008-10-03,11:11:22
456046.3,4409926.7,39724.5795486111,39724.5795486111,0.0,2008-10-03,13:54:33,2008-10-03,13:54:33
236367.36666666667,4046087.6999999997,39724.6553125,39724.6553356481,43.65707273743143,2008-10-03,15:43:39,2008-10-03,15:43:41
451091.8,4422692.266666667,39724.799525463,39724.7995601852,43.2074067726365,2008-10-03,19:11:19,2008-10-03,19:11:22
518688.53913043486,4331931.319565217,39724.9446296296,39724.9452083333,49.36172606345605,2008-10-03,22:40:16,2008-10-03,22:41:06
442479.05945945944,4427084.859459459,39727.0638888889,39727.0643518518,49.206503635376386,2008-10-06,01:32:00,2008-10-06,01:32:40
518858.82105263154,4331927.4842105275,39727.5440046296,39727.5442361111,49.5846750517026,2008-10-06,13:03:22,2008-10-06,13:03:42
442620.09714285715,4426993.259999999,39728.0465972222,39728.047037037,49.33406530999227,2008-10-07,01:07:06,2008-10-07,01:07:44
