440678.6141226819,4424810.397717541,39567.2707175926,39567.2978125,2.4596747745989873,2008-04-29,06:29:50,2008-04-29,07:08:51
440707.95862068963,4424805.655172414,39567.3630092593,39568.3626851852,46.0179312871691,2008-04-29,08:42:44,2008-04-30,08:42:16
440647.93750000006,4424825.337499999,39568.5229513889,39568.5233564815,42.91677993515409,2008-04-30,12:33:03,2008-04-30,12:33:38
440917.84318181814,4424560.159090909,39578.1946990741,39578.2088773148,23.888281645489883,2008-05-10,04:40:22,2008-05-10,05:00:47
440973.13636363635,4424590.463636365,39585.4463657407,39585.4468865741,32.52967875645283,2008-05-17,10:42:46,2008-05-17,10:43:31
440686.33749999997,4424797.770833333,39585.6695023148,39585.6707175926,11.486513831587066,2008-05-17,16:04:05,2008-05-17,16:05:50
438155.89255319146,4427643.386170212,39592.0809837963,39592.0899537037,30.479501308256342,2008-05-24,01:56:37,2008-05-24,02:09:32
437441.84647887334,4427859.845070424,39592.1407638889,39592.276099537,48.11496648669624,2008-05-24,03:22:42,2008-05-24,06:37:35
438058.63360000076,4427316.7416,39592.3941666667,39592.4525,49.985998040006926,2008-05-24,09:27:36,2008-05-24,10:51:36
441077.5346938777,4424652.714285715,39592.5161574074,39592.5188194444,45.163702239774096,2008-05-24,12:23:16,2008-05-24,12:27:06
440668.75999999995,4424807.573333333,39592.593587963,39592.5950115741,48.41621629166983,2008-05-24,14:14:46,2008-05-24,14:16:49
441647.19999999995,4426778.4,39632.1915277778,39632.1915856482,5.314132102230626,2008-07-03,04:35:48,2008-07-03,04:35:53
