443876.1324468082,4424341.653723398,39949.3178935185,39949.3686805556,43.04648649983812,2009-05-16,07:37:46,2009-05-16,08:50:54
443018.55416666664,4424550.004166667,39949.4405439815,39949.4434143519,18.82153022471871,2009-05-16,10:34:23,2009-05-16,10:38:31
448849.9140625,4433725.712499999,39949.5776851852,39949.5815277778,11.539497389422309,2009-05-16,13:51:52,2009-05-16,13:57:24
448788.9,4433269.225,39954.6206365741,39954.6206944444,44.91380634071235,2009-05-21,14:53:43,2009-05-21,14:53:48
442869.4933333333,4425245.002222223,39954.9950347222,39960.2944791667,37.475992315149824,2009-05-21,23:52:51,2009-05-27,07:04:03
458562.9250000001,4427324.34,39960.3273958333,39960.3283912037,25.500784301664225,2009-05-27,07:51:27,2009-05-27,07:52:53
458529.41815642454,4427336.874999996,39960.4402430556,39960.5304166667,47.53283075993829,2009-05-27,10:33:57,2009-05-27,12:43:48
448874.2142857144,4433726.485714286,39960.5747800926,39960.5776851852,22.408926792671714,2009-05-27,13:47:41,2009-05-27,13:51:52
448887.3692307692,4433724.588461539,39964.5962962963,39964.5976388889,32.912003888804314,2009-05-31,14:18:40,2009-05-31,14:20:36
442882.06153846154,4425267.792307692,39965.0547106481,39965.0553125,40.90110022972234,2009-06-01,01:18:47,2009-06-01,01:19:39
449149.15,4433502.75,39965.5983796296,39965.5983912037,46.197186061146546,2009-06-01,14:21:40,2009-06-01,14:21:41
448615.0,4434072.2,39966.6733217593,39966.6733217593,0.0,2009-06-02,16:09:35,2009-06-02,16:09:35
448926.45,4433759.6,39972.5799884259,39972.58,31.950743340348357,2009-06-08,13:55:11,2009-06-08,13:55:12
442847.525,4425298.325,39973.0541087963,39973.054224537,1.6401219465380348,2009-06-09,01:17:55,2009-06-09,01:18:05
442915.12647058803,4425246.729411765,39986.0716087963,39986.5515856481,47.75615143617669,2009-06-22,01:43:07,2009-06-22,13:14:17
443129.32068965514,4425205.086206896,39986.5531597222,39986.5545833333,24.59308845961142,2009-06-22,13:16:33,2009-06-22,13:18:36
448845.748,4433756.916,39986.6020023148,39986.6032060185,5.546169849554894,2009-06-22,14:26:53,2009-06-22,14:28:37
442880.5363636364,4425248.2727272725,39987.0631828704,39987.0637615741,42.41898160005453,2009-06-23,01:30:59,2009-06-23,01:31:49
443144.9333333333,4425243.907407408,40003.5461574074,40003.5475462963,47.005212476915965,2009-07-09,13:06:28,2009-07-09,13:08:28
451564.9352941177,4411813.3,40003.5927314815,40003.5935763889,33.95114136512121,2009-07-09,14:13:32,2009-07-09,14:14:45
450119.4222222221,4412010.95,40004.0041319444,40004.005,41.94865909690099,2009-07-10,00:05:57,2009-07-10,00:07:12
442856.93636363634,4425260.218181818,40004.4263078704,40004.4274652778,13.88416364037932,2009-07-10,10:13:53,2009-07-10,10:15:33
443095.1384615385,4425184.061538461,40004.5470717593,40004.5477662037,44.79028912617626,2009-07-10,13:07:47,2009-07-10,13:08:47
451575.7461538461,4411854.623076922,40004.6003935185,40004.6010416667,47.031266196000274,2009-07-10,14:24:34,2009-07-10,14:25:30
452882.4857142857,4420485.971428571,40005.1184953704,40005.1325231481,28.462255707686282,2009-07-11,02:50:38,2009-07-11,03:10:50
451571.6071428571,4411814.771428571,40005.2867708333,40005.2875231481,44.781469381899996,2009-07-11,06:52:57,2009-07-11,06:54:02
451553.98888888885,4411792.01111111,40007.4555902778,40007.4560416667,44.48865023785607,2009-07-13,10:56:03,2009-07-13,10:56:42
451570.50769230776,4411842.076923077,40008.4335069444,40008.4341666667,46.66411897808506,2009-07-14,10:24:15,2009-07-14,10:25:12
443136.408,4425188.816,40010.5550115741,40010.5562847222,47.235579810294645,2009-07-16,13:19:13,2009-07-16,13:21:03
451578.805,4411806.1049999995,40010.6072106481,40010.6080439815,38.95959445334387,2009-07-16,14:34:23,2009-07-16,14:35:35
444675.625,4418352.5666666655,40011.060625,40011.0610300926,19.184629263816422,2009-07-17,01:27:18,2009-07-17,01:27:53
451558.48620689666,4411847.327586207,40013.1441203704,40013.1461805556,40.249472045889824,2009-07-19,03:27:32,2009-07-19,03:30:30
443125.6210526315,4425168.342105263,40014.5180671296,40014.5191087963,45.91089195387774,2009-07-20,12:26:01,2009-07-20,12:27:31
451585.6699999999,4411830.339999999,40014.5625694444,40014.562974537,26.94011878202309,2009-07-20,13:30:06,2009-07-20,13:30:41
451623.61428571434,4411782.757142858,40015.4395601852,40015.4398611111,42.537630398963096,2009-07-21,10:32:58,2009-07-21,10:33:24
449738.112,4418110.183999999,40016.4717708333,40016.4784259259,15.880806025498554,2009-07-22,11:19:21,2009-07-22,11:28:56
451558.55263157893,4411787.926315791,40016.5537962963,40016.5547800926,43.85111173103931,2009-07-22,13:17:28,2009-07-22,13:18:53
451552.8142857142,4411788.090476192,40017.3696180556,40017.3706712963,39.896365749617246,2009-07-23,08:52:15,2009-07-23,08:53:46
450120.90588235296,4412012.552941177,40018.0067013889,40018.0075115741,34.544464100369446,2009-07-24,00:09:39,2009-07-24,00:10:49
449650.63333333336,4416427.133333333,40020.119375,40020.1193981481,26.32869157421124,2009-07-26,02:51:54,2009-07-26,02:51:56
453689.73333333334,4425254.766666667,40020.2466782407,40020.2473148148,47.03381762136461,2009-07-26,05:55:13,2009-07-26,05:56:08
448852.47346938774,4433750.234693876,40020.4227430556,40020.4279861111,18.613167382242995,2009-07-26,10:08:45,2009-07-26,10:16:18
443231.4375000002,4425316.2625,40021.5507407407,40021.5519560185,48.08378104970309,2009-07-27,13:13:04,2009-07-27,13:14:49
451559.7,4411821.858333333,40021.6000347222,40021.6006597222,45.09600869271108,2009-07-27,14:24:03,2009-07-27,14:24:57
451554.0200000001,4411773.28,40022.4481134259,40022.448900463,42.85907138502366,2009-07-28,10:45:17,2009-07-28,10:46:25
450120.1421052632,4412017.305263158,40023.0030208333,40023.0039467593,42.58368232104646,2009-07-29,00:04:21,2009-07-29,00:05:41
451564.88823529414,4411809.805882353,40023.4586342593,40023.4595023148,38.78569323870527,2009-07-29,11:00:26,2009-07-29,11:01:41
444670.0142857143,4418332.614285715,40024.0375925926,40024.0377199074,33.81966883377906,2009-07-30,00:54:08,2009-07-30,00:54:19
444672.84,4417630.42,40024.3964814815,40024.3966203704,43.517812445692705,2009-07-30,09:30:56,2009-07-30,09:31:08
451535.75999999995,4411778.960000001,40024.5902893519,40024.5906944444,49.91963541494414,2009-07-30,14:10:01,2009-07-30,14:10:36
444556.2,4418434.7,40025.0348726852,40025.0348726852,0.0,2009-07-31,00:50:13,2009-07-31,00:50:13
451564.84117647057,4411770.923529411,40025.4354861111,40025.4363425926,29.730960293265497,2009-07-31,10:27:06,2009-07-31,10:28:20
449252.65867768595,4435274.190495867,40026.1904861111,40026.2210300926,37.53957911361035,2009-08-01,04:34:18,2009-08-01,05:18:17
444668.8000000001,4418347.499999999,40028.0298611111,40028.0300115741,35.16887828736512,2009-08-03,00:43:00,2009-08-03,00:43:13
444764.36874999997,4418435.8875,40028.2136689815,40028.2141782407,29.339393313240315,2009-08-03,05:07:41,2009-08-03,05:08:25
446009.5588235294,4417091.129411764,40028.4123032407,40028.4131134259,46.95210325427392,2009-08-03,09:53:43,2009-08-03,09:54:53
451561.5177777778,4411780.4088888895,40028.522037037,40028.9843171296,47.11061451523733,2009-08-03,12:31:44,2009-08-03,23:37:25
444697.55000000005,4418393.8,40029.0157638889,40029.015775463,35.12620104686175,2009-08-04,00:22:42,2009-08-04,00:22:43
449605.2914081146,4417861.81527446,40029.4432175926,40029.4927546296,41.15786680520671,2009-08-04,10:38:14,2009-08-04,11:49:34
451570.8538461538,4411780.569230769,40029.5560648148,40029.5566782407,27.650858938201903,2009-08-04,13:20:44,2009-08-04,13:21:37
444610.3,4418448.3,40030.0347337963,40030.0347337963,0.0,2009-08-05,00:50:01,2009-08-05,00:50:01
