376555.0118518519,1484312.2370370373,40538.7396064815,40538.7912384259,46.739811724037345,-1
375579.9333333333,1478155.7999999998,40538.9016319444,40538.901724537,29.13434399458327,-1
375551.09974683536,1478107.9508860754,40539.5929513889,40539.6473842593,23.892467432038828,-1
376766.31741071446,1478644.6397321427,40539.7811111111,40539.8071527778,10.846658471581323,-1
377006.7565217391,1483049.639130435,40540.2933796296,40540.3289467593,49.34055127378263,-1
376372.42603648413,1482892.5940298513,40540.5777777778,40540.6362962963,47.79142182437705,-1