441907.4914285714,4429018.451428572,39826.127962963,39826.1291203704,38.658763559578894,-1
442116.4076923076,4429231.499999999,39826.199837963,39826.2003472222,47.40938725629499,-1
442599.6275510205,4427979.583673468,39826.2586458333,39826.2625,33.508954027388896,202
442613.5555555556,4427987.277777777,39826.5184027778,39826.5186111111,47.43680006071236,202
442062.52,4429122.24,39826.6817476852,39826.6817939815,41.02499238286871,-1
442579.2947368421,4427960.5947368415,39827.0462037037,39827.0468865741,40.67738929692325,202
442448.22,4428650.179999999,39827.1659027778,39827.1664583333,37.74042925093924,203
442540.79090909084,4428068.686363636,39827.2617361111,39827.2749189815,44.69999999925494,202
442587.09189189185,4427958.137837838,39827.3559606481,39827.3575925926,40.335096380097426,202
442571.27999999997,4427965.253333334,39827.4364351852,39827.4369444444,41.03949317421503,202
442132.6666666666,4429147.955555556,39827.6882060185,39828.0357175926,47.624048547095285,204
441797.37857142853,4427649.9428571435,39828.0765509259,39828.077037037,47.24743379295425,-1
442574.8266666667,4427969.08,39828.1172106481,39828.1176967593,40.77070026379238,202
442576.66129032266,4427963.738709679,39828.1885648148,39828.3597453704,47.732274196486614,202
442556.13749999984,4427955.0175,39828.3737268519,39828.4268055556,48.911450602058764,202
442579.6517857144,4427945.271428572,39828.4594907407,39828.6153472222,47.245105566600074,202
440290.19090909086,4425036.627272728,39828.6540162037,39828.6543634259,46.59291791685799,-1
442128.61199999996,4429173.075999999,39828.9335648148,39829.161412037,44.723595562276905,204
442459.89999999997,4428668.925000001,39829.1640856481,39829.223587963,42.21468938670001,203
442582.0046511628,4427937.974418607,39829.3204282407,39829.4012037037,49.46129800209387,202
442572.03125000006,4427952.475000001,39829.4433333333,39829.4439467593,47.720540650751225,202
442144.81250000006,4429170.89375,39829.6761689815,39829.6767476852,28.908822182493633,204
433516.4652777776,4452747.480555557,39830.1969560185,39830.1999189815,42.60575078533361,-1
436343.8214285714,4452386.492857142,39830.2894328704,39830.2900347222,44.709059484497104,-1
435198.474074074,4452395.84074074,39830.3832986111,39830.3844907407,46.35871007623494,-1
483081.07857142854,4422501.110714286,39830.582974537,39830.5843634259,36.843588315821826,205
483076.83928571444,4422477.299999999,39831.1384143519,39831.3586574074,49.514543318100266,205
442573.08947368426,4427951.110526316,39831.4976388889,39831.6552430556,47.5413504224185,202
442129.70999999996,4429303.5600000005,39831.6604050926,39831.6606944444,34.99857139977945,-1
442580.1625,4427955.2625,39832.0058796296,39832.0060300926,41.300121064916546,202
442277.4666666666,4429245.933333333,39832.5418287037,39832.5418634259,22.053117693445508,-1
442455.1148148148,4428651.029629629,39833.1672569444,39833.1684490741,44.4991011145686,203
442580.1048780487,4427966.268292682,39833.3058101852,39833.3801736111,46.43899223727826,202
442548.12857142853,4427963.571428572,39833.3892592593,39833.3893287037,46.38458795745292,202
442590.06875,4427941.984374999,39833.5270486111,39833.6508101852,45.592652917068555,202
442136.9312499999,4428949.768749999,39833.655,39833.655625,45.85040894007568,-1
442559.74705882353,4427969.6,39834.120787037,39834.121400463,40.365579396290165,202
442575.10000000003,4427974.7894736845,39834.3079976852,39834.3085763889,48.96243458007135,202
440950.56333333335,4423505.166666667,39834.4422569444,39834.4572106482,37.416841128321344,-1
441156.4714285714,4423284.057142857,39834.5075925926,39834.5076736111,42.10011876465392,-1
442501.4166666667,4428052.483333333,39834.6175462963,39834.6176041667,43.382023926967726,-1
442097.24375,4429117.45625,39834.6715277778,39834.6721064815,47.731855191429766,-1
443414.4516129032,4420638.29032258,39835.1000347222,39835.1011574074,32.51245915031144,-1
442571.2764705882,4428030.564705882,39835.3033217593,39835.3037037037,47.78033068125011,202
442605.825,4427878.975,39835.4378125,39835.4378472222,42.91072127085088,-1
441523.442857143,4429069.785714285,39835.6781481481,39835.6791550926,40.82560471095605,206
443099.2736842106,4425205.984210527,39836.0588541667,39836.0596296296,46.314684496760414,207
454420.94000000006,4417754.08,39836.0988310185,39836.098900463,26.069330639663313,-1
483062.70625,4421915.475,39836.1821759259,39836.2471759259,49.44259297415445,-1
483146.67083333334,4422417.45,39836.2510532407,39836.2517013889,27.931523410348234,-1
483096.96153846156,4422440.569230769,39836.3096643519,39836.3100462963,48.66466890876789,205
482758.9198067629,4422076.294685988,39836.4021527778,39836.425787037,38.4338392564206,208
483062.794871795,4422451.115384615,39836.4891550926,39837.0426157407,44.80357128609702,205
422773.0338345867,4315524.827067668,39837.2508101852,39837.2942476852,47.33592715898615,-1
423836.81612903223,4313634.070967742,39837.3060532407,39837.3074652778,19.1387042403383,-1
423806.0437500001,4313632.2854166655,39838.1281018518,39838.9006712963,27.99571395768189,209
423805.0547619049,4313619.430952381,39839.0712962963,39839.0731597222,32.76858251417912,209
422088.0086378736,4314869.612292355,39839.3037731481,39839.3308101852,37.47866059551373,-1
423806.14999999997,4313620.56875,39839.3596643518,39839.3602430556,43.7155578711222,209
423795.77142857143,4313616.989285714,39840.4846759259,39840.4858680556,29.18304302158129,209
423819.08999999997,4313624.130000001,39840.9401388889,39840.9404282407,44.432645656386505,209
423811.26878980896,4313625.664968155,39842.3444675926,39843.0883101852,44.05053915702599,209
424977.97703180194,4315283.431448764,39843.1018287037,39843.1425347222,48.24572519922939,-1
424916.65592592605,4315283.333333334,39843.1425925926,39843.2176388889,40.749233121770075,-1
424919.98654970754,4315287.945029239,39843.219212963,39843.2896990741,46.28714724478148,-1
423806.7125628142,4313633.593467338,39843.3034143519,39843.3399884259,43.71647286844748,209
423806.42000000004,4313596.22,39843.3400231482,39843.3401157407,11.774548823694461,-1
483068.1612903226,4422495.622580646,39844.2235416667,39844.4199305556,46.582078098763915,205
482769.0517857144,4422079.558928573,39844.4660532407,39844.4750115741,32.00390601144901,208
483070.6566666667,4422478.613333332,39844.5312962963,39844.5325810185,43.70594925228302,205
442568.49999999994,4427962.920408162,39845.1076157407,39845.1619907407,47.855302736544814,202
442572.99710144935,4427995.192753624,39845.1807638889,39845.4105092593,49.53079849966824,202
442588.77999999997,4428102.9799999995,39845.5201967593,39845.5202430556,23.58495283056625,202
441539.9397590361,4429043.590361444,39845.7321643519,39845.7358796296,44.31997292401051,206
442529.2428571429,4428000.435714286,39846.061712963,39846.0619791667,47.24923279801427,202
441538.6461538461,4429109.120879119,39846.2201157407,39846.2263541667,39.30928643416261,206
483065.72586206894,4422485.951724138,39846.4275810185,39846.4302083333,27.608875384557045,205
482760.37023809564,4422109.982142857,39847.0287615741,39847.035,41.24621194739104,-1
483051.8492957748,4422495.922535212,39847.2130787037,39847.4158449074,49.05231900668777,205
483066.4499999999,4422458.377083332,39847.4307986111,39847.4859953704,47.54639839146496,205
482764.25808080815,4422085.781313132,39847.4951157407,39847.5143287037,39.003717771508406,208
484080.0,4423833.15,39847.5818634259,39847.581875,36.312669965611235,-1
483058.49459459464,4422460.156756757,39848.0222106481,39848.0236805556,10.469001863013329,205
483064.79117647064,4422482.388235293,39848.1918055556,39848.1934490741,40.5172802646643,205
483067.86406250007,4422474.6765625,39848.3034606481,39848.4637615741,48.8082984745613,205
482767.1562962965,4422078.248518518,39848.5266550926,39848.5737731481,49.81214711290832,208
483123.81764705887,4422460.535294118,39848.5804513889,39848.5811111111,15.72577502034295,-1
483060.5770833334,4422452.779166666,39849.0220833333,39849.0240509259,12.126417443078362,205
483068.09487179486,4422480.179487179,39849.3068518518,39849.3085648148,13.623509092765048,205
442546.0857142857,4428000.357142857,39849.5157175926,39849.5158564815,44.83570006162604,202
441483.5181818182,4429139.218181819,39849.6430324074,39849.6431944444,9.208691546243324,-1
442548.9,4427868.45,39850.0529513889,39850.0529861111,38.40677023725061,-1
441522.46111111104,4429051.777777779,39850.1881018518,39850.1886342593,29.347061181986636,206
442479.575,4427834.525,39850.2617939815,39850.2619212963,33.894099781512274,-1
442572.6204081633,4427983.736734695,39850.4277893519,39850.477025463,47.95424903003845,202
441567.3428571428,4429026.657142857,39850.5651273148,39850.5703356481,27.823910581150322,-1
444516.8441176471,4414327.591176471,39851.0766435185,39851.0778587963,45.27615266359123,-1
442538.5833333333,4428020.95,39851.2546875,39851.2550925926,5.560575510029343,202
441537.938235294,4429099.5029411735,39851.3236458333,39851.4159143518,46.100976128656654,206
442581.0467741935,4427986.379032257,39851.4237615741,39851.5957986111,44.69955257052442,202
441577.0,4429121.022222222,39851.6057175926,39851.6058449074,46.180623642750604,-1
442539.155882353,4428007.9735294115,39852.1001041667,39852.1009953704,46.396767128739754,202
442243.575,4427987.775,39852.2800115741,39852.2800462963,45.87951612648001,-1
442548.26666666666,4428032.833333333,39852.4256712963,39852.4257523148,6.037383539301494,202
441529.0028985507,4429071.514492756,39852.6997800926,39852.7025578704,30.00599940012067,206
442559.87999999983,4427934.513333334,39853.0642939815,39853.1062731481,46.8167704994824,202
442016.6666666667,4427923.500000001,39853.1303703704,39853.1303935185,25.982494106499868,-1
441580.62857142865,4429047.164285715,39853.2030439815,39853.2437731481,17.424408168034244,-1
442585.04285714286,4427952.442857143,39853.2507291667,39853.4067361111,45.16248443132321,202
442559.89333333325,4428021.9,39853.4290625,39853.429537037,45.12704289032714,202
441533.094936709,4429085.74556962,39853.6873726852,39854.0363194444,46.26035019347027,206
442574.16666666674,4427891.233333333,39854.0523842593,39854.0530324074,35.19232870953555,210
442456.2428571428,4428687.259183674,39854.161412037,39854.2222337963,48.99387716816076,203
442590.2111111111,4428003.566666666,39854.2694097222,39854.4094444444,43.008487534619576,202
442577.90000000014,4428045.090909093,39854.4320023148,39854.4322569444,43.593233420252524,202
441542.99253731343,4429071.917910446,39854.713912037,39854.7171412037,32.181050324845806,206
442571.96969696967,4428002.266666667,39855.0598032407,39855.1644097222,49.6726282771985,202
442585.6888888888,4427864.144444445,39855.1897222222,39855.1898726852,38.1536367863745,210
442586.1195652176,4427975.376086956,39855.4374421296,39855.7441666667,49.487473162105616,202
441538.08571428584,4429080.753246753,39855.7518981481,39856.0352430556,45.77390086064329,206
442569.8571428573,4427956.842857143,39856.0492939815,39856.0505787037,48.990203101641626,202
442536.1777777777,4428017.3444444435,39856.2006828704,39856.2016666667,20.314772949760453,202
441485.38,4429254.4,39856.7439236111,39856.7439699074,49.09358410162844,-1
442546.62857142853,4427913.0,39857.0593634259,39857.0594675926,45.57477372370754,202
442449.8471698114,4428679.594339624,39857.16375,39857.2239930556,48.0891879738025,203
441965.21600000025,4426315.597999999,39857.2909375,39857.2931365741,46.154198075612484,-1
442585.81000000006,4427975.711999999,39857.447974537,39857.4856134259,46.14336355372808,202
442616.85,4428054.65,39857.5425115741,39857.5425231481,19.21509823039375,202
441569.35454545455,4429065.545454546,39857.6308912037,39858.1054513889,47.92514997339546,206
438657.35,4423207.574999999,39858.2647106481,39858.3353240741,39.86477141549143,-1
442571.044,4427939.112,39858.5548842593,39858.6142939815,1.6763054610684496,202
441539.0972602739,4429078.431506849,39858.6211458333,39859.0955439815,46.6099774726507,206
442477.5333333334,4427855.100000001,39859.2569560185,39859.2569791667,39.912905180970895,-1
442559.5755102041,4427999.310204081,39859.423287037,39859.7069212963,44.618493923467746,202
441529.3972972972,4429086.532432433,39859.714212963,39860.0221296296,47.37013827249842,206
442579.46874999994,4427950.71875,39860.0331481481,39860.0346180556,45.46878049798808,202
442456.4369565217,4428661.543478261,39860.1653935185,39860.2234490741,49.50252518848521,203
442586.03888888884,4427984.833333333,39860.2662615741,39860.4071643518,49.28823389019447,202
442564.17391304346,4427969.391304347,39860.4283333333,39860.7271296296,37.171090917395354,202
441550.20909090905,4429152.899999999,39860.7375115741,39860.7377430556,44.99288832693938,-1
442567.77999999997,4428042.380000001,39861.0791087963,39861.0794444444,41.448039760459295,202
442544.82857142854,4428069.385714286,39861.181099537,39861.1814351852,41.66353321607165,202
442569.1794117649,4427985.405882352,39861.4351851852,39861.4367824074,37.729829048155096,202
441562.7752000001,4429068.184800001,39861.6281134259,39862.0501967593,49.78754864414457,206
442572.9538461538,4428000.328205128,39862.0657291667,39862.1524305556,48.70164268218202,202
442592.9153846155,4427976.692307692,39862.3015972222,39862.3021412037,41.03120763516382,202
442596.59310344816,4427973.24137931,39862.4708912037,39862.6055324074,47.53956247171375,202
441533.4616666667,4429091.836666667,39862.6153703704,39863.0111574074,28.296289509307773,206
442533.5,4427805.066666666,39863.0217361111,39863.0217592593,36.30385654481312,-1
442514.74999999994,4427749.15,39863.1230324074,39863.1230671296,49.405364081243974,-1
442373.80000000005,4428635.887499999,39863.1693171296,39863.1694907407,46.72986197270878,-1
442571.8363636363,4427966.572727272,39863.2396180556,39863.2398726852,48.8701340288777,202
442542.9666666666,4428059.5,39863.4276388889,39863.4277314815,43.26950427263987,202
441548.96666666656,4429052.133333334,39863.7546875,39863.7551041667,43.30288673976653,206
442592.15,4427870.975,39864.0397222222,39864.0397569444,42.904195598472974,210
442567.39999999997,4428051.683333334,39864.1900231481,39864.1901736111,32.76736180975936,202
448768.75555555546,4418395.247222223,39864.4465046296,39864.4577199074,47.78807382604232,-1
442577.1312500001,4428006.875,39864.6074884259,39864.7063194444,49.55007568144002,202
441530.8511904764,4429083.148809524,39864.7133333333,39864.978287037,46.09088847014957,206
442583.5307692308,4428019.165384615,39864.9912962963,39865.1300115741,47.46546112654059,202
439754.11722488026,4401659.198325362,39865.2568055556,39865.2951736111,49.92894951773241,-1
442574.34523809544,4427967.028571429,39865.4529050926,39865.454375,21.080085388394252,202
442507.0136363635,4427940.572727273,39866.079224537,39866.0796064815,19.45096398629546,-1
442426.75,4428628.675,39866.2537384259,39866.2538773148,48.65408513124698,-1
442570.69375,4427961.396875001,39866.3170949074,39866.42625,44.82019633977984,202
442576.71086956543,4427965.10652174,39866.4796412037,39866.7185416667,49.40941205893253,202
441532.125882353,4429070.882352938,39866.7254513889,39867.0276851852,49.955380090721526,206
442564.75,4427969.602083334,39867.0399537037,39867.1627430556,45.312470689618614,202
442226.2,4427069.8,39867.1937962963,39867.1937962963,0.0,-1
442584.2543478262,4427960.519565217,39867.4545138889,39867.6613657407,49.15495905805572,202
441558.81538461545,4429068.3807692295,39867.6696180556,39868.0259490741,19.006577808724632,206
442570.6774193549,4427971.68064516,39868.0430671296,39868.1691898148,45.555460704562734,202
442596.5400000001,4428016.248,39868.1973032407,39868.1981018518,43.57636974332183,202
442503.3,4427903.3,39868.2918055556,39868.2918055556,0.0,-1
442589.690909091,4427977.795454545,39868.3811226852,39868.3819675926,44.124369684148405,202
442581.77692307683,4427940.146153847,39868.4405555556,39868.4415393519,49.82569618176598,202
441539.5192307693,4429095.019230768,39868.6708217593,39869.0396643518,46.453632796601795,206
442568.20000000007,4428066.475,39869.052337963,39869.0525578704,44.65781006687279,202
441542.0516129031,4429053.158064516,39869.1736805556,39869.2390393519,46.361406363659476,206
441915.73333333334,4426299.366666667,39869.2911921296,39869.2917708333,45.28421358483554,-1
442587.6736842106,4427961.315789474,39869.445625,39869.4472685185,49.974093288440145,202
441540.7272727274,4429087.678181818,39876.8052662037,39877.0741435185,43.34166586602269,206
442548.8454545455,4427939.854545453,39877.0806018518,39877.0825578704,47.65007869892525,202
441545.49395348784,4429050.617441863,39877.1982407407,39877.2383564815,45.655448743888556,206
442568.01016949135,4427973.520338984,39877.2477314815,39877.2844444444,44.460881682976414,202
441913.9312500001,4426320.734375,39877.2932175926,39877.294375,22.065810658165848,-1
442541.4612903226,4427981.0741935475,39877.4304398148,39877.7880671296,30.03897468308571,202
441951.291304348,4428827.02173913,39877.794212963,39877.7950925926,44.58396572746331,211
442570.2,4428068.125,39878.2018055556,39878.2018865741,3.178049716306079,202
482761.46129032265,4422082.264516129,39878.5823726852,39878.5837847222,33.24154027700196,208
481497.2923076923,4421966.992307692,39879.2586226852,39879.2591203704,44.45964462299031,-1
483052.14,4422539.05,39879.4851157407,39879.4852662037,46.9975531277822,-1
482769.43494860514,4422075.206901619,39880.0833564815,39880.1506134259,49.32686894578902,208
481465.7083333333,4421951.008333334,39880.1925694444,39880.1929861111,45.05685297491039,212
454731.4071428571,4417595.992857142,39880.4860300926,39880.4865393518,48.46462627492909,-1
442571.79649122804,4427956.870175438,39880.5393518518,39880.7665393518,44.44164713422625,202
441540.175,4429083.554999999,39880.7760532407,39881.0294791667,47.60514678057405,206
442562.8522727273,4428019.763636365,39881.0410416667,39881.1632638889,47.598739479261454,202
441550.9384615383,4429105.628205128,39881.1893865741,39881.2383101852,45.70787678320863,206
442581.69999999984,4427984.828205128,39881.2449768518,39881.2466319444,25.71089263345694,202
442580.31199999986,4427959.618000002,39881.4698148148,39881.7461226852,42.303664143828094,202
441533.5976744185,4429084.744186047,39881.7532407407,39881.7552314815,48.16014950185597,206
442567.34117647057,4428007.705882352,39882.0596875,39882.0603703704,45.040870328967436,202
442571.56981132075,4427969.079245284,39882.2022222222,39882.4078125,48.401859468242506,202
442564.1235294117,4427959.8176470585,39882.517662037,39882.7109490741,47.59464255564905,202
441530.93888888904,4429082.811111111,39882.7205439815,39883.020474537,18.085353189636887,206
442566.47272727266,4428016.836363637,39883.0335069444,39883.0338078704,43.48850422812907,202
442446.03125,4428680.318750001,39883.1721296296,39883.172662037,48.92003679512617,203
442548.8804347826,4428018.013043479,39883.2586111111,39883.4006018518,42.33957959098776,202
442580.2039215687,4427960.441176471,39883.4298263889,39883.4322453704,20.13752715670014,202
441538.319047619,4429090.157142856,39883.6734143518,39883.6752546296,44.93951490630166,206
442569.9055555555,4427956.672222222,39884.0443171296,39884.0856018519,48.51360633918107,202
442111.3909090909,4420825.445454545,39884.1075925926,39884.1079166667,44.53784907280854,-1
442576.27272727265,4427968.085454546,39884.246712963,39884.3074305556,46.92302206841535,202
442575.7333333333,4427944.570370369,39884.4171990741,39884.4181712963,29.446222168367882,202
441537.08367346926,4429074.5489795925,39884.7398148148,39885.0611458333,23.00630348400655,206
442577.04999999993,4427903.7,39885.0849421296,39885.085,14.835430563535262,210
442448.99024390255,4428660.917073171,39885.1708333333,39885.2169675926,49.577414213002555,203
442583.3413793104,4427967.644827585,39885.2552893519,39885.2566087963,41.3098051312992,202
483067.0347826088,4422460.117391304,39885.5325578704,39885.5355902778,26.05475004661118,205
441457.87666666677,4424095.02,39886.2600810185,39886.261412037,40.37251540338298,-1
483069.41515151516,4422485.839393939,39886.4377083333,39886.5201736111,23.526155656998203,205
483072.62666666665,4422468.58,39886.5378935185,39886.5385648148,45.89400832389184,205
481484.06129032257,4421898.29032258,39887.0989583333,39887.1016087963,12.903487900665437,212
483067.0645833332,4422483.820833333,39887.4046412037,39887.4430324074,44.60773475567864,205
454805.70909090905,4417612.404545455,39887.4743055556,39887.4750462963,45.08137087465488,-1
442550.75,4428001.8,39887.5247106481,39887.5248611111,49.86581995710104,202
441527.10307692306,4429083.60923077,39887.7854398148,39888.0470023148,48.232976270983954,206
442569.796969697,4427954.1454545455,39888.0537037037,39888.0551273148,49.61663027655889,202
441531.80312500003,4429112.353125001,39888.1972222222,39888.1987152778,15.073486657545399,206
442576.7,4427967.863157894,39888.2403125,39888.6998032407,46.20876540224809,202
441527.8714285714,4429090.3285714295,39888.7096412037,39888.7113310185,24.258812831499846,206
442548.0933333333,4428027.773333333,39889.0362384259,39889.0368171296,29.71683024818348,202
442548.7571428572,4428023.5476190485,39889.1628587963,39889.1636921296,49.14671911768945,202
442582.75000000006,4427956.560714285,39889.4411458333,39889.4420717593,49.80090360610171,202
442581.0909090909,4427986.4363636365,39890.1199305556,39890.1681134259,48.03092753618136,202
442576.29137931054,4427981.74827586,39890.1975347222,39890.2688078704,48.8098350748274,202
442558.85000000003,4428019.712499999,39890.3135185185,39890.3137384259,45.27394394121012,202
442371.23333333334,4427380.3,39890.3641782407,39890.3642939815,10.778218776499056,-1
442571.04482758616,4427969.796551725,39890.4404398148,39890.6907175926,47.33814529543361,202
442110.03125,4429157.625,39890.6971180556,39890.6976967593,48.121201149092855,204
442535.3,4428346.59,39891.1153587963,39891.1156712963,40.853151653026025,-1
442592.4018181819,4427975.423636363,39891.1987152778,39891.4062152778,44.38028841729723,202
442574.5666666667,4427956.270833334,39891.4570601852,39891.4580324074,32.032015234918255,202
442108.81499999994,4429148.579999999,39891.693599537,39891.6941435185,48.442233638932315,204
442570.8125,4427957.681249999,39892.1003125,39892.1524074074,27.97606119548169,202
442444.34545454546,4428640.209090909,39892.1625115741,39892.1628356481,45.07083314011843,203
442573.1511627907,4427960.120930234,39892.2519212963,39892.3974652778,46.89584203356635,202
442561.9357142859,4427972.114285714,39892.4217476852,39892.4227430556,41.243787410882696,202
483068.03035714297,4422467.476785715,39892.5672685185,39892.9858680556,48.515255332614814,205
482769.09999999986,4422082.770186336,39893.1361921296,39893.1667476852,30.696090956285147,208
483072.4284403672,4422448.123853212,39893.5081712963,39893.5272685185,19.840614909639164,205
454757.93636363634,4417623.836363637,39894.0865856481,39894.0893402778,44.894988584490754,213
451049.63636363635,4430448.19090909,39894.1394444444,39894.1405787037,33.554284376392374,-1
443413.87,4424458.890000001,39894.3046759259,39894.3109490741,45.857387627455694,-1
442579.81250000006,4427974.71875,39894.3803935185,39894.4318865741,49.32433476471839,202
442582.2111111111,4427958.199999999,39894.451875,39894.7337731481,47.07440918361981,202
441590.52499999997,4428965.574999999,39894.8938888889,39894.8944328704,46.970309771182905,-1
442575.4686567163,4427993.374626866,39895.0497453704,39895.1540740741,47.09915073525681,202
442456.8428571429,4428703.6619047625,39895.1683333333,39895.169212963,14.080127839986012,203
442635.18333333335,4428128.933333334,39895.2472916667,39895.247349537,48.9767291675849,-1
442588.1320000001,4427953.26,39895.4466666667,39895.4478703704,35.80223456693447,202
441563.457142857,4429079.760714285,39895.7489236111,39896.0305902778,45.22057054013455,206
442578.04838709673,4427981.245161289,39896.0525925926,39896.1575,46.040417026958416,202
442525.175,4427989.8125,39896.1857986111,39896.1859490741,49.13919006251902,202
442562.6052631579,4428003.542105264,39896.2925694444,39896.2931481482,42.86210447468278,202
442600.1714285714,4427989.914285715,39896.4512962963,39896.7005324074,41.1623614483024,202
441534.78529411764,4429053.208823528,39896.7080671296,39897.030150463,47.38027015559744,206
442566.8568181817,4427985.497727273,39897.041724537,39897.0435416667,20.750421683188737,202
441532.6500000001,4429097.507894736,39897.1978009259,39897.2761574074,48.48360547593864,206
442581.53571428574,4427990.685714285,39897.284525463,39897.2850115741,36.31927862720054,202
442582.2052631579,4427976.607894736,39897.4441319444,39897.4456481481,42.28096498408184,202
442101.07857142854,4428021.342857143,39904.7432175926,39904.7436226852,46.42434706003128,-1
442547.6090909091,4428048.3545454545,39905.0456365741,39905.0459375,45.339276571391956,202
441530.4093749998,4429086.973437501,39905.1953935185,39905.1984837963,21.855205329905203,206
442554.6727272727,4428062.927272726,39905.2484606481,39905.2488425926,15.388307249836377,202
441997.0625,4428834.1625,39905.5061689815,39905.6351041667,26.158937287293007,-1
442626.61999999994,4428090.4799999995,39905.6522800926,39905.6523611111,46.227697325115756,202
441527.7184210527,4429083.518421053,39905.7286574074,39905.7302546296,25.04915168222304,206
442567.14651162794,4428038.186046513,39906.0605324074,39906.0624421296,11.346365056699872,202
441538.8567567568,4429100.632432434,39906.2008449074,39906.202662037,26.88679973537092,206
442533.375,4428050.624999999,39906.2521412037,39906.2525694444,46.6274597202679,202
443108.26666666666,4425197.8380952375,39906.4704166667,39906.4712268518,38.40325507039459,207
483075.09629629634,4422468.888888889,39906.5504050926,39906.5515856481,39.78002011077563,205
481448.95999999996,4421860.977499998,39907.0947916667,39907.2966666667,47.47473012061204,212
481492.0370370371,4421851.811111112,39907.3196759259,39907.3207407407,29.7934556569517,-1
483075.1516129032,4422476.767741935,39907.4107523148,39907.5212268519,48.51607980829944,205
483078.1833333333,4422471.641666666,39907.5578935185,39908.0574768518,44.60100895719737,205
481467.95909090905,4421894.890909092,39908.1075462963,39908.1687152778,44.358990070169725,212
481462.9066666666,4421931.0,39908.2411805556,39908.2416550926,37.77737418103072,212
482991.5190476191,4422415.514285713,39908.5690046296,39908.5697685185,33.83208536340898,-1
483071.7745098039,4422463.803921567,39909.1727662037,39909.1746180556,46.17152802325408,205
462413.22222222225,4415494.344444444,39909.3303935185,39909.3307986111,50.0,-1
454795.4222222222,4417545.233333332,39909.4216087963,39909.4217939815,47.95518741529048,-1
442568.04761904763,4427994.114285714,39909.487025463,39909.4876041667,38.83555072360839,202
441914.96774193546,4428829.774193549,39910.0439814815,39910.0457523148,43.501839041585036,-1
441106.2424242423,4425421.884848485,39910.1141782407,39910.1154861111,45.02021768021958,-1
460894.43103448284,4419992.975862068,39910.1849652778,39910.2896643518,35.44573317049589,-1
442516.6964285714,4428013.857142857,39910.4237268518,39910.424537037,32.03700984812142,202
441551.48305084737,4429074.325423729,39910.6537962963,39911.0436805556,44.98588667575128,206
442579.72500000003,4428038.908333333,39911.0616898148,39911.0619907407,42.12469584443656,202
442564.55000000005,4427954.966666667,39911.2073032407,39911.2073726852,39.654760117796705,202
442568.67000000004,4428029.970000001,39911.4737384259,39911.4741550926,45.59056919967826,202
441574.88510638283,4429071.776595744,39911.7142939815,39911.7160069444,45.79355849932595,-1
442569.5749999999,4427965.816666667,39912.058275463,39912.0586921296,49.1236195731693,202
441962.3,4428833.75,39912.1467476852,39912.1469212963,47.9066801194887,211
460883.30000000005,4420004.884615385,39912.3445601852,39912.3450694444,45.880278987817846,-1
459390.8642857143,4417709.042857142,39912.4280092593,39912.4308449074,12.108261642350763,-1
441826.5804988659,4424732.58843537,39912.5476388889,39912.585787037,29.740544715926102,-1
442572.7285714286,4427950.785714285,39912.5995601852,39912.5999768519,42.355755216640695,202
441539.6854166666,4429089.779166667,39912.7787847222,39912.7807986111,37.002162098984876,206
442595.1829268292,4427984.731707316,39913.0228935185,39913.3154861111,43.213076725044175,202
439806.21249999997,4401658.395833333,39913.3718981481,39913.3728240741,49.83753605485128,214
442568.3666666667,4427958.216666667,39913.5861342593,39913.7116782407,45.18152277220368,202
442129.548275862,4429204.303448277,39913.7167939815,39914.2250578704,43.41393785411779,-1
442571.74,4427963.113333332,39914.2673611111,39914.2679050926,49.42519600355661,202
439810.71304347826,4401661.039130433,39914.3629050926,39914.3638425926,46.65072346707118,214
442583.2235294117,4427964.770588236,39914.5926388889,39914.5933680556,44.900445432593266,202
442125.61764705885,4429198.794117647,39914.7246064815,39914.7253472222,18.755265927545896,204
442569.425,4427968.612500001,39915.0405208333,39915.0411574074,49.440064725192634,202
439806.78095238097,4401657.504761905,39915.3662268519,39915.3671527778,47.81736086402093,214
442581.29000000004,4427962.725,39915.5909143519,39915.7184490741,46.585942085803396,202
442126.14999999997,4429190.135714285,39915.7250231481,39915.7256018519,44.49415691957677,204
442571.97272727283,4427964.695454545,39916.2471412037,39916.3152546296,36.94374101317943,202
439807.0923076923,4401658.826923076,39916.3629050926,39916.3638888889,43.94507936085511,214
442120.89523809537,4429188.133333333,39916.6205324074,39916.6212384259,38.75590277675557,204
439812.5666666667,4401657.495833334,39916.9528703704,39916.9538657407,46.90682253166473,214
442568.0647058823,4427955.035294118,39917.2542824074,39917.2549189815,36.841959774875555,202
443115.90370370366,4425130.785185186,39917.4800115741,39917.4810532407,40.92004398807374,-1
483066.45384615404,4422463.81025641,39917.5742013889,39917.5781365741,14.37845610608708,205
481472.9625,4421924.300000001,39918.0205555556,39918.0211458333,13.835100288725735,212
454772.14285714284,4417600.071428571,39918.350162037,39918.3509490741,46.83342823230331,213
442584.5234042552,4427977.297872341,39918.4447569444,39918.6854282407,49.15862081094784,202
441550.14705882344,4429047.3382352935,39918.7027546296,39918.7045023148,34.64130482512336,206
442377.8888888889,4427446.500000001,39919.0173958333,39919.0174884259,43.86034655567178,-1
442395.4571428572,4427395.285714285,39919.2268981481,39919.2270023148,42.460569943657106,-1
442565.1999999999,4428032.8975609755,39919.3187962963,39919.3204513889,40.30707134013969,202
442579.28571428574,4427990.16,39919.4464814815,39919.8228587963,48.52349946227653,202
441534.92307692306,4429092.374999999,39919.8299421296,39920.0081134259,47.4953681950949,206
442457.2,4427593.3,39920.0228587963,39920.0228587963,0.0,-1
442575.0387096774,4427973.487096774,39920.2085416667,39920.2098148148,30.827422856910996,202
442570.1633333333,4427979.003333334,39920.4199421296,39920.7341782407,46.95742752749558,202
441375.5,4429010.85,39920.7449305556,39920.7449421296,34.6619387799514,-1
442577.99999999994,4427913.855555556,39921.0786921296,39921.078900463,47.2174755784359,202
442572.4025,4427971.1850000005,39921.475787037,39921.477650463,48.32649376911222,202
441543.88285714295,4429111.345714286,39921.732337963,39921.7339814815,22.800219297027592,206
481490.55,4421906.5,39922.2071759259,39922.2072222222,3.008321791983215,212
442544.83636363636,4428014.286363636,39922.5086226852,39922.5090856481,44.84484362779559,202
441521.17901234585,4429073.249382718,39922.8589930556,39923.0755092593,48.063499664563615,206
442576.5522388058,4427982.879104478,39923.0816666667,39923.1683101852,46.59839053016244,202
442563.15,4428115.699999999,39923.1938425926,39923.1940046296,39.1429431695597,202
442547.94615384605,4428039.092307693,39923.4372916667,39923.4475578704,32.9874218458418,202
441538.80500000017,4429086.624999999,39923.6526157407,39923.6542592593,43.0795775281357,206
442547.0551724138,4428057.027586207,39924.0068865741,39924.0077662037,40.877010654101355,202
442579.3111111111,4428332.422222223,39924.1856597222,39924.1857523148,44.83179675112449,-1
442162.0,4429186.846153846,39924.6868518519,39924.6872453704,48.81854155953453,-1
442575.8909090909,4427955.068181818,39925.2082986111,39925.4270717593,49.202540584822906,202
442572.7775,4427966.652500001,39925.4530439815,39925.4547106481,29.92958402654587,202
441569.3849999997,4429093.706666666,39925.7268171296,39925.729537037,9.774456506621226,206
442667.4090909091,4428021.290909091,39926.0669560185,39926.0671643519,38.426032842301936,-1
442495.3823529412,4427926.370588236,39926.1847916667,39926.1850694444,41.8616769854122,-1
442586.27999999997,4428015.390000001,39926.4612268518,39926.4616550926,47.793828053421294,202
441878.81249999994,4428723.4125,39926.7678472222,39926.767974537,44.99522196837819,-1
442537.22857142857,4427901.500000001,39927.1125810185,39927.112650463,46.220017308360816,-1
442453.55263157893,4428658.5526315775,39927.1683564815,39927.1689583333,36.77295201639379,203
442523.7571428571,4428027.242857142,39927.2337268519,39927.2338425926,48.730483272827186,202
441748.1923076923,4427013.653846153,39927.285775463,39927.2863541667,45.70098467211568,-1
442587.39230769227,4427984.8692307705,39927.4884837963,39927.4895833333,49.61814184311813,202
442289.6125,4428527.6625,39927.723287037,39927.7233912037,42.21907151982447,-1
441792.605882353,4427430.405882354,39928.2171875,39928.3247222222,41.187376706243406,-1
443136.5259259258,4425101.981481481,39928.4748611111,39928.4759953704,25.402362094926897,-1
483070.421875,4422475.209374999,39928.5581712963,39928.7076851852,47.346594386318074,205
483051.1405405406,4422459.937837837,39928.7550462963,39928.7563888889,29.608275869727386,205
482771.3627118647,4422065.883050846,39929.2012384259,39929.236724537,49.23789191248429,208
482758.3557046978,4422074.91040268,39929.2367824074,39929.2900578704,49.20995834158033,208
454769.9777777778,4417605.272222222,39929.3251273148,39929.3259259259,19.194269978317127,213
442576.1096774195,4427962.058064516,39929.4362152778,39929.6142824074,49.71810535411958,202
442106.3166666667,4429206.666666666,39929.6189236111,39929.6193865741,37.45530669942026,-1
439807.9444444444,4401638.255555556,39929.9510069444,39929.9512731481,45.238258145070084,214
442574.7133333332,4427951.399999999,39930.2506134259,39930.2511226852,44.873600256717005,202
442555.64,4428026.1899999995,39930.4338541667,39930.4341435185,49.13501806192034,202
441555.1111111111,4429071.855555556,39930.7861111111,39930.7884722222,35.493802275916536,206
442536.3,4428065.3625,39931.0465625,39931.0466666667,47.92421100046813,202
442550.60833333334,4428081.133333334,39931.2295486111,39931.2298032407,48.680591614792846,202
444061.3,4427361.5,39931.4613310185,39931.4613310185,0.0,-1
441512.2696428572,4429091.741071427,39931.7946064815,39932.0401967593,45.83732103820945,206
442574.11917808227,4427988.619178083,39932.0565856481,39932.1410185185,48.59650193136904,202
441520.1000000001,4429088.414545454,39932.1714930556,39932.224849537,44.18155723805394,206
442538.34500000003,4427960.624999999,39932.2305671296,39932.4215046296,49.1683841508169,202
442604.2722222222,4428024.255555554,39932.470775463,39932.4713657407,29.82247474566466,202
441409.43333333335,4428402.344444445,39932.7219444444,39932.7226851852,38.745967532427464,-1
442568.67407407414,4427998.711111111,39933.0600462963,39933.2416666667,44.7733179474778,202
442653.16875,4428054.1125,39933.2982523148,39933.2986921296,23.170886905683535,-1
442432.77999999997,4428667.873333333,39933.3994444444,39933.4507523148,43.01313752813923,203
442585.99090909085,4427974.899999999,39933.4798958333,39933.4807638889,42.04866228548848,202
441957.66896551714,4428814.144827587,39933.6928125,39933.6939351852,37.86132591379958,211
444422.175,4414273.71875,39934.1355787037,39934.137037037,46.44588248720822,-1
482980.56,4422461.613333333,39934.5025231481,39934.5028935185,38.732415364752384,-1
454772.23846153845,4417594.607692309,39935.0552199074,39935.0563888889,28.298586537220938,-1
443442.036,4420614.908,39935.1227893519,39935.1239236111,47.940066750057824,-1
442580.30500000005,4427982.725,39935.3123611111,39935.313287037,47.560698059921634,202
441966.38947368425,4428778.942105262,39935.7419560185,39935.7426851852,10.462313319706878,-1
442572.1,4427996.739999998,39936.069537037,39936.0711226852,47.95518741529048,202
442576.66393442603,4427979.4622950815,39936.4530671296,39936.7466087963,49.46291540118721,202
442123.7764705882,4429164.105882354,39936.752349537,39936.7529398148,43.71750221646505,204
442568.43636363646,4427960.70909091,39937.123287037,39937.123599537,48.68644575225557,202
442444.34761904756,4428646.99047619,39937.1711111111,39937.1719444444,43.49252809424145,203
442543.3875,4428047.4625,39937.2774189815,39937.2787152778,18.879883474060673,202
442578.2918367348,4427979.434693878,39937.4303125,39937.7328240741,46.99382938247877,202
441541.51111111115,4429063.933333334,39937.7460648148,39938.0503819444,48.86726920954726,206
442573.212121212,4427997.324242423,39938.0604976852,39938.1867013889,47.00234036771411,202
442571.325,4427989.425,39938.2042592593,39938.2063425926,14.453373308852589,202
442577.48571428575,4427977.744897959,39938.4435416667,39938.829212963,48.80952775790667,202
441518.6292682928,4429108.417073172,39938.8377546296,39938.8395023148,33.408082854451486,206
442568.89444444433,4427996.566666666,39939.0758449074,39939.1863541667,49.44532333799867,202
441522.46382978716,4429074.9936170215,39939.2098263889,39939.2117708333,22.821481108533725,206
442557.88301886787,4428022.341509435,39939.2647222222,39939.445,49.2666215608317,202
442574.5029411764,4427982.970588235,39939.4800925926,39939.6486458333,45.33221812351582,202
441538.1346153846,4429077.560256411,39939.655787037,39940.0588078704,48.35969396119859,206
442569.2341463414,4427983.619512196,39940.0681597222,39940.0699305556,16.66283289258512,202
442565.6953846156,4427993.353846154,39940.2171643519,39940.4259722222,46.40915857935477,202
442582.38372093026,4427979.293023255,39940.4522222222,39940.4540856481,36.74139355019565,202
442552.5562499999,4428015.94375,39941.0896412037,39941.1896296296,35.00814190976925,202
441661.65,4425992.924999999,39941.2649652778,39941.265,16.552945357433924,-1
442551.63,4428013.450000001,39941.4537731481,39941.4541435185,46.405279872537875,202
441525.652542373,4429072.335593221,39941.7931597222,39942.0938425926,47.034455455541625,206
442554.39999999997,4428038.399999999,39942.1032523148,39942.1040740741,45.352397951861995,202
442555.6232323234,4428041.1262626285,39942.4992824074,39942.5062615741,28.160255681074155,202
441536.21470588224,4429086.291176469,39942.7697106482,39943.0849768519,26.500754706235718,206
442558.7575000001,4428018.63,39943.0925,39943.0939236111,29.22498930672289,202
442559.7040000001,4427987.051999999,39943.2639236111,39943.4488773148,49.916930995629926,202
442558.82500000007,4427974.365,39943.476087963,39943.7058101852,42.933087473234174,202
442145.66666666674,4429157.838888888,39943.7114699074,39943.7120486111,46.44308344629535,204
442583.7799999999,4427956.766666668,39944.1346412037,39944.1351388889,42.521523961526235,202
442564.92253521114,4427994.657746481,39944.2294560185,39944.405625,45.496043784049576,202
442577.9244444445,4427972.182222221,39944.4356597222,39944.7395138889,46.64472103019708,202
441531.14583333343,4429080.347916669,39944.748587963,39944.7506018518,41.407366494908764,206
442553.0383333334,4428018.641666668,39945.0793287037,39945.1714467593,49.87865274863105,202
442561.44130434777,4427974.849999999,39945.1988657407,39945.2010532407,8.246211250808974,202
442570.56500000006,4427984.007499998,39945.3373726852,39945.3391087963,49.48706901844238,202
442566.0149425287,4428004.352873563,39945.4545949074,39945.7861689815,48.552342888731985,202
441532.5777777776,4429077.848148148,39945.7921875,39945.7967939815,39.83779612397125,206
442550.34137931035,4428043.873563216,39946.1172800926,39946.1227777778,38.466218946496,202
441530.43050847447,4429070.244067797,39946.2083680556,39946.2666203704,48.924124928108604,206
442575.3888888889,4427974.644444445,39946.2731018519,39946.2741898148,40.32716206233868,202
442581.0153846154,4427977.376923078,39946.4762384259,39946.4768055556,47.971762527538885,202
441514.4341463414,4429082.036585366,39946.6988310185,39946.7007291667,14.916433890176299,206
442566.0621212125,4428001.768181817,39947.0952314815,39947.1601041667,49.87865274825877,202
442562.31500000006,4427991.209999999,39947.1889699074,39947.1898842593,46.1824642048685,202
442552.0,4428072.2,39947.4485185185,39947.4485185185,0.0,202
441520.2222222222,4429019.022222222,39947.8247685185,39947.8248611111,21.083880098148583,-1
442562.8228571429,4428000.891428571,39948.0583333333,39948.0598842593,17.08566650770377,202
442593.52352941176,4428096.376470588,39948.2531712963,39948.2543518519,3.9458839317544285,202
442575.4142857142,4428045.042857142,39948.4210300926,39948.4215972222,35.635936917294615,202
441514.82380952383,4429062.48095238,39948.9730324074,39949.1994328704,47.56563885825293,206
442562.97142857144,4428040.071428572,39949.241712963,39949.2419097222,36.81426354009935,202
442719.29777777777,4427470.637777779,39949.3908564815,39949.4954861111,49.12728366192931,-1
442383.9,4427968.5,39949.5070833333,39949.5070833333,0.0,-1
442015.1615384616,4428679.8,39949.8145949074,39949.8150694444,45.14864339041412,-1
441800.10516431916,4427420.156807509,39950.2919444444,39950.3270717593,46.47235737507867,-1
441799.95263157884,4427425.414035084,39950.3288888889,39950.4064814815,47.282237680242694,-1
442556.0333333333,4427962.700000001,39950.4614814815,39950.5277893519,48.27007354458024,202
442584.8128205129,4427978.384615384,39950.5848958333,39950.5866898148,10.700467279524508,202
441543.8319148937,4429071.69574468,39950.7489699074,39951.0637384259,46.08958667638494,206
442562.924,4427999.538000002,39951.0750115741,39951.1634722222,47.256322328330704,202
442570.7,4428173.0,39951.1949652778,39951.1949652778,0.0,-1
442225.10000000003,4428543.966666666,39951.3422685185,39951.3422916667,49.08115728092167,-1
442580.4666666666,4427982.505555556,39951.4454398148,39951.4474421296,27.067508197189998,202
441534.22023809527,4429074.5904761925,39951.6827546296,39952.0502893519,48.281259304168465,206
442534.4545454546,4428058.3500000015,39952.0695023148,39952.1678703704,45.73510686519737,202
442579.38095238106,4427992.007142859,39952.1996875,39952.2015625,16.398170629746176,202
442582.43636363634,4428032.1454545455,39952.460787037,39952.46125,45.42158077444514,202
441537.8173913043,4429055.958695654,39952.9358217593,39952.9376736111,34.2905234720583,206
442569.5105263158,4427986.4289473705,39953.0827199074,39953.424375,46.21309338290567,202
442668.5,4428189.25,39953.4731018519,39953.4731481481,21.476731594400665,-1
441535.2741935482,4429072.832258065,39953.6966782407,39953.6994097222,17.998055450705454,206
442557.6717948718,4427990.497435899,39954.0257986111,39954.031724537,23.48275963340717,202
442585.7757575759,4427999.46969697,39954.2052546296,39954.2104050926,42.06376112486555,202
450253.85714285716,4424654.0571428565,39954.3542592593,39954.3543981481,45.84953653000536,-1
442572.1656716419,4427970.71641791,39954.561712963,39954.5978356482,47.50789408082686,202
442128.36,4429174.88,39954.6029976852,39954.6035416667,47.238226045819104,204
442571.22307692294,4427957.353846153,39955.1108449074,39955.1112615741,45.23858972152627,202
441999.8804347824,4429013.923913043,39955.1823958333,39955.241099537,49.648766349375705,-1
442560.9216216216,4427987.832432433,39955.2469675926,39955.4012731481,49.55491902928898,202
483068.8323529411,4422479.397058823,39955.5475810185,39955.5490856481,23.920702331245348,205
481472.95199999993,4421904.659999999,39956.2959027778,39956.2985185185,41.73068415502453,212
481596.57499999995,4421298.625,39956.3564236111,39956.3565046296,38.92248707422406,-1
483055.125,4422459.809821429,39956.4328587963,39956.5010763889,47.40559038745653,205
483063.5208955223,4422482.9313432835,39956.5387384259,39957.0249884259,45.3375120624247,205
481384.3,4422148.800000001,39957.0458912037,39957.0459143519,7.472616677087231,-1
481455.1208333334,4421890.195833334,39957.2123958333,39957.2133101852,39.667619036553496,212
454780.0588235295,4417595.876470588,39957.4734490741,39957.4741319444,23.601906702305687,-1
442539.1166666667,4427965.98125,39957.5401157407,39957.541875,32.966194806751076,202
441424.29545454547,4429152.145454545,39957.7317013889,39957.7324074074,17.290459797258162,-1
442570.12857142865,4427996.630000001,39958.2261689815,39958.7497569444,46.339615881011994,202
441557.1250000001,4429074.163888889,39958.757025463,39958.758587963,39.23174734817185,206
442554.4193548387,4428023.974193549,39959.0861689815,39959.1529166667,42.91351768348055,202
442532.99999999994,4428003.233333333,39959.1802430556,39959.1803240741,38.951508315380366,202
442577.9416666666,4427974.904166666,39959.331875,39959.332962963,47.80167361086848,202
442621.9,4428044.9,39959.482349537,39959.4830439815,8.602325267042627,-1
441542.56231884065,4429041.675362318,39959.6526041667,39960.0438194444,49.22976741801396,206
442575.6846153847,4428041.5538461525,39960.056400463,39960.0568171296,46.62467158088962,202
441536.61960784317,4429079.917647059,39960.6158333333,39960.617962963,28.506315089810414,206
446101.05,4417687.15,39961.1888425926,39961.1890393518,45.09988913511872,-1
441395.65499999997,4429120.015,39961.2824884259,39961.2830208333,32.51861005641584,-1
442588.875,4427986.222222223,39961.4358333333,39961.4375578704,46.72098029806686,202
441550.7136363637,4429068.5,39961.6282060185,39962.0852777778,49.71639568629795,206
441363.69382716063,4424096.596296295,39962.1333912037,39962.1397800926,33.65055720190343,-1
483069.91730769235,4422476.403846156,39962.324837963,39962.4472453704,47.452291830617675,205
483061.958064516,4422482.287096774,39962.4652546296,39962.4665277778,27.500727263112054,205
483064.1800000001,4422484.48,39962.5935532407,39962.5951736111,25.203571175901512,205
481443.2333333334,4421822.166666667,39963.1239236111,39963.1239814815,17.807021087188772,-1
481451.13333333336,4421955.966666667,39963.3161574074,39963.3163888889,35.074349602312765,212
481477.8579514824,4421824.477628031,39963.4220138889,39963.4557523148,36.49356107584732,-1
442550.7299999999,4428025.600000001,39963.5418981481,39963.5432060185,40.8339319682906,202
441560.5076923076,4429032.446153846,39963.7251736111,39964.032650463,48.62972342083447,206
442095.3333333333,4420832.40952381,39964.096087963,39964.0969212963,45.502747169226666,-1
441527.9068181817,4429068.831818184,39964.1999074074,39964.201712963,6.676076692318149,206
442579.93902439025,4427985.221951218,39964.2445949074,39964.2464236111,48.088460154178364,202
443112.4730769231,4426872.317307692,39964.4060069444,39964.524849537,48.826222462747886,-1
442568.53500000003,4427980.529999999,39964.535150463,39964.7527546296,47.58928450817002,202
441536.57446808513,4429084.382978723,39964.7612731481,39964.7633449074,36.59535489678291,206
442562.4433962264,4427998.733962266,39965.0594791667,39965.1661921296,49.534028707908284,202
441534.8556962024,4429095.775949365,39965.1898263889,39965.2460300926,49.010203019206536,206
442614.0399999999,4427985.1,39965.2693402778,39965.269537037,34.367717410230455,202
449051.4499999999,4426867.057142857,39965.433587963,39965.4339699074,11.588356225100695,-1
442578.61481481494,4427967.122222221,39965.5823263889,39965.5859490741,49.28539337351526,202
441524.56136363634,4429084.009090908,39965.6792708333,39965.6811226852,40.87248463207752,206
442548.2931034483,4427952.41724138,39966.0126851852,39966.0143981481,49.230275237614414,202
442546.1909090908,4427994.454545455,39966.0927546296,39966.0934143519,31.43405796302003,202
441527.5743589743,4429068.315384617,39966.1952546296,39966.2542013889,47.788073825985805,206
442531.175,4428089.0375,39966.2644907407,39966.2646643519,27.670381276552767,202
442504.5133333333,4428021.736666666,39966.459224537,39966.4602314815,34.69899133947554,-1
441535.9931034483,4429091.003448276,39966.6617013889,39967.0307060185,47.8299069628005,206
442573.7192307693,4427989.126923076,39967.0400231481,39967.0412384259,36.23051200267107,202
442571.825,4428062.4875,39967.1647222222,39967.1649074074,40.32914578797087,202
442505.6857142857,4427983.335714285,39967.445474537,39967.4459027778,49.04742602845677,202
441674.7347826087,4428982.073913043,39967.6314930556,39967.6827430556,49.72293233503,-1
442108.93333333335,4429170.827777777,39967.6885532407,39967.689224537,46.7269729385135,204
442582.4826086957,4428011.508695653,39968.2106481481,39968.409212963,45.799999999813735,202
442571.71499999997,4427969.575,39968.4370717593,39968.4993634259,47.31437413710757,202
456152.5181818182,4442211.3977272725,39968.5728125,39968.5793402778,38.60906629276002,-1
442554.5,4428118.5,39969.0958101852,39969.0958101852,0.0,202
441544.5,4429082.081818182,39969.1930324074,39969.2488657407,44.462680980608994,206
442543.35000000003,4428051.025,39969.2600578704,39969.2601157407,15.814550262684612,202
443116.50869565224,4425184.013043478,39969.4751157407,39969.47625,40.40792001613151,207
483073.05,4422478.344117648,39969.5539814815,39970.0951157407,21.553885960180917,205
483063.1755555557,4422480.639999999,39970.1055902778,39970.1077430556,37.917805843676064,205
483058.00999999995,4422476.015000001,39970.1830208333,39970.1849074074,18.984203959779187,205
481467.34666666674,4421883.193333333,39970.3715162037,39970.3721643519,49.94416882884998,212
482823.1869565217,4422066.895652174,39970.4384027778,39970.4761574074,45.33982796615312,-1
483059.80465116294,4422440.667441862,39970.483900463,39970.4863078704,9.219544457237328,205
481505.06666666665,4422057.0,39971.0875925926,39971.0876388889,47.15421508145942,-1
483072.9351351352,4422471.716216216,39971.2379282407,39971.3593287037,46.64000428815827,205
481456.4578947368,4421902.181578948,39971.3668865741,39971.4208912037,46.338968482076076,212
442574.9090909091,4427986.654545455,39971.5411111111,39971.5415393518,49.988098583923566,202
441531.72087912075,4429087.635164834,39971.6624421296,39972.0327662037,49.50656522106598,206
442549.69999999984,4427989.454716981,39972.040787037,39972.4184490741,47.91847243011038,202
442572.290909091,4427981.309090909,39972.442650463,39972.5818402778,22.461745257074035,202
441545.44098360656,4429081.313114754,39972.5914351852,39972.5941782407,21.554117936169586,206
447224.9499999999,4424926.716666667,39973.0430671296,39973.1235416667,48.1215128608462,-1
441528.23478260887,4429069.991304347,39973.1946180556,39973.1963078704,14.674126890278684,206
442592.0125,4427967.05625,39973.2516435185,39973.3872569444,47.676514134443885,202
442577.56976744183,4427983.38139535,39973.4184027778,39973.4205092593,33.71527843572003,202
441532.40270270273,4429091.337837836,39973.7082175926,39973.7115509259,33.666749174653866,206
442569.74230769236,4427994.557692309,39974.0316782407,39974.1809490741,41.514575753059624,202
441519.59846153844,4429084.361538461,39974.2141087963,39974.2639814815,46.670975991631096,206
442586.775,4427974.507142857,39974.3063310185,39974.3075578704,46.14336355372808,202
442570.47878787876,4427990.193939394,39974.4367013889,39974.438287037,25.730915257769666,202
441534.3105263158,4429103.084210525,39974.6521296296,39974.6539814815,36.677104574945304,206
442574.6692307693,4427991.910256411,39975.0332175926,39975.0353587963,35.77275499595644,202
454032.53124999994,4422729.5625,39975.163287037,39975.1640972222,46.60171670713535,-1
442562.18888888886,4427974.522222223,39975.3600347222,39975.5861574074,40.2951609997386,202
444684.1588235295,4422268.717647059,39975.6246527778,39975.6254513889,40.61157470462857,-1
441953.1181818181,4428810.031818182,39975.9388541667,39976.3080439815,44.637428241456604,211
442592.3999999999,4427972.98,39976.3113425926,39976.3118055556,28.81336495451369,202
442623.6352941176,4427054.688235293,39976.4887268519,39976.4926041667,19.52075818198011,-1
442562.1,4428063.15,39976.5515509259,39976.5516087963,3.354101966072672,202
441604.0354838709,4429041.606451612,39976.7556018519,39976.7572222222,33.74566638821209,-1
442529.2055555556,4428024.76111111,39977.0517476852,39977.052962963,25.496078129426643,202
421746.55000000005,4438487.6187499985,39977.1611226852,39977.2497222222,44.91347236633204,-1
426157.3222222222,4443357.661111112,39977.4075347222,39977.4095023148,48.94456047391804,-1
430683.15263157885,4441626.7526315795,39977.509837963,39977.5107638889,48.98020008123874,-1
442519.7,4428584.8,39978.3647106481,39978.3647106481,0.0,-1
441555.23055555555,4429089.34722222,39978.5753587963,39978.5772106481,46.69496760868433,206
442539.03818181815,4428040.723636363,39979.0495138889,39979.0524074074,9.73498844423063,202
441541.05999999994,4429085.61,39979.1906481481,39979.1923263889,40.44279911233535,206
442569.2390243902,4428003.631707315,39979.2828587963,39979.4558912037,42.92982646097028,202
441991.7944444445,4429022.966666667,39979.462662037,39979.5008217593,40.1403786728526,-1
442530.1,4428230.7,39979.5141319444,39979.5141319444,0.0,-1
441539.6229166666,4429102.533333334,39979.5902546296,39980.0221412037,47.38459665355288,206
442512.4,4428014.5,39980.0362037037,39980.0364351852,49.998499977259385,202
442556.42631578946,4427972.278947369,39980.4716319444,39980.4726736111,39.7573892508533,202
441931.21818181826,4428827.766666667,39980.6850231481,39980.9152546296,32.10685285124903,211
441937.1257142856,4428843.168571429,39981.0527199074,39981.257349537,44.21911351447292,211
442576.3750000001,4427988.95,39981.2655092593,39981.399224537,43.679056766399064,202
442572.94423076924,4427983.859615383,39981.4334953704,39981.7752662037,43.2020832825503,202
441546.63076923083,4429116.174358974,39981.7895601852,39981.7914699074,41.68033109273485,206
442570.9483870969,4427972.182258065,39982.0796296296,39982.3956481481,46.303887525963376,202
442544.23928571417,4428017.967857143,39982.426087963,39982.4278819444,22.394865482937046,202
441529.2163265305,4429069.257142857,39982.6595601852,39982.9738425926,43.75671377020926,206
442555.7899999999,4428031.819999999,39982.996875,39982.997337963,29.607093744617725,202
483066.74074074073,4422479.329629629,39983.576099537,39983.5774305556,21.259586073041973,205
481434.7555555555,4421897.522222223,39984.0343055556,39984.1429282407,33.67729205264067,212
483120.5211538461,4422403.190384617,39984.1728587963,39984.2393634259,44.16888044770398,-1
481463.7249999999,4421924.158333333,39984.2934606481,39984.2940972222,31.814776440970604,212
481458.10000000003,4421902.992307693,39985.2612037037,39985.2617824074,28.433958570519447,212
454626.2294117647,4417599.3,39985.473125,39985.4738773148,44.346476748427484,-1
442579.21666666673,4427953.380000001,39985.528125,39985.7248726852,37.9989473540703,202
441535.54827586224,4429083.206896551,39985.7314699074,39986.0646412037,41.70851232059003,206
442554.4785714285,4427996.085714285,39986.0715856481,39986.0722800926,49.950875868190266,202
442434.48,4428188.5,39986.2688541667,39986.6483564815,43.35677571039029,-1
441615.35555555555,4429004.733333333,39986.6586574074,39986.6591782407,15.21906698793338,-1
442570.45937500015,4428042.196874999,39987.0665162037,39987.1753125,45.021439337120576,202
442637.0,4427956.35,39987.2133912037,39987.2134490741,2.617250465616,-1
442557.8821428572,4427917.860714286,39987.4569212963,39987.750775463,44.40202698058099,202
441562.05384615384,4429106.238461538,39987.7596296296,39987.7610185185,40.61095911214757,206
442514.78181818186,4428110.322727272,39988.0548611111,39988.0560763889,35.327751131225135,-1
441531.52500000014,4429074.524999999,39988.1586342593,39988.1608333333,30.407400414900685,206
442569.21875,4427979.328125,39988.224375,39988.2261689815,38.34709897762802,202
443800.5,4426882.8,39988.4396759259,39988.4396759259,0.0,-1
441475.88571428566,4429081.471428572,39988.6881134259,39988.6884606481,44.56691597983567,-1
442585.61000000004,4427973.87,39989.0233333333,39989.023912037,42.52822592101626,202
442594.5142857143,4428057.657142857,39989.1979282407,39989.198275463,47.08481708591437,202
442600.9285714285,4428082.814285715,39989.489849537,39989.4901967593,31.729481559275666,202
441533.8736842106,4429088.949999999,39989.6571412037,39989.6591666667,32.98029714882397,206
442567.2578947368,4427994.284210526,39990.044837963,39990.1668402778,47.476836456810965,202
441530.0551020408,4429091.306122449,39990.1945601852,39990.2383217593,43.429483073182084,206
441327.6666666667,4423290.850000001,39990.2985185185,39990.2988078704,46.06256614651195,-1
481448.3,4421916.529411765,39990.5362152778,39990.5371412037,46.47687597111093,212
481465.7875,4422076.475000001,39991.6074189815,39991.6078819444,44.50404475947297,-1
438397.0333333333,4409603.51111111,39992.0716550926,39992.0721180556,42.507058237048795,-1
442553.0428571428,4428073.464285715,39992.6367361111,39992.6374884259,48.45802307142905,202
441523.42499999993,4429081.49,39992.7411111111,39993.0355787037,36.82662080615307,206
442392.9,4427534.5,39993.0853240741,39993.0853819444,34.70561914090948,-1
442422.85000000003,4428648.216666668,39993.1866666667,39993.1869560185,42.76564041358551,203
442564.11351351347,4427999.475675675,39993.2601851852,39993.262037037,34.70288172461509,202
442598.50909090915,4427980.136363636,39993.4403240741,39993.6109837963,48.478139403146145,202
441532.0844827585,4429069.93275862,39993.6247569444,39994.0511111111,49.87183573908067,206
442578.27142857143,4428053.885714286,39994.0656944444,39994.0660416667,39.538588745869305,202
443121.6,4427964.0,39994.4550925926,39994.4550925926,0.0,-1
441526.85,4429078.5613636365,39994.6265856481,39994.6287268519,29.003620463295228,206
442565.1653846155,4427987.044230769,39995.0438888889,39995.1649074074,48.507731342539614,202
442164.25454545463,4429094.136363637,39995.1699421296,39995.1716203704,48.33735615442781,-1
442573.791891892,4427985.670270271,39995.2478009259,39995.4177430556,44.553002143877514,202
442653.6937499999,4427411.0,39995.4409027778,39995.441712963,49.84505993576236,-1
442599.1111111112,4428090.494444443,39995.5773726852,39995.5790509259,36.09376677489039,202
441554.48749999993,4429023.65,39995.7294791667,39995.7298842593,39.33204800160241,206
442571.95,4428009.190624999,39996.0331365741,39996.1931134259,44.19886876380902,202
442579.1666666666,4427971.411111111,39996.2049768518,39996.6125578704,43.71773095721444,202
441538.4487179487,4429074.17948718,39996.6273726852,39997.027974537,49.488685574858685,206
442548.36086956516,4428007.5521739125,39997.0408796296,39997.1599768519,48.284366000504846,202
442563.79999999993,4428104.41,39997.2024537037,39997.2029166667,40.27319207626454,202
442566.60000000003,4427934.966666666,39997.3821990741,39997.3828356481,48.38450165053752,202
442587.57333333336,4427968.070000001,39997.4517939815,39997.49875,37.171225430610434,202
441528.3351351351,4429089.171621621,39997.5275694444,39998.0499421296,46.85168086638065,206
443576.57333333336,4420982.333333333,39998.1526041667,39998.1533564815,43.59288932831334,-1
443779.8038834954,4420576.879611651,39998.2247222222,39998.2299884259,14.603081866510234,-1
442481.58571428567,4427075.928571428,39998.3598611111,39998.3604976852,36.1941984304197,-1
443113.63684210525,4425180.921052632,39998.4600462963,39998.4609722222,47.09352397057478,207
481457.5909090908,4421895.054545456,39998.5231712963,39998.524212963,43.90956615664886,212
481353.9,4421956.3,39999.1358912037,39999.1358912037,0.0,-1
442456.2,4428542.1,39999.5404861111,39999.5404861111,0.0,-1
441522.4034482758,4429082.265517241,39999.6426851852,40000.011099537,39.37765864006878,206
442543.07692307694,4428011.261538462,40000.0200115741,40000.164837963,42.68208054910785,202
442595.81363636366,4428065.318181818,40000.1991550926,40000.2092824074,28.112808468691693,202
441950.41739130433,4426304.421739129,40000.2613194444,40000.2625925926,32.31547616853736,-1
442568.01967213105,4428001.155737705,40000.3437731481,40000.436875,49.80642528812351,202
442604.80000000005,4428071.25,40000.4557986111,40000.4558564815,7.9025312402922605,202
441533.9250000001,4429076.397916667,40000.7037847222,40001.0261805556,47.473466273043364,206
442583.1,4428052.2,40001.0383333333,40001.0385069444,32.20062111185408,202
442547.3260869564,4427985.62173913,40001.1797800926,40001.1809953704,19.278226059758524,202
444860.4818181818,4396164.236363635,40001.2980324074,40001.2986111111,35.880496094552136,-1
441684.0041666667,4398521.654166666,40001.4083449074,40001.415462963,20.729930052971525,-1
442568.0,4428024.857142857,40001.5295717593,40001.7425694444,39.68904130835561,202
441560.10000000003,4429056.071428572,40001.7513657407,40001.7537384259,44.25031073339204,206
442462.15,4427738.65,40002.0455787037,40002.0456365741,34.808332335255045,-1
441566.08499999996,4429036.335000001,40002.1975,40002.1985416667,8.471717652906111,206
442578.07499999995,4427989.091666667,40002.2577199074,40002.2585300926,9.980981915831647,202
442566.22500000003,4427979.064285713,40002.4656481481,40002.5375115741,47.222558168676194,202
442573.5272727273,4428007.463636364,40002.5630324074,40002.655,49.878352017312416,202
441523.61,4429066.539999999,40002.6627546296,40003.0334837963,48.906543529490804,206
442664.1,4428048.3,40003.0660069444,40003.0660069444,0.0,-1
442593.8,4428040.3285714295,40003.1796527778,40003.18,41.93626115888012,202
441539.98437500006,4429081.959374999,40003.6777314815,40003.6812037037,11.205802068723742,206
442617.9650793651,4428064.6095238095,40004.1278935185,40004.1355324074,41.81686262712041,202
442556.272972973,4427996.705405405,40004.2368981481,40004.2386921296,26.50679158253545,202
443072.23749999993,4425189.65625,40004.4914583333,40004.4922106481,41.814471178751475,-1
481451.6578947369,4421881.873684211,40004.5687615741,40005.1223958333,44.28826029513561,212
481461.52857142856,4421899.721428571,40005.162974537,40005.1636111111,49.931252738329746,212
481453.12142857147,4421887.828571429,40005.4123611111,40005.4130555556,35.86697645449653,212
481506.9666666667,4421976.288888888,40005.5609837963,40005.5614467593,47.921289632329625,-1
481461.5000000001,4421884.1193548385,40006.1608333333,40006.2275578704,46.96083474513124,212
454766.05263157893,4417606.084210527,40006.2808564815,40006.2818981481,22.85541511346523,213
442545.2,4427994.15,40006.3290046296,40006.3290625,9.436630754483348,202
441649.92439024395,4427961.285365854,40006.4053009259,40006.4078472222,32.867156858802865,-1
442558.53555555566,4427985.9399999995,40006.4844444444,40006.6655555556,25.784685376994943,202
441532.12500000006,4429089.338636363,40006.6729050926,40007.019212963,40.469865332105584,206
442574.40724637674,4427982.536231885,40007.0298611111,40007.4544791667,46.182464204859805,202
442608.035,4428111.340000002,40007.4915162037,40007.4927314815,35.000142856850246,202
441533.9634615384,4429078.409615385,40007.7353472222,40008.0253472222,44.370372998300844,206
442579.9875,4427963.3875,40008.0466435185,40008.0473958333,27.692778842073192,202
442592.2,4428078.776,40008.2334259259,40008.2348148148,21.60856311749561,202
442000.76,4429015.928888889,40008.3884143519,40008.4563773148,46.74537410256895,-1
442568.82999999996,4427966.42,40008.4633217593,40008.4638425926,37.31929795694955,202
441523.84324324323,4429081.962162161,40008.7404861111,40009.0418402778,42.52175913552336,206
442577.13999999996,4427986.682222222,40009.0603587963,40009.0627314815,44.30541727549867,202
442573.24000000005,4428046.539999999,40009.2152546296,40009.2154861111,49.342071298232554,202
443106.0999999999,4425183.476190477,40009.4823958333,40009.4833796296,35.45870838066764,207
481454.7375,4421906.1375,40009.5584259259,40009.5588310185,41.12724158061515,212
442567.05000000005,4428123.2,40010.0164583333,40010.0165162037,13.412307780539603,202
442588.2638888889,4427995.363888889,40010.1792361111,40010.181087963,28.309185788382944,202
446442.6178571429,4427216.807142857,40010.4473726852,40010.4508449074,44.24669479189495,-1
442559.1466666667,4427974.263333334,40010.5770833333,40010.5789351852,29.880093708225004,202
441536.13157894736,4429106.502631579,40010.7315393519,40010.7333333333,41.668453294849144,206
442557.11666666664,4428111.641666667,40011.1836805556,40011.1843171296,38.34162229231416,202
444918.4333333333,4426487.8,40011.4940509259,40011.4941666667,40.612313403506725,-1
442569.2357142858,4427957.071428573,40011.5729282407,40011.7047916667,47.949348274899364,202
441537.6910000002,4429079.6000000015,40011.7130092593,40012.0541203704,36.39917581478379,206
450398.3292682926,4417166.892682928,40012.1481597222,40012.1503587963,48.993877168110856,-1
481453.2,4421901.0,40012.2674421296,40012.2678472222,38.64932082166904,212
448395.7812500003,4411335.154687499,40013.0441782407,40013.0952199074,49.633557196726436,-1
448210.9962962961,4417465.927777777,40013.1129282407,40013.1155902778,43.67665280252316,-1
442586.83749999997,4428052.3,40013.2401967593,40013.2410069444,34.740466318834606,202
442619.7,4428138.0,40013.4598263889,40013.4598263889,0.0,-1
441536.4153846155,4429073.123076924,40013.657025463,40014.0141898148,41.65309112188666,206
442588.34,4428039.16,40014.0385532407,40014.0387847222,49.154959058061756,202
442455.08666666655,4428660.1066666655,40014.2540509259,40014.3101273148,44.31624984115336,203
442570.92000000004,4427999.475,40014.3137731481,40014.3147569444,17.941293152937224,202
442563.89999999997,4428132.533333333,40014.4573263889,40014.4573842593,0.36055512712342874,202
441596.36000000004,4429191.92,40014.6515856481,40014.6517592593,8.373768566445527,-1
442569.93500000006,4427975.235,40015.0404166667,40015.1903935185,45.9915209571123,202
441552.94000000006,4429057.66,40015.2258680556,40015.226099537,27.238942710763418,206
442568.952631579,4427989.031578947,40015.2790162037,40015.2800578704,38.88148659722262,202
442571.3857142857,4427420.842857143,40015.4669097222,40015.4672569444,30.58251134226412,-1
442527.9833333334,4428093.691666667,40015.5380902778,40015.539537037,44.7733179474778,202
441551.679961464,4429056.293063582,40015.8733449074,40015.9134490741,44.27064490156416,206
442638.3,4428031.5,40016.0655439815,40016.0655439815,0.0,-1
441532.3750000002,4429080.74375,40016.2148958333,40016.2172685185,36.503835415112135,206
442569.7076923077,4427962.776923075,40016.4532523148,40016.4538888889,42.01713936003315,202
441546.5797297297,4429087.082432431,40016.7801273148,40017.0117013889,43.68352092041175,206
442560.98750000005,4428016.668749999,40017.0262268518,40017.1779166667,48.033529955323075,202
441536.66410256416,4429060.84102564,40017.1991550926,40017.2010648148,14.600342461769356,206
442107.85,4420819.825,40017.2855208333,40017.2879513889,28.39788724535322,-1
442564.81578947377,4427975.0763157895,40017.4527893519,40017.4547569444,27.81600258834126,202
441542.24000000005,4429076.76,40017.6177662037,40018.0181597222,38.91657744383673,206
442573.7,4427985.883333333,40018.0301388889,40018.0310648148,39.944211095578424,202
441535.3724999999,4429073.752500001,40018.2007986111,40018.2028240741,12.059850745346226,206
442451.5199999999,4428662.6450000005,40018.2570601852,40018.2582175926,44.06778869004142,203
442612.63958333345,4421001.293749999,40018.4622916667,40018.571099537,46.9469913839068,-1
442605.9,4428055.4799999995,40018.612650463,40018.6128240741,37.729829048105266,202
441557.9928571428,4429096.321428572,40018.8364930556,40019.0688425926,33.761664651055604,206
481455.5749999999,4421885.493749999,40019.1780439815,40019.178912037,22.507998578273302,212
483025.8081081081,4421373.252252251,40019.43,40019.465474537,23.12509459412505,-1
481454.29166666674,4421913.816666667,40019.5278703704,40019.5284490741,33.65546018108172,212
445909.7888888889,4417759.11111111,40020.1678240741,40020.168287037,49.74022517039059,-1
442570.04565217404,4427997.491304349,40020.3152662037,40020.4212384259,39.03857067054705,202
442575.00923076936,4427967.972307694,40020.4529976852,40020.6706365741,49.785339207362085,202
441533.62321428565,4429069.782142857,40020.6789699074,40021.0344675926,46.462457963251225,206
442581.6914285714,4427981.551428571,40021.0455208333,40021.0474305556,6.84470598364613,202
442396.99090909085,4428577.954545455,40021.254224537,40021.2552083333,41.907517225247645,-1
442558.9437500001,4427997.453125001,40021.3291435185,40021.43375,47.477363026838255,202
442584.1,4428076.8100000005,40021.4644212963,40021.4649421296,21.187260323220176,202
441584.0,4428999.65,40021.5673726852,40021.5674305556,2.773084924752259,-1
442578.12258064514,4427967.4,40022.0681365741,40022.0697569444,34.22426040038505,202
444668.40454545454,4425760.249999999,40022.2193634259,40022.2207523148,42.26925596695097,-1
442546.02857142856,4427148.151428573,40022.3670833333,40022.3688773148,49.13023508993155,-1
442575.3999999999,4427961.623809524,40022.4769212963,40022.7151041667,48.759101714315946,202
441547.4675675676,4429055.92972973,40022.7225694444,40022.7244212963,18.97182120862964,206