440709.0520833333,4425713.6604166655,40812.0767592593,40812.0773032407,47.89791227147226,-1
443141.9394736843,4425735.660526315,40912.6336921296,40912.6341203704,48.970399222490805,-1
440588.64545454545,4425520.322727272,40913.0421990741,40913.0431134259,45.012442724291034,385
440531.83103448286,4425530.11724138,40914.0346990741,40914.0355787037,48.53720222672255,-1
451007.087804878,4416993.629268292,40914.4436226852,40914.4465393518,6.888396039835266,-1
440605.194736842,4425671.5578947365,40915.2227893519,40915.2229976852,48.43397567804897,386
443060.63999999996,4425647.500000001,40915.4130671296,40915.4131712963,48.15028556492179,-1
440584.06938775524,4425656.097959184,40916.0994560185,40916.1000115741,46.060937897159945,386
443480.1,4425496.5,40916.5572222222,40916.5572222222,0.0,-1
440562.10500000004,4425544.780000001,40917.0148958333,40917.0155787037,49.617940303768556,385
443015.0,4425597.228571429,40917.6098726852,40917.6099421296,14.41006592574708,-1
440523.1836065574,4425484.501639345,40918.0280208333,40918.0287152778,49.10407315057305,387
440554.56111111096,4425540.488888889,40919.0433796296,40919.0437847222,48.67299045676752,385
442947.0375000001,4425541.23125,40919.6107291667,40919.6113541667,48.8082984745613,388
440552.67368421046,4425530.836842105,40920.0452314815,40920.045462963,49.0764709406207,385
442982.928888889,4425418.042222222,40920.5610648148,40920.5616203704,39.1461364637427,-1
440652.5588235294,4425457.7764705885,40921.033900463,40921.0340856481,48.220327664053755,-1
440525.40884955757,2771360.4035398234,40927.3527662037,40927.3575462963,49.40091092272943,-1
443352.025,4415379.175,40937.2071990741,40937.2072337963,43.49367770128986,-1
442954.84042553185,4425592.608510639,40938.5977314815,40938.5982638889,48.864915839655566,-1
440553.4210526317,4425519.205263158,40939.0350810185,40939.0352893519,48.56439024641261,385
442964.8,4425554.65,40939.5973958333,40939.5974074074,39.94108160773088,388
440611.50454545463,4425505.254545455,40940.0417939815,40940.042037037,42.32682364603648,385
442871.13636363635,4425591.927272728,40940.6040625,40940.6053125,41.10012165464538,-1
440605.7888888889,4425470.083333332,40941.031099537,40941.0312962963,46.868432873497156,-1
442913.6470588236,4425530.370588236,40941.5993287037,40941.6001967593,49.483835744947754,388
440515.74117647053,4425486.264705883,40942.0286574074,40942.0295023148,47.220758147326855,387
442868.12857142865,4425531.571428572,40945.6138888889,40945.6146875,43.56604182170124,-1
442928.5510638297,4425514.25106383,40946.5940740741,40946.5946064815,49.640004028822354,388
440588.964,4425682.936000001,40947.0533680556,40947.0536458333,48.28301978956991,386
443116.6842105263,4425211.589473683,40947.2872800926,40947.2884259259,8.049844719181461,-1
442923.4960000001,4425539.178,40947.5489236111,40947.5500462963,40.521722569495736,388
440519.97714285733,4425499.782857142,40948.0494328704,40948.591412037,49.291378556492,387
442882.1374999999,4425458.792499999,40948.609537037,40948.6099884259,47.46072060139832,-1
440680.8537142854,4425719.8782857135,40950.3776736111,40950.3797337963,11.936498648674633,-1
442915.8884615385,4425522.665384616,40950.6036574074,40950.6044212963,48.567067031060084,388
440498.11250000005,4425672.8,40951.3817592593,40951.3818402778,11.727318534088447,-1
443011.4842105263,4425581.673684211,40951.6179976852,40951.6182060185,6.103277807494904,-1
440569.8045454546,4425768.886363637,40952.0335416667,40952.0337847222,49.78192443046278,-1
442978.994117647,4425488.779411766,40952.5178125,40952.5187268518,38.7517741528949,-1
442875.5462962963,4425458.151851852,40953.6152314815,40953.6165046296,48.98377282324142,-1
440574.375,4425708.0125,40954.060162037,40954.0602430556,23.765521244033454,-1
440534.2975609756,4425488.387804878,40955.044224537,40955.0446875,48.971930735881756,387
442884.5272727273,4425526.921212122,40955.6071990741,40955.6075694444,48.861129745410175,388
440592.5449999999,4425502.085,40956.0506944444,40956.0513657407,49.69064298239121,385
440649.29090909084,4425446.899999999,40958.1549652778,40958.1551041667,20.646549348637823,-1
442869.42000000004,4425409.774999999,40958.4879166667,40958.4886342593,49.11048767836059,-1
440575.0409090909,4425482.890909091,40959.0165625,40959.0173148148,48.8455729828182,-1
442782.2285714286,4425455.5678571435,40959.5734953704,40959.5738078704,46.43102411086854,-1
440593.96956521744,4425494.295652173,40960.0214930556,40960.0217476852,43.25852517097113,385
442919.4645161291,4425470.893548387,40960.5803472222,40960.5806944444,47.05486159820657,-1
440572.59444444446,4425519.872222223,40961.0447337963,40961.0451388889,49.38441049542028,385
442839.5043478262,4425511.373913043,40961.5365972222,40961.5368518519,49.976994707831444,-1
440528.61551724153,4425502.134482759,40962.0438541667,40962.0445138889,49.28661075827406,387
442861.10740740754,4425493.962962964,40962.5565856481,40962.5568865741,49.60645119360548,-1
440505.73064516135,4425475.575806452,40963.0521064815,40963.491712963,49.64070910083374,387
442896.79714285716,4425508.219999999,40963.506412037,40963.5075,48.24458518820925,388
442848.30000000005,4428383.095833334,40964.0322337963,40964.0331828704,49.445019971698585,-1
442856.72564102564,4425503.653846155,40964.4662384259,40964.4666782407,48.78206637693037,-1
440512.05888888903,4425630.373333335,40965.0667939815,40965.0682986111,19.13164917149838,-1
442921.61142857146,4425454.531428573,40968.5590046296,40968.5593981481,49.57428769069492,-1
440552.30476190464,4425484.928571427,40969.0546064815,40969.0553240741,48.6646689090388,387
442910.88,4425535.0200000005,40969.5827893519,40969.5835185185,49.4725176235973,388
440521.64,4424483.8,40970.5351851852,40970.5352430556,11.86001686348551,-1
440670.5727272727,4425840.2272727275,40971.1786111111,40971.1787268519,18.536720313650807,-1
442942.597826087,4425544.115217392,40971.5270138889,40972.4336111111,49.27413114397785,388
440575.7714285715,4425651.621428572,40972.4439351852,40972.4452083333,43.95509071784961,-1
442806.0114285714,4425501.817142857,40972.5966203704,40972.5970138889,49.73178058339106,-1
440578.82291666657,4425493.881249999,40973.0021643518,40973.0027083333,49.64030620428758,385
442839.75999999995,4425464.4399999995,40973.5878819444,40973.5879282407,45.05818460611949,-1
440541.1026315789,4425404.7526315795,40975.0446990741,40975.0452199074,48.16492499784639,-1
443009.2,4425560.119999999,40975.5909490741,40975.5909953704,15.14760707179526,-1
440566.78787878796,4425535.506060605,40976.0468402778,40976.0472106481,42.1390555185403,385
442912.3107526882,4425543.805376345,40977.6107638889,40977.6118287037,37.21518507298964,388
440563.62249999994,4425657.8925,40979.4636226852,40979.4647569444,33.31561195608593,-1
442917.2337662338,4425542.861038961,40979.6115046296,40979.6123842593,42.19004621961139,388
440547.69000000006,4425515.706666667,40979.9909490741,40979.9918402778,49.096741236044814,385
442912.21463414625,4425527.547560978,40980.5437268519,40980.5446643519,44.8401605706402,388
440516.62307692296,4425632.86923077,40981.0565277778,40981.0566782407,20.30886505935475,-1
440580.3558823529,4425527.964705881,40982.0213194444,40982.0220949074,49.753190852460385,385
440624.35833333334,4425500.616666667,40983.035462963,40983.0355902778,28.848743473503312,-1
438061.8833333335,4427626.299999999,40985.2195138889,40985.2202662037,30.97418279806302,-1
440427.65999999986,4425154.989411763,40988.5737152778,40990.598587963,46.472464965751456,-1
442889.73076923075,4425517.069230769,40990.6070949074,40990.6080787037,48.70615977501721,388
442994.0675675676,4425504.0756756775,40992.5926967593,40992.5931134259,41.38175926669679,-1
440607.9132352939,4425646.113235294,41006.0542708333,41008.5650462963,47.97707786028236,386
443002.45,4425576.1,41008.5854050926,41008.5854166667,25.04575812369754,-1
381993.13750000217,4388524.163806772,41013.0720717593,41013.1862384259,44.199999999994525,-1
440624.6153846155,4425496.43846154,41014.9891319444,41014.9901967593,48.22706708896701,-1
442905.85588235315,4425522.702406418,41021.6012152778,41021.6055324074,28.114942646196685,388
442703.2195121951,4425402.300000001,41023.6073611111,41023.6078240741,49.31054653943973,-1