443101.5266666666,4425144.746666667,39800.0968981481,39800.1015277778,33.53356527421443,-1
443104.76071428583,4425155.825,39804.0865972222,39804.0878935185,46.31597996347743,-1
441900.4142857143,4426307.904761905,39805.0557986111,39805.0578819444,37.50479969283335,-1
443782.14166666666,4425032.133333334,39820.4596296296,39820.4601851852,10.070253224424066,-1
443673.82199999987,4425048.976,39820.6597337963,39820.6623842593,6.453681119688329,-1
442959.56666666665,4425056.380000001,39822.0167592593,39822.0175694444,49.02091390398986,-1
445483.8198237883,4422551.103303965,39822.7480671296,39822.7845138889,29.920728601147523,219
445471.6741602065,4422542.039276486,39822.7919791667,39822.8306481481,49.186990150126185,219
445478.73883928533,4422549.686160718,39822.9109259259,39822.9500231481,49.73620411718688,219
445500.8249103942,4422527.779569895,39822.9502199074,39822.9949074074,49.82710105958527,219
445498.1976653698,4422535.168871595,39822.9963541667,39823.0156597222,20.873428084663036,219
443105.30000000005,4424974.024999999,39825.0797569444,39825.079837963,42.41344126552452,-1
445473.992481203,4422545.910526317,39825.6542592593,39825.8001273148,46.15560637687097,219
445264.5,4422624.26,39825.8349884259,39825.835150463,46.154198075612484,-1
441915.2750000001,4426311.96875,39827.0279282407,39827.0287384259,47.754580931827945,-1
443569.040625,4425097.059375,39827.4790393518,39827.4806944444,44.50404475999404,-1
449299.425,4426586.766666667,39828.3499884259,39828.350462963,15.913830462872468,-1
474222.9494736843,4426342.064210528,39828.5128703704,39828.5491435185,45.90642656553702,-1
474482.7155555555,4425664.885555562,39828.5512847222,39828.5768055556,39.692064698154994,-1
474469.3984126985,4425630.723809524,39828.6047569444,39828.6078819444,18.06239186801829,220
470583.57460317464,4421792.801587299,39829.0301273148,39829.0687962963,43.08363958555522,-1
474472.50276064564,4425643.611747415,39829.1290162037,39829.5785648148,23.083543922356107,220
441004.1842105263,4426096.047368421,39831.2299074074,39831.2308217593,44.03691633173648,-1
474481.6999999999,4425606.689285713,39831.4155902778,39831.5855208333,45.392730694834384,220
474473.71676300175,4425638.943522565,39831.5856365741,39831.9443171296,38.86656660935165,220