437264.8,4421601.266666668,39857.2078703704,39857.2086342593,48.515255332861365,-1
437377.69333333336,4417217.319999999,39857.3349652778,39857.3356712963,11.182575732249576,-1
433692.9090909091,4417273.8136363635,39857.4470486111,39857.4496759259,42.79836445491863,-1
436951.0,4417620.65,39857.565,39857.5650115741,45.71925196234784,-1
436789.64285714284,4418093.571428572,39858.2496875,39858.2500231481,8.633075929307974,-1
435770.7583333333,4417582.591666667,39858.3859953704,39858.3872453704,35.436986328013965,-1
444659.12,4411491.399999999,39859.1963425926,39859.1964467593,45.983149086911084,-1
444695.2,4410931.4,39859.4255902778,39859.4255902778,0.0,-1
441760.1333333333,4416457.899999999,39859.4638078704,39859.4638310185,38.50324661634074,-1
436495.8588235293,4412431.117647058,39859.9610532407,39860.0122569444,48.41342788935483,277
436500.7444444445,4412435.277777778,39860.1214814815,39860.1225578704,40.53504656470236,277
436735.25,4417454.25,39860.4389467593,39860.4389583333,8.547514258364549,-1
439563.16874999995,4419374.387499999,39861.0523842593,39861.3536342593,42.03855373345006,-1
437266.8333333333,4417583.816666666,39861.523599537,39861.5238541667,42.26357769997623,278
444948.56000000006,4411266.62,39862.2134375,39862.2134837963,45.66190972815814,-1
438100.6555555555,4416805.511111111,39862.3721296296,39862.3731944444,33.80946613010696,-1
437451.34,4417576.72,39862.4078472222,39862.4082407407,42.31701785352676,-1
436491.6,4412408.7,39862.9793055556,39862.9793171296,40.56007889566335,277
436505.7,4412456.433333334,39863.1348726852,39863.1350115741,13.336041391722018,277
436384.6,4412220.25,39863.2946990741,39863.2947106481,22.810743083755906,-1
437809.3,4414579.5,39863.4029282407,39863.4029282407,0.0,-1
436452.2461538461,4412455.676923078,39863.9536574074,39863.9554976852,46.51075144515404,277
436503.68,4412403.99,39864.315775463,39864.3164236111,41.96617685741093,277
437279.85,4417704.725,39864.593587963,39864.5936689815,36.24982758561478,-1
437314.6222222222,4417576.816666666,39865.2746990741,39865.2895717593,31.270753108922037,278
432700.14999999997,4417518.550000001,39865.3267476852,39865.3267824074,44.08219595255409,-1
437908.3,4416132.233333333,39865.4621527778,39865.4621759259,43.09721568774144,-1
436515.0416666667,4412462.083333334,39865.997662037,39865.9993981481,43.133513652007615,277
440601.06666666665,4391725.433333334,39866.2543865741,39866.2547685185,36.304407445935965,-1
436489.475,4412446.237500001,39866.3506365741,39866.3513541667,37.282837874846685,277
436627.9714285713,4416821.257142858,39866.4314814815,39866.432025463,46.290927836513085,-1
470328.1785714286,4388194.114285714,39867.0337962963,39867.1433217593,44.06007262813716,-1
436522.5,4412402.100000001,39867.1839814815,39867.1841550926,44.12131004428913,-1
438230.8,4411293.966666668,39867.3546412037,39867.3548726852,49.555221722496256,-1
436850.61999999994,4411899.94,39867.4107291667,39867.4108333333,46.2563509158627,-1
437297.5,4417748.2,39867.4491319444,39867.4491319444,0.0,-1
436505.7863636363,4412431.768181819,39867.9546759259,39868.0097453704,42.43406650319613,277
443948.2833333334,4401078.333333333,39868.1688888889,39868.1709375,24.086925914257925,-1
443234.80000000005,4419310.411111111,39868.2912615741,39868.2920486111,47.329483412169246,-1
425039.1,4403535.5,39868.3466666667,39868.3466666667,0.0,-1
437255.7,4417922.8,39868.4350115741,39868.4350115741,0.0,-1
436416.975,4412590.9,39868.9908333333,39868.9908912037,47.74484265313003,-1
432607.05,4420651.6,39869.2017592593,39869.2017708333,41.64720878986119,-1
436454.25,4412344.35,39869.3357523148,39869.3358101852,10.404806582118075,-1
437280.87777777785,4417567.033333333,39869.5043981481,39869.5046875,39.17958652167462,278
436536.85,4412578.9,39869.9615277778,39869.9615393518,16.00781059342322,-1
439506.8,4411540.1,39870.1215393519,39870.1215393519,0.0,-1
436492.35454545455,4412454.854545455,39870.329837963,39870.3347916667,32.238641410466236,277
437597.23333333334,4415950.416666667,39870.4098032407,39870.4103240741,48.24572519905107,-1
437291.7571428571,4417575.999999999,39870.4592939815,39870.4598842593,46.32893264483595,278
436821.7,4413237.3,39870.9533680556,39870.9533680556,0.0,-1
441275.65454545454,4425930.827272727,39871.0880787037,39871.0883101852,38.93134983529592,-1
436494.5333333333,4412435.583333333,39871.2629398148,39871.2660185185,28.71410803072246,277
437368.31666666665,4417769.05,39871.4302893518,39871.4305324074,44.78973096582003,-1
437304.34,4417599.786666666,39871.583900463,39871.5854861111,12.280065146241101,278
444708.56666666665,4410968.355555555,39872.1486574074,39872.1497569444,49.307707308415885,279
437243.7,4417942.5,39872.5051041667,39872.5051041667,0.0,-1
436501.32857142866,4412431.92857143,39874.1021527778,39874.1753125,39.61262425039227,277
436437.68,4412472.2,39874.3591087963,39874.3592476852,48.825608035135296,-1
437294.05000000005,4417584.2,39874.4427546296,39874.442962963,16.164467203633723,278
436488.39,4412430.850000001,39874.9592824074,39874.9940046296,44.44378471732578,277
445555.4888888889,4426710.711111111,39875.0777546296,39875.0852083333,18.443969203986107,-1
436368.2,4412345.9,39875.379537037,39875.379537037,0.0,-1
436484.8285714286,4412444.057142857,39875.9638541667,39876.0163194444,48.91952575424412,277
437115.31666666665,4417581.716666668,39876.4485532407,39876.4487615741,46.518168493599596,-1
413843.9666666666,4480233.25,39877.0924537037,39877.0930787037,44.88797166211169,-1
431706.5,4421689.1,39877.3468981481,39877.3468981481,0.0,-1
426616.89473684214,4398746.952631581,39878.2703009259,39878.3615509259,46.4182076339459,-1
426611.472,4398760.175999999,39878.3708564815,39878.4950925926,39.93256816183385,-1
426344.8666666667,4398854.366666667,39878.5554861111,39878.5555092593,41.54154546926129,-1
436405.8,4417560.1,39879.1681712963,39879.1681712963,0.0,-1
438700.62,4423188.26,39879.2633912037,39879.2637847222,41.407728747551786,-1
440427.4555555556,4413024.755555556,39880.0059722222,39880.0089583333,15.281688388532213,-1
443835.62941176473,4417430.611764707,39880.2421296296,39880.3275578704,43.07772045974459,-1
437311.37142857135,4417279.028571429,39880.4419907407,39880.4422337963,34.61444785058281,-1
436508.7,4412364.7,39881.1033333333,39881.1033333333,0.0,-1
436702.2857142858,4417211.642857144,39881.5294097222,39881.8896412037,48.32163076709828,-1
436495.7647058823,4412437.305882353,39881.9661111111,39881.9678472222,45.13679208767504,277
441465.25,4413192.4,39882.0700231481,39882.0700347222,24.720234626671722,-1
436506.22857142857,4412441.271428571,39882.3467361111,39882.3491203704,43.1129910816414,277
441116.75,4420806.675000001,39882.4611689815,39882.4612037037,42.43925070027724,-1
437176.0923076924,4417283.199999999,39882.5579166667,39882.5580902778,38.77692612909968,-1
436468.58999999997,4412441.475,39882.9671064815,39882.968912037,33.25432302742692,277
433598.6,4423639.7,39883.2009027778,39883.2009027778,0.0,-1
437312.3,4417730.7,39883.496412037,39883.496412037,0.0,-1
440730.4,4430400.6,39883.9428472222,39883.9428472222,0.0,-1
432021.35000000003,4412924.216666667,39884.1908680556,39884.1910185185,42.00238088478993,-1
467867.5374999999,4443124.568750001,39884.4310532407,39884.5009143518,41.28014050379112,-1
470445.76363636367,4440019.845454545,39884.5103587963,39884.5131944444,49.13461101915044,-1
436477.8,4412431.327777777,39884.9621990741,39884.9639930556,29.57177708558141,277
436498.075,4412422.55,39885.1100231481,39885.1118865741,41.11082582487137,277
446870.12142857147,4416110.314285715,39885.248900463,39885.3283912037,48.312524255952056,-1
436486.48,4412411.959999999,39885.3578240741,39885.3581712963,41.59062394321591,277
437990.5,4413109.4,39885.4387152778,39885.4387152778,0.0,-1
444727.1,4410849.1,39886.3063425926,39886.3063425926,0.0,-1
437317.51428571425,4417576.342857143,39886.5759375,39886.5766898148,42.334146973730284,278
436296.6,4416234.6,39887.951400463,39887.951400463,0.0,-1
441067.8909090909,4423093.704545454,39888.1058564815,39888.1110069444,42.129324703793685,-1
436492.92105263163,4412441.1315789465,39888.2213657407,39888.2341550926,22.98630026736485,277
437620.3,4416584.7,39888.4166666667,39888.4166666667,0.0,-1
436464.52,4412475.5200000005,39888.9573611111,39888.9574537037,48.13647265814629,277
436718.28333333327,4412396.2,39889.1857407407,39889.1858101852,40.892542107589186,-1
437364.5428571428,4417569.014285714,39889.4465046296,39889.4471527778,49.59969757990696,-1
471037.76000000007,4388933.52,39890.0974537037,39890.1235069444,48.77786383172012,-1
436504.57777777786,4412447.783333333,39890.3389930556,39890.3820717593,49.47160801913538,277
437506.9,4416234.45,39890.4096296296,39890.4096412037,29.82633064927184,-1
436423.875,4412421.25,39890.9562962963,39890.9563310185,41.258696053261296,-1
436499.56363636366,4412471.454545453,39891.1412037037,39891.1437615741,13.001538370516185,277
436923.2,4414116.9,39891.4270833333,39891.4270833333,0.0,-1
497691.3,4474148.2,39892.0579050926,39892.0579050926,0.0,-1
497841.73529411753,4474088.688235294,39892.2150115741,39893.2043287037,38.116794199025684,-1
436288.98999999993,4412367.27,39893.3113078704,39893.3122337963,24.286004199657246,-1
437015.85000000003,4417448.600000001,39893.3721643519,39893.3736342593,49.82388985197861,-1
436476.73333333334,4412361.766666667,39901.9612847222,39901.9613078704,35.028131551303545,-1
436490.3923076923,4412437.169230769,39902.1954166667,39902.1987384259,43.731224542129596,277
436472.7181818182,4412459.28181818,39902.3463425926,39902.3957407407,30.11660671460353,277
436630.0399999999,4416847.7,39902.4261342593,39902.4263888889,43.50183904158557,-1
438221.2833333334,4411706.216666667,39902.9618981481,39902.9619675926,34.548806057602555,-1
462104.8833333333,4428435.766666667,39903.1133217593,39903.1201736111,42.94985448170252,-1
436447.62499999994,4412459.8,39903.334375,39903.3359027778,44.52527372229935,277
437302.6,4417606.8,39903.4452893519,39903.4453472222,49.2666215610042,278
436490.73,4412428.49,39903.9634259259,39903.9648842593,16.609033686563937,277
436509.21538461547,4412437.869230769,39904.2016203704,39904.203125,42.001904718714506,277
436452.05,4412393.13,39904.9702546296,39905.0066319444,44.51898471438354,280
470271.6312499999,4441884.106249999,39905.0898148148,39905.1269097222,42.06007608208017,-1
436472.44999999995,4412511.6,39905.1847685185,39905.1847800926,34.13927357164571,-1
436460.14666666667,4412408.486666667,39905.3356597222,39905.338287037,32.35938812785117,280
437338.9666666666,4417663.95,39905.4234606481,39905.4236458333,45.475707800986484,278
436479.19523809524,4412464.628571428,39905.9573611111,39905.9610185185,47.75950167244932,277
450414.88,4426251.6,39906.0627430556,39906.0627893518,46.7851472161151,-1
436496.14,4412439.69,39906.1984490741,39906.2060416667,16.31103920615752,277
437043.6,4412941.55,39906.3267013889,39906.326724537,49.23667332388086,-1
437263.93333333335,4417568.350000001,39906.5033217593,39906.5034953704,44.23087157177982,278
423915.20769230754,4443169.4,39907.0544444444,39907.0561921296,8.814193099748577,-1
442374.85000000003,4424147.566666666,39907.1599537037,39907.1600115741,42.15613834312102,-1
444386.92000000004,4421058.6,39909.1395486111,39909.1400462963,44.9360656935715,-1
442141.44285714295,4421183.735714286,39909.2671180556,39909.2678935185,20.785090810014502,-1
437021.9666666666,4419449.866666666,39909.3595138889,39909.359537037,41.52023602997676,-1
527590.2692307691,4498685.692307692,39910.203587963,39910.2327662037,38.9873056263338,-1
437500.0,4416840.833333333,39910.5184606481,39910.5184837963,47.07440918375928,-1
436481.6230769231,4412397.323076923,39910.9645138889,39910.9653472222,47.967176277262816,277
509696.7083333333,4443803.266666667,39911.1438657407,39911.1455555556,35.852057123602776,-1
424318.4166666667,4450665.100000001,39911.3668981481,39911.3676273148,36.792526414836985,-1
424305.975,4450686.425,39911.4956018519,39911.5081597222,8.82383136767362,-1
437297.0,4417473.7,39911.6486805556,39911.6486805556,0.0,-1
436455.08888888895,4412373.944444444,39911.9588078704,39911.9597106481,7.580237463280154,280
470689.3315789473,4416650.910526315,39912.1389583333,39912.1802777778,48.28084506302806,-1
472632.07333333325,4415288.6,39912.1872916667,39912.247662037,39.11892125302404,-1
470675.01249999995,4413279.618749999,39912.2550694444,39912.2921412037,49.205081038443645,-1
437402.9,4418225.2,39912.4857291667,39912.4857291667,0.0,-1
436495.6312499999,4412434.83125,39913.0922106481,39913.2411574074,46.56715580774832,277
436476.36666666664,4412456.016666667,39913.3045023148,39913.3063657407,46.924833510601324,277
437377.4666666666,4416327.2,39913.425625,39913.4256481482,47.251243370067826,-1
457016.11999999994,4399093.1,39913.9891550926,39913.9921064815,38.202748592771634,-1
457000.9263157896,4399120.121052632,39914.192962963,39914.2667824074,44.082195952447925,-1
437295.1625,4417579.9375,39914.3919907407,39914.3925578704,36.953619579068246,278
436512.9625,4412473.499999999,39915.9538310185,39916.2011458333,45.303531871175245,277
450570.7551724139,4430133.793103448,39916.2383796296,39916.361724537,47.42161954216563,-1
437137.2,4416914.4,39916.4453703704,39916.4453819444,39.87229614646997,-1
440155.1333333333,4392019.899999999,39916.9977314815,39916.9977546296,29.664962497885053,-1
436496.0,4412404.7875,39917.1103240741,39917.1113541667,25.306125740481065,277
440598.4588235293,4391716.752941176,39917.2565740741,39917.3761574074,46.50182792141498,-1
437126.4,4417573.3,39917.4497106481,39917.4497106481,0.0,-1
436512.0285714286,4412438.757142858,39917.9515740741,39917.9517939815,41.76601489212877,277
436473.92142857146,4412434.021428572,39918.1561111111,39918.1586574074,37.23237838226293,277
437244.82499999995,4417759.625,39918.4464699074,39918.4465509259,41.686448637395934,-1
453798.1,4414322.2,39919.0499652778,39919.0499652778,0.0,-1
436514.79200000013,4412446.788000001,39919.1636805556,39919.2249768519,28.794617552505567,277
438226.66666666674,4411299.399999999,39919.2566898148,39919.2570023148,48.621497303334706,-1
436455.823076923,4412456.992307692,39919.3357407407,39919.337037037,23.977489443000227,277
437364.05,4417223.35,39919.4446759259,39919.4446990741,11.10045044186949,-1
440605.68749999994,4391708.41875,39919.9960648148,39920.1884375,44.08219595272258,-1
438276.86000000004,4397600.0,39920.2346180556,39920.2346875,46.07656671222768,-1
437237.2714285715,4417612.764285714,39920.4973726852,39920.4980324074,46.22218082294213,-1
436809.68867924536,4415107.671698113,39921.1504861111,39921.1927083333,17.2513767566728,-1
434828.35,4412983.050000001,39921.2147916667,39921.2148032407,41.024139235389015,-1
438440.2,4420276.1,39921.4454513889,39921.4454513889,0.0,-1
440521.8,4410521.0,39922.0809490741,39922.0809490741,0.0,-1
440773.39999999997,4417507.322222222,39922.1272222222,39922.1396180556,14.418391033687865,-1
444716.4,4410962.657142857,39922.1926273148,39922.1934953704,46.56200167506238,279
439740.68333333335,4413066.566666666,39922.3029050926,39922.3029513889,42.2004739309509,-1
436580.9666666666,4416491.733333333,39922.9394212963,39922.9395023148,12.649110640187576,-1
440307.1,4413252.220000001,39923.1179398148,39923.1179861111,43.25020231234288,-1
436444.6714285714,4412389.771428572,39923.1860416667,39923.1868171296,44.405855469597,280
436459.7071428572,4412585.521428571,39923.2843518518,39923.2855324074,21.61041415613691,-1
436957.25,4417600.8,39923.5046296296,39923.5047685185,43.12273182439902,-1
436511.8933333334,4412397.006666667,39923.9616782407,39923.9648263889,47.66015107033743,277
466902.6,4433400.5,39924.2275462963,39924.2276967593,42.757923242183175,-1
436486.36666666676,4412434.606666667,39924.3275810185,39924.3314930556,17.699999999953434,277
437242.0,4417667.5,39924.4507986111,39924.4507986111,0.0,-1
436498.58571428567,4412430.885714286,39924.9308564815,39924.9313194444,11.230761327884643,277
436436.2096774194,4412638.512903226,39925.2156365741,39925.2307986111,21.072256642316585,-1
455047.25,4430596.4,39925.4565856481,39925.4565972222,48.82714408998396,-1
437124.88,4417429.659999999,39925.6334143518,39925.6341203704,39.40685219602632,-1
437395.5,4420636.533333333,39925.9476273148,39925.947650463,35.76940033009139,-1
470342.5500000001,4439709.858333332,39926.2428819444,39926.3061574074,48.517728718151105,-1
436529.5,4416275.7,39926.4398958333,39926.4398958333,0.0,-1
510394.4,4443131.7875,39927.1752314815,39927.2471990741,2.751363298975189,-1
437565.5,4418894.9,39927.5181712963,39927.5181712963,0.0,-1
437814.9,4416963.5,39927.6269907407,39927.6269907407,0.0,-1
437285.3875,4417535.399999999,39928.0850925926,39928.1729166667,49.90761464944013,278
458134.0,4416834.5,39928.2280208333,39928.2280208333,0.0,-1
432478.92000000004,4418037.4799999995,39928.3529282407,39928.352974537,40.84176783667763,-1
433266.91176470584,4417579.623529412,39928.4329050926,39928.4336574074,24.326117651627236,-1
436468.4166666667,4412442.183333334,39929.1988310185,39929.2027430556,49.785339207362085,277
436499.5875,4412429.55,39929.3337615741,39929.3344212963,49.864315897906906,277
437295.875,4417591.525,39929.4805208333,39929.9298148148,44.13456695154665,278
436385.73999999993,4412267.68,39929.9569907407,39929.957037037,44.54570686350224,-1
423352.93333333335,4420034.766666667,39930.1629398148,39930.1630439815,22.48021352177625,-1
437298.23333333334,4417482.7,39930.4517939815,39930.4519097222,23.65163842122631,-1
437971.9666666666,4417811.3,39930.5478935185,39930.5479166667,44.99288832681777,-1
506867.31304347824,4442179.700000001,39931.222974537,39931.3111458333,49.43278264473516,-1
425382.0277777778,4397737.055555556,39931.4658564815,39931.505162037,42.87959887873873,-1
437286.91250000003,4417526.85,39931.6046759259,39931.6050694444,31.0006451545771,278
436477.57499999995,4412423.9,39931.9544097222,39931.9551851852,43.253901557976526,277
474610.3499999999,4396599.016666666,39932.1654976852,39932.2178009259,37.62153638530712,-1
436480.75,4412443.029999999,39932.3795949074,39932.3801041667,30.25359482810172,277
437226.3857142857,4417571.785714285,39932.4424537037,39932.442650463,44.69384745139376,-1
436528.21428571426,4412427.785714285,39932.9623726852,39932.9628009259,45.85280798386381,-1
436533.4666666666,4412534.733333333,39933.1667013889,39933.1677546296,44.514828990267915,-1
437313.2833333334,4417520.133333334,39933.3964236111,39934.1431018518,48.876170062541014,-1
444801.05000000005,4410828.1,39934.2007523148,39934.2119212963,42.05246722845049,-1
437585.4,4417499.3,39934.5750115741,39934.5750115741,0.0,-1
436486.725,4412464.425,39935.0005555556,39935.0008564815,37.98275924608503,277
436519.89999999997,4412427.371428572,39935.2166087963,39935.2173263889,46.942624553775474,277
437320.51333333337,4417559.806666667,39935.434537037,39935.4395949074,23.79243577267649,278
436264.2,4412212.85,39936.0061689815,39936.0061805556,26.05475004661118,-1
436497.43333333335,4412411.8,39936.177337963,39936.1775347222,47.607247347525025,277
437336.8333333334,4417572.255555556,39936.4216203704,39936.4223148148,27.874360979342914,278
440581.37142857135,4391671.814285715,39937.0330902778,39937.0341087963,47.34817842318572,-1
437301.1,4415712.5,39937.4146180556,39937.4146180556,0.0,-1
437327.5999999999,4417670.033333333,39937.6119907407,39937.6121180556,29.887957441090666,278
436500.28888888884,4412433.699999999,39937.9603009259,39937.9618981481,30.860330523216007,277
412320.47812499997,4393072.603125001,39938.1729976852,39938.2117592593,47.87243465747795,-1
421404.84,4396784.069999999,39938.3354976852,39938.4147106481,44.2525705467944,-1
412411.8736842105,4394388.063157894,39938.4275578704,39938.527662037,41.81196001127463,-1
437322.30000000005,4417182.6,39938.6358449074,39938.6358564815,28.01142624001822,-1
438091.8,4411068.6,39938.9546990741,39938.9546990741,0.0,-1
454396.77857142844,4409654.278571429,39939.0228587963,39939.1130092593,45.8835482499975,-1
436482.6,4412574.2,39939.1392939815,39939.1392939815,0.0,-1
436497.7833333334,4412474.566666667,39939.3211458333,39939.3281134259,20.748252938493447,277
437306.3,4417650.866666666,39939.4174305556,39939.4182523148,25.900772189633685,278
436480.19000000006,4412493.83,39939.9557175926,39939.95625,14.61848145316466,277
436491.21515151515,4412438.13939394,39940.1581828704,39940.2743171296,38.63314639011416,277
441268.72941176465,4419392.605882354,39940.2852314815,39940.3522916667,42.82102287427345,-1
437264.7888888889,4417578.322222223,39940.4696064815,39940.4700578704,28.008748633220957,278
436441.1666666667,4412400.816666666,39941.0981365741,39941.0983101852,49.48413887291683,280
436479.97500000003,4412445.749999999,39941.2342708333,39941.2381597222,29.410542327459233,277
437129.42000000004,4417588.5,39941.4407175926,39941.4408796296,41.501084323182305,-1
436316.68888888886,4412133.622222221,39942.1388078704,39942.1398148148,2.012461179905998,-1
437106.7,4412962.866666666,39942.3746990741,39942.3747337963,43.200462960490455,-1
437285.5,4417584.1555555565,39942.4459490741,39942.4466550926,49.04222670311345,278
437401.0800000001,4417638.6,39943.2365509259,39943.2372106481,39.10767188161596,-1
436495.77999999997,4412440.94,39943.963587963,39943.9637615741,42.86315434029558,277
436572.7,4412538.3,39944.1039699074,39944.1039699074,0.0,-1
437292.55,4417642.35,39944.4010763889,39944.4013541667,44.1499716879772,278
436469.9375,4412438.1875,39944.9694444444,39944.9711689815,10.401922898598208,277
436481.9130434783,4412442.034782609,39945.0992361111,39945.1968981481,43.002906878200726,277
436485.2125,4412440.6,39945.2556944444,39945.2569675926,46.686400589759536,277
437296.4666666666,4417546.9,39945.4503472222,39945.4506018519,11.761802583273434,278
436517.4000000001,4412385.366666667,39945.9740625,39945.9741898148,26.920809794484065,-1
437286.6166666667,4417586.9,39946.4902893519,39946.4905555556,48.39111488688585,278
436471.8727272727,4412402.890909091,39946.9745601852,39946.9759375,44.699552570134145,277
436485.15,4412429.035714285,39947.3143055556,39947.3168287037,19.5002564085735,277
438282.60000000003,4412075.266666667,39947.4893055556,39947.4893287037,49.091852684392975,-1
443997.4666666666,4417490.533333332,39948.1480208333,39948.1484027778,47.9317222721949,-1
433353.69999999995,4417555.981818183,39948.3265972222,39948.398912037,42.607511075374504,-1
437118.05,4416367.15,39948.413125,39948.4131365741,36.66196939591913,-1
436486.18,4412520.140000001,39949.2723958333,39949.2726157407,46.60386250049799,-1
436501.30000000005,4412434.987500001,39949.3312962963,39949.3324189815,48.62149730295365,277
437286.64999999997,4417585.35,39949.4055671296,39949.4058101852,41.41207553355794,278
447326.6333333333,4416687.744444445,39950.4868402778,39950.4885416667,48.70092401589092,-1
437325.4,4417809.5,39950.6441435185,39950.6441898148,40.064947273890525,-1
436498.45666666667,4412433.369999999,39950.9498148148,39951.223287037,47.601680642996236,277
470731.41199999995,4413365.484,39951.3034375,39951.340462963,47.563115961845895,-1
480243.593181818,4387303.65,39951.392037037,39951.4153125,22.27128195702346,-1
434794.5,4417614.0,39951.5295717593,39951.5295717593,0.0,-1
436495.95454545465,4412441.231818181,39951.9602546296,39952.0202777778,46.84015371465221,277
436498.53076923074,4412432.496153845,39952.0679398148,39952.1690625,44.099092961341064,277
436633.6500000001,4417306.4,39952.4254282407,39952.4273958333,36.72002178603851,-1
436506.74375,4412450.83125,39952.9619560185,39953.1690046296,47.038920055772294,277
436488.2571428572,4412447.396428571,39953.3350462963,39953.3398148148,21.435717855950145,277
437304.6090909091,4417566.3,39953.4427662037,39953.4438657407,32.35197057395311,278
436502.37142857135,4412444.285714285,39953.9446759259,39953.9457291667,16.896153408208022,277
436477.20357142866,4412435.8071428565,39954.1176388889,39954.1757638889,49.2804220758379,277
422108.86363636353,4453901.586363637,39954.2951967593,39954.3508101852,45.74986338782405,-1
436867.82,4417585.42,39954.4835069444,39954.4836574074,42.91410024690228,-1
437493.53076923074,4383869.207692309,39955.0589814815,39955.1187037037,42.41992456399325,-1
436463.41875000007,4412455.6125,39955.1503819444,39955.1532060185,20.439422692617516,277
437297.85,4417581.2375,39955.4448263889,39955.4459490741,42.61983106492201,278
436501.7583333333,4412450.808333334,39955.9776041667,39956.103287037,44.06551940044775,277
436486.5428571428,4412444.042857143,39956.1929513889,39956.1944212963,35.04069063276694,277
436476.3705882352,4412452.676470589,39956.2944444444,39956.3235763889,21.100947845903818,277
437375.95,4417583.300000001,39956.3934259259,39956.3934375,32.909725006282365,-1
437258.89999999997,4417569.928571428,39957.1778472222,39957.1785648148,46.73638839278228,278
436494.1791666667,4412440.104166669,39957.9663425926,39958.0223611111,49.03886213970594,277
481407.4866666667,4454717.533333333,39958.099849537,39958.124375,36.975667674914014,-1
436479.7363636364,4412439.418181818,39958.3165972222,39958.3190972222,25.7108926333897,277
437310.8,4417692.25,39958.4053935185,39958.4054398148,11.900000000372529,278
436488.525,4412479.574999999,39958.9569328704,39958.9571412037,41.27529527416236,277
453172.16,4413430.319999999,39959.0523148148,39959.0526736111,42.20675301415687,-1
436495.2285714285,4412438.542857143,39959.1771180556,39959.178125,47.011594314600465,277
437293.20909090905,4417580.70909091,39959.4358217593,39959.4415509259,39.5800454774601,278
436505.1571428572,4412446.361904763,39959.9537615741,39960.2600462963,44.395157393519185,277
437290.0333333334,4417589.583333333,39960.3352546296,39960.3355324074,42.742952635679536,278
437356.5428571428,4417580.5571428565,39961.1536805556,39961.1539467593,45.14000443052342,-1
449150.8,4418006.82,39961.3607986111,39961.3608564815,41.99523782513349,-1
449142.1777777777,4419076.316666666,39961.4684027778,39961.470162037,35.51689738712976,-1
449635.85714285716,4419347.971428571,39961.6025231481,39961.6029861111,46.541379438246096,-1
444721.6846153847,4410984.953846154,39962.1509143518,39962.1519560185,35.75262228144951,279
453561.4,4411135.5,39962.27625,39962.27625,0.0,-1
437266.9,4417700.5,39962.5541319444,39962.5541898148,49.74836680700642,-1
450206.8999999999,4412223.857142856,39963.108275463,39963.1224652778,24.418026128314605,-1
436499.73863636365,4412436.231818182,39963.334212963,39963.3437847222,11.640017182116102,277
437314.39999999997,4417723.133333334,39963.4307638889,39963.4309375,20.48414020577047,-1
436483.52592592605,4412434.311111111,39963.9578356481,39963.9630671296,41.7660148924273,277
436491.32222222217,4412426.455555555,39964.1482060185,39964.1489236111,45.40704791133895,277
437257.8333333333,4418027.1,39964.4468402778,39964.4469328704,7.621679604457042,-1
437226.98124999995,4417510.525,39964.5465046296,39964.5521180556,42.61983106506842,-1
436510.93809523806,4412430.590476192,39964.9673611111,39965.2473032407,45.54393483233745,277
436488.6888888889,4412432.422222223,39965.3348032407,39965.3414236111,42.60575078554537,277
437342.0333333334,4417607.766666667,39965.4612615741,39965.4614236111,21.247588098972106,278
436496.13333333324,4412440.833333333,39965.9579513889,39965.9591435185,29.180986960812923,277
437323.7636363636,4417615.672727273,39966.5143171296,39966.5149768519,21.176638070865895,278
436192.19090909086,4412431.19090909,39966.9708912037,39966.9715740741,37.58004789748909,-1
446528.1714285714,4386500.614285715,39967.1787268519,39967.179375,45.98314908754844,-1
436490.44999999995,4412436.7625,39967.3786805556,39967.3790393519,38.6662643655903,277
436563.14782608696,4412980.113043478,39967.4175347222,39967.459837963,41.5520155952655,-1
437284.1333333333,4417597.7,39967.5689467593,39967.5692592593,42.35327614244618,278
440160.6,4427249.4,39967.9526388889,39967.9526388889,0.0,-1
436517.7764705882,4412454.076470588,39967.991087963,39968.2380439815,46.91183219617257,277
436500.98,4412450.403999999,39968.3241550926,39968.3371643518,35.9339672176619,277
437265.47142857144,4417582.457142857,39968.4937731481,39968.4940162037,47.29746293403056,278
436486.0,4412455.2,39968.9787037037,39968.9804282407,9.518928511497686,277
486401.51111111115,4468714.222222222,39969.2740856481,39969.2833217593,41.326625799949056,-1
437297.7,4417568.050000001,39969.4854282407,39969.4865972222,10.707940978540282,278
446113.75833333336,4423392.591666666,39970.1428819444,39970.1819212963,46.86875291686833,-1
443710.52857142856,4401140.18095238,39970.2999652778,39970.3454513889,44.90167034756001,-1
443725.175,4401122.925,39970.3473148148,39970.3475115741,31.822633454636993,-1
486955.57407407416,4468470.262962964,39970.6550347222,39970.7016203704,41.000000000617,-1
486474.55555555556,4468709.588888889,39970.7027430556,39971.0058680556,43.081318456859854,-1
483702.4222222221,4488000.944444443,39971.0368981481,39971.1359027778,46.900426437708,-1
486399.4727272727,4468717.763636365,39971.1740972222,39971.2161342593,47.695387617674655,-1
437290.5285714286,4417600.585714286,39971.4269212963,39971.4272222222,49.89929859224129,278
437980.0,4413764.1,39971.9601273148,39971.9601273148,0.0,-1
436479.02222222206,4412426.177777778,39972.1545601852,39972.1562847222,15.057224180158144,277
436504.32,4412541.220000001,39972.2855092593,39972.2856828704,39.66875344649352,-1
436933.51666666666,4417589.350000001,39972.5011226852,39972.5012615741,49.50202016100678,-1
436484.28333333327,4412439.325,39972.9597685185,39972.9631597222,33.746407216063936,277
436492.58749999997,4412437.050000001,39973.0902314815,39973.0907986111,40.12692362968242,277
436473.51111111115,4412457.699999999,39973.3299768518,39973.3303472222,27.460699189982076,277
439438.05,4418653.449999999,39973.4185300926,39973.4185416667,48.07598152934666,-1
436499.0235294117,4412445.947058823,39973.96125,39974.0133680556,47.077064479425644,277
481536.2666666667,4454910.866666666,39974.1573032407,39974.1812962963,47.07748931284469,-1
436506.1173913044,4412430.056521739,39974.4002777778,39974.4359606481,44.98588667575128,277
437297.77499999997,4417573.95,39974.4619328704,39974.4647106482,47.42161954246684,278
436616.5,4412485.88,39974.958900463,39974.9590509259,43.30588874579841,-1
453359.41875,4419853.806250001,39975.0625925926,39975.1200578704,47.60472665609927,-1
436488.8,4412435.0625,39975.1462152778,39975.1469328704,41.32989233016038,277
443609.49230769236,4418798.892307692,39975.2737847222,39975.3418055556,44.93295004726372,-1
437296.95999999996,4417685.76,39975.4146643518,39975.4149305556,33.36345305894503,278
433293.92500000005,4411230.291666667,39976.0056712963,39976.0413773148,47.95216366341867,-1
433240.6,4411209.742857143,39976.0537731481,39976.0546643519,48.87228253341175,-1
436479.01666666666,4412446.516666667,39976.132662037,39976.1329513889,46.48064113139777,277
437306.425,4417601.275,39976.4923263889,39976.4950462963,33.07113545053506,278
431774.7777777777,4453291.962962963,39977.1091203704,39977.1501736111,45.5411901469428,-1
415968.7,4461559.5,39977.165775463,39977.165775463,0.0,-1
423625.8571428572,4411782.728571428,39977.3332291667,39977.3334143519,23.764048476679328,-1
437170.56666666665,4417422.05,39977.508125,39977.5083217593,45.84157501662751,-1
444036.875,4417486.425,39978.2975810185,39978.2990509259,46.0600694745779,-1
437284.4,4417575.7375,39978.4219907407,39978.4227546296,47.22478163012276,278
436497.8919999999,4412438.004,39978.9665740741,39979.0135763889,40.757821335022335,277
436724.55555555556,4411501.788888889,39979.1245486111,39979.1255787037,28.827764394722895,-1
437284.4857142857,4417584.728571429,39979.4324189815,39979.4327083333,48.66795660389343,278
470313.14999999997,4388248.983333333,39980.0268981481,39980.0271759259,45.93408320626257,-1
470325.9192307693,4388234.603846154,39980.1768981481,39980.2195023148,46.2173127734556,-1
468512.35,4394264.75,39980.3741203704,39980.3741319444,28.42709974705227,-1
437290.1857142857,4417577.371428572,39980.4833564815,39980.4859259259,49.82258524001781,278
436492.05,4412427.185714286,39980.9795023148,39981.2516203704,45.50571392714686,277
439736.97142857144,4421711.314285715,39981.2674305556,39981.2850347222,39.33675126392263,-1
436484.66923076933,4412437.661538461,39981.3183796296,39981.3194444444,41.29309869673943,277
437286.75,4417581.500000001,39981.4953125,39981.4955324074,41.58665651406541,278
454718.56666666665,4473823.066666667,39982.2069444444,39982.2075462963,32.98257115489351,-1
437310.55000000005,4417636.7,39982.4088194444,39982.4089814815,36.42691312696404,278
436490.51428571425,4412407.9,39983.0559490741,39983.0575,39.21492062974175,277
436490.33749999997,4412456.3,39983.2493865741,39983.2509490741,37.0239111921963,277
437318.4,4417682.9,39983.5032407407,39983.5032407407,0.0,278
445395.3440677966,4417538.266101695,39984.0633912037,39984.2483101852,48.274631018742106,-1
437766.3333333333,4418637.366666666,39984.3714699074,39984.3714930556,42.63109193971412,-1
437288.17647058814,4421585.894117647,39985.1632291667,39985.2231828704,47.60850764305109,-1
437104.60000000003,4417814.0,39985.2475578704,39985.2475810185,25.814143410501575,-1
437291.1166666667,4417581.149999999,39985.403275463,39985.4035416667,41.09720185107151,278
436516.83636363636,4412426.718181819,39985.9668287037,39985.9683449074,26.35033206622311,277
436452.60000000003,4412443.975000001,39986.3108449074,39986.3112731481,44.19377784255487,277
438043.1111111111,4419492.222222223,39986.4056365741,39986.4931134259,42.157087186210084,-1
437235.81111111114,4417531.01111111,39986.6430787037,39986.643900463,48.67730477355744,-1
436502.21428571426,4412438.985714287,39986.9632986111,39986.9636458333,40.268101520005125,277
443909.825,4416472.075,39987.2263773148,39987.226412037,43.29029914433078,-1
437277.82,4417611.9799999995,39987.5227199074,39987.5229166667,47.464723742642704,278
436497.36363636365,4412438.718181818,39987.9627777778,39988.0448958333,40.554407898554594,277
436497.9514285714,4412421.228571428,39988.1493865741,39988.2045949074,19.334166648339654,277
443943.65555555554,4423091.449999999,39988.286087963,39988.2865972222,14.317122615919173,-1
437237.68,4417520.88,39988.5191898148,39988.5194328704,41.18470589841823,-1
436505.68750000006,4412437.612500001,39988.9632407407,39989.0054050926,49.948473449661115,277
436498.05,4412439.800000001,39989.0754513889,39989.076087963,41.54479510094092,277
437328.2,4417653.1,39989.4458564815,39989.4458564815,0.0,278
436494.5,4412440.680000001,39989.9576736111,39989.9612962963,24.4607849425076,277
437290.5444444444,4417574.4,39990.4461458333,39990.4467361111,36.32093060485265,278
436531.47500000003,4412460.5,39991.2021064815,39991.2025115741,44.85588032776412,277
436817.64,4417367.1,39991.2940625,39991.294224537,48.249870466703506,-1
438227.24999999994,4418540.333333334,39992.0350694444,39992.0414699074,16.92483382473521,-1
436492.81111111114,4412428.633333333,39993.0785648148,39993.0799189815,40.89058571344874,277
436503.72000000003,4412449.0200000005,39993.3112847222,39993.3967939815,35.21320774968079,277
437303.8333333333,4417538.166666666,39993.4223726852,39993.4228587963,31.737044600905133,278
436501.93,4412439.88,39993.9587037037,39994.0276273148,16.697305172389555,277
436532.9600000001,4412451.68,39994.1690509259,39994.1691666667,46.93591375472231,277
443477.08260869567,4428263.026086957,39994.2450115741,39994.282337963,45.90392140148998,-1
436843.93999999994,4413705.82,39994.3152430556,39994.315462963,42.89172414314994,-1
437329.5999999999,4417768.466666666,39994.4815277778,39994.4816435185,33.04300228471652,-1
436499.87142857147,4412443.085714285,39994.9531712963,39994.9541203704,27.357814239993022,277
453159.7727272727,4413731.072727272,39995.2020601852,39995.2378356481,46.555987799604615,-1
437316.9,4417672.2,39995.4978356481,39995.4978356481,0.0,278
436500.45,4412440.9125,39995.9549305556,39995.9559606481,29.099828177841648,277
447250.2,4413774.1,39996.0481365741,39996.0481365741,0.0,-1
436502.01153846155,4412439.646153846,39996.1541550926,39996.2228703704,46.841221162562874,277
442537.36,4413464.7,39996.2304050926,39996.2304513889,46.94699138406997,-1
436499.55,4412504.65,39996.345775463,39996.3457986111,8.823831367400519,277
437312.8,4417523.0,39996.4410185185,39996.4410185185,0.0,278
435372.2764705883,4441379.705882353,39997.0667361111,39997.224525463,45.35063395363315,-1
436480.48000000004,4412450.86,39997.2611805556,39997.2628819444,22.92422299630149,277
437324.0399999999,4417565.1899999995,39997.4290046296,39997.4293634259,32.79649371502528,278
468988.2925925926,4468053.274074074,39998.0648032407,39998.1051041667,47.19661004791931,-1
469181.03103448276,4473532.465517242,39998.1199768518,39998.1919097222,49.09877798895639,-1
470409.2,4468637.899999999,39998.2022685185,39998.2022916667,47.45576888045606,-1
436503.8333333333,4412403.416666667,39998.4240277778,39998.424212963,46.42251608865161,277
444688.93749999994,4410953.425,39999.0947453704,39999.0951736111,49.05965756121499,279
437323.91428571433,4417569.928571428,39999.3802083333,39999.3811921296,40.01762111868061,278
436493.8538461538,4412452.015384615,39999.954212963,39999.9556828704,29.83973860473793,277
436567.25,4411717.6,40000.1723958333,40000.1724074074,37.42525885032283,-1
436620.48999999993,4412417.720000001,40000.2575925926,40000.2593287037,48.74515360526486,-1
437357.2545454545,4415751.2727272725,40000.3970601852,40000.3995601852,11.02088925661768,-1
437312.85000000003,4417612.725000001,40000.443125,40000.4432291667,34.896704715674986,278
447114.00666666665,4468116.42,40000.9804513889,40001.0222800926,39.35543164514279,-1
436485.3,4412447.178947368,40001.1253240741,40001.1291782407,45.125270081919446,277
437313.075,4417661.899999999,40001.4469791667,40001.4471180556,30.13171087113371,278
437975.7,4411847.5,40002.1208101852,40002.1208101852,0.0,-1
436504.6714285714,4412439.399999999,40002.3059143518,40002.3792361111,46.32763753969716,277
437284.7428571429,4417576.357142857,40002.4015046296,40002.4018287037,48.93311761992606,278
436497.77999999997,4412454.62,40003.1676388889,40003.1680324074,44.636532123397394,277
437346.35,4417706.2,40003.4157291667,40003.4157986111,10.807867504752563,-1
436501.7925925926,4412429.011111112,40003.9496759259,40004.0232175926,43.20416646575372,277
436501.74285714276,4412432.785714285,40004.1618287037,40004.1624768519,48.296687256619535,277
437285.19999999995,4417574.583333333,40004.4285300926,40004.4287962963,43.078068666188344,278
700690.6555555555,4399099.01111111,40005.11875,40005.1197453704,49.00295909427449,-1
720683.125,4423089.683333334,40005.4317708333,40005.4387731481,37.632432820545574,-1
700676.9,4399091.433333333,40005.5421759259,40005.542650463,15.532224566923622,-1
718967.9105263158,4420996.431578947,40006.0603703704,40006.070462963,24.189667215614396,-1
717676.225,4423219.216666666,40006.1971643518,40006.1980208333,15.426276284023528,-1