442899.3,4425242.8,39549.3599884259,39549.3599884259,0.0,-1
453241.94999999995,4426626.3,39549.5064583333,39549.5075578704,43.371073309238405,444
453192.25,4426639.550000001,39552.4620949074,39552.4629861111,41.06994034589242,444
442895.2,4425268.7,39553.1778935185,39553.1778935185,0.0,-1
442886.8,4425281.7,39554.2148263889,39554.2148263889,0.0,-1
453195.0,4426628.4,39554.4902546296,39554.4902546296,0.0,444
453196.4,4426626.6,39556.4832986111,39556.4832986111,0.0,444
444210.4,4427612.1,39557.3431481481,39557.3431481481,0.0,-1
453189.3,4426632.2,39557.4485532407,39557.4485532407,0.0,444
453230.7,4426652.3,39559.4973958333,39559.4973958333,0.0,444
445639.2,4427052.3,39560.4830324074,39560.4830324074,0.0,-1
443020.8,4425224.3,39561.106412037,39561.4683101852,36.87817782917155,445
453192.1,4426621.1,39561.5346990741,39561.5346990741,0.0,444
443023.0,4425234.5,39562.0805787037,39562.0805787037,0.0,445
453195.0,4426621.0,39562.4784722222,39562.4784722222,0.0,444
445767.1,4422639.3,39563.4902430556,39563.4902430556,0.0,-1
453234.9,4426631.9,39564.3761689815,39564.3761689815,0.0,444
453194.3,4426635.5,39566.4851157407,39566.4851157407,0.0,444
443022.4666666666,4425241.395238096,39568.0846990741,39568.5184490741,47.00234036732265,445
453223.0227272727,4426640.563636364,39568.5359143519,39569.0509259259,48.60658391614699,444
390732.22857142857,4436192.621428571,39569.2410185185,39569.242962963,30.55650503552767,-1
387359.43200000003,4434492.619999999,39570.0084837963,39570.0094675926,48.751615358206536,-1
393885.63333333336,4438717.166666667,39571.0943171296,39571.1297800926,27.93027031721624,-1
453197.10000000003,4426631.542857143,39571.3961226852,39571.3963310185,24.665765749276545,444
443000.45581395336,4425241.497674419,39573.1995138889,39573.4844097222,44.38884995137289,445
453209.7186046511,4426623.283720931,39573.4980092593,39574.1312847222,47.685742104026815,444
443033.8192307691,4425243.701923077,39574.1471875,39574.5006365741,47.513577006987155,445
453207.96000000014,4426635.944000002,39574.5152662037,39574.5161342593,46.203895939635096,444
442991.9,4425236.125,39575.0440972222,39575.0487384259,45.68697845114273,-1
453212.95,4426635.7,39576.4815625,39576.4886226852,45.2921626774249,444
442999.31458333327,4425241.095833331,39577.1983449074,39577.4761342593,47.4220412889114,445
453205.525,4426634.86875,39577.5134259259,39578.1008680556,47.853944455967834,444
453203.74727272725,4426616.0127272755,39578.1264930556,39578.3917013889,47.55817490182444,444
457076.6,4423782.513513514,39578.4808449074,39578.4816782407,45.27659439524393,-1
439707.26666666666,4430364.933333334,39579.3084375,39579.3085532407,49.491918532256044,-1
451677.35882352944,4431031.341176472,39579.5258680556,39579.5262384259,48.34914683836561,-1
443012.3,4425510.2,39581.6408101852,39581.6408101852,0.0,-1
411485.642857143,4427339.126785715,39585.5008101852,39585.5033101852,20.180188304370244,-1
404578.9333333333,4423947.266666667,39586.2268402778,39586.2300347222,3.8327535791626874,-1
453185.1,4426628.5,39595.4808796296,39595.4808796296,0.0,444
453195.0,4426622.9,39596.4515740741,39596.4515740741,0.0,444
448834.6,4431429.3,39600.0307291667,39600.0307291667,0.0,-1
438552.3666666667,4457954.8,39600.1879513889,39600.2220023148,3.699999999254942,-1
444256.1166666667,4432264.733333333,39600.4063657407,39600.4484490741,28.98861845618079,-1
453223.7,4426659.7,39600.5251851852,39600.5251851852,0.0,444
453272.7,4426537.3,39601.8075578704,39601.8075578704,0.0,-1
443053.0,4425247.2,39603.4162152778,39603.4162152778,0.0,445
521209.9,4694462.1,39606.8486342593,39606.8486342593,0.0,-1
562575.3,4642586.9,39607.7675,39607.7675,0.0,-1
560900.0,4573670.4,39607.8580671296,39607.8580671296,0.0,-1
443067.2,4425236.0,39629.2014814815,39629.2014814815,0.0,-1
453192.1,4426624.8,39629.4885185185,39629.4885185185,0.0,444
443006.0,4425238.3,39630.0873726852,39630.0873726852,0.0,445
453211.3,4426616.300000001,39630.6524074074,39630.6528356481,47.05146118879646,444
443057.2,4425241.6,39631.1281944444,39631.1281944444,0.0,445
443317.6,4436478.2,39631.5023958333,39631.5023958333,0.0,-1
443011.0,4425241.0,39632.9894097222,39633.4793634259,32.83900120286643,445
453252.65,4426629.0,39633.5063657407,39633.5078587963,41.04400077946413,444
443064.3,4425234.2,39636.0942361111,39636.0942361111,0.0,-1
453202.1,4426630.2,39636.4846643518,39636.4846643518,0.0,444
443056.5,4425237.9,39637.1854861111,39637.4766203704,33.362254120529315,445
443144.1,4436468.4,39637.5045023148,39637.5045023148,0.0,-1
453193.6,4426626.6,39639.4879861111,39639.4879861111,0.0,444