438467.4666666666,4419222.366666666,39294.5426851852,39294.5431481482,43.38202392660411,331
442736.26666666666,4425649.133333333,39295.0349768519,39295.0354513889,41.096593532654744,332
438464.6666666667,4419228.566666667,39295.5730555556,39295.5737152778,49.910019033699356,331
442739.7272727273,4425670.6454545455,39296.0384490741,39296.1690277778,35.16816742470139,332
442740.5333333334,4425643.566666666,39296.1977199074,39296.1982407407,42.35327614215729,332
438475.875,4419133.95,39296.5768402778,39296.5774074074,40.23742039450088,-1
442695.4,4425577.3,39297.0413888889,39297.0413888889,0.0,-1
445510.6,4426379.9,39297.4671527778,39297.4671527778,0.0,-1
714095.6,4412882.82,39297.6384143519,39297.6414467593,49.88115876706416,-1
697214.6625,4388140.274999999,39298.1494212963,39298.4126041667,38.46153923078714,-1
714091.2499999999,4412871.050000001,39298.6203125,39299.0296412037,42.63672126229819,-1
716328.225,4411119.274999999,39299.1386226852,39299.1431365741,33.63406011768428,-1
527793.7,4401398.0,39299.4043634259,39299.4043634259,0.0,-1
442730.5333333334,4425640.566666666,39300.0337037037,39300.0340625,36.14484748870696,332
438447.975,4419203.125,39300.52,39300.5206365741,47.584556318367696,331
442738.95999999996,4425651.74,39301.0365856481,39301.0375,39.09386141053936,332
438461.42500000005,4419148.4,39301.5749189815,39301.9853587963,32.98924067025144,-1
439454.6333333333,4419406.233333333,39301.9928356481,39301.9935416667,49.96849007127814,-1
442729.4,4425653.85,39303.0386805556,39303.038912037,22.586943131228608,332
438467.4333333333,4419214.366666666,39303.5479976852,39303.5484259259,34.209355445410885,331