442789.1,4425227.800000001,39416.6087152778,39416.6087268519,0.20000000018626451,-1
441371.9285714285,4424615.957142857,39416.7782060185,39416.7784837963,47.199682201776554,-1
450122.8777777778,4411927.7,39417.4603125,39418.556099537,39.34018301954938,-1
441353.4111111111,4424202.222222222,39418.5960648148,39418.5965277778,40.82707435093459,-1
441895.5,4422044.2,39418.7859953704,39418.7859953704,0.0,-1
441244.1818181819,4424560.699999999,39418.8338425926,39418.8343981481,48.54739951827428,-1
440856.0,4423865.75,39420.7031365741,39420.7031712963,15.921369288516257,-1
441233.39333333337,4424577.586666665,39431.5914351852,39431.5922685185,44.71532175890099,-1
441028.0461538462,4425560.846153847,39432.8396527778,39432.9028819444,33.451606837673395,-1