434761.84,5276049.68,39214.7484606481,39214.7903703704,36.719613288334784,516
434743.17000000004,5276027.130000001,39214.8190625,39214.8583449074,34.28119017741939,516
412408.94000000006,5266358.12,39214.902650463,39214.9612847222,18.569060288553256,-1
409242.2,5260417.75,39214.9735763889,39214.9757060185,42.64234984107171,-1
434762.3,5276058.775,39221.2849884259,39221.6881828704,41.064948557282335,516
403808.2,5181914.966666666,39221.8913425926,39221.9952430556,10.008995953472137,-1
440288.4,5273836.7,39222.1431944444,39222.1431944444,0.0,-1
434751.93333333335,5276065.05,39222.2789814815,39222.3706712963,30.556505035931707,516
450923.6999999999,5274257.279999999,39222.7321180556,39222.7352199074,34.21300922174357,-1