442817.94000000006,4426953.26,40075.6432638889,40075.6460416667,31.696845268879223,-1
443054.03333333327,4427119.3,40075.7644328704,40075.764849537,40.104987221044404,-1
443121.25,4425933.8,40075.8399305556,40075.8399421296,29.140521614767565,-1
442927.75333333336,4425596.033333333,40075.8940277778,40075.8948958333,40.40606390131856,-1
449891.75,4414853.800000001,40076.5758101852,40076.5758449074,38.904626974550915,-1
444397.2833333334,4422439.516666667,40076.6711226852,40076.6713541667,43.989203220787395,-1
447874.43333333335,4421039.633333334,40076.8411111111,40076.8420601852,43.88940646668553,-1