442846.8,4425391.8,39309.033125,39309.0336921296,42.573465914816005,-1
442788.32499999995,4425867.525,39309.4647685185,39309.4654398148,39.9320673143653,-1
442844.1,4425383.800000001,39310.0498726852,39310.0500462963,22.257582977681604,-1
442831.8,4425922.2,39311.6359953704,39311.636412037,33.86620734623043,-1
442844.6,4425348.65,39312.1215393519,39312.1219791667,41.05666815530438,-1
442644.6,4425825.6,39312.3922337963,39312.3922337963,0.0,-1
442804.7,4425447.0,39313.098912037,39313.0993634259,37.63243282099227,-1