443388.56163265294,4419779.068775506,39744.5856712963,39744.6251388889,43.908996799690726,15
443453.8027522936,4419764.628440367,39744.6875925926,39744.6974768518,34.79683893665914,-1
447549.42185430456,4416937.985430462,39745.0439467593,39745.0624652778,23.65417510678278,16
447587.55907990347,4416919.281598068,39745.1847453704,39745.2293402778,33.61487765859556,16
447558.93333333335,4416920.783333334,39745.2325347222,39745.2327314815,45.258811296838495,16
441870.9777777777,4424238.222222223,39745.4809259259,39745.4823032407,48.38894501856363,-1
443361.42049180326,4419775.313114754,39745.5950925926,39745.6282175926,7.083784299622855,15
444172.84,4418236.92,39745.7277314815,39745.7277777778,44.65422712315784,-1
443315.3652173912,4419787.42173913,39746.043275463,39746.0477083333,11.890332207348761,15
443037.58181818196,4419868.065909091,39746.1345023148,39746.1368865741,16.268988905784536,-1
443295.25476190465,4419766.173809524,39746.1871180556,39746.1918171296,34.20073098636019,-1
440149.72857142874,4426121.47857143,39746.3942939815,39746.3950347222,49.783531413405406,-1
443373.44503105583,4419771.809627329,39746.5802546296,39746.6155555556,44.98055135276127,15
443250.3666666667,4419597.466666668,39746.6206134259,39746.6206712963,7.640026178432806,-1
432332.075,4416624.434375001,39747.4791087963,39747.4804976852,31.32491021499275,17
447632.0461538462,4416920.06923077,39748.0511458333,39748.0516087963,10.692988356820399,-1
443340.22994012013,4419777.669461076,39748.561412037,39748.5756944444,33.93464306577506,15
443352.2068965518,4419779.637931036,39748.6144097222,39748.6159490741,22.760711764276202,15
447527.07692307694,4416970.776923076,39749.0364814815,39749.0369212963,49.907614648998795,-1
447569.37333333323,4416873.213333334,39749.1803587963,39749.1810532407,43.74757136117521,16
443356.02325581387,4419777.169534887,39749.5213888889,39749.5668171296,46.04313195232815,15
443378.7572519082,4419785.561832058,39749.6028009259,39749.614224537,36.43583400964554,15
447548.09130434773,4416920.573913042,39750.0340625,39750.0356365741,14.287407042683677,16
447536.0909090909,4416891.690909091,39750.1826273148,39750.1832060185,45.151522676328256,16
443400.00000000006,4419780.9,39750.4690856481,39750.4693634259,30.195695057352104,15
447547.2625,4416905.574999999,39751.0340277778,39751.0344328704,45.59879384369722,16
447526.80909090914,4416904.445454546,39751.1734837963,39751.4325231481,40.44564253417232,16
443372.972055427,4419776.324480373,39751.5176388889,39751.5612962963,49.830211719826984,15
443387.870967742,4419775.352688172,39751.5975115741,39752.0062152778,43.4460585093397,15
447546.7526315789,4416924.273684211,39752.0307638889,39752.0331134259,22.539964507701686,16
447558.77499999997,4416900.750000001,39752.1853356481,39752.1859606481,47.66015106971602,16
443375.352367688,4419776.2200556975,39752.5050347222,39752.5682986111,49.48504824696507,15
443378.55736434093,4419778.129069768,39752.5718287037,39752.5985185185,14.302796929212924,15
443372.24791666673,4419765.151041667,39753.415150463,39753.4513310185,45.64000438215525,15
443377.85073746316,4419776.442772856,39753.5026388889,39753.595625,11.140017953437525,15
443365.2035714286,4419770.212500001,39753.5971064815,39753.6001388889,42.89452179475721,15
443299.025,4419935.61,39753.7076041667,39754.2989583333,46.823284805256314,-1
445640.4066666665,4421333.666666667,39754.3262615741,39754.3290740741,43.62808728285527,-1
443355.2509803922,4419766.5372549025,39754.5036805556,39754.5184490741,41.631958877989746,15
447558.1416666666,4416906.008333334,39755.0382638889,39755.039537037,48.20259329123476,16
447585.8,4416896.416666667,39755.1722337963,39755.1725231481,45.84506516497654,16
443359.2485673358,4419769.4422636125,39755.5125115741,39755.5869328704,48.926168866988604,15
443246.18888888886,4419809.411111112,39755.5928356481,39755.5932986111,18.278402556082735,-1
447547.4714285714,4416892.328571429,39756.0322685185,39756.0330208333,48.479273921929426,16
447567.63749999995,4416907.3,39756.179224537,39756.1799189815,36.57758876744307,16
443385.47505154647,4419772.4643298965,39756.5227430556,39756.574537037,42.98650951169452,15
443448.8673076922,4419826.668269233,39756.6281828704,39756.6407986111,12.6142776251577,-1
446913.39999999997,4416723.5875,39757.0297800926,39757.0301851852,12.340583454590533,-1
447544.3916666668,4416881.0,39757.1806828704,39757.1813194444,34.22426040091773,16
447854.25,4417095.5,39758.038275463,39758.0383333333,6.191122676520409,-1
447555.98,4416882.72,39758.1853703704,39758.1858912037,46.64289870927036,16
443715.03571428574,4419687.964285715,39758.5339814815,39758.5347337963,20.00099997496586,-1
447569.0727272727,4416893.081818182,39759.0337037037,39759.034224537,46.164163590306266,16
447532.45,4416868.05,39759.1722569444,39759.1724305556,19.393297811204334,-1
443339.84615384607,4419778.761538462,39759.5489699074,39759.5522106481,39.173588040549724,15
443340.50769230776,4419771.5,39760.1407060185,39760.141400463,45.00177774263949,15
442250.5916666668,4418139.981372543,39760.2610532407,39760.3180555556,44.221714123793205,-1
443396.5363636364,4419758.345454546,39760.4094328704,39760.410474537,29.514742079103613,15
443369.7186104224,4419769.563275437,39761.3312847222,39761.3713888889,6.207253821138024,15
432208.9666666666,4416699.483333333,39761.4939583333,39761.4942476852,45.80043667933067,-1
447553.62222222215,4416925.788888888,39762.0531597222,39762.0536226852,44.661616630282055,16
447533.83333333326,4416880.666666668,39762.1735532407,39762.4172916667,42.629801782181154,16
443358.0475409836,4419774.159016393,39762.5545023148,39762.5576851852,6.706713055028444,15
447595.2124999999,4416965.662500001,39763.02875,39763.0295601852,36.513696060354064,-1
447546.2555555556,4416883.877777778,39763.1724305556,39763.1728935185,49.686416654840365,16
447493.61599999986,4416935.508,39763.3825810185,39763.3837962963,40.067068772514844,-1
443142.3,4419837.6,39763.5709027778,39763.5709027778,0.0,-1
447549.625,4416885.05,39764.0280324074,39764.0284375,48.85591059428506,16
447552.4285714286,4416888.142857144,39764.175775463,39764.1786689815,45.69682702337276,16
447555.4400000001,4416913.246666667,39764.232025463,39764.2338773148,32.32243802691848,16
443364.74000000005,4419791.695,39764.6640277778,39764.6650810185,41.08004381671475,15
447384.98333333334,4416911.316666666,39765.0363541667,39765.0366435185,44.81450657987908,-1
447595.11829268304,4416914.2414634125,39765.1770717593,39765.2297337963,34.242663447786384,16
447551.16190476174,4416940.057142857,39765.2499884259,39765.2511458333,46.31241734142591,16
443410.3830725463,4419788.998293035,39765.4794328704,39765.5405439815,48.37406329888737,15
443446.708695652,4419780.465217391,39765.6488773148,39765.6586574074,19.578048932552626,-1
447475.16666666674,4416851.350000001,39766.0328703704,39766.0331597222,47.7730049295662,-1
447464.14999999997,4416818.774999999,39766.3066550926,39766.3068287037,43.39700450473785,-1
443574.94000000006,4419804.08,39766.6575810185,39766.6578125,40.77070026379238,-1
443724.36,4420701.539999999,39767.1674189815,39767.167650463,49.50363623007882,-1
446856.7,4416039.375,39767.3738888889,39767.3747569444,45.27537962277638,-1
447310.60000000003,4417345.266666667,39767.4697337963,39767.469849537,13.908989898064688,-1
443328.6375,4419905.790625,39767.6639814815,39767.6665856481,44.20373287372258,-1
443377.44024023996,4419773.403303305,39768.3453472222,39768.3775810185,48.696303760746595,15
432259.26666666666,4416596.066666666,39768.4750347222,39768.475150463,49.90881685620019,-1
447583.109090909,4416922.036363637,39769.0159490741,39769.0165277778,40.429321042878456,16
447559.93846153846,4416895.976923076,39769.1733101852,39769.1739467593,48.63712573739954,16
443385.9320987645,4419777.969135801,39769.4856597222,39769.5532523148,42.10855020060563,15
443448.3452830189,4419851.805660377,39769.5801041667,39769.5835763889,44.9089078024822,-1
447515.42307692306,4416883.815384615,39770.0407986111,39770.4589930556,46.42843956064696,16
443332.37878787867,4419774.115151515,39770.5059259259,39770.5088194444,13.984634425298148,15
447563.0571428571,4416885.499999999,39771.0377430556,39771.0389583333,47.978015799086535,16
447553.20588235295,4416908.652941177,39771.1920601852,39771.1929861111,25.049151681928855,16
447558.9727272727,4416879.7727272725,39771.4494791667,39771.4500578704,34.69538874268751,16
443482.8,4419661.050000001,39771.6659027778,39771.6659606481,9.689685237246254,-1
447571.6907216496,4416888.4628866,39772.0384837963,39772.0502314815,16.558381563573388,16
447562.83636363636,4416895.736363635,39772.1869328704,39772.1874537037,47.890917719322296,16
447537.99230769224,4416900.707692307,39772.4701157407,39772.5949537037,44.78236259984036,16
443314.4124999999,4419807.25,39772.6223842593,39772.6232523148,42.50482325583311,15
447558.1666666667,4416893.7,39773.0376157407,39773.0380787037,48.88936489661675,16
447551.7318181818,4416894.295454546,39773.1751388889,39773.1762384259,10.893117093187145,16
443369.925,4419757.225,39773.5306597222,39774.106712963,46.5405199796622,15
443337.8166666667,4419791.375000001,39774.1212384259,39774.121875,48.72832851646676,15
443866.23684210517,4418425.968421051,39774.2378472222,39774.3169675926,49.27930600215959,-1
443407.60402542393,4419775.677118642,39774.3391319444,39774.3828819444,39.580045477387735,15
432318.718843284,4416640.672574628,39774.5064351852,39774.5548726852,36.62308015445998,17
432391.57,4416544.22,39774.5675925926,39774.5681134259,49.941565854695874,18
432381.8763157895,4416580.2657894725,39775.2402199074,39775.3352546296,47.56816162027086,-1
432391.7526315789,4416538.757894737,39775.3628587963,39775.3638425926,48.656859742481245,18
432321.4720000001,4416635.033333333,39775.4906481481,39775.4971875,32.54197289686829,17
447549.3500000001,4416946.183333333,39783.0353819444,39783.03625,21.22286502780379,16
447524.4077669904,4416946.552427183,39783.1821180556,39783.1878472222,30.34880557783317,16
443428.275,4419794.7625,39783.5440162037,39783.5444791667,49.27088389727811,-1
447543.875,4416918.25,39784.0327662037,39784.0330555556,42.61842324620701,16
447553.1272727272,4416918.572727271,39784.1837847222,39784.185,32.693271479336104,16
443386.36388888885,4419783.691666666,39784.4812037037,39784.4830555556,15.2433592101849,15
447513.84166666673,4416899.375,39785.0254513889,39785.1485069444,45.1128584772039,16
447468.19999999995,4416949.15,39785.1784837963,39785.1786574074,5.727128425326803,-1
443334.80000000005,4419891.074999999,39785.6184259259,39785.6194097222,36.02249297278596,-1
447490.7142857142,4416843.457142857,39786.0296412037,39786.150775463,49.71941270745935,-1
447532.9777777778,4416935.422222221,39786.1767013889,39786.1771643519,6.711929677853756,16
443397.51249999995,4419800.587499999,39786.497962963,39786.4983680556,47.060067997528826,15
447508.22222222225,4416908.533333333,39787.0360185185,39787.1525231482,47.16948165888105,16
447545.83061224513,4416905.334693878,39787.17,39787.1781597222,22.9688920069094,16
443481.82499999995,4419842.525,39787.5965393518,39787.596712963,46.84410315057043,-1
443339.88125000003,4419752.628125,39788.283275463,39788.2850115741,42.89242357337734,15
443340.45483870973,4419786.832258064,39788.5430902778,39789.1446527778,44.263867883416246,15
443316.05555555556,4419841.866666667,39789.1997453704,39789.2007291667,40.465417333771825,15
432417.48215962475,4416600.3833333375,39789.4945949074,39789.5385763889,39.51265620026069,-1
432300.7,4416843.5,39789.546099537,39789.546099537,0.0,-1
432165.96800000005,4417621.131999999,39790.000775463,39790.0019907407,40.70823012612906,-1
447575.19999999995,4416893.191666667,39790.1821412037,39790.1829513889,49.64242137527339,16
443344.29374999995,4419793.6625,39790.4863310185,39790.4882407407,30.064763428311398,15
447528.6222222223,4416986.644444444,39791.0332638889,39791.0337268518,49.31896187066787,-1
447587.3733333333,4416878.659999999,39791.1707407407,39791.1714930556,36.12160018573535,16
443358.98888888885,4419768.722222222,39791.4715625,39791.4719675926,12.480785232065916,15
445112.3869565218,4421296.604347826,39791.9781134259,39791.9793287037,46.96051532933267,-1
447561.20000000007,4416884.0,39792.0567708333,39792.0574652778,39.35695618293466,16
447570.89166666666,4416891.425,39792.1715625,39792.1721990741,49.95558026890745,16
443333.1320388348,4419775.780582524,39792.5782060185,39792.5995601852,43.376721867981004,15
447484.26666666666,4416977.7,39793.0368865741,39793.0369444444,0.3162277667162993,-1
447573.55999999994,4416939.1049999995,39793.1754861111,39793.1765856481,29.79949663979283,16
443401.8843137255,4419778.039215688,39793.5855787037,39793.5926388889,18.29890707136048,15
447571.77999999997,4416941.6,39794.0329513889,39794.0331828704,37.53664875861909,16
447535.53809523815,4416949.93809524,39794.1848842593,39794.1873726852,35.152524802610046,16
443519.18749999994,4419825.6625,39794.5611921296,39794.5615972222,43.668066135291646,-1
454499.19999999995,4419839.616666666,39795.3413310185,39795.3416203704,42.541744205087895,-1
454318.45,4417757.4,39795.4227777778,39795.4229050926,41.4208884499783,-1
454451.7250000001,4417595.891666667,39795.6277662037,39795.6284027778,47.68731487520255,-1
432275.43333333335,4417669.166666667,39795.6661574074,39795.6664583333,43.78641341786285,-1
432337.16923076916,4416600.723076923,39796.4488657407,39796.4521759259,38.59455920203625,17
447555.1,4416962.459999999,39804.0185648148,39804.0187962963,44.821869661844495,16
443329.4199999999,4419805.86,39804.4712847222,39804.4718055556,46.106940909228385,15
447584.3,4416904.633333334,39805.0356828704,39805.0359722222,47.87744771799711,16
447496.71666666673,4416863.266666667,39805.4130787037,39805.4133680556,38.63599358129486,-1
444418.52,4420403.0,39805.4785185185,39805.47875,47.41023096339778,-1
447546.72000000003,4416936.250000001,39806.1852662037,39806.1858449074,48.40371886541164,16
432400.53750000003,4416558.850000001,39806.4478125,39806.4482175926,45.177427992227734,18
447555.6555555555,4416896.633333334,39807.4111805556,39807.4116435185,49.141530297662854,16
443336.8125,4419794.287500001,39808.5422337963,39808.5426388889,43.89829153855985,15
432387.25,4416566.583333333,39809.4678240741,39809.4681134259,41.98285364317366,18
432196.46249999997,4417602.624999999,39810.9981597222,39810.9988541667,42.635431275005054,-1
443369.16,4419803.74,39813.368912037,39813.3691435185,41.47444996624344,15
442207.45384615386,4421062.807692308,39814.344375,39814.3450694444,42.63918385688094,-1
443331.0818181818,4419796.972727273,39821.4753703704,39821.4759490741,48.22540824097634,15
447567.36,4416892.09,39822.0358564815,39822.0363773148,42.40672116515721,16
446268.15,4417190.05,39822.1748148148,39822.1748726852,29.496101437666642,-1
447561.5571428572,4416887.485714287,39822.2910185185,39822.2913657407,39.82787968252515,16
443281.9,4419728.3,39822.5569907407,39822.5569907407,0.0,-1
443115.69090909086,4422396.590909091,39823.0128819444,39823.1450578704,8.60232526702368,-1
442977.0071428571,4422379.764285715,39823.1461574074,39823.1469097222,46.680724073662624,-1
447558.35000000003,4416935.074999999,39832.0243171296,39832.0248032407,47.24256555270595,16
443317.3541666667,4419814.891666667,39832.4677662037,39832.4688078704,40.08989897645015,15
443344.56000000006,4419790.64,39833.4836111111,39833.4839930556,48.31749165679008,15
444487.29999999993,4417865.7,39834.2481712963,39834.248287037,49.67343354332705,-1
443262.3277777777,4419814.23888889,39834.5669675926,39834.571724537,39.32492848035995,-1
443276.33999999997,4419816.493333333,39835.4715393518,39835.4721759259,44.488313071784404,-1
443337.08499999996,4419793.385,39835.5777777778,39835.5795486111,17.001764614292515,15
447559.70909090905,4416887.7727272725,39836.0454976852,39836.0459259259,47.975201927746085,16
442228.41,4421061.89,39836.2880092593,39836.2884837963,45.82051942046846,-1
443357.14999999997,4419780.706249999,39836.3674074074,39836.3678587963,28.532788157011392,15
440508.525,4414265.7,39836.5027430556,39836.5027777778,8.628441342069106,-1
491631.52857142856,4143980.771428571,39837.1235532407,39837.1236921296,45.73543483967788,-1
479479.9,4141516.6,39837.3820138889,39837.3820138889,0.0,-1
479818.3708333334,4141123.379166667,39838.0639930556,39838.0646875,25.98037721062438,19
479825.16371681413,4141077.604424776,39838.2402546296,39838.2462037037,11.92686044191951,19
479825.197029703,4141094.5551980156,39838.3814583333,39838.4289351852,21.633307652699987,19
479825.0692913389,4141109.6519685034,39839.0636805556,39839.0932175926,9.552486587181825,19
479827.1894736844,4141093.4678362575,39839.100162037,39839.108599537,27.74815309177835,19
479810.2959999997,4141085.9816,39839.2197222222,39839.2301967593,12.587692401540378,19
479848.49750000006,4141089.027500001,39839.4078356481,39839.40875,36.32258250722625,19
478996.5,4142877.2,39839.5413078704,39839.5413078704,0.0,-1
479873.92555555544,4141219.73488889,39840.1374305556,39840.1769444444,47.87525456867019,-1
479818.5489296637,4141076.11651376,39840.3664930556,39841.0396412037,24.382165613464338,19
479958.1723404255,4141325.453191489,39841.0911805556,39841.0932638889,38.46881854163428,-1
479817.14482758625,4141071.6241379315,39841.177349537,39841.2049884259,45.49428535516346,19
479817.4893122673,4141097.992750929,39841.3886458333,39841.4971064815,48.72586582095365,19
491199.3,4143430.5727272737,39841.5285648148,39841.5295833333,45.86327506826577,20
490699.752631579,4143097.421052631,39842.2365046296,39842.307337963,48.662100242353226,-1
476695.79275362333,4133620.5449275365,39842.4183564815,39842.4593634259,42.86735354555655,-1
491197.34666666656,4143424.526666666,39842.5311689815,39842.5321759259,11.543396380546112,20
491200.0545454545,4143441.9272727277,39843.2204861111,39843.2210648148,45.515931276746386,20
490921.2483870967,4143954.9161290326,39843.3868518519,39843.3885763889,38.94226495717469,-1
491223.33888888895,4143443.9444444445,39843.4472453704,39843.4477546296,35.32095695192461,20
581064.7999999999,4135740.6999999997,39844.0776967593,39844.0777199074,49.98899878969111,-1
748467.72,4191653.3800000004,39844.2180439815,39844.2180902778,48.808298474908334,-1
296233.30000000005,4240635.05,39844.2807175926,39844.2807291667,24.175400720236357,-1
443353.72500000003,4419769.475000001,39844.6018634259,39844.6021875,48.855910594158416,15
443341.9416666667,4419795.05,39845.5044675926,39845.5048611111,49.42914120228678,15
447561.62,4416891.409999999,39846.0358217593,39846.0362268519,48.69024542969553,16
443334.30714285705,4419802.075,39846.4413657407,39846.442349537,18.110770276495955,15
443319.1631578948,4419812.705263157,39847.4761574074,39847.477025463,46.121253235007075,15
447510.57499999995,4416883.4125,39848.1904282407,39848.419849537,48.86153906714896,16
443272.75000000006,4419662.464285715,39848.4718171296,39848.4723611111,26.574611944519962,-1
443438.7875,4419286.5375,39849.0035763889,39849.0039236111,46.83556341091932,-1
442174.68636363646,4421053.845454546,39849.4615393518,39849.5007407407,47.9342257683938,-1
443301.12380952376,4419806.790476191,39849.5081018518,39849.508900463,36.29944903178366,15
447549.80000000005,4416867.933333334,39850.0382175926,39850.0384722222,45.653696454576206,16
443444.4142857142,4419758.478571429,39850.5238657407,39850.5241087963,41.43066497202037,-1
443344.0249999999,4419817.283333332,39851.2291203704,39851.2294328704,46.2585127302777,15
444126.92,4417576.84,39851.3482175926,39851.3487152778,41.08576395787042,-1
470435.8538461539,4414413.292307692,39851.3995023148,39851.4000810185,48.76474136079962,-1
465567.675,4417616.075,39851.5902662037,39851.5903009259,38.433448973521756,-1
443358.97000000003,4419784.5600000005,39851.6509837963,39851.6513541667,46.69528884169262,15
443396.39999999997,4419837.0125,39852.2396875,39852.2503703704,43.02150624995089,-1
432396.91,4416555.29,39852.4916319444,39852.4920138889,46.939216013939145,18
432180.1299999999,4417627.38,39852.9879282407,39852.9886458333,22.138653978433304,-1
432396.7555555555,4416557.427777778,39853.456412037,39853.4572453704,47.55544132924604,18
432415.1935483871,4416542.138709676,39853.5455092593,39853.9788888889,48.58199254870776,18
447563.7384615385,4416963.86923077,39854.0163310185,39854.0168402778,47.282237680242694,16
443338.31250000006,4419765.524999999,39854.5177199074,39854.5183333333,44.704474049014024,15
444317.9294117647,4419283.794117648,39855.01,39855.0103703704,39.50303785783578,-1
443313.66,4419809.720000001,39855.4644907407,39855.4653819444,47.50421033973912,15
444355.0071428571,4419307.1928571435,39856.0136342593,39856.0138078704,32.840219244236664,-1
443316.03124999994,4419792.393750001,39856.4838194444,39856.4844907407,49.75479876365878,15
444214.45,4419242.3,39857.0159606481,39857.0159722222,36.199585632970134,-1
443351.7363636364,4419783.263636364,39857.5485300926,39857.5489236111,48.02082881417188,15
443341.8642857144,4419826.985714285,39858.2371180556,39858.3044212963,32.88038929238456,15
449173.9307692308,4417831.623076923,39858.4312268518,39858.4318634259,45.31942188491613,-1
443340.38387096784,4419777.064516129,39858.5096180556,39859.3820833333,48.58353630587889,15
444243.89999999997,4419398.2,39859.4264930556,39859.4270833333,48.30082815026093,-1
443362.4555555555,4419777.088888888,39859.5770717593,39859.5773842593,46.85338835131503,15
444315.0,4419304.8,39860.020150463,39860.020150463,0.0,-1
443358.39999999997,4419769.6125,39860.4925694444,39860.4927546296,47.63412642210821,15
443245.5625000001,4419777.9125,39860.8733564815,39860.8749074074,21.780725424212484,-1
447563.7,4416884.018181818,39861.019224537,39861.0196759259,49.92674633952249,16
443326.0766666667,4419767.22,39861.5204166667,39861.5229050926,32.474605463382126,15
443433.1015873016,4419974.068253968,39862.0040625,39862.0070833333,38.50519445440826,-1
439828.79047619057,4433791.685714285,39862.4588657407,39862.4592824074,44.44007200683002,-1
443328.12500000006,4419784.575,39862.5670138889,39862.5680092593,33.602529666626545,15
444324.54000000004,4419299.926666667,39863.0134375,39863.0137847222,34.82829309603274,-1
447567.53333333327,4416978.033333333,39863.1949421296,39863.1955787037,38.83361945494494,-1
443336.2888888889,4419783.444444444,39863.4761805556,39863.476400463,49.45563668551783,15
443344.9,4419783.872727273,39864.5195833333,39864.5199884259,49.724038452537144,15
439829.595652174,4433707.373913042,39865.1909027778,39865.1919328704,39.01179308895338,-1
443322.3281250001,4419797.525000001,39865.5661342593,39866.2337731481,47.7942465155862,15
442928.2,4419734.3,39866.3773263889,39866.3773263889,0.0,-1
443503.93749999994,4419780.887499999,39867.475474537,39867.4756828704,44.597085106769114,-1
439821.13125000003,4433738.0125,39868.4663657407,39868.4670138889,49.03977977101535,-1
443351.2181818182,4419788.790909091,39868.5943865741,39868.5947337963,48.373546489791295,15
439840.6222222222,4433734.300000001,39869.4544907407,39869.4547106481,46.676010969416005,-1
443354.7727272727,4419785.690909091,39869.6046296296,39869.6051388889,47.494841825171044,15
447548.43333333335,4416887.855555556,39870.1771875,39870.1774768519,45.27471700632169,16
443387.05555555556,4419708.211111111,39870.5905324074,39870.5908217593,45.74199383432704,-1
447544.0846153846,4416892.561538462,39871.499537037,39871.500150463,49.33153149883627,16
443351.86363636365,4419797.072727273,39871.6063310185,39871.6067592593,48.056321124555254,15
444288.4333333334,4419270.647619046,39872.0063194444,39872.006875,28.593880464168706,-1
447509.9,4416883.680000001,39872.1697106481,39872.17,48.386465049968066,16
443349.03076923074,4419784.776923077,39872.6056134259,39872.6061574074,46.37294469841038,15
447568.3818181818,4416906.081818182,39873.0462731481,39873.0467013889,48.70749428970056,16
447566.14999999997,4416914.5571428565,39873.175462963,39873.1760300926,46.6438634761977,16
443344.7,4419789.8545454545,39873.6132291667,39873.6136689815,44.81450657987908,15
447562.49230769236,4416902.13076923,39874.0257986111,39874.0262962963,48.59681059489321,16
443334.1916666667,4419801.45,39874.610787037,39874.6113310185,49.036822898950355,15
444284.55833333335,4419339.516666667,39875.0137847222,39875.0142013889,49.93796151253897,-1
443347.95454545453,4419789.827272727,39875.6237268519,39875.6241203704,42.21954523675495,15
447525.45,4416894.583333333,39876.0093402778,39876.0094560185,34.26032691061761,16
447246.66,4416567.85,39876.4341435185,39876.434525463,46.72312061486163,-1
443353.6,4419782.8692307705,39876.5935300926,39876.5939583333,45.3748829199772,15
443357.4555555556,4419786.111111111,39877.6150231481,39877.6153819444,44.446147189625016,15
447564.7363636363,4416881.763636363,39878.0259837963,39878.026400463,45.91666364192281,16
439832.5473684211,4433762.263157896,39878.4919907407,39878.4928125,30.078065097354056,-1
443318.30000000005,4419798.668571427,39878.6449884259,39879.0475347222,46.30010799094321,15
443386.89999999997,4419716.1875,39879.0593287037,39879.2583680556,37.67465991865065,-1
442194.29166666657,4421075.891666667,39879.3181134259,39879.3186458333,46.746657634409004,-1
443323.48787878774,4419808.345454546,39879.3728356481,39879.3739699074,49.158620810878574,15
443296.8,4420294.3,39879.5340509259,39879.5340509259,0.0,-1
443348.0764705883,4419773.017647058,39880.5542361111,39880.5548032407,46.52956049652737,15
443300.8499999999,4419825.46875,39881.5487847222,39881.5494907407,48.46411043261636,15
443361.18461538455,4419790.176923076,39882.500474537,39882.500775463,47.85310857171345,15
443354.07,4419773.149999999,39883.592662037,39883.5929398148,49.782125306206055,15
444469.3,4417442.616666667,39884.5773958333,39884.5774768519,43.572583122965966,-1
444300.83333333326,4421242.933333333,39886.1122337963,39886.1130787037,34.23273287366061,-1
443405.5791666666,4419774.441666667,39887.417962963,39887.41875,41.38139678683628,15
443348.7,4419788.4125,39889.5642476852,39889.5644328704,47.10095540446882,15
443066.9,4419890.4350000005,39890.5011342593,39890.5020717593,44.74382639008428,-1
443359.95454545453,4419786.527272727,39891.615625,39891.6160300926,45.03887209966817,15
445315.1142857143,4417401.871428572,39893.10625,39893.1063194444,47.70167711937037,-1
443311.18000000005,4419817.4399999995,39893.5076967593,39893.5080324074,49.40364359069863,15