442832.56666666665,4425409.883333334,39416.7361574074,39416.7363541667,15.435025105269746,-1
442577.86,4425280.52,39423.7659490741,39423.7661111111,12.381033882405804,-1
441789.27999999997,4424359.49,39424.719212963,39424.7549421296,20.529247429171892,-1
441120.32,4425433.779999999,39424.7683680556,39424.7688888889,48.50938053612852,-1
440098.6,4426949.4,39424.8972569444,39424.8972569444,0.0,-1
440001.5333333334,4427090.666666667,39426.5453356481,39426.5486458333,41.498192731921804,-1
440073.27999999997,4426962.0200000005,39430.4924074074,39430.4926388889,15.42076522114066,307
440829.4666666666,4426695.5,39430.8098032407,39430.8098726852,24.27117632075893,-1
440573.85000000003,4427278.288888889,39430.9644212963,39431.0007060185,13.787675656389567,-1
440070.9,4426918.8,39431.0501041667,39431.0501041667,0.0,-1
450579.075,4417126.624999999,39431.4033333333,39431.4176967593,48.303726564313855,-1
447702.19999999995,4421757.95,39431.5201157407,39431.5201736111,1.920937271237127,-1
449137.93333333335,4418420.066666666,39431.772037037,39431.7721527778,11.428035701422699,-1
450522.29736842116,4409992.205263159,39431.8749421296,39431.9370023148,42.06376112523032,-1
450686.68,4409763.840000001,39432.7975462963,39432.7977777778,47.67651413449761,-1
439998.8,4427068.3,39434.8877893519,39434.8877893519,0.0,-1
442845.68333333335,4425255.183333334,39436.6524652778,39436.6528935185,41.19186812984265,-1
440065.91666666657,4426974.866666666,39436.7821875,39436.7827777778,48.88118247323303,307
445011.7,4423287.225,39438.745,39438.8668171296,48.205082719484075,-1
440018.425,4427011.7375,39438.8895949074,39438.9008912037,31.230273774122708,-1
440219.6272727272,4426456.195454546,39440.7171990741,39440.7645023148,26.181100053888773,-1
441014.69999999995,4425569.55,39440.8037384259,39440.8037962963,3.324154027831,-1
441330.04000000004,4424079.840000001,39440.9267939815,39440.9269675926,41.46540726900799,-1
440114.4571428572,4426907.342857143,39440.9994328704,39440.9996643519,38.94868418795567,-1
443237.4,4426693.8,39444.6460763889,39444.6460763889,0.0,-1
440554.69999999995,4424153.8,39444.7504398148,39444.7507291667,46.072117381351475,-1
441073.4,4426993.8,39444.8196990741,39444.8196990741,0.0,-1
456253.36,4416178.82,39447.5062384259,39447.506400463,41.24948484544632,-1
455785.94285714295,4415124.771428571,39447.633900463,39447.6341550926,43.30415684434414,-1
440173.50999999995,4426853.100000001,39447.8142939815,39447.8146527778,49.1304386303041,-1
434429.5,4431833.8,39447.8973611111,39447.8973611111,0.0,-1
442548.92000000004,4420953.9799999995,39448.6822685185,39448.6824074074,33.45399826632044,-1
445859.6142857143,4421061.200000001,39448.7377314815,39448.7494212963,33.753962730157774,-1
440906.8428571429,4425585.614285714,39448.8045833333,39448.8049305556,48.96386422656869,-1
439964.1,4427020.8,39448.9184490741,39448.9184490741,0.0,-1
440072.9,4426995.7,39454.9111921296,39454.9111921296,0.0,-1
440586.8285714286,4426729.342857143,39455.7542013889,39455.7545486111,40.43191808442137,-1
441034.4,4425566.7,39459.3930555556,39459.3930555556,0.0,-1
441120.7,4425676.725,39462.531712963,39462.5319560185,48.227067089115465,-1
440060.52,4426986.62,39462.6047453704,39462.6051041667,47.207308756653276,307
448110.9199999999,4411481.66,39466.5281828704,39466.5284143519,18.74913331318412,-1
440030.6333333333,4427002.333333333,39466.8109490741,39466.8137962963,25.223005371751846,-1
448126.0999999999,4411360.066666666,39468.3960763889,39468.3963425926,41.3206969927931,-1
446319.4,4408118.0,39468.4902662037,39468.4902662037,0.0,-1
448040.95,4412311.95,39468.5480671296,39468.548125,13.461797800015011,-1
440026.65,4427076.449999999,39468.782974537,39468.7830092593,6.243396511350914,-1
450324.77499999997,4426238.225000001,39480.3731712963,39480.3735300926,14.312581877676443,-1
478648.9,4367233.9,39480.9602083333,39480.9602083333,0.0,-1
667851.8666666667,3551810.4,39481.6289583333,39481.6290740741,8.15843122174389,-1
578457.6426086954,3421262.052173914,39482.5669328704,39482.837962963,30.912780528587437,308
578452.0692307691,3421247.4019230753,39482.8523726852,39482.9502083333,41.63616216705435,308
578464.0187499999,3421259.4499999997,39483.0195949074,39483.0529398148,35.694957627274306,308
578460.0129032258,3421254.770967743,39483.089224537,39483.1623958333,30.139177161882408,308
578455.0590909092,3421237.986363636,39483.1651736111,39483.2155671296,43.763912073573564,308
578460.812,3421253.346000001,39483.2183449074,39483.3134837963,42.65512864812395,308
578449.0241379311,3421253.9793103454,39483.3331018519,39483.3889699074,41.59062394333389,308
576615.125,3422051.275,39483.493287037,39483.4934606481,27.176828365451783,-1
577388.4,3422181.4,39483.5974884259,39483.5974884259,0.0,-1
578238.9,3421378.3,39483.6453935185,39483.6453935185,0.0,-1
577579.8222222222,3423389.666666666,39483.7728703704,39483.7759953704,46.418638498099135,309
589678.787096774,3425076.725806451,39485.5588541667,39485.5984837963,44.40551767526755,-1
578449.7444444444,3421223.651851852,39485.6257638889,39485.6622685185,32.81249761912445,-1
578862.075,3421169.9625,39485.7240393519,39485.7244444444,46.15463140384199,-1
577592.8,3423388.9,39485.8535532407,39485.8535532407,0.0,309
578435.5888888888,3421235.4777777777,39486.6076967593,39486.6081134259,48.899897750424344,-1
577662.8333333334,3423427.6666666665,39487.8942939815,39487.8945138889,20.317726250893788,-1
577485.4333333332,3423241.9166666665,39489.4260648148,39489.4263541667,49.05517301971666,-1
576063.95,3420843.55,39489.5964814815,39489.5972106481,34.3455965154584,-1
577578.1,3423377.714285714,39489.9195138889,39489.9197916667,43.143133868413855,309
578458.15,3421363.85,39490.5742824074,39490.5743402778,4.465422712507558,-1
578457.2875,3421261.1874999995,39490.8731134259,39490.8734259259,42.15174966715863,308
574432.3,3422784.3,39491.5794328704,39491.5794328704,0.0,-1
578487.6666666666,3421268.0666666664,39492.7037152778,39492.7038310185,7.720103626265608,-1
577580.91,3423360.0700000003,39493.5649305556,39493.8495601852,42.573465914816005,309
577570.6105263159,3423361.4578947374,39493.8525347222,39493.8973032407,41.86991760211943,309
577587.82,3423354.6400000006,39493.9000925926,39493.9307407407,48.005416361437405,-1
577564.1000000001,3423345.3,39493.9434490741,39493.9463657407,41.69844121784988,-1
576813.8,3423301.3,39494.718287037,39494.718287037,0.0,-1
579892.3,3421548.7,39494.7797337963,39494.7797685185,47.18304780314072,-1
576689.14,3422082.6533333333,39494.8527777778,39494.8871064815,48.42850400319779,-1
577653.5083333332,3423360.0833333335,39494.9149884259,39494.9155092593,47.915028957462866,-1
576414.4333333333,3422791.1666666665,39495.6549652778,39495.6551273148,34.085187398518585,-1
578553.2,3421071.2,39495.8299884259,39495.8299884259,0.0,-1
578148.6,3421973.4,39495.9013657407,39495.9013657407,0.0,-1
576712.088888889,3422116.944444444,39496.8071296296,39496.8597222222,36.423206887567595,-1
577587.0,3423450.4,39496.8765856481,39496.8765856481,0.0,-1
513355.4,3473824.0,39497.7361458333,39497.7361458333,0.0,-1
520104.75,3521721.65,39497.8658217593,39497.8658564815,25.97883754117666,-1
387259.8,4129583.6666666665,39498.3252430556,39498.3252777778,32.869438692829846,-1
440513.47500000003,4426013.575,39499.4697916667,39499.4699421296,39.13885537435429,-1
440817.6,4425881.6,39499.6920717593,39499.6920717593,0.0,-1
440230.02857142856,4426818.685714286,39499.7716898148,39499.7720023148,36.08559269347497,-1
439662.975,4427362.387499999,39500.3869212963,39500.3873032407,48.12733111248229,-1
440077.6619047619,4426943.871428572,39500.4458333333,39500.4782523148,42.271148552748656,307
441711.2,4423916.1,39500.5457407407,39500.5457407407,0.0,-1
440009.6333333333,4427007.833333333,39500.6978009259,39500.6978935185,12.58729518191743,-1
440272.14210526313,4426784.2105263155,39516.5436921296,39516.5774537037,35.51239220346631,-1
441653.80000000005,4423997.300000001,39516.6593518518,39516.6594328704,3.328663395255671,-1
440651.794117647,4424798.8,39516.7336111111,39516.734537037,42.30011820356218,-1
440040.8,4426970.800000001,39516.8934722222,39516.8936458333,26.166390656839592,-1
440825.3833333333,4426750.033333334,39531.4393634259,39531.4396527778,40.0681918735099,-1
440331.89166666666,4426560.916666667,39531.7296875,39531.7302546296,37.20483839521186,-1
441300.9857142857,4425322.685714285,39533.6611458333,39533.6614930556,45.48197445150115,-1
440541.94000000006,4426886.659999999,39533.7940046296,39533.794212963,9.213576938242172,-1
441253.71666666673,4425309.25,39535.3736574074,39535.3738310185,40.989022920418364,-1
440013.6,4426975.8,39535.6176273148,39535.6176273148,0.0,-1
441158.82,4425337.76,39536.4726736111,39536.4729050926,47.224569875746475,-1
441314.39999999997,4425348.216666666,39538.3796064815,39538.3798032407,18.5205291500799,-1
441128.2,4426240.1,39560.3688194444,39560.3688194444,0.0,-1
440452.8,4426847.5,39568.3553819444,39568.3553819444,0.0,-1