441404.0,4416143.7,40677.5066898148,40677.5066898148,0.0,-1
247125.03076923083,3382085.843956044,40677.9964814815,40685.3584143519,46.499892473154986,-1
236042.72000000003,3391090.9799999995,40685.4390046296,40685.4390509259,49.21788292899962,-1
236473.80000000002,3390844.733333333,40685.5025,40685.5130671296,26.630809225483294,-1
445230.1964285714,4434563.082142857,40734.1339236111,40734.1342361111,49.20376001907605,-1