444104.2785714286,4425830.335714286,39746.5986689815,39746.5996064815,24.9899979991996,-1
413520.7454545453,4421704.050909092,39747.1903240741,39747.2266666667,33.82499076116137,-1
421356.93333333335,4421647.5,39747.4194328704,39747.4195486111,29.433314458152182,-1
430316.77826086956,4417674.504347825,39747.5137962963,39747.5150694444,43.635421391495555,-1
443591.2583333333,4425367.750000001,39747.6779513889,39747.678587963,47.74149138851865,69
444170.04000000004,4425818.74,39748.0567476852,39748.0569791667,47.81317810012975,70
444211.0944444445,4425845.355555556,39748.2760300926,39748.4056365741,41.41654258881093,70
443852.07999999996,4425634.499999999,39748.4591087963,39748.4593402778,32.19254572066647,-1
444166.5333333334,4425812.891666667,39748.5629976852,39748.5640162037,31.301916873894186,70
426183.7081481479,4407149.547407408,39749.0992708333,39749.2062152778,49.3106479375172,-1
444204.6428571428,4425858.2,39749.342349537,39749.3431018519,47.63034746898726,70
443559.38636363647,4425361.663636365,39749.6845717593,39749.685787037,45.75642031457703,69
444160.4636363637,4425826.036363636,39750.0512731481,39750.0517939815,45.20199110688211,70
443553.4489795918,4425756.240816328,39750.2028240741,39750.2958333333,48.01301906710495,-1
444137.23749999993,4425603.2625,39750.3294560185,39750.3298611111,44.316249841163206,-1
443709.5,4426073.8875,39750.5734722222,39750.5740509259,42.107006542378514,-1
443583.1,4425904.199999999,39750.6665277778,39750.6665856481,44.86423965680398,-1
444201.3222222223,4425629.055555556,39751.4425347222,39751.4429398148,40.09451334007414,-1
444159.5,4426111.3,39751.5280787037,39751.5280787037,0.0,-1
443596.73999999993,4425366.17,39751.686724537,39751.6872453704,48.007603564522405,69
443419.8333333333,4425704.333333333,39752.2019791667,39752.2628587963,39.740407647271944,-1
444165.8363636363,4425809.927272727,39752.2962731481,39752.2968518519,43.7978309965231,70
445402.09528023587,4423448.882005897,39752.5045833333,39752.6005324074,49.26682453760081,-1
443658.16250000003,4425899.8,39752.6390393519,39752.6394444444,41.41316215923453,-1
474237.2515463916,4490314.77628866,39753.1863425926,39753.2309722222,45.46746089224653,-1
477091.27499999997,4494684.95,39753.4177777778,39753.4179513889,47.73855883832286,-1
442300.83999999997,4426534.1,39754.1152662037,39754.1154976852,48.27556317632574,-1
442780.90625,4427080.524999999,39754.1688194444,39754.1696875,31.50872894936518,-1
444187.0909090909,4425818.090909093,39754.2216203704,39754.2221412037,46.36248483489233,70
444182.36250000005,4425824.6375,39754.5581944444,39754.558599537,35.56880655852137,70
443456.80000000005,4425954.116666666,39755.4930439815,39755.4936805556,38.17250319265404,-1
444144.5846153846,4425788.507692308,39755.5825925926,39755.5832291667,29.353705047245395,70
443536.0714285715,4425336.528571429,39755.6854398148,39755.685787037,36.158124951369565,-1
423359.6369888471,4438047.117843868,39756.2139814815,39756.256400463,48.408367045390484,-1
443769.83333333326,4425895.28,39756.501099537,39756.5046296296,17.200290695218253,-1
444416.0,4425783.6,39757.4583680556,39757.4583680556,0.0,-1
444106.4818181817,4426043.572727273,39757.5458217593,39757.6068518519,49.684705895907676,-1
443572.1,4425664.971428571,39757.7097916667,39757.7101388889,43.2209439967256,-1
443718.57499999995,4425474.15,39757.9301967593,39757.9303703704,34.433704418803764,-1
443934.7,4425754.033333333,39758.0510416667,39758.0514814815,48.197614048814515,-1
443508.1,4425998.2,39758.2011574074,39758.2011574074,0.0,-1
444156.3,4425817.9,39758.5152314815,39758.5156944444,44.93840228607663,70
444162.3333333333,4425795.100000001,39759.0761805556,39759.1836226852,48.338907724704626,70
444159.1153846154,4425826.238461538,39759.2074074074,39759.2080439815,49.11466176204413,70
444788.5,4426633.2,39759.5047337963,39759.5047337963,0.0,-1
444172.91666666674,4421346.25,39760.0157060185,39760.0159953704,39.492024511572964,-1
428812.6571428572,4425303.354846938,39760.2190972222,39760.2642939815,48.30279495019156,-1
429224.6842105263,4419723.62368421,39760.3579861111,39760.3597222222,47.940066750057824,-1
443504.75000000006,4424896.15,39760.4622453704,39760.462650463,33.3402159559125,-1
444154.6000000001,4425829.2,39760.5487615741,39761.1795601852,46.77317607345428,70
444150.4076923077,4425823.792307693,39761.2151041667,39761.2157986111,48.53720222637645,70
443830.1294117646,4425704.382352941,39761.3151967593,39761.3160416667,38.28903237183626,-1
443395.15,4425469.2,39761.4150115741,39761.4150694444,11.365298059988957,-1
444226.76666666666,4425807.633333334,39761.470625,39761.4707407407,34.9857113690718,-1
444156.69230769225,4425821.4384615375,39762.0492361111,39762.1584259259,28.802777643505735,70
444167.85454545455,4425821.590909091,39762.2326041667,39762.2331828704,44.82287362496308,70
444232.37500000006,4425900.4,39762.2935532407,39762.2939583333,45.62817112319333,-1
444166.3333333333,4425813.383333334,39762.4838541667,39762.4841435185,48.92126327069195,70
423777.9739130435,4438016.499033816,39763.2056597222,39763.317337963,43.64241056584798,-1
444228.60000000003,4425542.425000001,39763.4493171296,39763.4494907407,38.83297567827233,-1
444198.4666666666,4425798.833333333,39764.5365856481,39764.5367013889,49.400101213977884,-1
443451.5,4425335.050000001,39764.713912037,39764.7139699074,7.26154253604265,-1
444157.35833333334,4425804.983333332,39765.0564236111,39765.0570023148,16.249615380123437,70
444174.4333333333,4425785.566666666,39765.2408796296,39765.2411689815,46.15246472254439,70
423663.4845637586,4437986.244295303,39766.209224537,39766.252974537,42.19300889960205,71
423665.8160818714,4437976.197368423,39766.2545949074,39766.3062731481,46.23267243014087,71
423658.55113268585,4437973.205825241,39766.3067939815,39766.3585300926,49.19552825185481,71
444209.8,4425612.495652175,39766.4635648148,39766.4647800926,47.58371570191841,-1
439988.85,4423247.35,39767.1287962963,39767.1288541667,39.30114502130126,-1
444194.45,4425828.25,39768.4193055556,39768.4199074074,29.52981544099855,70
443562.23125,4425371.58125,39768.6671759259,39768.6680439815,49.92644589801462,69
444149.03076923074,4425864.153846154,39769.0470023148,39769.0476967593,44.74036209070552,70
444152.1615384615,4425584.553846154,39769.1851041667,39769.1857986111,46.18538729926517,-1
444158.82499999995,4425832.2125,39769.4594212963,39769.4598263889,17.704519196996948,70
443666.07142857136,4425798.228571428,39769.7242708333,39769.7245601852,8.032434251066668,-1
444195.4,4425882.9,39770.0422222222,39770.0422222222,0.0,70
444142.39999999997,4425851.666666667,39770.4437268519,39770.4440162037,41.31174167232417,70
443571.6666666667,4425392.833333333,39770.6828009259,39770.682974537,34.365098574275464,69
423637.12307692313,4437980.430769229,39771.2118518518,39771.2552893519,42.18589811846064,71
444173.41428571433,4425582.542857143,39771.4587615741,39771.4591087963,18.01554884033656,-1
444155.67499999993,4425847.425,39772.0668287037,39772.1727777778,45.44062059454736,70
444177.9142857143,4425775.100000001,39772.2192013889,39772.2195486111,43.525280010756525,70
444227.4,4425690.9,39772.4914236111,39772.4914236111,0.0,-1
444163.8,4425818.92,39772.6197916667,39772.6200231481,42.21587379189022,70
443432.6467455619,4425785.117455619,39772.6679976852,39772.7039351852,48.229555253964676,-1
443569.66666666674,4425365.573333333,39772.7107060185,39772.7114583333,48.49288607617224,69
444197.23846153845,4425826.2153846165,39773.2507291667,39773.2514236111,30.64718584144391,70
443842.8250000002,4425701.435,39773.4590972222,39773.4603703704,36.89579921921873,-1
444845.05,4427043.05,39773.5651736111,39773.5652314815,36.152178357789616,-1
443562.1846153847,4425352.276923077,39773.7109375,39773.7116319444,26.004999519345496,69
444161.60000000003,4425822.066666666,39775.1193981481,39775.1198032407,45.53778650762921,70
444154.2444444445,4425827.966666666,39775.1869212963,39775.1873842593,38.48025467706752,70
444138.2631578947,4426273.902631578,39775.3461921296,39775.3496643519,39.53985331299197,-1
444158.17500000005,4425816.225000001,39775.5236111111,39775.5242476852,44.5457068635289,70
444323.35714285716,4425637.628571428,39785.4332523148,39785.433599537,42.29952718411874,-1
444174.3,4425861.975,39786.0488194444,39786.0489930556,41.54274906610714,70
444157.36,4425824.09,39786.5242476852,39786.5247685185,40.3271620627613,70
444169.5,4425789.550000001,39786.6192361111,39786.619525463,27.342457826599823,70
474780.55000000005,4374130.25,39788.2102430556,39788.2103009259,7.414849964885816,-1
474773.24,4374204.413333333,39788.3725115741,39788.3732638889,47.4236228055175,-1
444171.02857142856,4425856.971428572,39788.5145949074,39788.5149421296,48.001666637732676,70
441007.22857142857,4426083.107142857,39789.1451967593,39789.1459490741,47.70377343541534,-1
444168.9555555555,4425843.3444444435,39789.2346759259,39789.2351388889,26.420068130664955,70
444497.4181818181,4425975.732727272,39789.423287037,39789.4283796296,33.714833530637286,-1
444197.7,4425294.6,39789.5310532407,39789.5310532407,0.0,-1
443648.9166666667,4425527.633333334,39790.6805439815,39790.6808333333,16.68172652950392,-1
444167.55999999994,4425840.250000001,39791.0430324074,39791.179212963,12.99884610299777,70
444164.8230769231,4425823.192307692,39791.1963425926,39791.3840509259,48.82499359970807,70
444185.35555555555,4425919.222222222,39791.4253703704,39791.4258333333,44.82588537885347,-1
444170.5,4425784.1,39792.0484259259,39792.0484837963,33.440095693827914,70
444243.3692307692,4425831.107692308,39792.1965856481,39792.1972222222,42.53998119368056,-1
444162.0333333333,4425816.755555556,39792.4636458333,39792.4641087963,41.877917808782954,70
443610.09,4425784.92,39792.5328356481,39792.5333564815,34.32928778738012,-1
433270.44399999996,4411465.312,39793.086400463,39793.1304976852,26.35924885136375,-1
440674.85000000003,4426780.666666667,39793.4350810185,39793.4353703704,42.2452364184064,-1
444159.8736842105,4425823.305263158,39793.5880787037,39793.5896412037,35.67211796332088,70
443699.6583333334,4425780.141666667,39794.4627546296,39794.4633333333,46.24672961376037,-1
443580.21802721085,4425551.689795921,39795.2228240741,39795.2807638889,39.46770831939959,-1
444191.8333333333,4425802.766666667,39795.3643634259,39795.3644791667,40.64148127205399,70
443653.55000000005,4425909.75,39795.5086458333,39795.5087037037,9.534149149149012,-1
443636.61000000004,4425319.7700000005,39795.7081944444,39795.708599537,8.955445271056437,-1
443628.25,4425869.75,39796.2935416667,39796.2937152778,45.52449889942076,-1
443631.8,4425502.3,39796.6619097222,39796.6619097222,0.0,-1
444159.9166666667,4425758.8,39797.0419444444,39797.0421759259,32.86715685983536,-1
444162.56666666665,4425814.699999999,39797.1685648148,39797.1690277778,41.554301823048874,70
444195.19999999995,4425869.15,39797.2888425926,39797.288900463,49.332849096535995,70