440838.72115384595,4437780.131891028,39680.5909143519,39680.6295949074,49.66165522798636,739
440829.094117647,4437786.937647057,39680.6763078704,39680.6782523148,20.02023975844868,739
439105.3916666666,4417585.627777779,39681.5156828704,39681.5164930556,45.9952171427637,-1
445979.7293103448,4417790.320689656,39682.3007175926,39682.3033564815,28.45417368331836,-1
441929.1490566039,4428872.064150944,39683.1365625,39683.1394097222,39.19349435801384,740
440837.78814814804,4437789.935555555,39683.5600347222,39683.5723032407,47.04859190275746,739
442645.78,4428969.006666667,39684.1637962963,39684.165162037,34.69437994816354,-1
441749.7,4430262.1,39684.2356481481,39684.2356481481,0.0,-1
440810.13999999996,4437879.39,39684.6610069444,39684.6612152778,45.286642622486085,-1
440137.0434782608,4437828.182608695,39687.4042824074,39687.4123842593,49.87865274842332,-1
444448.6342857142,4422584.294285714,39688.1477314815,39688.1485185185,48.40588807141215,-1
440779.8433333333,4426009.77,39688.3153240741,39688.3159953704,40.59975369401629,-1
440780.2,4437802.655,39688.5778819444,39688.5783217593,47.281708937517045,741
442109.1241379311,4429145.751724138,39690.1567013889,39690.157349537,43.54124481453193,-1
442342.0916666666,4427352.6375,39690.5067592593,39690.5072916667,49.65047834625451,742
440793.2442028988,4437635.658333331,39691.4281712963,39691.4364351852,27.439023306630368,-1
440688.03124999994,4437897.9,39693.4427777778,39693.4453472222,47.98207998814859,-1
442340.9588235293,4427335.280392157,39695.4263541667,39695.4275115741,47.35240226229608,742
440783.7375,4437835.61875,39695.5853819444,39695.586099537,45.26742758320571,741
442367.4466666667,4427324.266666668,39696.0883449074,39696.0893634259,47.63622571108377,-1
442576.36250000005,4428937.487500001,39696.428125,39696.4292361111,46.16632972216336,-1
440775.1655172414,4437834.234482759,39696.5426967593,39696.5445717593,44.58901209955561,-1
442359.77959183673,4427355.475510205,39697.2450578704,39697.2461689815,36.5658310448276,742
440823.54277180444,4437783.79653524,39697.5862152778,39697.6198726852,30.088702198535632,739
440784.87857142865,4437858.892857143,39697.6444560185,39697.6447800926,49.41619167843975,-1
440826.32488129166,4437787.917283952,39697.6858217593,39697.7390856481,48.44233685478082,739
440903.475,4437774.825,39697.7599189815,39697.7599884259,0.8062257755734914,-1
441382.1303571427,4437620.920535714,39698.3406712963,39698.3483101852,35.86321234887504,-1
443371.73103448295,4436221.013218389,39698.4157291667,39698.4294097222,37.70437640411033,-1
442396.4375,4427364.850000001,39699.2321180556,39699.2324652778,46.249108099572915,-1
440792.79540229903,4437831.714942529,39699.5782986111,39699.5802893518,18.809572030892454,741
442350.13636363635,4427353.618181818,39700.0841666667,39700.0843981481,34.952110093238765,742
440790.9660377358,4437803.303773586,39700.6166782407,39700.617974537,5.85234995539164,741
443405.9800000001,4425234.126666666,39701.4431365741,39701.4434606481,49.39736835081913,-1
440785.38793103455,4437775.137931033,39701.5428125,39701.545775463,49.72403845228008,741
441903.6707671961,4428878.713624345,39702.7619675926,39702.7970601852,49.895190149646034,740
442832.7631578947,4425272.652631579,39703.1161574074,39703.1165740741,43.23852448905916,-1
442869.10588235303,4425272.576470588,39703.46625,39703.4670138889,45.23858972152627,-1
441917.32395833364,4428902.212499998,39703.6371412037,39703.6402199074,36.783963897356585,-1
442683.225,4426777.3,39704.1925462963,39704.1926157407,41.857018527340585,-1
441925.8499999999,4428863.15,39704.2660416667,39704.2666203704,47.803765541870916,740
440848.475,4437810.6,39704.5523958333,39704.5524652778,37.9436424188099,-1
442855.3942857143,4425246.471428569,39705.1030787037,39705.1038657407,48.93883938140015,-1
443079.1,4425154.888888889,39705.374212963,39705.3748148148,49.322307326538215,-1
441130.60517241375,4425386.393103449,39705.4215393519,39705.4228587963,49.20619879612699,-1
441484.005,4435692.710000001,39705.5392361111,39705.5396759259,36.73268299480344,-1
440840.75,4437817.533333333,39706.2097453704,39706.2098611111,25.019992006675107,-1
441457.475,4436239.442500001,39706.2977430556,39706.2986458333,49.30162269101796,-1
440837.51333333337,4437667.053333334,39706.4177546296,39706.429837963,47.62026879387251,-1
442631.21272984444,4427937.630127297,39706.5468981481,39706.5975925926,16.836270370858482,743
442617.35445935256,4427922.267876871,39706.5994212963,39706.6363657407,49.06006522629259,743
441902.31473684206,4428855.008421054,39706.6916550926,39706.7005439815,13.32403842666771,-1
440975.3068965517,4426024.651724138,39722.2618287037,39722.2624768519,42.23387266178904,-1
440846.66,4437715.38,39722.4337384259,39722.4338310185,8.104319835837304,-1
442637.29999999993,4427938.139873419,39723.1132060185,39723.1187847222,44.721359549995796,743
442188.31999999995,4429067.56,39723.1741203704,39723.1745601852,45.83535753087234,-1
442619.66086248966,4427926.15386493,39723.3410069444,39723.3795023148,48.449974200231246,743
440874.0638364781,4437656.35408805,39723.4693981481,39723.4991666667,41.195388091214404,-1
445045.07857142854,4425463.514285714,39724.1662152778,39724.1678356482,47.006808017562534,-1
440898.15624999994,4437659.131250001,39724.4637384259,39724.4640856481,35.64519602958368,-1
441423.2142857142,4436311.3595238095,39725.1115277778,39725.1133333333,38.941622976103794,-1
440794.7181818182,4437805.2272727275,39725.4694675926,39725.4724305556,34.61618118737222,741
440767.8687499999,4437753.146875001,39726.6138773148,39726.6152199074,37.830807551342126,-1
444002.96962025337,4432323.639240507,39729.0867361111,39729.1215509259,47.94204834993399,-1
442434.305,4427342.492500001,39729.1452893519,39729.1461921296,47.079188608134764,-1
440788.472,4437836.308,39729.4920138889,39729.4925694444,49.213006411266264,741
442386.8514285714,4427369.320000001,39730.0957407407,39730.0965277778,49.43531126609399,-1
440819.42222222226,4437785.899999999,39730.4833796296,39730.4855555556,41.05423242463808,739
442928.6888888889,4427055.422222223,39732.1152430556,39732.1167708333,41.50433712309465,-1
440783.4451612904,4437801.7709677415,39732.4315393518,39732.4322337963,39.9711145705798,741
441912.9092024538,4428850.628834356,39733.1308217593,39733.1396875,35.511406618165246,740
441604.36666666676,4426458.733333333,39733.4143518518,39733.414537037,43.488504228081155,-1
440637.4666666667,4437885.5476190485,39733.5019791667,39733.5024421296,49.5795320676817,-1
442507.24,4427334.120000001,39735.0895023148,39735.0898263889,48.19999999983847,-1
440776.163157895,4437798.7473684205,39735.5168981481,39735.5173148148,44.0959181788088,741
442402.89999999997,4427334.6818181835,39736.0916435185,39736.0926388889,47.584871545674936,-1
440802.0333333334,4437885.133333334,39736.5558333333,39736.5558796296,13.93448958492478,-1
442137.65657894744,4429120.347368422,39740.1588310185,39740.1606134259,37.007296577926276,-1
440779.2857142856,4437799.653571428,39740.4728819444,39740.4735069444,48.106652346099075,741
442329.4947368421,4427362.415789473,39742.0912037037,39742.0916203704,32.775600680975636,742
440378.876,4437944.752,39742.4862037037,39742.4869560185,49.23667332385485,-1
441113.8062500001,4426006.843749999,39747.1223032407,39747.122650463,45.35603598145972,-1
441943.04516129056,4428858.922580646,39747.2457060185,39747.2466087963,14.863714206118262,740
440776.6631578948,4437805.9052631585,39747.514224537,39747.5146412037,49.73047355551407,741
442426.21724137926,4427347.355172413,39748.0964930556,39748.0971412037,41.05569388005995,-1
440800.348,4437816.636,39748.5796527778,39748.5802083333,49.86792556342664,741
443034.734090909,4426996.148863636,39753.1089930556,39753.1543865741,41.12383736959996,-1
441863.96315789485,4428807.308771929,39753.2844328704,39753.2857291667,42.136919678228615,-1
442339.00000000006,4427318.23888889,39753.4526851852,39753.4530787037,48.49999999976717,-1
440787.87499999994,4437811.641666667,39753.5308912037,39753.5314236111,48.18723897428172,741
442378.7473684211,4427345.763157894,39758.2222453704,39758.2235648148,46.51300893295641,-1
442540.88181818184,4427247.872727273,39758.3052777778,39758.3055324074,49.662964067432036,-1
442484.2426470588,4427128.866176471,39759.4318518518,39759.5592361111,48.97029711978707,-1
440195.72000000003,4437899.2,39759.5912384259,39759.5913310185,40.36248257967535,-1
440338.72500000003,4433579.025,39761.1028009259,39761.102962963,44.23324541546649,-1
440789.3703703704,4437794.774074075,39761.5319097222,39761.5325115741,47.50789408032207,741
442039.22307692317,4428985.646153847,39767.1533217593,39767.153599537,46.27504727124964,-1
443047.1413793104,4427007.727586206,39767.4839236111,39767.4845717593,48.11590173765082,-1
441927.67500000005,4428817.502777779,39767.5805439815,39767.5813541667,42.248786964846104,-1
440771.50833333324,4437790.529166668,39768.3267013889,39768.3272337963,47.89415413197783,741
443103.2545454545,4425167.663636364,39769.1543634259,39769.1545949074,25.17657641540873,-1
440677.175862069,4437666.972413794,39769.3011111111,39769.3017592593,49.559055680902375,-1
451976.4,4423706.828571429,39781.1416319444,39781.1417708333,44.479208625814366,-1
440867.4454545455,4426106.654545455,39781.2396759259,39781.2399074074,46.615233561658364,-1