443565.10000000003,4425892.171428571,39744.3068287037,39744.3071759259,46.21655547535061,2008-10-23,07:21:50,2008-10-23,07:22:20,-1
444253.48888888885,4426055.3444444435,39745.5365856481,39745.5370486111,49.71368020951863,2008-10-24,12:52:41,2008-10-24,12:53:21,-1
442310.47500000003,4412421.133333333,39746.2780671296,39746.2786458333,43.96282520503169,2008-10-25,06:40:25,2008-10-25,06:41:15,-1
443378.9363636362,4425256.954545455,39746.4365740741,39746.4383101852,48.35007755926242,2008-10-25,10:28:40,2008-10-25,10:31:10,-1
443516.77499999997,4425856.4875,39746.5245833333,39746.5249884259,37.918992602870894,2008-10-25,12:35:24,2008-10-25,12:35:59,-1
443596.82499999995,4425384.975,39752.1826273148,39752.1828009259,21.102843410233124,2008-10-31,04:22:59,2008-10-31,04:23:14,-1
512376.09230769234,4328578.776923077,39752.3110532407,39752.3116319444,23.08527669243477,2008-10-31,07:27:55,2008-10-31,07:28:45,-1
444129.8888888888,4426126.744444445,39757.3254282407,39757.3258333333,38.27740848071857,2008-11-05,07:48:37,2008-11-05,07:49:12,-1
443595.8777777777,4425966.166666667,39757.5133564815,39757.5138194444,38.11626949206452,2008-11-05,12:19:14,2008-11-05,12:19:54,-1
443664.8000000001,4423594.535714285,39758.2760532407,39758.2767476852,48.434388609735855,2008-11-06,06:37:31,2008-11-06,06:38:31,-1
443982.5533333333,4425978.293333333,39758.3584722222,39758.3592824074,47.593486949379304,2008-11-06,08:36:12,2008-11-06,08:37:22,-1
435177.82,4452671.74,39760.0741087963,39760.0743402778,45.96737973831573,2008-11-08,01:46:43,2008-11-08,01:47:03,-1
443580.0333333333,4425933.733333333,39760.4641898148,39760.4646527778,45.252734723876024,2008-11-08,11:08:26,2008-11-08,11:09:06,-1
443656.37142857147,4425841.885714286,39764.0799537037,39764.0803009259,36.54709290768121,2008-11-12,01:55:08,2008-11-12,01:55:38,-1
444158.14999999997,4425650.357142856,39764.2495717593,39764.2502662037,48.37034215300655,2008-11-12,05:59:23,2008-11-12,06:00:23,-1
444151.789361702,4426210.9170212755,39764.3753009259,39764.3781365741,24.9098374141623,2008-11-12,09:00:26,2008-11-12,09:04:31,-1
443666.9,4427922.8,39764.4946990741,39764.4946990741,0.0,2008-11-12,11:52:22,2008-11-12,11:52:22,-1
443995.60000000003,4425717.286363636,39765.1690509259,39765.2443865741,44.085825386387675,2008-11-13,04:03:26,2008-11-13,05:51:55,-1
444951.27999999997,4416615.9,39765.3888657407,39765.3890972222,45.59034985619954,2008-11-13,09:19:58,2008-11-13,09:20:18,-1
443631.475,4425889.65,39765.459849537,39765.4600231481,49.40303634395358,2008-11-13,11:02:11,2008-11-13,11:02:26,67
443608.69000000006,4425907.135,39767.5213078704,39767.5225231481,25.728777662340043,2008-11-15,12:30:41,2008-11-15,12:32:26,67
443546.0333333334,4425680.149999999,39768.4069907407,39768.4072800926,35.961368161217806,2008-11-16,09:46:04,2008-11-16,09:46:29,-1
443717.7,4425833.200000001,39768.6871527778,39768.6879050926,38.33171011040337,2008-11-16,16:29:30,2008-11-16,16:30:35,-1
443990.85000000003,4426117.8625,39769.5347222222,39769.5351273148,45.04586551578645,2008-11-17,12:50:00,2008-11-17,12:50:35,-1
443633.99090909096,4425921.672727273,39771.4956365741,39771.4962152778,39.891101764272776,2008-11-19,11:53:43,2008-11-19,11:54:33,-1
442556.106060606,4425262.099999999,39771.6744328704,39771.6781944444,48.23079928841252,2008-11-19,16:11:11,2008-11-19,16:16:36,-1
443578.29230769235,4425904.938461538,39771.9340162037,39771.9347106481,34.96741340126858,2008-11-19,22:24:59,2008-11-19,22:25:59,-1
444101.02962962975,4425712.222222222,39772.1912268519,39772.1927314815,44.75712233843356,2008-11-20,04:35:22,2008-11-20,04:37:32,-1
443577.4571428571,4425867.314285715,39773.6417592593,39773.6425115741,40.62868444841438,2008-11-21,15:24:08,2008-11-21,15:25:13,-1
443551.0,4425787.850000001,39775.2947453704,39775.2950347222,48.57911073708982,2008-11-23,07:04:26,2008-11-23,07:04:51,-1
444004.8105263157,4425725.115789472,39783.4815393519,39783.4825231481,47.791317203003864,2008-12-01,11:33:25,2008-12-01,11:34:50,-1
443663.01666666666,4425953.899999999,39784.6400578704,39784.6403472222,49.208332627594736,2008-12-02,15:21:41,2008-12-02,15:22:06,-1
444118.4380281689,4426155.188732395,39785.0175231481,39785.0212847222,21.300938946430943,2008-12-03,00:25:14,2008-12-03,00:30:39,-1
443985.690909091,4425721.136363636,39785.5051041667,39785.5062615741,47.22298169353616,2008-12-03,12:07:21,2008-12-03,12:09:01,-1
443605.18750000006,4425905.466666668,39786.3195717593,39786.3228125,32.37977763969081,2008-12-04,07:40:11,2008-12-04,07:44:51,-1
443821.95,4425091.699999999,39786.5656944444,39786.5657523148,38.00328933132923,2008-12-04,13:34:36,2008-12-04,13:34:41,-1
512388.1166666665,4328618.611111111,39786.6851851852,39786.6861111111,42.7480993728078,2008-12-04,16:26:40,2008-12-04,16:28:00,-1
512868.2666666666,4330866.8,39788.4603240741,39788.4604398148,37.34661965907499,2008-12-06,11:02:52,2008-12-06,11:03:02,-1
512347.21666666673,4328403.608333333,39788.6033333333,39788.6039699074,48.24147593117313,2008-12-06,14:28:48,2008-12-06,14:29:43,-1
512426.5500000001,4326848.872222222,39789.1291782407,39789.2546759259,48.52308728841802,2008-12-07,03:06:01,2008-12-07,06:06:44,-1
512347.69999999995,4328711.25,39789.2637037037,39789.2637615741,29.693265229682314,2008-12-07,06:19:44,2008-12-07,06:19:49,-1
443620.9211538461,4425868.378846154,39789.5696527778,39789.677037037,36.388184895693044,2008-12-07,13:40:18,2008-12-07,16:14:56,67
443615.7892617451,4425890.393959734,39789.7629166667,39789.7756481481,35.48027621077009,2008-12-07,18:18:36,2008-12-07,18:36:56,67
443627.98851851845,4425882.778518515,39789.8006481482,39789.841099537,46.1131217768267,2008-12-07,19:12:56,2008-12-07,20:11:11,67
443632.5433333332,4425873.87,39789.9448611111,39789.9464814815,42.39669798447004,2008-12-07,22:40:36,2008-12-07,22:42:56,67
443620.1060240964,4425882.485542167,39789.9815509259,39789.9860648148,11.539497389422309,2008-12-07,23:33:26,2008-12-07,23:39:56,67
443643.7833333334,4425926.583333333,39791.1790740741,39791.1802314815,42.35115110630546,2008-12-09,04:17:52,2008-12-09,04:19:32,-1
444045.95,4426115.525,39792.3346875,39792.3348611111,35.362409420169406,2008-12-10,08:01:57,2008-12-10,08:02:12,-1
443676.7444444444,4425848.166666667,39792.5040162037,39792.5044212963,3.8013155622120802,2008-12-10,12:05:47,2008-12-10,12:06:22,-1
444069.86666666664,4425738.566666666,39793.1940162037,39793.1941319444,43.39181950570004,2008-12-11,04:39:23,2008-12-11,04:39:33,-1