450360.72857142857,4423405.492857142,39718.5350694444,39718.5355208333,48.32556259372196,2008-09-27,12:50:30,2008-09-27,12:51:09,-1
442891.27142857143,4425449.35,39719.0110185185,39719.0114699074,42.562542217642566,2008-09-28,00:15:52,2008-09-28,00:16:31,97
599651.5258064516,4389253.441935483,39719.4082175926,39720.0107638889,48.82888489391651,2008-09-28,09:47:50,2008-09-29,00:15:30,-1
599681.7466666666,4389327.76,39720.0427777778,39720.0432291667,41.54768344927163,2008-09-29,01:01:36,2008-09-29,01:02:15,-1
600157.7392857142,4388888.707142858,39720.1195486111,39720.1204513889,36.814399356756354,2008-09-29,02:52:09,2008-09-29,02:53:27,-1
600037.9038461538,4388869.525,39720.3963541667,39720.3979861111,49.85067702706078,2008-09-29,09:30:45,2008-09-29,09:33:06,-1
599607.4088888888,4389254.193333333,39720.5796412037,39720.5810416667,27.155294143216018,2008-09-29,13:54:41,2008-09-29,13:56:42,-1
599633.2115384617,4389264.811538461,39720.9835532407,39721.0284027778,43.90045557813945,2008-09-29,23:36:19,2008-09-30,00:40:54,-1
599638.9344827586,4389221.527586207,39721.0749074074,39721.0758101852,47.59884452345343,2008-09-30,01:47:52,2008-09-30,01:49:10,-1
644183.9758563079,4372992.976691721,39722.2425,39722.3190972222,48.66148374236886,2008-10-01,05:49:12,2008-10-01,07:39:30,-1
643095.4125000001,4374533.8,39722.3818981481,39722.3823842593,16.57588610001219,2008-10-01,09:09:56,2008-10-01,09:10:38,-1
643129.1534621582,4374598.18566828,39723.1973263889,39723.2382638889,48.76269065581627,2008-10-02,04:44:09,2008-10-02,05:43:06,-1
643119.8126506031,4374615.50963855,39723.2686805556,39723.35125,40.04996878963408,2008-10-02,06:26:54,2008-10-02,08:25:48,-1
643098.5157608695,4374656.974456523,39723.3622916667,39723.3684722222,17.58550539533642,2008-10-02,08:41:42,2008-10-02,08:50:36,-1
450717.90544354846,4422881.066532259,39727.4613657407,39727.5055671296,37.18185041114193,2008-10-06,11:04:22,2008-10-06,12:08:01,98
442880.16000000003,4425490.125714287,39728.0054976852,39728.0132407407,38.08214804899672,2008-10-07,00:07:55,2008-10-07,00:19:04,97
450363.2684210525,4422990.644736841,39728.4222916667,39728.4233217593,20.43844416793099,2008-10-07,10:08:06,2008-10-07,10:09:35,-1
442858.3374999999,4425458.666666666,39729.005775463,39729.0065393519,49.5100999800544,2008-10-08,00:08:19,2008-10-08,00:09:25,97
450715.3029411765,4422903.5676470585,39729.4205324074,39729.421712963,46.08340265196418,2008-10-08,10:05:34,2008-10-08,10:07:16,98
442865.3588235293,4425447.28235294,39730.0000578704,39730.0006134259,47.87243465657722,2008-10-09,00:00:05,2008-10-09,00:00:53,97
450356.92500000005,4422964.2,39730.4376736111,39730.4379166667,37.23882382600996,2008-10-09,10:30:15,2008-10-09,10:30:36,-1
442880.1347826088,4425464.995652175,39731.0020949074,39731.0027546296,48.60452653859828,2008-10-10,00:03:01,2008-10-10,00:03:58,97
450695.41250000003,4422918.26875,39731.4410185185,39731.4429282407,47.44955215804484,2008-10-10,10:35:04,2008-10-10,10:37:49,98
442159.4140000001,4423610.368,39732.1082291667,39732.1100694444,14.766516176768901,2008-10-11,02:35:51,2008-10-11,02:38:30,-1
450562.23749999993,4423144.2375,39732.2056828704,39732.2062037037,48.70174534858551,2008-10-11,04:56:11,2008-10-11,04:56:56,-1
442873.4947368421,4425448.389473684,39734.0080787037,39734.0086689815,45.4973625608896,2008-10-13,00:11:38,2008-10-13,00:12:29,97
443868.87058823515,4425612.658823529,39734.1954513889,39734.1960069444,43.62957712368632,2008-10-13,04:41:27,2008-10-13,04:42:15,-1
450708.96111111116,4422904.144444444,39734.4117476852,39734.4123726852,18.504323819030862,2008-10-13,09:52:55,2008-10-13,09:53:49,98
442863.675,4425453.559999999,39735.0015856481,39735.0022106481,42.3925701035512,2008-10-14,00:02:17,2008-10-14,00:03:11,97
450711.8293103449,4422910.896551723,39735.3977430556,39735.3996180556,42.241330472159675,2008-10-14,09:32:45,2008-10-14,09:35:27,98
442883.56086956523,4425485.8,39736.0124421296,39736.0131712963,40.954242759634084,2008-10-15,00:17:55,2008-10-15,00:18:58,97
450700.47419354843,4422904.6951612905,39736.4074884259,39736.4095023148,34.98413926338427,2008-10-15,09:46:47,2008-10-15,09:49:41,98
442854.4791666667,4425412.645833333,39737.0024652778,39737.0031944444,49.046202707096235,2008-10-16,00:03:33,2008-10-16,00:04:36,-1
450716.0916544651,4422888.11581259,39737.464537037,39737.5133912037,11.734564329547805,2008-10-16,11:08:56,2008-10-16,12:19:17,98
450717.0968957863,4422877.15975611,39737.5452314815,39737.6014467593,20.96783250582048,2008-10-16,13:05:08,2008-10-16,14:26:05,98
450718.4804790429,4422873.603353299,39737.6286342593,39737.7119328704,48.422412166460575,2008-10-16,15:05:14,2008-10-16,17:05:11,98
450708.4432655658,4422886.682401541,39737.7119675926,39737.9695717593,46.37208211881251,2008-10-16,17:05:14,2008-10-16,23:16:11,98
442888.494117647,4425498.323529411,39738.0072800926,39738.0078356481,46.90000000037253,2008-10-17,00:10:29,2008-10-17,00:11:17,97
450708.12500000006,4422913.40625,39738.4298148148,39738.4315972222,48.3160428843149,2008-10-17,10:18:56,2008-10-17,10:21:30,98
450400.08499999996,4423033.904999999,39739.3394560185,39739.3397337963,40.80441152569621,2008-10-18,08:08:49,2008-10-18,08:09:13,-1
442913.0666666667,4425493.98888889,39741.007025463,39741.0071527778,23.356797725727056,2008-10-20,00:10:07,2008-10-20,00:10:18,-1
450705.9968750001,4422924.3375,39741.4217708333,39741.4222222222,49.909117404046405,2008-10-20,10:07:21,2008-10-20,10:08:00,98
442886.70851063833,4425437.042553191,39742.005787037,39742.0069212963,39.88082245906122,2008-10-21,00:08:20,2008-10-21,00:09:58,97
450688.50800000003,4422931.768,39742.4184490741,39742.4187962963,48.81936091330517,2008-10-21,10:02:34,2008-10-21,10:03:04,98
442889.32580645167,4425501.003225807,39742.9998032407,39743.000474537,47.579512398009456,2008-10-21,23:59:43,2008-10-22,00:00:41,97
450337.8043478261,4422938.617391304,39743.4330787037,39743.4333449074,36.42320688828882,2008-10-22,10:23:38,2008-10-22,10:24:01,-1
442862.4318181818,4425458.236363635,39744.0091087963,39744.009525463,46.76162956880912,2008-10-23,00:13:07,2008-10-23,00:13:43,97
450711.7968446601,4422893.376699028,39744.4786574074,39744.506412037,34.20014619884521,2008-10-23,11:29:16,2008-10-23,12:09:14,98
450716.6461187215,4422879.404566207,39744.5321412037,39744.5931944444,13.644412775558205,2008-10-23,12:46:17,2008-10-23,14:14:12,98
444410.5532051283,4424430.025641026,39745.0164351852,39745.0277777778,39.52379030345888,2008-10-24,00:23:40,2008-10-24,00:40:00,-1
425732.1854166668,4446576.356249999,39745.4666782407,39745.4683564815,47.673577587958285,2008-10-24,11:12:01,2008-10-24,11:14:26,99
425740.53870967735,4446815.85,39745.5413541667,39745.9266666667,49.56863927899609,2008-10-24,12:59:33,2008-10-24,22:14:24,100
425739.0686084143,4446810.610032362,39745.9565856481,39746.0363888889,49.34207129823963,2008-10-24,22:57:29,2008-10-25,00:52:24,100
425720.4454545455,4446575.829545455,39746.0422800926,39746.0428587963,49.04864931915516,2008-10-25,01:00:53,2008-10-25,01:01:43,99
425724.74025974027,4446801.331168829,39746.9482638889,39747.2784606481,31.481423093813923,2008-10-25,22:45:30,2008-10-26,06:40:59,100
425716.85298013315,4446802.769536423,39747.2849074074,39747.3228356481,6.016643582542353,2008-10-26,06:50:16,2008-10-26,07:44:53,100
425753.55,4446584.9375,39747.4790393518,39747.4791319444,11.727318534023922,2008-10-26,11:29:49,2008-10-26,11:29:57,99
425740.2315315315,4446808.807207204,39747.5352083333,39747.5409722222,42.21468938670001,2008-10-26,12:50:42,2008-10-26,12:59:00,100
425719.3160583942,4446674.098540147,39747.9758796296,39747.9921064815,44.76628195471468,2008-10-26,23:25:16,2008-10-26,23:48:38,-1
425909.059375,4446613.290625,39748.0448958333,39748.0466203704,49.415888133115956,2008-10-27,01:04:39,2008-10-27,01:07:08,-1
425733.0272727273,4446778.490909089,39748.1207638889,39748.1614583333,49.210771178303446,2008-10-27,02:53:54,2008-10-27,03:52:30,100
425734.2011627905,4446677.53255814,39748.1616666667,39748.2590740741,49.82569618253537,2008-10-27,03:52:48,2008-10-27,06:13:04,-1
425718.6666666666,4446601.845000001,39748.2594444444,39748.260162037,47.03041569026547,2008-10-27,06:13:36,2008-10-27,06:14:38,99
425730.23787878786,4446782.79090909,39748.4255902778,39748.9255324074,47.24510556716668,2008-10-27,10:12:51,2008-10-27,22:12:46,100
425732.4819672131,4446806.106557375,39748.9537384259,39748.9552430556,40.44007912987149,2008-10-27,22:53:23,2008-10-27,22:55:33,100
425899.86666666676,4446614.755555556,39749.0266435185,39749.0271180556,49.15648482142508,2008-10-28,00:38:22,2008-10-28,00:39:03,-1
425730.5142857144,4446805.325,39749.1272222222,39749.1284259259,44.41542524825775,2008-10-28,03:03:12,2008-10-28,03:04:56,100
425943.59643916896,4446568.073887237,39749.2858796296,39749.3893055556,49.62358310336716,2008-10-28,06:51:40,2008-10-28,09:20:36,-1
425730.4862068966,4446798.368965517,39749.4296296296,39749.4299884259,37.96169121609203,2008-10-28,10:18:40,2008-10-28,10:19:11,100
425744.84858155996,4446821.103546102,39749.9957060185,39750.1585648148,49.9939996397733,2008-10-28,23:53:49,2008-10-29,03:48:20,100
425727.8047619049,4446794.088888888,39750.1796064815,39750.2525,49.85137911796468,2008-10-29,04:18:38,2008-10-29,06:03:36,100
425931.70714285725,4446583.949999999,39750.2616087963,39750.2688310185,28.46840353783682,2008-10-29,06:16:43,2008-10-29,06:27:07,-1
425944.2740740739,4446570.9953703685,39750.3016319444,39750.3475,48.35473089576968,2008-10-29,07:14:21,2008-10-29,08:20:24,-1
425734.8662037037,4446804.62083333,39750.3512731481,39750.3890972222,28.6904165185859,2008-10-29,08:25:50,2008-10-29,09:20:18,100
425728.440625,4446794.390625,39750.4258449074,39750.4262615741,48.69876795212104,2008-10-29,10:13:13,2008-10-29,10:13:49,100
425734.6378378378,4446772.9351351345,39750.9474652778,39750.9481018518,48.07514950611696,2008-10-29,22:44:21,2008-10-29,22:45:16,100
425726.92857142864,4446797.344999998,39751.0638773148,39751.116412037,33.14362683839754,2008-10-30,01:31:59,2008-10-30,02:47:38,100
425745.8880000003,4446577.843555555,39751.2716087963,39751.3146412037,25.7390753521068,2008-10-30,06:31:07,2008-10-30,07:33:05,99
425744.04857142863,4446823.217142858,39751.3640509259,39751.3662847222,13.970325694536355,2008-10-30,08:44:14,2008-10-30,08:47:27,100
425739.8758865247,4446574.578368797,39752.0409606481,39752.1291435185,49.5913298872528,2008-10-31,00:58:59,2008-10-31,03:05:58,99
425727.8550724637,4446677.230434784,39752.1495138889,39752.1509837963,41.03961500812689,2008-10-31,03:35:18,2008-10-31,03:37:25,-1
450699.0733333334,4422944.303333334,39752.416875,39752.4172569444,49.53645122533373,2008-10-31,10:00:18,2008-10-31,10:00:51,98
450648.9217948718,4422794.500000001,39752.5559027778,39752.5575462963,17.404022524286376,2008-10-31,13:20:30,2008-10-31,13:22:52,-1
450687.5269230769,4422967.484615385,39753.1220949074,39753.141087963,49.37793029294852,2008-11-01,02:55:49,2008-11-01,03:23:10,98
450694.09722222225,4422858.638888889,39754.2141203704,39754.2146527778,49.4871700542831,2008-11-02,05:08:20,2008-11-02,05:09:06,-1
442867.12666666665,4425482.183333333,39755.0034722222,39755.0040162037,47.452397199062794,2008-11-03,00:05:00,2008-11-03,00:05:47,97
450713.84528301883,4422912.5641509425,39755.4283333333,39755.4297800926,45.75172127875018,2008-11-03,10:16:48,2008-11-03,10:18:53,98
449376.64285714284,4424279.157142857,39755.9896643519,39755.9897337963,49.17245163705589,2008-11-03,23:45:07,2008-11-03,23:45:13,-1
450773.2,4422979.6,39756.4225231481,39756.4225231481,0.0,2008-11-04,10:08:26,2008-11-04,10:08:26,-1
442876.46249999997,4425461.7875,39757.0037384259,39757.003912037,48.02134941896287,2008-11-05,00:05:23,2008-11-05,00:05:38,97
450705.609375,4422933.015624999,39757.4200462963,39757.4204976852,49.41032280790682,2008-11-05,10:04:52,2008-11-05,10:05:31,98
442870.6222222223,4425473.899999999,39758.0041319444,39758.0046875,47.69339576977758,2008-11-06,00:05:57,2008-11-06,00:06:45,97
450710.8214285715,4422912.660714287,39758.4193981481,39758.4206134259,36.170291676856834,2008-11-06,10:03:56,2008-11-06,10:05:41,98
442845.62222222215,4425441.503703705,39758.9849768518,39758.9852893518,47.75793127903475,2008-11-06,23:38:22,2008-11-06,23:38:49,97
450715.36060606054,4422889.696969696,39759.5578935185,39759.5583333333,47.694444120871644,2008-11-07,13:23:22,2008-11-07,13:24:00,98
442820.5300000001,4425691.959999999,39762.006875,39762.0073032407,44.86423965750563,2008-11-10,00:09:54,2008-11-10,00:10:31,-1
450680.54199999996,4422961.629999999,39762.4836342593,39762.4848958333,49.86271151887927,2008-11-10,11:36:26,2008-11-10,11:38:15,98
442850.0297297297,4425443.064864866,39763.0063888889,39763.0068981481,49.95137635741538,2008-11-11,00:09:12,2008-11-11,00:09:56,97
450695.176923077,4422947.042307691,39763.4535532407,39763.453912037,48.62848959219128,2008-11-11,10:53:07,2008-11-11,10:53:38,98
442871.0559999999,4425455.395999999,39764.0057175926,39764.0060069444,48.5025772511111,2008-11-12,00:08:14,2008-11-12,00:08:39,97
450373.8461538461,4422460.453846155,39764.4850694444,39764.4859143518,48.90255616985016,2008-11-12,11:38:30,2008-11-12,11:39:43,101
442864.6181818183,4425462.324242424,39764.9978356481,39764.9983101852,49.060065226359036,2008-11-12,23:56:53,2008-11-12,23:57:34,97
442857.03863636364,4425428.497727273,39765.1625462963,39765.1633680556,49.22458735188562,2008-11-13,03:54:04,2008-11-13,03:55:15,97
450687.9,4422960.432258064,39765.4331712963,39765.4336226852,49.14519305134679,2008-11-13,10:23:46,2008-11-13,10:24:25,98
450706.04637681163,4422899.955072464,39766.5134837963,39766.5148958333,42.84588661752336,2008-11-14,12:19:25,2008-11-14,12:21:27,98
450721.27761194034,4422860.446268658,39768.3688888889,39768.3700462963,42.04616510502733,2008-11-16,08:51:12,2008-11-16,08:52:52,98
442828.7785714286,4425458.124999998,39769.0069444444,39769.0074421296,28.014460551649698,2008-11-17,00:10:00,2008-11-17,00:10:43,97
450703.8666666667,4422927.811111111,39769.4245949074,39769.4253356481,45.38116349358639,2008-11-17,10:11:25,2008-11-17,10:12:29,98
442877.56,4425452.464000001,39770.0032407407,39770.0035300926,48.852942593294905,2008-11-18,00:04:40,2008-11-18,00:05:05,97
450688.7775510204,4423002.167346938,39783.4219907407,39783.4227662037,49.92644589806487,2008-12-01,10:07:40,2008-12-01,10:08:47,-1
442862.0500000001,4425477.066666667,39784.005,39784.0052662037,49.03396781887485,2008-12-02,00:07:12,2008-12-02,00:07:35,97
450702.4931034482,4422938.35862069,39784.4151967593,39784.4156597222,48.66795660335115,2008-12-02,09:57:53,2008-12-02,09:58:33,98
442837.6592592593,4425469.051851853,39785.0019212963,39785.0022222222,49.66628635201397,2008-12-03,00:02:46,2008-12-03,00:03:12,97
450376.4652173912,4422448.069565219,39785.4045949074,39785.4049421296,20.45996089929647,2008-12-03,09:42:37,2008-12-03,09:43:07,101
442854.2,4425460.415000001,39786.0071064815,39786.007337963,47.31553656040249,2008-12-04,00:10:14,2008-12-04,00:10:34,97
450699.0642857143,4422917.671428571,39786.4251967593,39786.4262847222,47.187816224258746,2008-12-04,10:12:17,2008-12-04,10:13:51,98
442871.8761904761,4425463.285714285,39787.0074652778,39787.0076967593,48.86153906754637,2008-12-05,00:10:45,2008-12-05,00:11:05,97
450608.8027777777,4422682.5666666655,39787.4438310185,39787.4442824074,49.949674673636125,2008-12-05,10:39:07,2008-12-05,10:39:46,-1
442814.7076923077,4425462.13076923,39789.9997569444,39789.9999189815,47.820602254975945,2008-12-07,23:59:39,2008-12-07,23:59:53,-1
450691.47105263156,4422989.8815789465,39790.4939583333,39790.4944328704,49.40536408142671,2008-12-08,11:51:18,2008-12-08,11:51:59,98
442868.09199999995,4425479.887999999,39791.0057638889,39791.0061226852,48.76720209306959,2008-12-09,00:08:18,2008-12-09,00:08:49,97
450697.31515151524,4422942.224242425,39791.5354513889,39791.5358449074,49.45017694572588,2008-12-09,12:51:03,2008-12-09,12:51:37,98
442869.7,4425473.882352941,39792.0014814815,39792.0016666667,48.087004481446385,2008-12-10,00:02:08,2008-12-10,00:02:24,97
450701.1657894737,4422918.078947368,39792.5398032407,39792.5402430556,49.190751163378756,2008-12-10,12:57:19,2008-12-10,12:57:57,98
442840.71111111116,4425455.740740741,39792.9931597222,39792.9934722222,47.53482933646119,2008-12-10,23:50:09,2008-12-10,23:50:36,97
450703.2724137931,4422931.493103448,39793.5294791667,39793.5298032407,48.62612466565683,2008-12-11,12:42:27,2008-12-11,12:42:55,98
442861.10344827594,4425488.931034482,39794.0073842593,39794.0078240741,48.34397583993076,2008-12-12,00:10:38,2008-12-12,00:11:16,97
450704.26486486493,4422936.554054054,39794.5450925926,39794.5455208333,49.67786227284843,2008-12-12,13:04:56,2008-12-12,13:05:33,98
450329.36315789475,4422500.494736842,39795.0914930556,39795.0921180556,49.14325996513398,2008-12-13,02:11:45,2008-12-13,02:12:39,-1
450008.3290909091,4426451.723636362,39796.3561226852,39796.3572453704,49.55370823627254,2008-12-14,08:32:49,2008-12-14,08:34:26,-1
450370.85217391304,4422490.408695653,39796.4109375,39796.4118287037,49.08003667444215,2008-12-14,09:51:45,2008-12-14,09:53:02,-1
442877.3636363637,4425472.872727273,39797.0011689815,39797.001412037,49.80803148159168,2008-12-15,00:01:41,2008-12-15,00:02:02,97
450364.70909090893,4422456.190909091,39826.4772337963,39826.4777662037,46.14108798005666,2009-01-13,11:27:13,2009-01-13,11:27:59,101
442863.396969697,4425465.127272727,39826.9999884259,39827.0005208333,48.548944376105915,2009-01-13,23:59:59,2009-01-14,00:00:45,97
450711.2711538462,4422887.632692308,39827.4150231481,39827.4162847222,40.3822981018346,2009-01-14,09:57:38,2009-01-14,09:59:27,98
450695.1868421053,4422969.042105263,39828.414375,39828.4148726852,49.50686821055936,2009-01-15,09:56:42,2009-01-15,09:57:25,98
442915.0444444445,4425486.074074074,39829.0203472222,39829.0207175926,36.76139279115538,2009-01-16,00:29:18,2009-01-16,00:29:50,-1
450389.1678571429,4422474.992857143,39829.4330208333,39829.4339467593,48.984079046164,2009-01-16,10:23:33,2009-01-16,10:24:53,101
450516.88684210525,4423235.952631579,39830.4246990741,39830.4251967593,49.85137911837008,2009-01-17,10:11:34,2009-01-17,10:12:17,-1
450173.4730232558,4422990.106976744,39831.0261111111,39831.0316435185,18.5,2009-01-18,00:37:36,2009-01-18,00:45:34,-1
442867.44137931045,4425449.117241379,39832.0084606481,39832.0090162037,48.35886681816377,2009-01-19,00:12:11,2009-01-19,00:12:59,97
450713.3764767929,4422888.967580883,39832.4825578704,39832.808125,49.820578077728115,2009-01-19,11:34:53,2009-01-19,19:23:42,98
450714.17320833413,4422885.991458337,39832.8082407407,39832.8995833333,31.102572240875027,2009-01-19,19:23:52,2009-01-19,21:35:24,98
450708.05,4422919.600000001,39833.4211342593,39833.4324768518,46.989573311174986,2009-01-20,10:06:26,2009-01-20,10:22:46,98
442844.1852941177,4425445.923529411,39833.9970717593,39834.3596296296,19.72941965667448,2009-01-20,23:55:47,2009-01-21,08:37:52,97
450690.31071428576,4422996.364285715,39834.3941782407,39834.394525463,49.42721922125012,2009-01-21,09:27:37,2009-01-21,09:28:07,98
450506.98571428575,4417083.533333333,39834.5384953704,39834.5388310185,29.20273959721617,2009-01-21,12:55:26,2009-01-21,12:55:55,-1
373798.43636363634,4305573.649999999,39835.0230439815,39835.0237384259,42.32930426984169,2009-01-22,00:33:11,2009-01-22,00:34:11,-1
373704.9,4306244.2,39836.1309953704,39836.1310069444,7.727871634171971,2009-01-23,03:08:38,2009-01-23,03:08:39,-1
377026.66000000003,4306224.842499999,39837.069224537,39837.069837963,49.62509445840997,2009-01-24,01:39:41,2009-01-24,01:40:34,-1
373897.7454545455,4305251.881818182,39837.2172685185,39837.2173842593,49.20365840075685,2009-01-24,05:12:52,2009-01-24,05:13:02,-1
372748.3,4304247.2,39837.3683680556,39837.3683680556,0.0,2009-01-24,08:50:27,2009-01-24,08:50:27,-1
373821.6960000001,4305563.392,39838.4289467593,39838.4297222222,47.76986497746155,2009-01-25,10:17:41,2009-01-25,10:18:48,-1
373780.00425531913,4305598.491489362,39839.2976157407,39839.2986805556,48.24945595551986,2009-01-26,07:08:34,2009-01-26,07:10:06,-1
377108.6441176471,4306090.779411764,39840.148287037,39840.1487615741,49.093584101656894,2009-01-27,03:33:32,2009-01-27,03:34:13,-1
373829.83400000003,4305575.7,39840.3064814815,39840.3075462963,48.44842618702903,2009-01-27,07:21:20,2009-01-27,07:22:52,-1
373814.9820512819,4305579.297435897,39841.3945486111,39841.3953587963,48.62118879636957,2009-01-28,09:28:09,2009-01-28,09:29:19,-1
377020.07499999995,4306053.75,39843.1374652778,39843.1375,5.277309920053332,2009-01-30,03:17:57,2009-01-30,03:18:00,-1
381125.1142857143,4308977.3,39843.3728125,39843.3744675926,48.90040899626484,2009-01-30,08:56:51,2009-01-30,08:59:14,-1
450637.5764705882,4417470.264705882,39843.9104976852,39843.9107060185,32.144206321186026,2009-01-30,21:51:07,2009-01-30,21:51:25,-1
450688.36,4422938.833333333,39845.4796412037,39845.4801273148,45.57060456057943,2009-02-01,11:30:41,2009-02-01,11:31:23,98
442877.37083333335,4425452.7541666655,39846.0006712963,39846.0014351852,47.179338698340615,2009-02-02,00:00:58,2009-02-02,00:02:04,97
450691.22500000003,4422976.5666666655,39846.4413657407,39846.4417476852,45.28399275682667,2009-02-02,10:35:34,2009-02-02,10:36:07,98
442829.0280000001,4425436.408,39846.9985763889,39846.999375,47.67074574621211,2009-02-02,23:57:57,2009-02-02,23:59:06,97
450370.1714285715,4422474.07142857,39847.444224537,39847.4450578704,49.59647164832815,2009-02-03,10:39:41,2009-02-03,10:40:53,101
450745.71428571426,4422882.399999999,39847.4805555556,39847.4811458333,37.47065518516015,2009-02-03,11:32:00,2009-02-03,11:32:51,98
450716.595554683,4422889.698583788,39847.6605555556,39847.7401041667,47.80010460276766,2009-02-03,15:51:12,2009-02-03,17:45:45,98
450715.5284386624,4422887.442657995,39847.7409375,39847.9390625,43.65191862891435,2009-02-03,17:46:57,2009-02-03,22:32:15,98
442855.03333333327,4425449.070370371,39847.9987962963,39847.9996643519,48.40051652615471,2009-02-03,23:58:16,2009-02-03,23:59:31,97
442861.17142857134,4425476.928571429,39848.1820601852,39848.1824768518,49.52019789944301,2009-02-04,04:22:10,2009-02-04,04:22:46,97
450737.06666666665,4423192.355555556,39848.4678356481,39848.4681134259,43.32666615357835,2009-02-04,11:13:41,2009-02-04,11:14:05,-1
442845.2413793103,4425451.093103448,39849.005150463,39849.0060185185,48.4664832645348,2009-02-05,00:07:25,2009-02-05,00:08:40,97
450711.94078947377,4422900.9092105245,39849.409375,39849.4121875,41.863229688894144,2009-02-05,09:49:30,2009-02-05,09:53:33,98
450391.48437499994,4422464.056249999,39850.4038541667,39850.4048263889,49.81967482849892,2009-02-06,09:41:33,2009-02-06,09:42:57,101
443715.8,4424409.5,39851.1838425926,39851.1839814815,29.722886804609466,2009-02-07,04:24:44,2009-02-07,04:24:56,-1
450144.4,4423961.6,39852.4796527778,39852.4796527778,0.0,2009-02-08,11:30:42,2009-02-08,11:30:42,-1
450297.49230769236,4423536.315384615,39852.9922800926,39852.9926967593,44.31365478090183,2009-02-08,23:48:53,2009-02-08,23:49:29,-1
442883.4368421052,4425454.710526316,39854.0093055556,39854.0098958333,45.27471700554876,2009-02-10,00:13:24,2009-02-10,00:14:15,97
450698.78,4422952.606666667,39855.424849537,39855.4253125,48.33549420420698,2009-02-11,10:11:47,2009-02-11,10:12:27,98
443123.15384615376,4425188.83846154,39859.2752314815,39859.2755439815,41.700479613638116,2009-02-15,06:36:20,2009-02-15,06:36:47,-1
450111.1972222223,4424785.077777778,39859.9821180556,39859.9832060185,30.449466333211156,2009-02-15,23:34:15,2009-02-15,23:35:49,-1
450709.33636363636,4422914.899999999,39861.4142708333,39861.4143865741,49.45806304357096,2009-02-17,09:56:33,2009-02-17,09:56:43,98
449456.10000000003,4423996.033333332,39863.4044212963,39863.4044675926,39.87994483431963,2009-02-19,09:42:22,2009-02-19,09:42:26,-1
450700.86999999994,4422919.523333333,39864.4221990741,39864.4228935185,49.8934865485441,2009-02-20,10:07:58,2009-02-20,10:08:58,98
452717.7551724137,4424153.308620689,39865.2721990741,39865.2730208333,45.03598561150105,2009-02-21,06:31:58,2009-02-21,06:33:09,-1
450192.90666666685,4431886.08,39866.2779050926,39866.2787037037,47.30327684246394,2009-02-22,06:40:11,2009-02-22,06:41:20,-1
441287.0186440678,4424787.666101694,39872.243587963,39872.2442592593,42.952182715327496,2009-02-28,05:50:46,2009-02-28,05:51:44,-1
442775.2,4425240.825,39876.4048958333,39876.4049768519,23.063390904744324,2009-03-04,09:43:03,2009-03-04,09:43:10,-1