444284.6980000001,4421396.776000001,39836.2013657407,39836.2035300926,6.135144659895097,2009-01-23,04:49:58,2009-01-23,04:53:05,-1
501023.35,4524859.275,39836.3824768519,39836.3825115741,49.73630464760157,2009-01-23,09:10:46,2009-01-23,09:10:49,-1
573687.5409090909,4626535.652272727,39836.5312152778,39837.1354513889,48.93689814388521,2009-01-23,12:44:57,2009-01-24,03:15:03,-1
574505.7041666666,4624794.666666667,39837.1395023148,39837.1404050926,45.74734965050521,2009-01-24,03:20:53,2009-01-24,03:22:11,-1
573703.6599999999,4626519.77,39839.1351388889,39839.1356134259,45.721985958617324,2009-01-26,03:14:36,2009-01-26,03:15:17,-1
423252.7363636364,4424555.627272727,39844.4281365741,39844.4530787037,48.176861666136126,2009-01-31,10:16:31,2009-01-31,10:52:26,195
423259.5749999999,4424553.600000001,39845.4181134259,39845.4935763889,40.549352645965776,2009-02-01,10:02:05,2009-02-01,11:50:45,195
423265.6666666666,4424554.411111112,39846.4641319444,39846.930162037,40.74616546350382,2009-02-02,11:08:21,2009-02-02,22:19:26,195
442978.0307692308,4425042.530769232,39847.0010185185,39847.0016550926,40.42833164978296,2009-02-03,00:01:28,2009-02-03,00:02:23,196
423267.76836734626,4424566.076326536,39848.4487152778,39848.5580324074,49.54038756444285,2009-02-04,10:46:09,2009-02-04,13:23:34,195
423271.6799804683,4424565.404589835,39848.5580902778,39848.9253935185,11.320777358152021,2009-02-04,13:23:39,2009-02-04,22:12:34,195
441338.88,4425205.340000001,39848.9916087963,39848.9918402778,35.36919563700888,2009-02-04,23:47:55,2009-02-04,23:48:15,-1
423269.058091873,4424571.013992917,39849.3538773148,39849.4336805556,23.04886114323222,2009-02-05,08:29:35,2009-02-05,10:24:30,195
423270.5132678136,4424569.617936117,39849.4351273148,39849.7610648148,36.03123644855966,2009-02-05,10:26:35,2009-02-05,18:15:56,195
423259.890909091,4424553.227272727,39850.4573958333,39850.4863310185,43.62029344287394,2009-02-06,10:58:39,2009-02-06,11:40:19,195
423241.51111111115,4424538.1555555565,39851.2907523148,39851.2912152778,46.55201391992661,2009-02-07,06:58:41,2009-02-07,06:59:21,195
423269.5184138556,4424571.4065633565,39851.3500115741,39851.6002430556,48.769252608337766,2009-02-07,08:24:01,2009-02-07,14:24:21,195
423273.6223130108,4424569.784286588,39851.6043518518,39852.1322453704,48.27131653513063,2009-02-07,14:30:16,2009-02-08,03:10:26,195
423273.4129707107,4424573.357182698,39852.1327662037,39852.1693402778,33.66184783961312,2009-02-08,03:11:11,2009-02-08,04:03:51,195
423264.2604395604,4424564.89010989,39853.4238541667,39853.9314351852,47.774574828140665,2009-02-09,10:10:21,2009-02-09,22:21:16,195
442791.0800000001,4425195.92,39853.999837963,39854.0003587963,43.519765624422284,2009-02-09,23:59:46,2009-02-10,00:00:31,-1
423270.1351999999,4424567.9421333335,39854.455150463,39854.4990162037,33.886427961539766,2009-02-10,10:55:25,2009-02-10,11:58:35,195
442985.53809523804,4425052.895238094,39854.9962731482,39854.9970138889,40.60209354226017,2009-02-10,23:54:38,2009-02-10,23:55:42,196
423250.85555555555,4424547.466666666,39855.4627893518,39855.4632523148,47.73468340728629,2009-02-11,11:06:25,2009-02-11,11:07:05,195
423272.6,4424566.3,39855.4992824074,39855.4993055556,0.0,2009-02-11,11:58:58,2009-02-11,11:59:00,195
444365.19615384616,4422976.4,39856.0511342593,39856.0524074074,45.974340670293984,2009-02-12,01:13:38,2009-02-12,01:15:28,-1
440181.4586956522,4421185.693478261,39858.2831597222,39858.2876157407,13.32403842665679,2009-02-14,06:47:45,2009-02-14,06:54:10,-1
442963.2727272728,4425056.609090909,39860.0668171296,39860.067337963,32.49923076044711,2009-02-16,01:36:13,2009-02-16,01:36:58,196
423274.0324324319,4424567.943243245,39860.4572337963,39860.7247685185,49.56006456869155,2009-02-16,10:58:25,2009-02-16,17:23:40,195
423272.66251060215,4424568.336217151,39860.7248263889,39860.7894675926,49.64886705654808,2009-02-16,17:23:45,2009-02-16,18:56:50,195
423269.26908442436,4424565.182758619,39860.789525463,39860.8359953704,49.258907824020504,2009-02-16,18:56:55,2009-02-16,20:03:50,195
423272.792647058,4424567.713088222,39860.8366319444,39860.9114583333,19.201041638242874,2009-02-16,20:04:45,2009-02-16,21:52:30,195
423271.3294797682,4424565.066473988,39861.4551041667,39861.9523263889,41.94532155111431,2009-02-17,10:55:21,2009-02-17,22:51:21,195
443056.3,4424979.68,39862.1046296296,39862.1050925926,47.782528187856464,2009-02-18,02:30:40,2009-02-18,02:31:20,-1
442957.76666666666,4425103.633333334,39863.0130555556,39863.0138078704,48.7999999999979,2009-02-19,00:18:48,2009-02-19,00:19:53,197
423182.3571428571,4424386.7,39863.4603703704,39863.4607175926,47.860839943033156,2009-02-19,11:02:56,2009-02-19,11:03:26,-1
424974.15,4422859.75,39864.4713425926,39864.471400463,49.34065261019558,2009-02-20,11:18:44,2009-02-20,11:18:49,-1
442838.2555555555,4425263.211111111,39867.1474652778,39867.1479282407,44.63765226781991,2009-02-23,03:32:21,2009-02-23,03:33:01,-1
423269.3905660379,4424562.186792453,39867.4667361111,39867.9276157407,46.70770814325064,2009-02-23,11:12:06,2009-02-23,22:15:46,195
442924.25999999995,4425090.500000001,39868.0026157407,39868.0031365741,49.11018224363716,2009-02-24,00:03:46,2009-02-24,00:04:31,-1
442961.06388888886,4425121.536111111,39869.0005208333,39869.0023726852,46.4285472527226,2009-02-25,00:00:45,2009-02-25,00:03:25,197
423292.7375,4424007.825,39877.4651851852,39877.4655902778,46.77873448494958,2009-03-05,11:09:52,2009-03-05,11:10:27,-1
442950.4454545455,4425024.581818182,39878.0014236111,39878.0019444444,34.728662513987494,2009-03-06,00:02:03,2009-03-06,00:02:48,-1
442962.64444444445,4425038.444444444,39878.1028935185,39878.1033564815,47.03041569064581,2009-03-06,02:28:10,2009-03-06,02:28:50,196
423254.85000000003,4424552.991666666,39879.3782523148,39879.5588657407,47.06123670286381,2009-03-07,09:04:41,2009-03-07,13:24:46,195
442974.3333333334,4425039.911111111,39880.9993518519,39880.9998148148,49.75108039065162,2009-03-08,23:59:04,2009-03-08,23:59:44,196
443098.5999999999,4425174.433333334,39882.007662037,39882.0077777778,36.973774489489,2009-03-10,00:11:02,2009-03-10,00:11:12,-1
442975.0857142857,4425054.1,39882.0874189815,39882.0881134259,46.033140235768336,2009-03-10,02:05:53,2009-03-10,02:06:53,196
423255.61714285717,4424553.217142857,39883.4915509259,39883.9263888889,47.46725186906323,2009-03-11,11:47:50,2009-03-11,22:14:00,195
443246.1,4425116.25,39883.9989351852,39883.9989930556,1.2206555611461074,2009-03-11,23:58:28,2009-03-11,23:58:33,-1
423236.91428571433,4424546.742857142,39884.4645023148,39884.464849537,43.603325561235486,2009-03-12,11:08:53,2009-03-12,11:09:23,195
423272.2,4424566.5,39884.5004282407,39884.5004513889,0.0,2009-03-12,12:00:37,2009-03-12,12:00:39,195
423270.53202479426,4424564.0834710775,39885.4703472222,39886.6053587963,47.442702284155594,2009-03-13,11:17:18,2009-03-14,14:31:43,195
442949.44666666666,4425045.380000001,39888.0046759259,39888.0054861111,36.39848897948748,2009-03-16,00:06:44,2009-03-16,00:07:54,196
423238.8,4424542.155555556,39888.4612731481,39888.4617361111,49.878652748487504,2009-03-16,11:04:14,2009-03-16,11:04:54,195
423274.8,4424566.0,39888.8214351852,39888.8214583333,0.0,2009-03-16,19:42:52,2009-03-16,19:42:54,195
442949.9333333333,4425035.1,39889.319837963,39889.3205902778,48.930256487846215,2009-03-17,07:40:34,2009-03-17,07:41:39,196
423265.0842105264,4424554.268421052,39889.4578703704,39889.5271759259,46.02140806215455,2009-03-17,10:59:20,2009-03-17,12:39:08,195
429213.7166666667,4419780.827777778,39890.9506828704,39890.9515509259,44.97510422443105,2009-03-18,22:48:59,2009-03-18,22:50:14,-1
453671.3956810633,4430992.879734214,39891.0667013889,39891.0917013889,43.851111730556674,2009-03-19,01:36:03,2009-03-19,02:12:03,-1
423482.01621621614,4423771.870270271,39891.4230671296,39891.9352314815,45.657967541374894,2009-03-19,10:09:13,2009-03-19,22:26:44,-1
443031.26666666666,4424748.833333333,39892.0120833333,39892.0121990741,14.933519344451307,2009-03-20,00:17:24,2009-03-20,00:17:34,-1
442970.63913043466,4425090.339130434,39892.125462963,39892.1266782407,44.6535552895883,2009-03-20,03:00:40,2009-03-20,03:02:25,197
423270.1590909091,4424560.1931818165,39903.4616550926,39903.5110763889,45.66399018933302,2009-03-31,11:04:47,2009-03-31,12:15:57,195
442966.95,4425078.029999999,39903.9982291667,39903.9991550926,39.881073205218534,2009-03-31,23:57:27,2009-03-31,23:58:47,197
442968.14285714284,4425001.628571428,39905.0875347222,39905.0878240741,21.16034026190064,2009-04-02,02:06:03,2009-04-02,02:06:28,-1
423275.2245901638,4424562.518032788,39905.475,39905.5560185185,42.79310692155922,2009-04-02,11:24:00,2009-04-02,13:20:40,195
442986.75999999995,4425050.9399999995,39906.0014930556,39906.0019560185,25.995576546461212,2009-04-03,00:02:09,2009-04-03,00:02:49,196
423258.5800000001,4424543.8,39907.3838425926,39907.3843634259,48.035091339422124,2009-04-04,09:12:44,2009-04-04,09:13:29,195
423270.7868444457,4424567.477777784,39907.4590625,39907.9329861111,12.264175472224897,2009-04-04,11:01:03,2009-04-04,22:23:30,195
442978.76000000007,4425051.24,39910.0049537037,39910.005474537,47.14286796483172,2009-04-07,00:07:08,2009-04-07,00:07:53,196
453337.28095238085,4428383.654761903,39910.4509375,39910.9996643519,48.38450165086679,2009-04-07,10:49:21,2009-04-07,23:59:31,-1
442125.8,4424604.9,39911.1223611111,39911.1223611111,0.0,2009-04-08,02:56:12,2009-04-08,02:56:12,-1
449848.48571428575,4428835.169047619,39911.4262962963,39911.536875,27.470711675599873,2009-04-08,10:13:52,2009-04-08,12:53:06,-1
453357.8434782609,4428192.113043478,39911.5437615741,39911.5448611111,46.05225293115762,2009-04-08,13:03:01,2009-04-08,13:04:36,-1
442964.7888888887,4425186.129629631,39912.0146527778,39912.0160416667,49.090324912022005,2009-04-09,00:21:06,2009-04-09,00:23:06,-1
440746.64999999997,4414381.583333333,39913.4440740741,39913.4443634259,46.84410315052433,2009-04-10,10:39:28,2009-04-10,10:39:53,-1
423239.8,4424543.325,39913.5658449074,39913.5660185185,39.81783519984244,2009-04-10,13:34:49,2009-04-10,13:35:04,195
423273.05,4424569.05,39913.8714351852,39913.8714583333,0.14142135595742808,2009-04-10,20:54:52,2009-04-10,20:54:54,195
423269.53208955174,4424573.886567165,39916.47375,39916.5221296296,41.92183202104515,2009-04-13,11:22:12,2009-04-13,12:31:52,195
442988.44000000006,4425063.41,39916.9993634259,39916.9998842593,42.82732772350709,2009-04-13,23:59:05,2009-04-13,23:59:50,196
442972.5714285714,4425069.207142857,39917.1309027778,39917.1315972222,41.6473288459176,2009-04-14,03:08:30,2009-04-14,03:09:30,196
423261.91,4424550.56,39917.5312847222,39917.5424537037,42.21670285582469,2009-04-14,12:45:03,2009-04-14,13:01:08,195
442974.47500000003,4425067.333333334,39917.9965625,39917.9971990741,48.57324366355693,2009-04-14,23:55:03,2009-04-14,23:55:58,196
423243.97500000003,4424544.775,39918.4617708333,39918.4621759259,46.24499972968792,2009-04-15,11:04:57,2009-04-15,11:05:32,195
423272.5571428571,4424577.1,39918.5004282407,39918.5009259259,5.755866572654193,2009-04-15,12:00:37,2009-04-15,12:01:20,195
423276.8624000002,4424567.300799999,39919.4808796296,39919.5143865741,3.7107950635895333,2009-04-16,11:32:28,2009-04-16,12:20:43,195
443106.5428571428,4424897.471428571,39919.9938773148,39919.994224537,30.389800920873423,2009-04-16,23:51:11,2009-04-16,23:51:41,-1
442555.3727272727,4425417.454545455,39920.3422222222,39920.3428009259,47.853944456021594,2009-04-17,08:12:48,2009-04-17,08:13:38,-1
423248.9375,4424545.8875,39923.4629050926,39923.4633101852,45.01388674620311,2009-04-20,11:06:35,2009-04-20,11:07:10,195
423273.6,4424571.25,39923.4987037037,39923.4987268519,0.09999999962747097,2009-04-20,11:58:08,2009-04-20,11:58:10,195
442982.21666666673,4425047.566666666,39924.003125,39924.0034143519,32.91094043000791,2009-04-21,00:04:30,2009-04-21,00:04:55,196
423169.7899999999,4424525.27,39924.4805671296,39924.481087963,46.24824320960296,2009-04-21,11:32:01,2009-04-21,11:32:46,-1