441907.4914285714,4429018.451428572,39826.127962963,39826.1291203704,38.658763559578894,2009-01-13,03:04:16,2009-01-13,03:05:56,-1
442116.4076923076,4429231.499999999,39826.199837963,39826.2003472222,47.40938725629499,2009-01-13,04:47:46,2009-01-13,04:48:30,-1
442599.6275510205,4427979.583673468,39826.2586458333,39826.2625,33.508954027388896,2009-01-13,06:12:27,2009-01-13,06:18:00,202
442613.5555555556,4427987.277777777,39826.5184027778,39826.5186111111,47.43680006071236,2009-01-13,12:26:30,2009-01-13,12:26:48,202
442062.52,4429122.24,39826.6817476852,39826.6817939815,41.02499238286871,2009-01-13,16:21:43,2009-01-13,16:21:47,-1
442579.2947368421,4427960.5947368415,39827.0462037037,39827.0468865741,40.67738929692325,2009-01-14,01:06:32,2009-01-14,01:07:31,202
442448.22,4428650.179999999,39827.1659027778,39827.1664583333,37.74042925093924,2009-01-14,03:58:54,2009-01-14,03:59:42,203
442540.79090909084,4428068.686363636,39827.2617361111,39827.2749189815,44.69999999925494,2009-01-14,06:16:54,2009-01-14,06:35:53,202
442587.09189189185,4427958.137837838,39827.3559606481,39827.3575925926,40.335096380097426,2009-01-14,08:32:35,2009-01-14,08:34:56,202
442571.27999999997,4427965.253333334,39827.4364351852,39827.4369444444,41.03949317421503,2009-01-14,10:28:28,2009-01-14,10:29:12,202
442132.6666666666,4429147.955555556,39827.6882060185,39828.0357175926,47.624048547095285,2009-01-14,16:31:01,2009-01-15,00:51:26,204
441797.37857142853,4427649.9428571435,39828.0765509259,39828.077037037,47.24743379295425,2009-01-15,01:50:14,2009-01-15,01:50:56,-1
442574.8266666667,4427969.08,39828.1172106481,39828.1176967593,40.77070026379238,2009-01-15,02:48:47,2009-01-15,02:49:29,202
442576.66129032266,4427963.738709679,39828.1885648148,39828.3597453704,47.732274196486614,2009-01-15,04:31:32,2009-01-15,08:38:02,202
442556.13749999984,4427955.0175,39828.3737268519,39828.4268055556,48.911450602058764,2009-01-15,08:58:10,2009-01-15,10:14:36,202
442579.6517857144,4427945.271428572,39828.4594907407,39828.6153472222,47.245105566600074,2009-01-15,11:01:40,2009-01-15,14:46:06,202
440290.19090909086,4425036.627272728,39828.6540162037,39828.6543634259,46.59291791685799,2009-01-15,15:41:47,2009-01-15,15:42:17,-1
442128.61199999996,4429173.075999999,39828.9335648148,39829.161412037,44.723595562276905,2009-01-15,22:24:20,2009-01-16,03:52:26,204
442459.89999999997,4428668.925000001,39829.1640856481,39829.223587963,42.21468938670001,2009-01-16,03:56:17,2009-01-16,05:21:58,203
442582.0046511628,4427937.974418607,39829.3204282407,39829.4012037037,49.46129800209387,2009-01-16,07:41:25,2009-01-16,09:37:44,202
442572.03125000006,4427952.475000001,39829.4433333333,39829.4439467593,47.720540650751225,2009-01-16,10:38:24,2009-01-16,10:39:17,202
442144.81250000006,4429170.89375,39829.6761689815,39829.6767476852,28.908822182493633,2009-01-16,16:13:41,2009-01-16,16:14:31,204
433516.4652777776,4452747.480555557,39830.1969560185,39830.1999189815,42.60575078533361,2009-01-17,04:43:37,2009-01-17,04:47:53,-1
436343.8214285714,4452386.492857142,39830.2894328704,39830.2900347222,44.709059484497104,2009-01-17,06:56:47,2009-01-17,06:57:39,-1
435198.474074074,4452395.84074074,39830.3832986111,39830.3844907407,46.35871007623494,2009-01-17,09:11:57,2009-01-17,09:13:40,-1
483081.07857142854,4422501.110714286,39830.582974537,39830.5843634259,36.843588315821826,2009-01-17,13:59:29,2009-01-17,14:01:29,205
483076.83928571444,4422477.299999999,39831.1384143519,39831.3586574074,49.514543318100266,2009-01-18,03:19:19,2009-01-18,08:36:28,205
442573.08947368426,4427951.110526316,39831.4976388889,39831.6552430556,47.5413504224185,2009-01-18,11:56:36,2009-01-18,15:43:33,202
442129.70999999996,4429303.5600000005,39831.6604050926,39831.6606944444,34.99857139977945,2009-01-18,15:50:59,2009-01-18,15:51:24,-1
442580.1625,4427955.2625,39832.0058796296,39832.0060300926,41.300121064916546,2009-01-19,00:08:28,2009-01-19,00:08:41,202
442277.4666666666,4429245.933333333,39832.5418287037,39832.5418634259,22.053117693445508,2009-01-19,13:00:14,2009-01-19,13:00:17,-1
442455.1148148148,4428651.029629629,39833.1672569444,39833.1684490741,44.4991011145686,2009-01-20,04:00:51,2009-01-20,04:02:34,203
442580.1048780487,4427966.268292682,39833.3058101852,39833.3801736111,46.43899223727826,2009-01-20,07:20:22,2009-01-20,09:07:27,202
442548.12857142853,4427963.571428572,39833.3892592593,39833.3893287037,46.38458795745292,2009-01-20,09:20:32,2009-01-20,09:20:38,202
442590.06875,4427941.984374999,39833.5270486111,39833.6508101852,45.592652917068555,2009-01-20,12:38:57,2009-01-20,15:37:10,202
442136.9312499999,4428949.768749999,39833.655,39833.655625,45.85040894007568,2009-01-20,15:43:12,2009-01-20,15:44:06,-1
442559.74705882353,4427969.6,39834.120787037,39834.121400463,40.365579396290165,2009-01-21,02:53:56,2009-01-21,02:54:49,202
442575.10000000003,4427974.7894736845,39834.3079976852,39834.3085763889,48.96243458007135,2009-01-21,07:23:31,2009-01-21,07:24:21,202
440950.56333333335,4423505.166666667,39834.4422569444,39834.4572106482,37.416841128321344,2009-01-21,10:36:51,2009-01-21,10:58:23,-1
441156.4714285714,4423284.057142857,39834.5075925926,39834.5076736111,42.10011876465392,2009-01-21,12:10:56,2009-01-21,12:11:03,-1
442501.4166666667,4428052.483333333,39834.6175462963,39834.6176041667,43.382023926967726,2009-01-21,14:49:16,2009-01-21,14:49:21,-1
442097.24375,4429117.45625,39834.6715277778,39834.6721064815,47.731855191429766,2009-01-21,16:07:00,2009-01-21,16:07:50,-1
443414.4516129032,4420638.29032258,39835.1000347222,39835.1011574074,32.51245915031144,2009-01-22,02:24:03,2009-01-22,02:25:40,-1
442571.2764705882,4428030.564705882,39835.3033217593,39835.3037037037,47.78033068125011,2009-01-22,07:16:47,2009-01-22,07:17:20,202
442605.825,4427878.975,39835.4378125,39835.4378472222,42.91072127085088,2009-01-22,10:30:27,2009-01-22,10:30:30,-1
441523.442857143,4429069.785714285,39835.6781481481,39835.6791550926,40.82560471095605,2009-01-22,16:16:32,2009-01-22,16:17:59,206
443099.2736842106,4425205.984210527,39836.0588541667,39836.0596296296,46.314684496760414,2009-01-23,01:24:45,2009-01-23,01:25:52,207
454420.94000000006,4417754.08,39836.0988310185,39836.098900463,26.069330639663313,2009-01-23,02:22:19,2009-01-23,02:22:25,-1
483062.70625,4421915.475,39836.1821759259,39836.2471759259,49.44259297415445,2009-01-23,04:22:20,2009-01-23,05:55:56,-1
483146.67083333334,4422417.45,39836.2510532407,39836.2517013889,27.931523410348234,2009-01-23,06:01:31,2009-01-23,06:02:27,-1
483096.96153846156,4422440.569230769,39836.3096643519,39836.3100462963,48.66466890876789,2009-01-23,07:25:55,2009-01-23,07:26:28,205
482758.9198067629,4422076.294685988,39836.4021527778,39836.425787037,38.4338392564206,2009-01-23,09:39:06,2009-01-23,10:13:08,208
483062.794871795,4422451.115384615,39836.4891550926,39837.0426157407,44.80357128609702,2009-01-23,11:44:23,2009-01-24,01:01:22,205
422773.0338345867,4315524.827067668,39837.2508101852,39837.2942476852,47.33592715898615,2009-01-24,06:01:10,2009-01-24,07:03:43,-1
423836.81612903223,4313634.070967742,39837.3060532407,39837.3074652778,19.1387042403383,2009-01-24,07:20:43,2009-01-24,07:22:45,-1
423806.0437500001,4313632.2854166655,39838.1281018518,39838.9006712963,27.99571395768189,2009-01-25,03:04:28,2009-01-25,21:36:58,209
423805.0547619049,4313619.430952381,39839.0712962963,39839.0731597222,32.76858251417912,2009-01-26,01:42:40,2009-01-26,01:45:21,209
422088.0086378736,4314869.612292355,39839.3037731481,39839.3308101852,37.47866059551373,2009-01-26,07:17:26,2009-01-26,07:56:22,-1
423806.14999999997,4313620.56875,39839.3596643518,39839.3602430556,43.7155578711222,2009-01-26,08:37:55,2009-01-26,08:38:45,209
423795.77142857143,4313616.989285714,39840.4846759259,39840.4858680556,29.18304302158129,2009-01-27,11:37:56,2009-01-27,11:39:39,209
423819.08999999997,4313624.130000001,39840.9401388889,39840.9404282407,44.432645656386505,2009-01-27,22:33:48,2009-01-27,22:34:13,209
423811.26878980896,4313625.664968155,39842.3444675926,39843.0883101852,44.05053915702599,2009-01-29,08:16:02,2009-01-30,02:07:10,209
424977.97703180194,4315283.431448764,39843.1018287037,39843.1425347222,48.24572519922939,2009-01-30,02:26:38,2009-01-30,03:25:15,-1
424916.65592592605,4315283.333333334,39843.1425925926,39843.2176388889,40.749233121770075,2009-01-30,03:25:20,2009-01-30,05:13:24,-1
424919.98654970754,4315287.945029239,39843.219212963,39843.2896990741,46.28714724478148,2009-01-30,05:15:40,2009-01-30,06:57:10,-1
423806.7125628142,4313633.593467338,39843.3034143519,39843.3399884259,43.71647286844748,2009-01-30,07:16:55,2009-01-30,08:09:35,209
423806.42000000004,4313596.22,39843.3400231482,39843.3401157407,11.774548823694461,2009-01-30,08:09:38,2009-01-30,08:09:46,-1
483068.1612903226,4422495.622580646,39844.2235416667,39844.4199305556,46.582078098763915,2009-01-31,05:21:54,2009-01-31,10:04:42,205
482769.0517857144,4422079.558928573,39844.4660532407,39844.4750115741,32.00390601144901,2009-01-31,11:11:07,2009-01-31,11:24:01,208
483070.6566666667,4422478.613333332,39844.5312962963,39844.5325810185,43.70594925228302,2009-01-31,12:45:04,2009-01-31,12:46:55,205
442568.49999999994,4427962.920408162,39845.1076157407,39845.1619907407,47.855302736544814,2009-02-01,02:34:58,2009-02-01,03:53:16,202
442572.99710144935,4427995.192753624,39845.1807638889,39845.4105092593,49.53079849966824,2009-02-01,04:20:18,2009-02-01,09:51:08,202
442588.77999999997,4428102.9799999995,39845.5201967593,39845.5202430556,23.58495283056625,2009-02-01,12:29:05,2009-02-01,12:29:09,202
441539.9397590361,4429043.590361444,39845.7321643519,39845.7358796296,44.31997292401051,2009-02-01,17:34:19,2009-02-01,17:39:40,206
442529.2428571429,4428000.435714286,39846.061712963,39846.0619791667,47.24923279801427,2009-02-02,01:28:52,2009-02-02,01:29:15,202
441538.6461538461,4429109.120879119,39846.2201157407,39846.2263541667,39.30928643416261,2009-02-02,05:16:58,2009-02-02,05:25:57,206
483065.72586206894,4422485.951724138,39846.4275810185,39846.4302083333,27.608875384557045,2009-02-02,10:15:43,2009-02-02,10:19:30,205
482760.37023809564,4422109.982142857,39847.0287615741,39847.035,41.24621194739104,2009-02-03,00:41:25,2009-02-03,00:50:24,-1
483051.8492957748,4422495.922535212,39847.2130787037,39847.4158449074,49.05231900668777,2009-02-03,05:06:50,2009-02-03,09:58:49,205
483066.4499999999,4422458.377083332,39847.4307986111,39847.4859953704,47.54639839146496,2009-02-03,10:20:21,2009-02-03,11:39:50,205
482764.25808080815,4422085.781313132,39847.4951157407,39847.5143287037,39.003717771508406,2009-02-03,11:52:58,2009-02-03,12:20:38,208
484080.0,4423833.15,39847.5818634259,39847.581875,36.312669965611235,2009-02-03,13:57:53,2009-02-03,13:57:54,-1
483058.49459459464,4422460.156756757,39848.0222106481,39848.0236805556,10.469001863013329,2009-02-04,00:31:59,2009-02-04,00:34:06,205
483064.79117647064,4422482.388235293,39848.1918055556,39848.1934490741,40.5172802646643,2009-02-04,04:36:12,2009-02-04,04:38:34,205
483067.86406250007,4422474.6765625,39848.3034606481,39848.4637615741,48.8082984745613,2009-02-04,07:16:59,2009-02-04,11:07:49,205
482767.1562962965,4422078.248518518,39848.5266550926,39848.5737731481,49.81214711290832,2009-02-04,12:38:23,2009-02-04,13:46:14,208
483123.81764705887,4422460.535294118,39848.5804513889,39848.5811111111,15.72577502034295,2009-02-04,13:55:51,2009-02-04,13:56:48,-1
483060.5770833334,4422452.779166666,39849.0220833333,39849.0240509259,12.126417443078362,2009-02-05,00:31:48,2009-02-05,00:34:38,205
483068.09487179486,4422480.179487179,39849.3068518518,39849.3085648148,13.623509092765048,2009-02-05,07:21:52,2009-02-05,07:24:20,205
442546.0857142857,4428000.357142857,39849.5157175926,39849.5158564815,44.83570006162604,2009-02-05,12:22:38,2009-02-05,12:22:50,202
441483.5181818182,4429139.218181819,39849.6430324074,39849.6431944444,9.208691546243324,2009-02-05,15:25:58,2009-02-05,15:26:12,-1
442548.9,4427868.45,39850.0529513889,39850.0529861111,38.40677023725061,2009-02-06,01:16:15,2009-02-06,01:16:18,-1
441522.46111111104,4429051.777777779,39850.1881018518,39850.1886342593,29.347061181986636,2009-02-06,04:30:52,2009-02-06,04:31:38,206
442479.575,4427834.525,39850.2617939815,39850.2619212963,33.894099781512274,2009-02-06,06:16:59,2009-02-06,06:17:10,-1
442572.6204081633,4427983.736734695,39850.4277893519,39850.477025463,47.95424903003845,2009-02-06,10:16:01,2009-02-06,11:26:55,202
441567.3428571428,4429026.657142857,39850.5651273148,39850.5703356481,27.823910581150322,2009-02-06,13:33:47,2009-02-06,13:41:17,-1
444516.8441176471,4414327.591176471,39851.0766435185,39851.0778587963,45.27615266359123,2009-02-07,01:50:22,2009-02-07,01:52:07,-1
442538.5833333333,4428020.95,39851.2546875,39851.2550925926,5.560575510029343,2009-02-07,06:06:45,2009-02-07,06:07:20,202
441537.938235294,4429099.5029411735,39851.3236458333,39851.4159143518,46.100976128656654,2009-02-07,07:46:03,2009-02-07,09:58:55,206
442581.0467741935,4427986.379032257,39851.4237615741,39851.5957986111,44.69955257052442,2009-02-07,10:10:13,2009-02-07,14:17:57,202
441577.0,4429121.022222222,39851.6057175926,39851.6058449074,46.180623642750604,2009-02-07,14:32:14,2009-02-07,14:32:25,-1
442539.155882353,4428007.9735294115,39852.1001041667,39852.1009953704,46.396767128739754,2009-02-08,02:24:09,2009-02-08,02:25:26,202
442243.575,4427987.775,39852.2800115741,39852.2800462963,45.87951612648001,2009-02-08,06:43:13,2009-02-08,06:43:16,-1
442548.26666666666,4428032.833333333,39852.4256712963,39852.4257523148,6.037383539301494,2009-02-08,10:12:58,2009-02-08,10:13:05,202
441529.0028985507,4429071.514492756,39852.6997800926,39852.7025578704,30.00599940012067,2009-02-08,16:47:41,2009-02-08,16:51:41,206
442559.87999999983,4427934.513333334,39853.0642939815,39853.1062731481,46.8167704994824,2009-02-09,01:32:35,2009-02-09,02:33:02,202
442016.6666666667,4427923.500000001,39853.1303703704,39853.1303935185,25.982494106499868,2009-02-09,03:07:44,2009-02-09,03:07:46,-1
441580.62857142865,4429047.164285715,39853.2030439815,39853.2437731481,17.424408168034244,2009-02-09,04:52:23,2009-02-09,05:51:02,-1
442585.04285714286,4427952.442857143,39853.2507291667,39853.4067361111,45.16248443132321,2009-02-09,06:01:03,2009-02-09,09:45:42,202
442559.89333333325,4428021.9,39853.4290625,39853.429537037,45.12704289032714,2009-02-09,10:17:51,2009-02-09,10:18:32,202
441533.094936709,4429085.74556962,39853.6873726852,39854.0363194444,46.26035019347027,2009-02-09,16:29:49,2009-02-10,00:52:18,206
442574.16666666674,4427891.233333333,39854.0523842593,39854.0530324074,35.19232870953555,2009-02-10,01:15:26,2009-02-10,01:16:22,210
442456.2428571428,4428687.259183674,39854.161412037,39854.2222337963,48.99387716816076,2009-02-10,03:52:26,2009-02-10,05:20:01,203
442590.2111111111,4428003.566666666,39854.2694097222,39854.4094444444,43.008487534619576,2009-02-10,06:27:57,2009-02-10,09:49:36,202
442577.90000000014,4428045.090909093,39854.4320023148,39854.4322569444,43.593233420252524,2009-02-10,10:22:05,2009-02-10,10:22:27,202
441542.99253731343,4429071.917910446,39854.713912037,39854.7171412037,32.181050324845806,2009-02-10,17:08:02,2009-02-10,17:12:41,206
442571.96969696967,4428002.266666667,39855.0598032407,39855.1644097222,49.6726282771985,2009-02-11,01:26:07,2009-02-11,03:56:45,202
442585.6888888888,4427864.144444445,39855.1897222222,39855.1898726852,38.1536367863745,2009-02-11,04:33:12,2009-02-11,04:33:25,210
442586.1195652176,4427975.376086956,39855.4374421296,39855.7441666667,49.487473162105616,2009-02-11,10:29:55,2009-02-11,17:51:36,202
441538.08571428584,4429080.753246753,39855.7518981481,39856.0352430556,45.77390086064329,2009-02-11,18:02:44,2009-02-12,00:50:45,206
442569.8571428573,4427956.842857143,39856.0492939815,39856.0505787037,48.990203101641626,2009-02-12,01:10:59,2009-02-12,01:12:50,202
442536.1777777777,4428017.3444444435,39856.2006828704,39856.2016666667,20.314772949760453,2009-02-12,04:48:59,2009-02-12,04:50:24,202
441485.38,4429254.4,39856.7439236111,39856.7439699074,49.09358410162844,2009-02-12,17:51:15,2009-02-12,17:51:19,-1
442546.62857142853,4427913.0,39857.0593634259,39857.0594675926,45.57477372370754,2009-02-13,01:25:29,2009-02-13,01:25:38,202
442449.8471698114,4428679.594339624,39857.16375,39857.2239930556,48.0891879738025,2009-02-13,03:55:48,2009-02-13,05:22:33,203
441965.21600000025,4426315.597999999,39857.2909375,39857.2931365741,46.154198075612484,2009-02-13,06:58:57,2009-02-13,07:02:07,-1
442585.81000000006,4427975.711999999,39857.447974537,39857.4856134259,46.14336355372808,2009-02-13,10:45:05,2009-02-13,11:39:17,202
442616.85,4428054.65,39857.5425115741,39857.5425231481,19.21509823039375,2009-02-13,13:01:13,2009-02-13,13:01:14,202
441569.35454545455,4429065.545454546,39857.6308912037,39858.1054513889,47.92514997339546,2009-02-13,15:08:29,2009-02-14,02:31:51,206
438657.35,4423207.574999999,39858.2647106481,39858.3353240741,39.86477141549143,2009-02-14,06:21:11,2009-02-14,08:02:52,-1
442571.044,4427939.112,39858.5548842593,39858.6142939815,1.6763054610684496,2009-02-14,13:19:02,2009-02-14,14:44:35,202
441539.0972602739,4429078.431506849,39858.6211458333,39859.0955439815,46.6099774726507,2009-02-14,14:54:27,2009-02-15,02:17:35,206
442477.5333333334,4427855.100000001,39859.2569560185,39859.2569791667,39.912905180970895,2009-02-15,06:10:01,2009-02-15,06:10:03,-1
442559.5755102041,4427999.310204081,39859.423287037,39859.7069212963,44.618493923467746,2009-02-15,10:09:32,2009-02-15,16:57:58,202
441529.3972972972,4429086.532432433,39859.714212963,39860.0221296296,47.37013827249842,2009-02-15,17:08:28,2009-02-16,00:31:52,206
442579.46874999994,4427950.71875,39860.0331481481,39860.0346180556,45.46878049798808,2009-02-16,00:47:44,2009-02-16,00:49:51,202
442456.4369565217,4428661.543478261,39860.1653935185,39860.2234490741,49.50252518848521,2009-02-16,03:58:10,2009-02-16,05:21:46,203
442586.03888888884,4427984.833333333,39860.2662615741,39860.4071643518,49.28823389019447,2009-02-16,06:23:25,2009-02-16,09:46:19,202
442564.17391304346,4427969.391304347,39860.4283333333,39860.7271296296,37.171090917395354,2009-02-16,10:16:48,2009-02-16,17:27:04,202
441550.20909090905,4429152.899999999,39860.7375115741,39860.7377430556,44.99288832693938,2009-02-16,17:42:01,2009-02-16,17:42:21,-1
442567.77999999997,4428042.380000001,39861.0791087963,39861.0794444444,41.448039760459295,2009-02-17,01:53:55,2009-02-17,01:54:24,202
442544.82857142854,4428069.385714286,39861.181099537,39861.1814351852,41.66353321607165,2009-02-17,04:20:47,2009-02-17,04:21:16,202
442569.1794117649,4427985.405882352,39861.4351851852,39861.4367824074,37.729829048155096,2009-02-17,10:26:40,2009-02-17,10:28:58,202
441562.7752000001,4429068.184800001,39861.6281134259,39862.0501967593,49.78754864414457,2009-02-17,15:04:29,2009-02-18,01:12:17,206
442572.9538461538,4428000.328205128,39862.0657291667,39862.1524305556,48.70164268218202,2009-02-18,01:34:39,2009-02-18,03:39:30,202
442592.9153846155,4427976.692307692,39862.3015972222,39862.3021412037,41.03120763516382,2009-02-18,07:14:18,2009-02-18,07:15:05,202
442596.59310344816,4427973.24137931,39862.4708912037,39862.6055324074,47.53956247171375,2009-02-18,11:18:05,2009-02-18,14:31:58,202
441533.4616666667,4429091.836666667,39862.6153703704,39863.0111574074,28.296289509307773,2009-02-18,14:46:08,2009-02-19,00:16:04,206
442533.5,4427805.066666666,39863.0217361111,39863.0217592593,36.30385654481312,2009-02-19,00:31:18,2009-02-19,00:31:20,-1
442514.74999999994,4427749.15,39863.1230324074,39863.1230671296,49.405364081243974,2009-02-19,02:57:10,2009-02-19,02:57:13,-1
442373.80000000005,4428635.887499999,39863.1693171296,39863.1694907407,46.72986197270878,2009-02-19,04:03:49,2009-02-19,04:04:04,-1
442571.8363636363,4427966.572727272,39863.2396180556,39863.2398726852,48.8701340288777,2009-02-19,05:45:03,2009-02-19,05:45:25,202
442542.9666666666,4428059.5,39863.4276388889,39863.4277314815,43.26950427263987,2009-02-19,10:15:48,2009-02-19,10:15:56,202
441548.96666666656,4429052.133333334,39863.7546875,39863.7551041667,43.30288673976653,2009-02-19,18:06:45,2009-02-19,18:07:21,206
442592.15,4427870.975,39864.0397222222,39864.0397569444,42.904195598472974,2009-02-20,00:57:12,2009-02-20,00:57:15,210
442567.39999999997,4428051.683333334,39864.1900231481,39864.1901736111,32.76736180975936,2009-02-20,04:33:38,2009-02-20,04:33:51,202
448768.75555555546,4418395.247222223,39864.4465046296,39864.4577199074,47.78807382604232,2009-02-20,10:42:58,2009-02-20,10:59:07,-1
442577.1312500001,4428006.875,39864.6074884259,39864.7063194444,49.55007568144002,2009-02-20,14:34:47,2009-02-20,16:57:06,202
441530.8511904764,4429083.148809524,39864.7133333333,39864.978287037,46.09088847014957,2009-02-20,17:07:12,2009-02-20,23:28:44,206
442583.5307692308,4428019.165384615,39864.9912962963,39865.1300115741,47.46546112654059,2009-02-20,23:47:28,2009-02-21,03:07:13,202
439754.11722488026,4401659.198325362,39865.2568055556,39865.2951736111,49.92894951773241,2009-02-21,06:09:48,2009-02-21,07:05:03,-1
442574.34523809544,4427967.028571429,39865.4529050926,39865.454375,21.080085388394252,2009-02-21,10:52:11,2009-02-21,10:54:18,202
442507.0136363635,4427940.572727273,39866.079224537,39866.0796064815,19.45096398629546,2009-02-22,01:54:05,2009-02-22,01:54:38,-1
442426.75,4428628.675,39866.2537384259,39866.2538773148,48.65408513124698,2009-02-22,06:05:23,2009-02-22,06:05:35,-1
442570.69375,4427961.396875001,39866.3170949074,39866.42625,44.82019633977984,2009-02-22,07:36:37,2009-02-22,10:13:48,202
442576.71086956543,4427965.10652174,39866.4796412037,39866.7185416667,49.40941205893253,2009-02-22,11:30:41,2009-02-22,17:14:42,202
441532.125882353,4429070.882352938,39866.7254513889,39867.0276851852,49.955380090721526,2009-02-22,17:24:39,2009-02-23,00:39:52,206
442564.75,4427969.602083334,39867.0399537037,39867.1627430556,45.312470689618614,2009-02-23,00:57:32,2009-02-23,03:54:21,202
442226.2,4427069.8,39867.1937962963,39867.1937962963,0.0,2009-02-23,04:39:04,2009-02-23,04:39:04,-1
442584.2543478262,4427960.519565217,39867.4545138889,39867.6613657407,49.15495905805572,2009-02-23,10:54:30,2009-02-23,15:52:22,202
441558.81538461545,4429068.3807692295,39867.6696180556,39868.0259490741,19.006577808724632,2009-02-23,16:04:15,2009-02-24,00:37:22,206
442570.6774193549,4427971.68064516,39868.0430671296,39868.1691898148,45.555460704562734,2009-02-24,01:02:01,2009-02-24,04:03:38,202
442596.5400000001,4428016.248,39868.1973032407,39868.1981018518,43.57636974332183,2009-02-24,04:44:07,2009-02-24,04:45:16,202
442503.3,4427903.3,39868.2918055556,39868.2918055556,0.0,2009-02-24,07:00:12,2009-02-24,07:00:12,-1
442589.690909091,4427977.795454545,39868.3811226852,39868.3819675926,44.124369684148405,2009-02-24,09:08:49,2009-02-24,09:10:02,202
442581.77692307683,4427940.146153847,39868.4405555556,39868.4415393519,49.82569618176598,2009-02-24,10:34:24,2009-02-24,10:35:49,202
441539.5192307693,4429095.019230768,39868.6708217593,39869.0396643518,46.453632796601795,2009-02-24,16:05:59,2009-02-25,00:57:07,206
442568.20000000007,4428066.475,39869.052337963,39869.0525578704,44.65781006687279,2009-02-25,01:15:22,2009-02-25,01:15:41,202
441542.0516129031,4429053.158064516,39869.1736805556,39869.2390393519,46.361406363659476,2009-02-25,04:10:06,2009-02-25,05:44:13,206
441915.73333333334,4426299.366666667,39869.2911921296,39869.2917708333,45.28421358483554,2009-02-25,06:59:19,2009-02-25,07:00:09,-1
442587.6736842106,4427961.315789474,39869.445625,39869.4472685185,49.974093288440145,2009-02-25,10:41:42,2009-02-25,10:44:04,202
441540.7272727274,4429087.678181818,39876.8052662037,39877.0741435185,43.34166586602269,2009-03-04,19:19:35,2009-03-05,01:46:46,206
442548.8454545455,4427939.854545453,39877.0806018518,39877.0825578704,47.65007869892525,2009-03-05,01:56:04,2009-03-05,01:58:53,202
441545.49395348784,4429050.617441863,39877.1982407407,39877.2383564815,45.655448743888556,2009-03-05,04:45:28,2009-03-05,05:43:14,206
442568.01016949135,4427973.520338984,39877.2477314815,39877.2844444444,44.460881682976414,2009-03-05,05:56:44,2009-03-05,06:49:36,202
441913.9312500001,4426320.734375,39877.2932175926,39877.294375,22.065810658165848,2009-03-05,07:02:14,2009-03-05,07:03:54,-1
442541.4612903226,4427981.0741935475,39877.4304398148,39877.7880671296,30.03897468308571,2009-03-05,10:19:50,2009-03-05,18:54:49,202
441951.291304348,4428827.02173913,39877.794212963,39877.7950925926,44.58396572746331,2009-03-05,19:03:40,2009-03-05,19:04:56,211
442570.2,4428068.125,39878.2018055556,39878.2018865741,3.178049716306079,2009-03-06,04:50:36,2009-03-06,04:50:43,202
482761.46129032265,4422082.264516129,39878.5823726852,39878.5837847222,33.24154027700196,2009-03-06,13:58:37,2009-03-06,14:00:39,208
481497.2923076923,4421966.992307692,39879.2586226852,39879.2591203704,44.45964462299031,2009-03-07,06:12:25,2009-03-07,06:13:08,-1
483052.14,4422539.05,39879.4851157407,39879.4852662037,46.9975531277822,2009-03-07,11:38:34,2009-03-07,11:38:47,-1
482769.43494860514,4422075.206901619,39880.0833564815,39880.1506134259,49.32686894578902,2009-03-08,02:00:02,2009-03-08,03:36:53,208
481465.7083333333,4421951.008333334,39880.1925694444,39880.1929861111,45.05685297491039,2009-03-08,04:37:18,2009-03-08,04:37:54,212
454731.4071428571,4417595.992857142,39880.4860300926,39880.4865393518,48.46462627492909,2009-03-08,11:39:53,2009-03-08,11:40:37,-1
442571.79649122804,4427956.870175438,39880.5393518518,39880.7665393518,44.44164713422625,2009-03-08,12:56:40,2009-03-08,18:23:49,202
441540.175,4429083.554999999,39880.7760532407,39881.0294791667,47.60514678057405,2009-03-08,18:37:31,2009-03-09,00:42:27,206
442562.8522727273,4428019.763636365,39881.0410416667,39881.1632638889,47.598739479261454,2009-03-09,00:59:06,2009-03-09,03:55:06,202
441550.9384615383,4429105.628205128,39881.1893865741,39881.2383101852,45.70787678320863,2009-03-09,04:32:43,2009-03-09,05:43:10,206
442581.69999999984,4427984.828205128,39881.2449768518,39881.2466319444,25.71089263345694,2009-03-09,05:52:46,2009-03-09,05:55:09,202
442580.31199999986,4427959.618000002,39881.4698148148,39881.7461226852,42.303664143828094,2009-03-09,11:16:32,2009-03-09,17:54:25,202
441533.5976744185,4429084.744186047,39881.7532407407,39881.7552314815,48.16014950185597,2009-03-09,18:04:40,2009-03-09,18:07:32,206
442567.34117647057,4428007.705882352,39882.0596875,39882.0603703704,45.040870328967436,2009-03-10,01:25:57,2009-03-10,01:26:56,202
442571.56981132075,4427969.079245284,39882.2022222222,39882.4078125,48.401859468242506,2009-03-10,04:51:12,2009-03-10,09:47:15,202
442564.1235294117,4427959.8176470585,39882.517662037,39882.7109490741,47.59464255564905,2009-03-10,12:25:26,2009-03-10,17:03:46,202
441530.93888888904,4429082.811111111,39882.7205439815,39883.020474537,18.085353189636887,2009-03-10,17:17:35,2009-03-11,00:29:29,206
442566.47272727266,4428016.836363637,39883.0335069444,39883.0338078704,43.48850422812907,2009-03-11,00:48:15,2009-03-11,00:48:41,202
442446.03125,4428680.318750001,39883.1721296296,39883.172662037,48.92003679512617,2009-03-11,04:07:52,2009-03-11,04:08:38,203
442548.8804347826,4428018.013043479,39883.2586111111,39883.4006018518,42.33957959098776,2009-03-11,06:12:24,2009-03-11,09:36:52,202
442580.2039215687,4427960.441176471,39883.4298263889,39883.4322453704,20.13752715670014,2009-03-11,10:18:57,2009-03-11,10:22:26,202
441538.319047619,4429090.157142856,39883.6734143518,39883.6752546296,44.93951490630166,2009-03-11,16:09:43,2009-03-11,16:12:22,206
442569.9055555555,4427956.672222222,39884.0443171296,39884.0856018519,48.51360633918107,2009-03-12,01:03:49,2009-03-12,02:03:16,202
442111.3909090909,4420825.445454545,39884.1075925926,39884.1079166667,44.53784907280854,2009-03-12,02:34:56,2009-03-12,02:35:24,-1
442576.27272727265,4427968.085454546,39884.246712963,39884.3074305556,46.92302206841535,2009-03-12,05:55:16,2009-03-12,07:22:42,202
442575.7333333333,4427944.570370369,39884.4171990741,39884.4181712963,29.446222168367882,2009-03-12,10:00:46,2009-03-12,10:02:10,202
441537.08367346926,4429074.5489795925,39884.7398148148,39885.0611458333,23.00630348400655,2009-03-12,17:45:20,2009-03-13,01:28:03,206
442577.04999999993,4427903.7,39885.0849421296,39885.085,14.835430563535262,2009-03-13,02:02:19,2009-03-13,02:02:24,210
442448.99024390255,4428660.917073171,39885.1708333333,39885.2169675926,49.577414213002555,2009-03-13,04:06:00,2009-03-13,05:12:26,203
442583.3413793104,4427967.644827585,39885.2552893519,39885.2566087963,41.3098051312992,2009-03-13,06:07:37,2009-03-13,06:09:31,202
483067.0347826088,4422460.117391304,39885.5325578704,39885.5355902778,26.05475004661118,2009-03-13,12:46:53,2009-03-13,12:51:15,205
441457.87666666677,4424095.02,39886.2600810185,39886.261412037,40.37251540338298,2009-03-14,06:14:31,2009-03-14,06:16:26,-1
483069.41515151516,4422485.839393939,39886.4377083333,39886.5201736111,23.526155656998203,2009-03-14,10:30:18,2009-03-14,12:29:03,205
483072.62666666665,4422468.58,39886.5378935185,39886.5385648148,45.89400832389184,2009-03-14,12:54:34,2009-03-14,12:55:32,205
481484.06129032257,4421898.29032258,39887.0989583333,39887.1016087963,12.903487900665437,2009-03-15,02:22:30,2009-03-15,02:26:19,212
483067.0645833332,4422483.820833333,39887.4046412037,39887.4430324074,44.60773475567864,2009-03-15,09:42:41,2009-03-15,10:37:58,205
454805.70909090905,4417612.404545455,39887.4743055556,39887.4750462963,45.08137087465488,2009-03-15,11:23:00,2009-03-15,11:24:04,-1
442550.75,4428001.8,39887.5247106481,39887.5248611111,49.86581995710104,2009-03-15,12:35:35,2009-03-15,12:35:48,202
441527.10307692306,4429083.60923077,39887.7854398148,39888.0470023148,48.232976270983954,2009-03-15,18:51:02,2009-03-16,01:07:41,206
442569.796969697,4427954.1454545455,39888.0537037037,39888.0551273148,49.61663027655889,2009-03-16,01:17:20,2009-03-16,01:19:23,202
441531.80312500003,4429112.353125001,39888.1972222222,39888.1987152778,15.073486657545399,2009-03-16,04:44:00,2009-03-16,04:46:09,206
442576.7,4427967.863157894,39888.2403125,39888.6998032407,46.20876540224809,2009-03-16,05:46:03,2009-03-16,16:47:43,202
441527.8714285714,4429090.3285714295,39888.7096412037,39888.7113310185,24.258812831499846,2009-03-16,17:01:53,2009-03-16,17:04:19,206
442548.0933333333,4428027.773333333,39889.0362384259,39889.0368171296,29.71683024818348,2009-03-17,00:52:11,2009-03-17,00:53:01,202
442548.7571428572,4428023.5476190485,39889.1628587963,39889.1636921296,49.14671911768945,2009-03-17,03:54:31,2009-03-17,03:55:43,202
442582.75000000006,4427956.560714285,39889.4411458333,39889.4420717593,49.80090360610171,2009-03-17,10:35:15,2009-03-17,10:36:35,202
442581.0909090909,4427986.4363636365,39890.1199305556,39890.1681134259,48.03092753618136,2009-03-18,02:52:42,2009-03-18,04:02:05,202
442576.29137931054,4427981.74827586,39890.1975347222,39890.2688078704,48.8098350748274,2009-03-18,04:44:27,2009-03-18,06:27:05,202
442558.85000000003,4428019.712499999,39890.3135185185,39890.3137384259,45.27394394121012,2009-03-18,07:31:28,2009-03-18,07:31:47,202
442371.23333333334,4427380.3,39890.3641782407,39890.3642939815,10.778218776499056,2009-03-18,08:44:25,2009-03-18,08:44:35,-1
442571.04482758616,4427969.796551725,39890.4404398148,39890.6907175926,47.33814529543361,2009-03-18,10:34:14,2009-03-18,16:34:38,202
442110.03125,4429157.625,39890.6971180556,39890.6976967593,48.121201149092855,2009-03-18,16:43:51,2009-03-18,16:44:41,204
442535.3,4428346.59,39891.1153587963,39891.1156712963,40.853151653026025,2009-03-19,02:46:07,2009-03-19,02:46:34,-1
442592.4018181819,4427975.423636363,39891.1987152778,39891.4062152778,44.38028841729723,2009-03-19,04:46:09,2009-03-19,09:44:57,202
442574.5666666667,4427956.270833334,39891.4570601852,39891.4580324074,32.032015234918255,2009-03-19,10:58:10,2009-03-19,10:59:34,202
442108.81499999994,4429148.579999999,39891.693599537,39891.6941435185,48.442233638932315,2009-03-19,16:38:47,2009-03-19,16:39:34,204
442570.8125,4427957.681249999,39892.1003125,39892.1524074074,27.97606119548169,2009-03-20,02:24:27,2009-03-20,03:39:28,202
442444.34545454546,4428640.209090909,39892.1625115741,39892.1628356481,45.07083314011843,2009-03-20,03:54:01,2009-03-20,03:54:29,203
442573.1511627907,4427960.120930234,39892.2519212963,39892.3974652778,46.89584203356635,2009-03-20,06:02:46,2009-03-20,09:32:21,202
442561.9357142859,4427972.114285714,39892.4217476852,39892.4227430556,41.243787410882696,2009-03-20,10:07:19,2009-03-20,10:08:45,202
483068.03035714297,4422467.476785715,39892.5672685185,39892.9858680556,48.515255332614814,2009-03-20,13:36:52,2009-03-20,23:39:39,205
482769.09999999986,4422082.770186336,39893.1361921296,39893.1667476852,30.696090956285147,2009-03-21,03:16:07,2009-03-21,04:00:07,208
483072.4284403672,4422448.123853212,39893.5081712963,39893.5272685185,19.840614909639164,2009-03-21,12:11:46,2009-03-21,12:39:16,205
454757.93636363634,4417623.836363637,39894.0865856481,39894.0893402778,44.894988584490754,2009-03-22,02:04:41,2009-03-22,02:08:39,213
451049.63636363635,4430448.19090909,39894.1394444444,39894.1405787037,33.554284376392374,2009-03-22,03:20:48,2009-03-22,03:22:26,-1
443413.87,4424458.890000001,39894.3046759259,39894.3109490741,45.857387627455694,2009-03-22,07:18:44,2009-03-22,07:27:46,-1
442579.81250000006,4427974.71875,39894.3803935185,39894.4318865741,49.32433476471839,2009-03-22,09:07:46,2009-03-22,10:21:55,202
442582.2111111111,4427958.199999999,39894.451875,39894.7337731481,47.07440918361981,2009-03-22,10:50:42,2009-03-22,17:36:38,202
441590.52499999997,4428965.574999999,39894.8938888889,39894.8944328704,46.970309771182905,2009-03-22,21:27:12,2009-03-22,21:27:59,-1
442575.4686567163,4427993.374626866,39895.0497453704,39895.1540740741,47.09915073525681,2009-03-23,01:11:38,2009-03-23,03:41:52,202
442456.8428571429,4428703.6619047625,39895.1683333333,39895.169212963,14.080127839986012,2009-03-23,04:02:24,2009-03-23,04:03:40,203
442635.18333333335,4428128.933333334,39895.2472916667,39895.247349537,48.9767291675849,2009-03-23,05:56:06,2009-03-23,05:56:11,-1
442588.1320000001,4427953.26,39895.4466666667,39895.4478703704,35.80223456693447,2009-03-23,10:43:12,2009-03-23,10:44:56,202
441563.457142857,4429079.760714285,39895.7489236111,39896.0305902778,45.22057054013455,2009-03-23,17:58:27,2009-03-24,00:44:03,206
442578.04838709673,4427981.245161289,39896.0525925926,39896.1575,46.040417026958416,2009-03-24,01:15:44,2009-03-24,03:46:48,202
442525.175,4427989.8125,39896.1857986111,39896.1859490741,49.13919006251902,2009-03-24,04:27:33,2009-03-24,04:27:46,202
442562.6052631579,4428003.542105264,39896.2925694444,39896.2931481482,42.86210447468278,2009-03-24,07:01:18,2009-03-24,07:02:08,202
442600.1714285714,4427989.914285715,39896.4512962963,39896.7005324074,41.1623614483024,2009-03-24,10:49:52,2009-03-24,16:48:46,202
441534.78529411764,4429053.208823528,39896.7080671296,39897.030150463,47.38027015559744,2009-03-24,16:59:37,2009-03-25,00:43:25,206
442566.8568181817,4427985.497727273,39897.041724537,39897.0435416667,20.750421683188737,2009-03-25,01:00:05,2009-03-25,01:02:42,202
441532.6500000001,4429097.507894736,39897.1978009259,39897.2761574074,48.48360547593864,2009-03-25,04:44:50,2009-03-25,06:37:40,206
442581.53571428574,4427990.685714285,39897.284525463,39897.2850115741,36.31927862720054,2009-03-25,06:49:43,2009-03-25,06:50:25,202
442582.2052631579,4427976.607894736,39897.4441319444,39897.4456481481,42.28096498408184,2009-03-25,10:39:33,2009-03-25,10:41:44,202
442101.07857142854,4428021.342857143,39904.7432175926,39904.7436226852,46.42434706003128,2009-04-01,17:50:14,2009-04-01,17:50:49,-1
442547.6090909091,4428048.3545454545,39905.0456365741,39905.0459375,45.339276571391956,2009-04-02,01:05:43,2009-04-02,01:06:09,202
441530.4093749998,4429086.973437501,39905.1953935185,39905.1984837963,21.855205329905203,2009-04-02,04:41:22,2009-04-02,04:45:49,206
442554.6727272727,4428062.927272726,39905.2484606481,39905.2488425926,15.388307249836377,2009-04-02,05:57:47,2009-04-02,05:58:20,202
441997.0625,4428834.1625,39905.5061689815,39905.6351041667,26.158937287293007,2009-04-02,12:08:53,2009-04-02,15:14:33,-1
442626.61999999994,4428090.4799999995,39905.6522800926,39905.6523611111,46.227697325115756,2009-04-02,15:39:17,2009-04-02,15:39:24,202
441527.7184210527,4429083.518421053,39905.7286574074,39905.7302546296,25.04915168222304,2009-04-02,17:29:16,2009-04-02,17:31:34,206
442567.14651162794,4428038.186046513,39906.0605324074,39906.0624421296,11.346365056699872,2009-04-03,01:27:10,2009-04-03,01:29:55,202
441538.8567567568,4429100.632432434,39906.2008449074,39906.202662037,26.88679973537092,2009-04-03,04:49:13,2009-04-03,04:51:50,206
442533.375,4428050.624999999,39906.2521412037,39906.2525694444,46.6274597202679,2009-04-03,06:03:05,2009-04-03,06:03:42,202
443108.26666666666,4425197.8380952375,39906.4704166667,39906.4712268518,38.40325507039459,2009-04-03,11:17:24,2009-04-03,11:18:34,207
483075.09629629634,4422468.888888889,39906.5504050926,39906.5515856481,39.78002011077563,2009-04-03,13:12:35,2009-04-03,13:14:17,205
481448.95999999996,4421860.977499998,39907.0947916667,39907.2966666667,47.47473012061204,2009-04-04,02:16:30,2009-04-04,07:07:12,212
481492.0370370371,4421851.811111112,39907.3196759259,39907.3207407407,29.7934556569517,2009-04-04,07:40:20,2009-04-04,07:41:52,-1
483075.1516129032,4422476.767741935,39907.4107523148,39907.5212268519,48.51607980829944,2009-04-04,09:51:29,2009-04-04,12:30:34,205
483078.1833333333,4422471.641666666,39907.5578935185,39908.0574768518,44.60100895719737,2009-04-04,13:23:22,2009-04-05,01:22:46,205
481467.95909090905,4421894.890909092,39908.1075462963,39908.1687152778,44.358990070169725,2009-04-05,02:34:52,2009-04-05,04:02:57,212
481462.9066666666,4421931.0,39908.2411805556,39908.2416550926,37.77737418103072,2009-04-05,05:47:18,2009-04-05,05:47:59,212
482991.5190476191,4422415.514285713,39908.5690046296,39908.5697685185,33.83208536340898,2009-04-05,13:39:22,2009-04-05,13:40:28,-1
483071.7745098039,4422463.803921567,39909.1727662037,39909.1746180556,46.17152802325408,2009-04-06,04:08:47,2009-04-06,04:11:27,205
462413.22222222225,4415494.344444444,39909.3303935185,39909.3307986111,50.0,2009-04-06,07:55:46,2009-04-06,07:56:21,-1
454795.4222222222,4417545.233333332,39909.4216087963,39909.4217939815,47.95518741529048,2009-04-06,10:07:07,2009-04-06,10:07:23,-1
442568.04761904763,4427994.114285714,39909.487025463,39909.4876041667,38.83555072360839,2009-04-06,11:41:19,2009-04-06,11:42:09,202
441914.96774193546,4428829.774193549,39910.0439814815,39910.0457523148,43.501839041585036,2009-04-07,01:03:20,2009-04-07,01:05:53,-1
441106.2424242423,4425421.884848485,39910.1141782407,39910.1154861111,45.02021768021958,2009-04-07,02:44:25,2009-04-07,02:46:18,-1
460894.43103448284,4419992.975862068,39910.1849652778,39910.2896643518,35.44573317049589,2009-04-07,04:26:21,2009-04-07,06:57:07,-1
442516.6964285714,4428013.857142857,39910.4237268518,39910.424537037,32.03700984812142,2009-04-07,10:10:10,2009-04-07,10:11:20,202
441551.48305084737,4429074.325423729,39910.6537962963,39911.0436805556,44.98588667575128,2009-04-07,15:41:28,2009-04-08,01:02:54,206
442579.72500000003,4428038.908333333,39911.0616898148,39911.0619907407,42.12469584443656,2009-04-08,01:28:50,2009-04-08,01:29:16,202
442564.55000000005,4427954.966666667,39911.2073032407,39911.2073726852,39.654760117796705,2009-04-08,04:58:31,2009-04-08,04:58:37,202
442568.67000000004,4428029.970000001,39911.4737384259,39911.4741550926,45.59056919967826,2009-04-08,11:22:11,2009-04-08,11:22:47,202
441574.88510638283,4429071.776595744,39911.7142939815,39911.7160069444,45.79355849932595,2009-04-08,17:08:35,2009-04-08,17:11:03,-1
442569.5749999999,4427965.816666667,39912.058275463,39912.0586921296,49.1236195731693,2009-04-09,01:23:55,2009-04-09,01:24:31,202
441962.3,4428833.75,39912.1467476852,39912.1469212963,47.9066801194887,2009-04-09,03:31:19,2009-04-09,03:31:34,211
460883.30000000005,4420004.884615385,39912.3445601852,39912.3450694444,45.880278987817846,2009-04-09,08:16:10,2009-04-09,08:16:54,-1
459390.8642857143,4417709.042857142,39912.4280092593,39912.4308449074,12.108261642350763,2009-04-09,10:16:20,2009-04-09,10:20:25,-1
441826.5804988659,4424732.58843537,39912.5476388889,39912.585787037,29.740544715926102,2009-04-09,13:08:36,2009-04-09,14:03:32,-1
442572.7285714286,4427950.785714285,39912.5995601852,39912.5999768519,42.355755216640695,2009-04-09,14:23:22,2009-04-09,14:23:58,202
441539.6854166666,4429089.779166667,39912.7787847222,39912.7807986111,37.002162098984876,2009-04-09,18:41:27,2009-04-09,18:44:21,206
442595.1829268292,4427984.731707316,39913.0228935185,39913.3154861111,43.213076725044175,2009-04-10,00:32:58,2009-04-10,07:34:18,202
439806.21249999997,4401658.395833333,39913.3718981481,39913.3728240741,49.83753605485128,2009-04-10,08:55:32,2009-04-10,08:56:52,214
442568.3666666667,4427958.216666667,39913.5861342593,39913.7116782407,45.18152277220368,2009-04-10,14:04:02,2009-04-10,17:04:49,202
442129.548275862,4429204.303448277,39913.7167939815,39914.2250578704,43.41393785411779,2009-04-10,17:12:11,2009-04-11,05:24:05,-1
442571.74,4427963.113333332,39914.2673611111,39914.2679050926,49.42519600355661,2009-04-11,06:25:00,2009-04-11,06:25:47,202
439810.71304347826,4401661.039130433,39914.3629050926,39914.3638425926,46.65072346707118,2009-04-11,08:42:35,2009-04-11,08:43:56,214
442583.2235294117,4427964.770588236,39914.5926388889,39914.5933680556,44.900445432593266,2009-04-11,14:13:24,2009-04-11,14:14:27,202
442125.61764705885,4429198.794117647,39914.7246064815,39914.7253472222,18.755265927545896,2009-04-11,17:23:26,2009-04-11,17:24:30,204
442569.425,4427968.612500001,39915.0405208333,39915.0411574074,49.440064725192634,2009-04-12,00:58:21,2009-04-12,00:59:16,202
439806.78095238097,4401657.504761905,39915.3662268519,39915.3671527778,47.81736086402093,2009-04-12,08:47:22,2009-04-12,08:48:42,214
442581.29000000004,4427962.725,39915.5909143519,39915.7184490741,46.585942085803396,2009-04-12,14:10:55,2009-04-12,17:14:34,202
442126.14999999997,4429190.135714285,39915.7250231481,39915.7256018519,44.49415691957677,2009-04-12,17:24:02,2009-04-12,17:24:52,204
442571.97272727283,4427964.695454545,39916.2471412037,39916.3152546296,36.94374101317943,2009-04-13,05:55:53,2009-04-13,07:33:58,202
439807.0923076923,4401658.826923076,39916.3629050926,39916.3638888889,43.94507936085511,2009-04-13,08:42:35,2009-04-13,08:44:00,214
442120.89523809537,4429188.133333333,39916.6205324074,39916.6212384259,38.75590277675557,2009-04-13,14:53:34,2009-04-13,14:54:35,204
439812.5666666667,4401657.495833334,39916.9528703704,39916.9538657407,46.90682253166473,2009-04-13,22:52:08,2009-04-13,22:53:34,214
442568.0647058823,4427955.035294118,39917.2542824074,39917.2549189815,36.841959774875555,2009-04-14,06:06:10,2009-04-14,06:07:05,202
443115.90370370366,4425130.785185186,39917.4800115741,39917.4810532407,40.92004398807374,2009-04-14,11:31:13,2009-04-14,11:32:43,-1
483066.45384615404,4422463.81025641,39917.5742013889,39917.5781365741,14.37845610608708,2009-04-14,13:46:51,2009-04-14,13:52:31,205
481472.9625,4421924.300000001,39918.0205555556,39918.0211458333,13.835100288725735,2009-04-15,00:29:36,2009-04-15,00:30:27,212
454772.14285714284,4417600.071428571,39918.350162037,39918.3509490741,46.83342823230331,2009-04-15,08:24:14,2009-04-15,08:25:22,213
442584.5234042552,4427977.297872341,39918.4447569444,39918.6854282407,49.15862081094784,2009-04-15,10:40:27,2009-04-15,16:27:01,202
441550.14705882344,4429047.3382352935,39918.7027546296,39918.7045023148,34.64130482512336,2009-04-15,16:51:58,2009-04-15,16:54:29,206
442377.8888888889,4427446.500000001,39919.0173958333,39919.0174884259,43.86034655567178,2009-04-16,00:25:03,2009-04-16,00:25:11,-1
442395.4571428572,4427395.285714285,39919.2268981481,39919.2270023148,42.460569943657106,2009-04-16,05:26:44,2009-04-16,05:26:53,-1
442565.1999999999,4428032.8975609755,39919.3187962963,39919.3204513889,40.30707134013969,2009-04-16,07:39:04,2009-04-16,07:41:27,202
442579.28571428574,4427990.16,39919.4464814815,39919.8228587963,48.52349946227653,2009-04-16,10:42:56,2009-04-16,19:44:55,202
441534.92307692306,4429092.374999999,39919.8299421296,39920.0081134259,47.4953681950949,2009-04-16,19:55:07,2009-04-17,00:11:41,206
442457.2,4427593.3,39920.0228587963,39920.0228587963,0.0,2009-04-17,00:32:55,2009-04-17,00:32:55,-1
442575.0387096774,4427973.487096774,39920.2085416667,39920.2098148148,30.827422856910996,2009-04-17,05:00:18,2009-04-17,05:02:08,202
442570.1633333333,4427979.003333334,39920.4199421296,39920.7341782407,46.95742752749558,2009-04-17,10:04:43,2009-04-17,17:37:13,202
441375.5,4429010.85,39920.7449305556,39920.7449421296,34.6619387799514,2009-04-17,17:52:42,2009-04-17,17:52:43,-1
442577.99999999994,4427913.855555556,39921.0786921296,39921.078900463,47.2174755784359,2009-04-18,01:53:19,2009-04-18,01:53:37,202
442572.4025,4427971.1850000005,39921.475787037,39921.477650463,48.32649376911222,2009-04-18,11:25:08,2009-04-18,11:27:49,202
441543.88285714295,4429111.345714286,39921.732337963,39921.7339814815,22.800219297027592,2009-04-18,17:34:34,2009-04-18,17:36:56,206
481490.55,4421906.5,39922.2071759259,39922.2072222222,3.008321791983215,2009-04-19,04:58:20,2009-04-19,04:58:24,212
442544.83636363636,4428014.286363636,39922.5086226852,39922.5090856481,44.84484362779559,2009-04-19,12:12:25,2009-04-19,12:13:05,202
441521.17901234585,4429073.249382718,39922.8589930556,39923.0755092593,48.063499664563615,2009-04-19,20:36:57,2009-04-20,01:48:44,206
442576.5522388058,4427982.879104478,39923.0816666667,39923.1683101852,46.59839053016244,2009-04-20,01:57:36,2009-04-20,04:02:22,202
442563.15,4428115.699999999,39923.1938425926,39923.1940046296,39.1429431695597,2009-04-20,04:39:08,2009-04-20,04:39:22,202
442547.94615384605,4428039.092307693,39923.4372916667,39923.4475578704,32.9874218458418,2009-04-20,10:29:42,2009-04-20,10:44:29,202
441538.80500000017,4429086.624999999,39923.6526157407,39923.6542592593,43.0795775281357,2009-04-20,15:39:46,2009-04-20,15:42:08,206
442547.0551724138,4428057.027586207,39924.0068865741,39924.0077662037,40.877010654101355,2009-04-21,00:09:55,2009-04-21,00:11:11,202
442579.3111111111,4428332.422222223,39924.1856597222,39924.1857523148,44.83179675112449,2009-04-21,04:27:21,2009-04-21,04:27:29,-1
442162.0,4429186.846153846,39924.6868518519,39924.6872453704,48.81854155953453,2009-04-21,16:29:04,2009-04-21,16:29:38,-1
442575.8909090909,4427955.068181818,39925.2082986111,39925.4270717593,49.202540584822906,2009-04-22,04:59:57,2009-04-22,10:14:59,202
442572.7775,4427966.652500001,39925.4530439815,39925.4547106481,29.92958402654587,2009-04-22,10:52:23,2009-04-22,10:54:47,202
441569.3849999997,4429093.706666666,39925.7268171296,39925.729537037,9.774456506621226,2009-04-22,17:26:37,2009-04-22,17:30:32,206
442667.4090909091,4428021.290909091,39926.0669560185,39926.0671643519,38.426032842301936,2009-04-23,01:36:25,2009-04-23,01:36:43,-1
442495.3823529412,4427926.370588236,39926.1847916667,39926.1850694444,41.8616769854122,2009-04-23,04:26:06,2009-04-23,04:26:30,-1
442586.27999999997,4428015.390000001,39926.4612268518,39926.4616550926,47.793828053421294,2009-04-23,11:04:10,2009-04-23,11:04:47,202
441878.81249999994,4428723.4125,39926.7678472222,39926.767974537,44.99522196837819,2009-04-23,18:25:42,2009-04-23,18:25:53,-1
442537.22857142857,4427901.500000001,39927.1125810185,39927.112650463,46.220017308360816,2009-04-24,02:42:07,2009-04-24,02:42:13,-1
442453.55263157893,4428658.5526315775,39927.1683564815,39927.1689583333,36.77295201639379,2009-04-24,04:02:26,2009-04-24,04:03:18,203
442523.7571428571,4428027.242857142,39927.2337268519,39927.2338425926,48.730483272827186,2009-04-24,05:36:34,2009-04-24,05:36:44,202
441748.1923076923,4427013.653846153,39927.285775463,39927.2863541667,45.70098467211568,2009-04-24,06:51:31,2009-04-24,06:52:21,-1
442587.39230769227,4427984.8692307705,39927.4884837963,39927.4895833333,49.61814184311813,2009-04-24,11:43:25,2009-04-24,11:45:00,202
442289.6125,4428527.6625,39927.723287037,39927.7233912037,42.21907151982447,2009-04-24,17:21:32,2009-04-24,17:21:41,-1
441792.605882353,4427430.405882354,39928.2171875,39928.3247222222,41.187376706243406,2009-04-25,05:12:45,2009-04-25,07:47:36,-1
443136.5259259258,4425101.981481481,39928.4748611111,39928.4759953704,25.402362094926897,2009-04-25,11:23:48,2009-04-25,11:25:26,-1
483070.421875,4422475.209374999,39928.5581712963,39928.7076851852,47.346594386318074,2009-04-25,13:23:46,2009-04-25,16:59:04,205
483051.1405405406,4422459.937837837,39928.7550462963,39928.7563888889,29.608275869727386,2009-04-25,18:07:16,2009-04-25,18:09:12,205
482771.3627118647,4422065.883050846,39929.2012384259,39929.236724537,49.23789191248429,2009-04-26,04:49:47,2009-04-26,05:40:53,208
482758.3557046978,4422074.91040268,39929.2367824074,39929.2900578704,49.20995834158033,2009-04-26,05:40:58,2009-04-26,06:57:41,208
454769.9777777778,4417605.272222222,39929.3251273148,39929.3259259259,19.194269978317127,2009-04-26,07:48:11,2009-04-26,07:49:20,213
442576.1096774195,4427962.058064516,39929.4362152778,39929.6142824074,49.71810535411958,2009-04-26,10:28:09,2009-04-26,14:44:34,202
442106.3166666667,4429206.666666666,39929.6189236111,39929.6193865741,37.45530669942026,2009-04-26,14:51:15,2009-04-26,14:51:55,-1
439807.9444444444,4401638.255555556,39929.9510069444,39929.9512731481,45.238258145070084,2009-04-26,22:49:27,2009-04-26,22:49:50,214
442574.7133333332,4427951.399999999,39930.2506134259,39930.2511226852,44.873600256717005,2009-04-27,06:00:53,2009-04-27,06:01:37,202
442555.64,4428026.1899999995,39930.4338541667,39930.4341435185,49.13501806192034,2009-04-27,10:24:45,2009-04-27,10:25:10,202
441555.1111111111,4429071.855555556,39930.7861111111,39930.7884722222,35.493802275916536,2009-04-27,18:52:00,2009-04-27,18:55:24,206
442536.3,4428065.3625,39931.0465625,39931.0466666667,47.92421100046813,2009-04-28,01:07:03,2009-04-28,01:07:12,202
442550.60833333334,4428081.133333334,39931.2295486111,39931.2298032407,48.680591614792846,2009-04-28,05:30:33,2009-04-28,05:30:55,202
444061.3,4427361.5,39931.4613310185,39931.4613310185,0.0,2009-04-28,11:04:19,2009-04-28,11:04:19,-1
441512.2696428572,4429091.741071427,39931.7946064815,39932.0401967593,45.83732103820945,2009-04-28,19:04:14,2009-04-29,00:57:53,206
442574.11917808227,4427988.619178083,39932.0565856481,39932.1410185185,48.59650193136904,2009-04-29,01:21:29,2009-04-29,03:23:04,202
441520.1000000001,4429088.414545454,39932.1714930556,39932.224849537,44.18155723805394,2009-04-29,04:06:57,2009-04-29,05:23:47,206
442538.34500000003,4427960.624999999,39932.2305671296,39932.4215046296,49.1683841508169,2009-04-29,05:32:01,2009-04-29,10:06:58,202
442604.2722222222,4428024.255555554,39932.470775463,39932.4713657407,29.82247474566466,2009-04-29,11:17:55,2009-04-29,11:18:46,202
441409.43333333335,4428402.344444445,39932.7219444444,39932.7226851852,38.745967532427464,2009-04-29,17:19:36,2009-04-29,17:20:40,-1
442568.67407407414,4427998.711111111,39933.0600462963,39933.2416666667,44.7733179474778,2009-04-30,01:26:28,2009-04-30,05:48:00,202
442653.16875,4428054.1125,39933.2982523148,39933.2986921296,23.170886905683535,2009-04-30,07:09:29,2009-04-30,07:10:07,-1
442432.77999999997,4428667.873333333,39933.3994444444,39933.4507523148,43.01313752813923,2009-04-30,09:35:12,2009-04-30,10:49:05,203
442585.99090909085,4427974.899999999,39933.4798958333,39933.4807638889,42.04866228548848,2009-04-30,11:31:03,2009-04-30,11:32:18,202
441957.66896551714,4428814.144827587,39933.6928125,39933.6939351852,37.86132591379958,2009-04-30,16:37:39,2009-04-30,16:39:16,211
444422.175,4414273.71875,39934.1355787037,39934.137037037,46.44588248720822,2009-05-01,03:15:14,2009-05-01,03:17:20,-1
482980.56,4422461.613333333,39934.5025231481,39934.5028935185,38.732415364752384,2009-05-01,12:03:38,2009-05-01,12:04:10,-1
454772.23846153845,4417594.607692309,39935.0552199074,39935.0563888889,28.298586537220938,2009-05-02,01:19:31,2009-05-02,01:21:12,-1
443442.036,4420614.908,39935.1227893519,39935.1239236111,47.940066750057824,2009-05-02,02:56:49,2009-05-02,02:58:27,-1
442580.30500000005,4427982.725,39935.3123611111,39935.313287037,47.560698059921634,2009-05-02,07:29:48,2009-05-02,07:31:08,202
441966.38947368425,4428778.942105262,39935.7419560185,39935.7426851852,10.462313319706878,2009-05-02,17:48:25,2009-05-02,17:49:28,-1
442572.1,4427996.739999998,39936.069537037,39936.0711226852,47.95518741529048,2009-05-03,01:40:08,2009-05-03,01:42:25,202
442576.66393442603,4427979.4622950815,39936.4530671296,39936.7466087963,49.46291540118721,2009-05-03,10:52:25,2009-05-03,17:55:07,202
442123.7764705882,4429164.105882354,39936.752349537,39936.7529398148,43.71750221646505,2009-05-03,18:03:23,2009-05-03,18:04:14,204
442568.43636363646,4427960.70909091,39937.123287037,39937.123599537,48.68644575225557,2009-05-04,02:57:32,2009-05-04,02:57:59,202
442444.34761904756,4428646.99047619,39937.1711111111,39937.1719444444,43.49252809424145,2009-05-04,04:06:24,2009-05-04,04:07:36,203
442543.3875,4428047.4625,39937.2774189815,39937.2787152778,18.879883474060673,2009-05-04,06:39:29,2009-05-04,06:41:21,202
442578.2918367348,4427979.434693878,39937.4303125,39937.7328240741,46.99382938247877,2009-05-04,10:19:39,2009-05-04,17:35:16,202
441541.51111111115,4429063.933333334,39937.7460648148,39938.0503819444,48.86726920954726,2009-05-04,17:54:20,2009-05-05,01:12:33,206
442573.212121212,4427997.324242423,39938.0604976852,39938.1867013889,47.00234036771411,2009-05-05,01:27:07,2009-05-05,04:28:51,202
442571.325,4427989.425,39938.2042592593,39938.2063425926,14.453373308852589,2009-05-05,04:54:08,2009-05-05,04:57:08,202
442577.48571428575,4427977.744897959,39938.4435416667,39938.829212963,48.80952775790667,2009-05-05,10:38:42,2009-05-05,19:54:04,202
441518.6292682928,4429108.417073172,39938.8377546296,39938.8395023148,33.408082854451486,2009-05-05,20:06:22,2009-05-05,20:08:53,206
442568.89444444433,4427996.566666666,39939.0758449074,39939.1863541667,49.44532333799867,2009-05-06,01:49:13,2009-05-06,04:28:21,202
441522.46382978716,4429074.9936170215,39939.2098263889,39939.2117708333,22.821481108533725,2009-05-06,05:02:09,2009-05-06,05:04:57,206
442557.88301886787,4428022.341509435,39939.2647222222,39939.445,49.2666215608317,2009-05-06,06:21:12,2009-05-06,10:40:48,202
442574.5029411764,4427982.970588235,39939.4800925926,39939.6486458333,45.33221812351582,2009-05-06,11:31:20,2009-05-06,15:34:03,202
441538.1346153846,4429077.560256411,39939.655787037,39940.0588078704,48.35969396119859,2009-05-06,15:44:20,2009-05-07,01:24:41,206
442569.2341463414,4427983.619512196,39940.0681597222,39940.0699305556,16.66283289258512,2009-05-07,01:38:09,2009-05-07,01:40:42,202
442565.6953846156,4427993.353846154,39940.2171643519,39940.4259722222,46.40915857935477,2009-05-07,05:12:43,2009-05-07,10:13:24,202
442582.38372093026,4427979.293023255,39940.4522222222,39940.4540856481,36.74139355019565,2009-05-07,10:51:12,2009-05-07,10:53:53,202
442552.5562499999,4428015.94375,39941.0896412037,39941.1896296296,35.00814190976925,2009-05-08,02:09:05,2009-05-08,04:33:04,202
441661.65,4425992.924999999,39941.2649652778,39941.265,16.552945357433924,2009-05-08,06:21:33,2009-05-08,06:21:36,-1
442551.63,4428013.450000001,39941.4537731481,39941.4541435185,46.405279872537875,2009-05-08,10:53:26,2009-05-08,10:53:58,202
441525.652542373,4429072.335593221,39941.7931597222,39942.0938425926,47.034455455541625,2009-05-08,19:02:09,2009-05-09,02:15:08,206
442554.39999999997,4428038.399999999,39942.1032523148,39942.1040740741,45.352397951861995,2009-05-09,02:28:41,2009-05-09,02:29:52,202
442555.6232323234,4428041.1262626285,39942.4992824074,39942.5062615741,28.160255681074155,2009-05-09,11:58:58,2009-05-09,12:09:01,202
441536.21470588224,4429086.291176469,39942.7697106482,39943.0849768519,26.500754706235718,2009-05-09,18:28:23,2009-05-10,02:02:22,206
442558.7575000001,4428018.63,39943.0925,39943.0939236111,29.22498930672289,2009-05-10,02:13:12,2009-05-10,02:15:15,202
442559.7040000001,4427987.051999999,39943.2639236111,39943.4488773148,49.916930995629926,2009-05-10,06:20:03,2009-05-10,10:46:23,202
442558.82500000007,4427974.365,39943.476087963,39943.7058101852,42.933087473234174,2009-05-10,11:25:34,2009-05-10,16:56:22,202
442145.66666666674,4429157.838888888,39943.7114699074,39943.7120486111,46.44308344629535,2009-05-10,17:04:31,2009-05-10,17:05:21,204
442583.7799999999,4427956.766666668,39944.1346412037,39944.1351388889,42.521523961526235,2009-05-11,03:13:53,2009-05-11,03:14:36,202
442564.92253521114,4427994.657746481,39944.2294560185,39944.405625,45.496043784049576,2009-05-11,05:30:25,2009-05-11,09:44:06,202
442577.9244444445,4427972.182222221,39944.4356597222,39944.7395138889,46.64472103019708,2009-05-11,10:27:21,2009-05-11,17:44:54,202
441531.14583333343,4429080.347916669,39944.748587963,39944.7506018518,41.407366494908764,2009-05-11,17:57:58,2009-05-11,18:00:52,206
442553.0383333334,4428018.641666668,39945.0793287037,39945.1714467593,49.87865274863105,2009-05-12,01:54:14,2009-05-12,04:06:53,202
442561.44130434777,4427974.849999999,39945.1988657407,39945.2010532407,8.246211250808974,2009-05-12,04:46:22,2009-05-12,04:49:31,202
442570.56500000006,4427984.007499998,39945.3373726852,39945.3391087963,49.48706901844238,2009-05-12,08:05:49,2009-05-12,08:08:19,202
442566.0149425287,4428004.352873563,39945.4545949074,39945.7861689815,48.552342888731985,2009-05-12,10:54:37,2009-05-12,18:52:05,202
441532.5777777776,4429077.848148148,39945.7921875,39945.7967939815,39.83779612397125,2009-05-12,19:00:45,2009-05-12,19:07:23,206
442550.34137931035,4428043.873563216,39946.1172800926,39946.1227777778,38.466218946496,2009-05-13,02:48:53,2009-05-13,02:56:48,202
441530.43050847447,4429070.244067797,39946.2083680556,39946.2666203704,48.924124928108604,2009-05-13,05:00:03,2009-05-13,06:23:56,206
442575.3888888889,4427974.644444445,39946.2731018519,39946.2741898148,40.32716206233868,2009-05-13,06:33:16,2009-05-13,06:34:50,202
442581.0153846154,4427977.376923078,39946.4762384259,39946.4768055556,47.971762527538885,2009-05-13,11:25:47,2009-05-13,11:26:36,202
441514.4341463414,4429082.036585366,39946.6988310185,39946.7007291667,14.916433890176299,2009-05-13,16:46:19,2009-05-13,16:49:03,206
442566.0621212125,4428001.768181817,39947.0952314815,39947.1601041667,49.87865274825877,2009-05-14,02:17:08,2009-05-14,03:50:33,202
442562.31500000006,4427991.209999999,39947.1889699074,39947.1898842593,46.1824642048685,2009-05-14,04:32:07,2009-05-14,04:33:26,202
442552.0,4428072.2,39947.4485185185,39947.4485185185,0.0,2009-05-14,10:45:52,2009-05-14,10:45:52,202
441520.2222222222,4429019.022222222,39947.8247685185,39947.8248611111,21.083880098148583,2009-05-14,19:47:40,2009-05-14,19:47:48,-1
442562.8228571429,4428000.891428571,39948.0583333333,39948.0598842593,17.08566650770377,2009-05-15,01:24:00,2009-05-15,01:26:14,202
442593.52352941176,4428096.376470588,39948.2531712963,39948.2543518519,3.9458839317544285,2009-05-15,06:04:34,2009-05-15,06:06:16,202
442575.4142857142,4428045.042857142,39948.4210300926,39948.4215972222,35.635936917294615,2009-05-15,10:06:17,2009-05-15,10:07:06,202
441514.82380952383,4429062.48095238,39948.9730324074,39949.1994328704,47.56563885825293,2009-05-15,23:21:10,2009-05-16,04:47:11,206
442562.97142857144,4428040.071428572,39949.241712963,39949.2419097222,36.81426354009935,2009-05-16,05:48:04,2009-05-16,05:48:21,202
442719.29777777777,4427470.637777779,39949.3908564815,39949.4954861111,49.12728366192931,2009-05-16,09:22:50,2009-05-16,11:53:30,-1
442383.9,4427968.5,39949.5070833333,39949.5070833333,0.0,2009-05-16,12:10:12,2009-05-16,12:10:12,-1
442015.1615384616,4428679.8,39949.8145949074,39949.8150694444,45.14864339041412,2009-05-16,19:33:01,2009-05-16,19:33:42,-1
441800.10516431916,4427420.156807509,39950.2919444444,39950.3270717593,46.47235737507867,2009-05-17,07:00:24,2009-05-17,07:50:59,-1
441799.95263157884,4427425.414035084,39950.3288888889,39950.4064814815,47.282237680242694,2009-05-17,07:53:36,2009-05-17,09:45:20,-1
442556.0333333333,4427962.700000001,39950.4614814815,39950.5277893519,48.27007354458024,2009-05-17,11:04:32,2009-05-17,12:40:01,202
442584.8128205129,4427978.384615384,39950.5848958333,39950.5866898148,10.700467279524508,2009-05-17,14:02:15,2009-05-17,14:04:50,202
441543.8319148937,4429071.69574468,39950.7489699074,39951.0637384259,46.08958667638494,2009-05-17,17:58:31,2009-05-18,01:31:47,206
442562.924,4427999.538000002,39951.0750115741,39951.1634722222,47.256322328330704,2009-05-18,01:48:01,2009-05-18,03:55:24,202
442570.7,4428173.0,39951.1949652778,39951.1949652778,0.0,2009-05-18,04:40:45,2009-05-18,04:40:45,-1
442225.10000000003,4428543.966666666,39951.3422685185,39951.3422916667,49.08115728092167,2009-05-18,08:12:52,2009-05-18,08:12:54,-1
442580.4666666666,4427982.505555556,39951.4454398148,39951.4474421296,27.067508197189998,2009-05-18,10:41:26,2009-05-18,10:44:19,202
441534.22023809527,4429074.5904761925,39951.6827546296,39952.0502893519,48.281259304168465,2009-05-18,16:23:10,2009-05-19,01:12:25,206
442534.4545454546,4428058.3500000015,39952.0695023148,39952.1678703704,45.73510686519737,2009-05-19,01:40:05,2009-05-19,04:01:44,202
442579.38095238106,4427992.007142859,39952.1996875,39952.2015625,16.398170629746176,2009-05-19,04:47:33,2009-05-19,04:50:15,202
442582.43636363634,4428032.1454545455,39952.460787037,39952.46125,45.42158077444514,2009-05-19,11:03:32,2009-05-19,11:04:12,202
441537.8173913043,4429055.958695654,39952.9358217593,39952.9376736111,34.2905234720583,2009-05-19,22:27:35,2009-05-19,22:30:15,206
442569.5105263158,4427986.4289473705,39953.0827199074,39953.424375,46.21309338290567,2009-05-20,01:59:07,2009-05-20,10:11:06,202
442668.5,4428189.25,39953.4731018519,39953.4731481481,21.476731594400665,2009-05-20,11:21:16,2009-05-20,11:21:20,-1
441535.2741935482,4429072.832258065,39953.6966782407,39953.6994097222,17.998055450705454,2009-05-20,16:43:13,2009-05-20,16:47:09,206
442557.6717948718,4427990.497435899,39954.0257986111,39954.031724537,23.48275963340717,2009-05-21,00:37:09,2009-05-21,00:45:41,202
442585.7757575759,4427999.46969697,39954.2052546296,39954.2104050926,42.06376112486555,2009-05-21,04:55:34,2009-05-21,05:02:59,202
450253.85714285716,4424654.0571428565,39954.3542592593,39954.3543981481,45.84953653000536,2009-05-21,08:30:08,2009-05-21,08:30:20,-1
442572.1656716419,4427970.71641791,39954.561712963,39954.5978356482,47.50789408082686,2009-05-21,13:28:52,2009-05-21,14:20:53,202
442128.36,4429174.88,39954.6029976852,39954.6035416667,47.238226045819104,2009-05-21,14:28:19,2009-05-21,14:29:06,204
442571.22307692294,4427957.353846153,39955.1108449074,39955.1112615741,45.23858972152627,2009-05-22,02:39:37,2009-05-22,02:40:13,202
441999.8804347824,4429013.923913043,39955.1823958333,39955.241099537,49.648766349375705,2009-05-22,04:22:39,2009-05-22,05:47:11,-1
442560.9216216216,4427987.832432433,39955.2469675926,39955.4012731481,49.55491902928898,2009-05-22,05:55:38,2009-05-22,09:37:50,202
483068.8323529411,4422479.397058823,39955.5475810185,39955.5490856481,23.920702331245348,2009-05-22,13:08:31,2009-05-22,13:10:41,205
481472.95199999993,4421904.659999999,39956.2959027778,39956.2985185185,41.73068415502453,2009-05-23,07:06:06,2009-05-23,07:09:52,212
481596.57499999995,4421298.625,39956.3564236111,39956.3565046296,38.92248707422406,2009-05-23,08:33:15,2009-05-23,08:33:22,-1
483055.125,4422459.809821429,39956.4328587963,39956.5010763889,47.40559038745653,2009-05-23,10:23:19,2009-05-23,12:01:33,205
483063.5208955223,4422482.9313432835,39956.5387384259,39957.0249884259,45.3375120624247,2009-05-23,12:55:47,2009-05-24,00:35:59,205
481384.3,4422148.800000001,39957.0458912037,39957.0459143519,7.472616677087231,2009-05-24,01:06:05,2009-05-24,01:06:07,-1
481455.1208333334,4421890.195833334,39957.2123958333,39957.2133101852,39.667619036553496,2009-05-24,05:05:51,2009-05-24,05:07:10,212
454780.0588235295,4417595.876470588,39957.4734490741,39957.4741319444,23.601906702305687,2009-05-24,11:21:46,2009-05-24,11:22:45,-1
442539.1166666667,4427965.98125,39957.5401157407,39957.541875,32.966194806751076,2009-05-24,12:57:46,2009-05-24,13:00:18,202
441424.29545454547,4429152.145454545,39957.7317013889,39957.7324074074,17.290459797258162,2009-05-24,17:33:39,2009-05-24,17:34:40,-1
442570.12857142865,4427996.630000001,39958.2261689815,39958.7497569444,46.339615881011994,2009-05-25,05:25:41,2009-05-25,17:59:39,202
441557.1250000001,4429074.163888889,39958.757025463,39958.758587963,39.23174734817185,2009-05-25,18:10:07,2009-05-25,18:12:22,206
442554.4193548387,4428023.974193549,39959.0861689815,39959.1529166667,42.91351768348055,2009-05-26,02:04:05,2009-05-26,03:40:12,202
442532.99999999994,4428003.233333333,39959.1802430556,39959.1803240741,38.951508315380366,2009-05-26,04:19:33,2009-05-26,04:19:40,202
442577.9416666666,4427974.904166666,39959.331875,39959.332962963,47.80167361086848,2009-05-26,07:57:54,2009-05-26,07:59:28,202
442621.9,4428044.9,39959.482349537,39959.4830439815,8.602325267042627,2009-05-26,11:34:35,2009-05-26,11:35:35,-1
441542.56231884065,4429041.675362318,39959.6526041667,39960.0438194444,49.22976741801396,2009-05-26,15:39:45,2009-05-27,01:03:06,206
442575.6846153847,4428041.5538461525,39960.056400463,39960.0568171296,46.62467158088962,2009-05-27,01:21:13,2009-05-27,01:21:49,202
441536.61960784317,4429079.917647059,39960.6158333333,39960.617962963,28.506315089810414,2009-05-27,14:46:48,2009-05-27,14:49:52,206
446101.05,4417687.15,39961.1888425926,39961.1890393518,45.09988913511872,2009-05-28,04:31:56,2009-05-28,04:32:13,-1
441395.65499999997,4429120.015,39961.2824884259,39961.2830208333,32.51861005641584,2009-05-28,06:46:47,2009-05-28,06:47:33,-1
442588.875,4427986.222222223,39961.4358333333,39961.4375578704,46.72098029806686,2009-05-28,10:27:36,2009-05-28,10:30:05,202
441550.7136363637,4429068.5,39961.6282060185,39962.0852777778,49.71639568629795,2009-05-28,15:04:37,2009-05-29,02:02:48,206
441363.69382716063,4424096.596296295,39962.1333912037,39962.1397800926,33.65055720190343,2009-05-29,03:12:05,2009-05-29,03:21:17,-1
483069.91730769235,4422476.403846156,39962.324837963,39962.4472453704,47.452291830617675,2009-05-29,07:47:46,2009-05-29,10:44:02,205
483061.958064516,4422482.287096774,39962.4652546296,39962.4665277778,27.500727263112054,2009-05-29,11:09:58,2009-05-29,11:11:48,205
483064.1800000001,4422484.48,39962.5935532407,39962.5951736111,25.203571175901512,2009-05-29,14:14:43,2009-05-29,14:17:03,205
481443.2333333334,4421822.166666667,39963.1239236111,39963.1239814815,17.807021087188772,2009-05-30,02:58:27,2009-05-30,02:58:32,-1
481451.13333333336,4421955.966666667,39963.3161574074,39963.3163888889,35.074349602312765,2009-05-30,07:35:16,2009-05-30,07:35:36,212
481477.8579514824,4421824.477628031,39963.4220138889,39963.4557523148,36.49356107584732,2009-05-30,10:07:42,2009-05-30,10:56:17,-1
442550.7299999999,4428025.600000001,39963.5418981481,39963.5432060185,40.8339319682906,2009-05-30,13:00:20,2009-05-30,13:02:13,202
441560.5076923076,4429032.446153846,39963.7251736111,39964.032650463,48.62972342083447,2009-05-30,17:24:15,2009-05-31,00:47:01,206
442095.3333333333,4420832.40952381,39964.096087963,39964.0969212963,45.502747169226666,2009-05-31,02:18:22,2009-05-31,02:19:34,-1
441527.9068181817,4429068.831818184,39964.1999074074,39964.201712963,6.676076692318149,2009-05-31,04:47:52,2009-05-31,04:50:28,206
442579.93902439025,4427985.221951218,39964.2445949074,39964.2464236111,48.088460154178364,2009-05-31,05:52:13,2009-05-31,05:54:51,202
443112.4730769231,4426872.317307692,39964.4060069444,39964.524849537,48.826222462747886,2009-05-31,09:44:39,2009-05-31,12:35:47,-1
442568.53500000003,4427980.529999999,39964.535150463,39964.7527546296,47.58928450817002,2009-05-31,12:50:37,2009-05-31,18:03:58,202
441536.57446808513,4429084.382978723,39964.7612731481,39964.7633449074,36.59535489678291,2009-05-31,18:16:14,2009-05-31,18:19:13,206
442562.4433962264,4427998.733962266,39965.0594791667,39965.1661921296,49.534028707908284,2009-06-01,01:25:39,2009-06-01,03:59:19,202
441534.8556962024,4429095.775949365,39965.1898263889,39965.2460300926,49.010203019206536,2009-06-01,04:33:21,2009-06-01,05:54:17,206
442614.0399999999,4427985.1,39965.2693402778,39965.269537037,34.367717410230455,2009-06-01,06:27:51,2009-06-01,06:28:08,202
449051.4499999999,4426867.057142857,39965.433587963,39965.4339699074,11.588356225100695,2009-06-01,10:24:22,2009-06-01,10:24:55,-1
442578.61481481494,4427967.122222221,39965.5823263889,39965.5859490741,49.28539337351526,2009-06-01,13:58:33,2009-06-01,14:03:46,202
441524.56136363634,4429084.009090908,39965.6792708333,39965.6811226852,40.87248463207752,2009-06-01,16:18:09,2009-06-01,16:20:49,206
442548.2931034483,4427952.41724138,39966.0126851852,39966.0143981481,49.230275237614414,2009-06-02,00:18:16,2009-06-02,00:20:44,202
442546.1909090908,4427994.454545455,39966.0927546296,39966.0934143519,31.43405796302003,2009-06-02,02:13:34,2009-06-02,02:14:31,202
441527.5743589743,4429068.315384617,39966.1952546296,39966.2542013889,47.788073825985805,2009-06-02,04:41:10,2009-06-02,06:06:03,206
442531.175,4428089.0375,39966.2644907407,39966.2646643519,27.670381276552767,2009-06-02,06:20:52,2009-06-02,06:21:07,202
442504.5133333333,4428021.736666666,39966.459224537,39966.4602314815,34.69899133947554,2009-06-02,11:01:17,2009-06-02,11:02:44,-1
441535.9931034483,4429091.003448276,39966.6617013889,39967.0307060185,47.8299069628005,2009-06-02,15:52:51,2009-06-03,00:44:13,206
442573.7192307693,4427989.126923076,39967.0400231481,39967.0412384259,36.23051200267107,2009-06-03,00:57:38,2009-06-03,00:59:23,202
442571.825,4428062.4875,39967.1647222222,39967.1649074074,40.32914578797087,2009-06-03,03:57:12,2009-06-03,03:57:28,202
442505.6857142857,4427983.335714285,39967.445474537,39967.4459027778,49.04742602845677,2009-06-03,10:41:29,2009-06-03,10:42:06,202
441674.7347826087,4428982.073913043,39967.6314930556,39967.6827430556,49.72293233503,2009-06-03,15:09:21,2009-06-03,16:23:09,-1
442108.93333333335,4429170.827777777,39967.6885532407,39967.689224537,46.7269729385135,2009-06-03,16:31:31,2009-06-03,16:32:29,204
442582.4826086957,4428011.508695653,39968.2106481481,39968.409212963,45.799999999813735,2009-06-04,05:03:20,2009-06-04,09:49:16,202
442571.71499999997,4427969.575,39968.4370717593,39968.4993634259,47.31437413710757,2009-06-04,10:29:23,2009-06-04,11:59:05,202
456152.5181818182,4442211.3977272725,39968.5728125,39968.5793402778,38.60906629276002,2009-06-04,13:44:51,2009-06-04,13:54:15,-1
442554.5,4428118.5,39969.0958101852,39969.0958101852,0.0,2009-06-05,02:17:58,2009-06-05,02:17:58,202
441544.5,4429082.081818182,39969.1930324074,39969.2488657407,44.462680980608994,2009-06-05,04:37:58,2009-06-05,05:58:22,206
442543.35000000003,4428051.025,39969.2600578704,39969.2601157407,15.814550262684612,2009-06-05,06:14:29,2009-06-05,06:14:34,202
443116.50869565224,4425184.013043478,39969.4751157407,39969.47625,40.40792001613151,2009-06-05,11:24:10,2009-06-05,11:25:48,207
483073.05,4422478.344117648,39969.5539814815,39970.0951157407,21.553885960180917,2009-06-05,13:17:44,2009-06-06,02:16:58,205
483063.1755555557,4422480.639999999,39970.1055902778,39970.1077430556,37.917805843676064,2009-06-06,02:32:03,2009-06-06,02:35:09,205
483058.00999999995,4422476.015000001,39970.1830208333,39970.1849074074,18.984203959779187,2009-06-06,04:23:33,2009-06-06,04:26:16,205
481467.34666666674,4421883.193333333,39970.3715162037,39970.3721643519,49.94416882884998,2009-06-06,08:54:59,2009-06-06,08:55:55,212
482823.1869565217,4422066.895652174,39970.4384027778,39970.4761574074,45.33982796615312,2009-06-06,10:31:18,2009-06-06,11:25:40,-1
483059.80465116294,4422440.667441862,39970.483900463,39970.4863078704,9.219544457237328,2009-06-06,11:36:49,2009-06-06,11:40:17,205
481505.06666666665,4422057.0,39971.0875925926,39971.0876388889,47.15421508145942,2009-06-07,02:06:08,2009-06-07,02:06:12,-1
483072.9351351352,4422471.716216216,39971.2379282407,39971.3593287037,46.64000428815827,2009-06-07,05:42:37,2009-06-07,08:37:26,205
481456.4578947368,4421902.181578948,39971.3668865741,39971.4208912037,46.338968482076076,2009-06-07,08:48:19,2009-06-07,10:06:05,212
442574.9090909091,4427986.654545455,39971.5411111111,39971.5415393518,49.988098583923566,2009-06-07,12:59:12,2009-06-07,12:59:49,202
441531.72087912075,4429087.635164834,39971.6624421296,39972.0327662037,49.50656522106598,2009-06-07,15:53:55,2009-06-08,00:47:11,206
442549.69999999984,4427989.454716981,39972.040787037,39972.4184490741,47.91847243011038,2009-06-08,00:58:44,2009-06-08,10:02:34,202
442572.290909091,4427981.309090909,39972.442650463,39972.5818402778,22.461745257074035,2009-06-08,10:37:25,2009-06-08,13:57:51,202
441545.44098360656,4429081.313114754,39972.5914351852,39972.5941782407,21.554117936169586,2009-06-08,14:11:40,2009-06-08,14:15:37,206
447224.9499999999,4424926.716666667,39973.0430671296,39973.1235416667,48.1215128608462,2009-06-09,01:02:01,2009-06-09,02:57:54,-1
441528.23478260887,4429069.991304347,39973.1946180556,39973.1963078704,14.674126890278684,2009-06-09,04:40:15,2009-06-09,04:42:41,206
442592.0125,4427967.05625,39973.2516435185,39973.3872569444,47.676514134443885,2009-06-09,06:02:22,2009-06-09,09:17:39,202
442577.56976744183,4427983.38139535,39973.4184027778,39973.4205092593,33.71527843572003,2009-06-09,10:02:30,2009-06-09,10:05:32,202
441532.40270270273,4429091.337837836,39973.7082175926,39973.7115509259,33.666749174653866,2009-06-09,16:59:50,2009-06-09,17:04:38,206
442569.74230769236,4427994.557692309,39974.0316782407,39974.1809490741,41.514575753059624,2009-06-10,00:45:37,2009-06-10,04:20:34,202
441519.59846153844,4429084.361538461,39974.2141087963,39974.2639814815,46.670975991631096,2009-06-10,05:08:19,2009-06-10,06:20:08,206
442586.775,4427974.507142857,39974.3063310185,39974.3075578704,46.14336355372808,2009-06-10,07:21:07,2009-06-10,07:22:53,202
442570.47878787876,4427990.193939394,39974.4367013889,39974.438287037,25.730915257769666,2009-06-10,10:28:51,2009-06-10,10:31:08,202
441534.3105263158,4429103.084210525,39974.6521296296,39974.6539814815,36.677104574945304,2009-06-10,15:39:04,2009-06-10,15:41:44,206
442574.6692307693,4427991.910256411,39975.0332175926,39975.0353587963,35.77275499595644,2009-06-11,00:47:50,2009-06-11,00:50:55,202
454032.53124999994,4422729.5625,39975.163287037,39975.1640972222,46.60171670713535,2009-06-11,03:55:08,2009-06-11,03:56:18,-1
442562.18888888886,4427974.522222223,39975.3600347222,39975.5861574074,40.2951609997386,2009-06-11,08:38:27,2009-06-11,14:04:04,202
444684.1588235295,4422268.717647059,39975.6246527778,39975.6254513889,40.61157470462857,2009-06-11,14:59:30,2009-06-11,15:00:39,-1
441953.1181818181,4428810.031818182,39975.9388541667,39976.3080439815,44.637428241456604,2009-06-11,22:31:57,2009-06-12,07:23:35,211
442592.3999999999,4427972.98,39976.3113425926,39976.3118055556,28.81336495451369,2009-06-12,07:28:20,2009-06-12,07:29:00,202
442623.6352941176,4427054.688235293,39976.4887268519,39976.4926041667,19.52075818198011,2009-06-12,11:43:46,2009-06-12,11:49:21,-1
442562.1,4428063.15,39976.5515509259,39976.5516087963,3.354101966072672,2009-06-12,13:14:14,2009-06-12,13:14:19,202
441604.0354838709,4429041.606451612,39976.7556018519,39976.7572222222,33.74566638821209,2009-06-12,18:08:04,2009-06-12,18:10:24,-1
442529.2055555556,4428024.76111111,39977.0517476852,39977.052962963,25.496078129426643,2009-06-13,01:14:31,2009-06-13,01:16:16,202
421746.55000000005,4438487.6187499985,39977.1611226852,39977.2497222222,44.91347236633204,2009-06-13,03:52:01,2009-06-13,05:59:36,-1
426157.3222222222,4443357.661111112,39977.4075347222,39977.4095023148,48.94456047391804,2009-06-13,09:46:51,2009-06-13,09:49:41,-1
430683.15263157885,4441626.7526315795,39977.509837963,39977.5107638889,48.98020008123874,2009-06-13,12:14:10,2009-06-13,12:15:30,-1
442519.7,4428584.8,39978.3647106481,39978.3647106481,0.0,2009-06-14,08:45:11,2009-06-14,08:45:11,-1
441555.23055555555,4429089.34722222,39978.5753587963,39978.5772106481,46.69496760868433,2009-06-14,13:48:31,2009-06-14,13:51:11,206
442539.03818181815,4428040.723636363,39979.0495138889,39979.0524074074,9.73498844423063,2009-06-15,01:11:18,2009-06-15,01:15:28,202
441541.05999999994,4429085.61,39979.1906481481,39979.1923263889,40.44279911233535,2009-06-15,04:34:32,2009-06-15,04:36:57,206
442569.2390243902,4428003.631707315,39979.2828587963,39979.4558912037,42.92982646097028,2009-06-15,06:47:19,2009-06-15,10:56:29,202
441991.7944444445,4429022.966666667,39979.462662037,39979.5008217593,40.1403786728526,2009-06-15,11:06:14,2009-06-15,12:01:11,-1
442530.1,4428230.7,39979.5141319444,39979.5141319444,0.0,2009-06-15,12:20:21,2009-06-15,12:20:21,-1
441539.6229166666,4429102.533333334,39979.5902546296,39980.0221412037,47.38459665355288,2009-06-15,14:09:58,2009-06-16,00:31:53,206
442512.4,4428014.5,39980.0362037037,39980.0364351852,49.998499977259385,2009-06-16,00:52:08,2009-06-16,00:52:28,202
442556.42631578946,4427972.278947369,39980.4716319444,39980.4726736111,39.7573892508533,2009-06-16,11:19:09,2009-06-16,11:20:39,202
441931.21818181826,4428827.766666667,39980.6850231481,39980.9152546296,32.10685285124903,2009-06-16,16:26:26,2009-06-16,21:57:58,211
441937.1257142856,4428843.168571429,39981.0527199074,39981.257349537,44.21911351447292,2009-06-17,01:15:55,2009-06-17,06:10:35,211
442576.3750000001,4427988.95,39981.2655092593,39981.399224537,43.679056766399064,2009-06-17,06:22:20,2009-06-17,09:34:53,202
442572.94423076924,4427983.859615383,39981.4334953704,39981.7752662037,43.2020832825503,2009-06-17,10:24:14,2009-06-17,18:36:23,202
441546.63076923083,4429116.174358974,39981.7895601852,39981.7914699074,41.68033109273485,2009-06-17,18:56:58,2009-06-17,18:59:43,206
442570.9483870969,4427972.182258065,39982.0796296296,39982.3956481481,46.303887525963376,2009-06-18,01:54:40,2009-06-18,09:29:44,202
442544.23928571417,4428017.967857143,39982.426087963,39982.4278819444,22.394865482937046,2009-06-18,10:13:34,2009-06-18,10:16:09,202
441529.2163265305,4429069.257142857,39982.6595601852,39982.9738425926,43.75671377020926,2009-06-18,15:49:46,2009-06-18,23:22:20,206
442555.7899999999,4428031.819999999,39982.996875,39982.997337963,29.607093744617725,2009-06-18,23:55:30,2009-06-18,23:56:10,202
483066.74074074073,4422479.329629629,39983.576099537,39983.5774305556,21.259586073041973,2009-06-19,13:49:35,2009-06-19,13:51:30,205
481434.7555555555,4421897.522222223,39984.0343055556,39984.1429282407,33.67729205264067,2009-06-20,00:49:24,2009-06-20,03:25:49,212
483120.5211538461,4422403.190384617,39984.1728587963,39984.2393634259,44.16888044770398,2009-06-20,04:08:55,2009-06-20,05:44:41,-1
481463.7249999999,4421924.158333333,39984.2934606481,39984.2940972222,31.814776440970604,2009-06-20,07:02:35,2009-06-20,07:03:30,212
481458.10000000003,4421902.992307693,39985.2612037037,39985.2617824074,28.433958570519447,2009-06-21,06:16:08,2009-06-21,06:16:58,212
454626.2294117647,4417599.3,39985.473125,39985.4738773148,44.346476748427484,2009-06-21,11:21:18,2009-06-21,11:22:23,-1
442579.21666666673,4427953.380000001,39985.528125,39985.7248726852,37.9989473540703,2009-06-21,12:40:30,2009-06-21,17:23:49,202
441535.54827586224,4429083.206896551,39985.7314699074,39986.0646412037,41.70851232059003,2009-06-21,17:33:19,2009-06-22,01:33:05,206
442554.4785714285,4427996.085714285,39986.0715856481,39986.0722800926,49.950875868190266,2009-06-22,01:43:05,2009-06-22,01:44:05,202
442434.48,4428188.5,39986.2688541667,39986.6483564815,43.35677571039029,2009-06-22,06:27:09,2009-06-22,15:33:38,-1
441615.35555555555,4429004.733333333,39986.6586574074,39986.6591782407,15.21906698793338,2009-06-22,15:48:28,2009-06-22,15:49:13,-1
442570.45937500015,4428042.196874999,39987.0665162037,39987.1753125,45.021439337120576,2009-06-23,01:35:47,2009-06-23,04:12:27,202
442637.0,4427956.35,39987.2133912037,39987.2134490741,2.617250465616,2009-06-23,05:07:17,2009-06-23,05:07:22,-1
442557.8821428572,4427917.860714286,39987.4569212963,39987.750775463,44.40202698058099,2009-06-23,10:57:58,2009-06-23,18:01:07,202
441562.05384615384,4429106.238461538,39987.7596296296,39987.7610185185,40.61095911214757,2009-06-23,18:13:52,2009-06-23,18:15:52,206
442514.78181818186,4428110.322727272,39988.0548611111,39988.0560763889,35.327751131225135,2009-06-24,01:19:00,2009-06-24,01:20:45,-1
441531.52500000014,4429074.524999999,39988.1586342593,39988.1608333333,30.407400414900685,2009-06-24,03:48:26,2009-06-24,03:51:36,206
442569.21875,4427979.328125,39988.224375,39988.2261689815,38.34709897762802,2009-06-24,05:23:06,2009-06-24,05:25:41,202
443800.5,4426882.8,39988.4396759259,39988.4396759259,0.0,2009-06-24,10:33:08,2009-06-24,10:33:08,-1
441475.88571428566,4429081.471428572,39988.6881134259,39988.6884606481,44.56691597983567,2009-06-24,16:30:53,2009-06-24,16:31:23,-1
442585.61000000004,4427973.87,39989.0233333333,39989.023912037,42.52822592101626,2009-06-25,00:33:36,2009-06-25,00:34:26,202
442594.5142857143,4428057.657142857,39989.1979282407,39989.198275463,47.08481708591437,2009-06-25,04:45:01,2009-06-25,04:45:31,202
442600.9285714285,4428082.814285715,39989.489849537,39989.4901967593,31.729481559275666,2009-06-25,11:45:23,2009-06-25,11:45:53,202
441533.8736842106,4429088.949999999,39989.6571412037,39989.6591666667,32.98029714882397,2009-06-25,15:46:17,2009-06-25,15:49:12,206
442567.2578947368,4427994.284210526,39990.044837963,39990.1668402778,47.476836456810965,2009-06-26,01:04:34,2009-06-26,04:00:15,202
441530.0551020408,4429091.306122449,39990.1945601852,39990.2383217593,43.429483073182084,2009-06-26,04:40:10,2009-06-26,05:43:11,206
441327.6666666667,4423290.850000001,39990.2985185185,39990.2988078704,46.06256614651195,2009-06-26,07:09:52,2009-06-26,07:10:17,-1
481448.3,4421916.529411765,39990.5362152778,39990.5371412037,46.47687597111093,2009-06-26,12:52:09,2009-06-26,12:53:29,212
481465.7875,4422076.475000001,39991.6074189815,39991.6078819444,44.50404475947297,2009-06-27,14:34:41,2009-06-27,14:35:21,-1
438397.0333333333,4409603.51111111,39992.0716550926,39992.0721180556,42.507058237048795,2009-06-28,01:43:11,2009-06-28,01:43:51,-1
442553.0428571428,4428073.464285715,39992.6367361111,39992.6374884259,48.45802307142905,2009-06-28,15:16:54,2009-06-28,15:17:59,202
441523.42499999993,4429081.49,39992.7411111111,39993.0355787037,36.82662080615307,2009-06-28,17:47:12,2009-06-29,00:51:14,206
442392.9,4427534.5,39993.0853240741,39993.0853819444,34.70561914090948,2009-06-29,02:02:52,2009-06-29,02:02:57,-1
442422.85000000003,4428648.216666668,39993.1866666667,39993.1869560185,42.76564041358551,2009-06-29,04:28:48,2009-06-29,04:29:13,203
442564.11351351347,4427999.475675675,39993.2601851852,39993.262037037,34.70288172461509,2009-06-29,06:14:40,2009-06-29,06:17:20,202
442598.50909090915,4427980.136363636,39993.4403240741,39993.6109837963,48.478139403146145,2009-06-29,10:34:04,2009-06-29,14:39:49,202
441532.0844827585,4429069.93275862,39993.6247569444,39994.0511111111,49.87183573908067,2009-06-29,14:59:39,2009-06-30,01:13:36,206
442578.27142857143,4428053.885714286,39994.0656944444,39994.0660416667,39.538588745869305,2009-06-30,01:34:36,2009-06-30,01:35:06,202
443121.6,4427964.0,39994.4550925926,39994.4550925926,0.0,2009-06-30,10:55:20,2009-06-30,10:55:20,-1
441526.85,4429078.5613636365,39994.6265856481,39994.6287268519,29.003620463295228,2009-06-30,15:02:17,2009-06-30,15:05:22,206
442565.1653846155,4427987.044230769,39995.0438888889,39995.1649074074,48.507731342539614,2009-07-01,01:03:12,2009-07-01,03:57:28,202
442164.25454545463,4429094.136363637,39995.1699421296,39995.1716203704,48.33735615442781,2009-07-01,04:04:43,2009-07-01,04:07:08,-1
442573.791891892,4427985.670270271,39995.2478009259,39995.4177430556,44.553002143877514,2009-07-01,05:56:50,2009-07-01,10:01:33,202
442653.6937499999,4427411.0,39995.4409027778,39995.441712963,49.84505993576236,2009-07-01,10:34:54,2009-07-01,10:36:04,-1
442599.1111111112,4428090.494444443,39995.5773726852,39995.5790509259,36.09376677489039,2009-07-01,13:51:25,2009-07-01,13:53:50,202
441554.48749999993,4429023.65,39995.7294791667,39995.7298842593,39.33204800160241,2009-07-01,17:30:27,2009-07-01,17:31:02,206
442571.95,4428009.190624999,39996.0331365741,39996.1931134259,44.19886876380902,2009-07-02,00:47:43,2009-07-02,04:38:05,202
442579.1666666666,4427971.411111111,39996.2049768518,39996.6125578704,43.71773095721444,2009-07-02,04:55:10,2009-07-02,14:42:05,202
441538.4487179487,4429074.17948718,39996.6273726852,39997.027974537,49.488685574858685,2009-07-02,15:03:25,2009-07-03,00:40:17,206
442548.36086956516,4428007.5521739125,39997.0408796296,39997.1599768519,48.284366000504846,2009-07-03,00:58:52,2009-07-03,03:50:22,202
442563.79999999993,4428104.41,39997.2024537037,39997.2029166667,40.27319207626454,2009-07-03,04:51:32,2009-07-03,04:52:12,202
442566.60000000003,4427934.966666666,39997.3821990741,39997.3828356481,48.38450165053752,2009-07-03,09:10:22,2009-07-03,09:11:17,202
442587.57333333336,4427968.070000001,39997.4517939815,39997.49875,37.171225430610434,2009-07-03,10:50:35,2009-07-03,11:58:12,202
441528.3351351351,4429089.171621621,39997.5275694444,39998.0499421296,46.85168086638065,2009-07-03,12:39:42,2009-07-04,01:11:55,206
443576.57333333336,4420982.333333333,39998.1526041667,39998.1533564815,43.59288932831334,2009-07-04,03:39:45,2009-07-04,03:40:50,-1
443779.8038834954,4420576.879611651,39998.2247222222,39998.2299884259,14.603081866510234,2009-07-04,05:23:36,2009-07-04,05:31:11,-1
442481.58571428567,4427075.928571428,39998.3598611111,39998.3604976852,36.1941984304197,2009-07-04,08:38:12,2009-07-04,08:39:07,-1
443113.63684210525,4425180.921052632,39998.4600462963,39998.4609722222,47.09352397057478,2009-07-04,11:02:28,2009-07-04,11:03:48,207
481457.5909090908,4421895.054545456,39998.5231712963,39998.524212963,43.90956615664886,2009-07-04,12:33:22,2009-07-04,12:34:52,212
481353.9,4421956.3,39999.1358912037,39999.1358912037,0.0,2009-07-05,03:15:41,2009-07-05,03:15:41,-1
442456.2,4428542.1,39999.5404861111,39999.5404861111,0.0,2009-07-05,12:58:18,2009-07-05,12:58:18,-1
441522.4034482758,4429082.265517241,39999.6426851852,40000.011099537,39.37765864006878,2009-07-05,15:25:28,2009-07-06,00:15:59,206
442543.07692307694,4428011.261538462,40000.0200115741,40000.164837963,42.68208054910785,2009-07-06,00:28:49,2009-07-06,03:57:22,202
442595.81363636366,4428065.318181818,40000.1991550926,40000.2092824074,28.112808468691693,2009-07-06,04:46:47,2009-07-06,05:01:22,202
441950.41739130433,4426304.421739129,40000.2613194444,40000.2625925926,32.31547616853736,2009-07-06,06:16:18,2009-07-06,06:18:08,-1
442568.01967213105,4428001.155737705,40000.3437731481,40000.436875,49.80642528812351,2009-07-06,08:15:02,2009-07-06,10:29:06,202
442604.80000000005,4428071.25,40000.4557986111,40000.4558564815,7.9025312402922605,2009-07-06,10:56:21,2009-07-06,10:56:26,202
441533.9250000001,4429076.397916667,40000.7037847222,40001.0261805556,47.473466273043364,2009-07-06,16:53:27,2009-07-07,00:37:42,206
442583.1,4428052.2,40001.0383333333,40001.0385069444,32.20062111185408,2009-07-07,00:55:12,2009-07-07,00:55:27,202
442547.3260869564,4427985.62173913,40001.1797800926,40001.1809953704,19.278226059758524,2009-07-07,04:18:53,2009-07-07,04:20:38,202
444860.4818181818,4396164.236363635,40001.2980324074,40001.2986111111,35.880496094552136,2009-07-07,07:09:10,2009-07-07,07:10:00,-1
441684.0041666667,4398521.654166666,40001.4083449074,40001.415462963,20.729930052971525,2009-07-07,09:48:01,2009-07-07,09:58:16,-1
442568.0,4428024.857142857,40001.5295717593,40001.7425694444,39.68904130835561,2009-07-07,12:42:35,2009-07-07,17:49:18,202
441560.10000000003,4429056.071428572,40001.7513657407,40001.7537384259,44.25031073339204,2009-07-07,18:01:58,2009-07-07,18:05:23,206
442462.15,4427738.65,40002.0455787037,40002.0456365741,34.808332335255045,2009-07-08,01:05:38,2009-07-08,01:05:43,-1
441566.08499999996,4429036.335000001,40002.1975,40002.1985416667,8.471717652906111,2009-07-08,04:44:24,2009-07-08,04:45:54,206
442578.07499999995,4427989.091666667,40002.2577199074,40002.2585300926,9.980981915831647,2009-07-08,06:11:07,2009-07-08,06:12:17,202
442566.22500000003,4427979.064285713,40002.4656481481,40002.5375115741,47.222558168676194,2009-07-08,11:10:32,2009-07-08,12:54:01,202
442573.5272727273,4428007.463636364,40002.5630324074,40002.655,49.878352017312416,2009-07-08,13:30:46,2009-07-08,15:43:12,202
441523.61,4429066.539999999,40002.6627546296,40003.0334837963,48.906543529490804,2009-07-08,15:54:22,2009-07-09,00:48:13,206
442664.1,4428048.3,40003.0660069444,40003.0660069444,0.0,2009-07-09,01:35:03,2009-07-09,01:35:03,-1
442593.8,4428040.3285714295,40003.1796527778,40003.18,41.93626115888012,2009-07-09,04:18:42,2009-07-09,04:19:12,202
441539.98437500006,4429081.959374999,40003.6777314815,40003.6812037037,11.205802068723742,2009-07-09,16:15:56,2009-07-09,16:20:56,206
442617.9650793651,4428064.6095238095,40004.1278935185,40004.1355324074,41.81686262712041,2009-07-10,03:04:10,2009-07-10,03:15:10,202
442556.272972973,4427996.705405405,40004.2368981481,40004.2386921296,26.50679158253545,2009-07-10,05:41:08,2009-07-10,05:43:43,202
443072.23749999993,4425189.65625,40004.4914583333,40004.4922106481,41.814471178751475,2009-07-10,11:47:42,2009-07-10,11:48:47,-1
481451.6578947369,4421881.873684211,40004.5687615741,40005.1223958333,44.28826029513561,2009-07-10,13:39:01,2009-07-11,02:56:15,212
481461.52857142856,4421899.721428571,40005.162974537,40005.1636111111,49.931252738329746,2009-07-11,03:54:41,2009-07-11,03:55:36,212
481453.12142857147,4421887.828571429,40005.4123611111,40005.4130555556,35.86697645449653,2009-07-11,09:53:48,2009-07-11,09:54:48,212
481506.9666666667,4421976.288888888,40005.5609837963,40005.5614467593,47.921289632329625,2009-07-11,13:27:49,2009-07-11,13:28:29,-1
481461.5000000001,4421884.1193548385,40006.1608333333,40006.2275578704,46.96083474513124,2009-07-12,03:51:36,2009-07-12,05:27:41,212
454766.05263157893,4417606.084210527,40006.2808564815,40006.2818981481,22.85541511346523,2009-07-12,06:44:26,2009-07-12,06:45:56,213
442545.2,4427994.15,40006.3290046296,40006.3290625,9.436630754483348,2009-07-12,07:53:46,2009-07-12,07:53:51,202
441649.92439024395,4427961.285365854,40006.4053009259,40006.4078472222,32.867156858802865,2009-07-12,09:43:38,2009-07-12,09:47:18,-1
442558.53555555566,4427985.9399999995,40006.4844444444,40006.6655555556,25.784685376994943,2009-07-12,11:37:36,2009-07-12,15:58:24,202
441532.12500000006,4429089.338636363,40006.6729050926,40007.019212963,40.469865332105584,2009-07-12,16:08:59,2009-07-13,00:27:40,206
442574.40724637674,4427982.536231885,40007.0298611111,40007.4544791667,46.182464204859805,2009-07-13,00:43:00,2009-07-13,10:54:27,202
442608.035,4428111.340000002,40007.4915162037,40007.4927314815,35.000142856850246,2009-07-13,11:47:47,2009-07-13,11:49:32,202
441533.9634615384,4429078.409615385,40007.7353472222,40008.0253472222,44.370372998300844,2009-07-13,17:38:54,2009-07-14,00:36:30,206
442579.9875,4427963.3875,40008.0466435185,40008.0473958333,27.692778842073192,2009-07-14,01:07:10,2009-07-14,01:08:15,202
442592.2,4428078.776,40008.2334259259,40008.2348148148,21.60856311749561,2009-07-14,05:36:08,2009-07-14,05:38:08,202
442000.76,4429015.928888889,40008.3884143519,40008.4563773148,46.74537410256895,2009-07-14,09:19:19,2009-07-14,10:57:11,-1
442568.82999999996,4427966.42,40008.4633217593,40008.4638425926,37.31929795694955,2009-07-14,11:07:11,2009-07-14,11:07:56,202
441523.84324324323,4429081.962162161,40008.7404861111,40009.0418402778,42.52175913552336,2009-07-14,17:46:18,2009-07-15,01:00:15,206
442577.13999999996,4427986.682222222,40009.0603587963,40009.0627314815,44.30541727549867,2009-07-15,01:26:55,2009-07-15,01:30:20,202
442573.24000000005,4428046.539999999,40009.2152546296,40009.2154861111,49.342071298232554,2009-07-15,05:09:58,2009-07-15,05:10:18,202
443106.0999999999,4425183.476190477,40009.4823958333,40009.4833796296,35.45870838066764,2009-07-15,11:34:39,2009-07-15,11:36:04,207
481454.7375,4421906.1375,40009.5584259259,40009.5588310185,41.12724158061515,2009-07-15,13:24:08,2009-07-15,13:24:43,212
442567.05000000005,4428123.2,40010.0164583333,40010.0165162037,13.412307780539603,2009-07-16,00:23:42,2009-07-16,00:23:47,202
442588.2638888889,4427995.363888889,40010.1792361111,40010.181087963,28.309185788382944,2009-07-16,04:18:06,2009-07-16,04:20:46,202
446442.6178571429,4427216.807142857,40010.4473726852,40010.4508449074,44.24669479189495,2009-07-16,10:44:13,2009-07-16,10:49:13,-1
442559.1466666667,4427974.263333334,40010.5770833333,40010.5789351852,29.880093708225004,2009-07-16,13:51:00,2009-07-16,13:53:40,202
441536.13157894736,4429106.502631579,40010.7315393519,40010.7333333333,41.668453294849144,2009-07-16,17:33:25,2009-07-16,17:36:00,206
442557.11666666664,4428111.641666667,40011.1836805556,40011.1843171296,38.34162229231416,2009-07-17,04:24:30,2009-07-17,04:25:25,202
444918.4333333333,4426487.8,40011.4940509259,40011.4941666667,40.612313403506725,2009-07-17,11:51:26,2009-07-17,11:51:36,-1
442569.2357142858,4427957.071428573,40011.5729282407,40011.7047916667,47.949348274899364,2009-07-17,13:45:01,2009-07-17,16:54:54,202
441537.6910000002,4429079.6000000015,40011.7130092593,40012.0541203704,36.39917581478379,2009-07-17,17:06:44,2009-07-18,01:17:56,206
450398.3292682926,4417166.892682928,40012.1481597222,40012.1503587963,48.993877168110856,2009-07-18,03:33:21,2009-07-18,03:36:31,-1
481453.2,4421901.0,40012.2674421296,40012.2678472222,38.64932082166904,2009-07-18,06:25:07,2009-07-18,06:25:42,212
448395.7812500003,4411335.154687499,40013.0441782407,40013.0952199074,49.633557196726436,2009-07-19,01:03:37,2009-07-19,02:17:07,-1
448210.9962962961,4417465.927777777,40013.1129282407,40013.1155902778,43.67665280252316,2009-07-19,02:42:37,2009-07-19,02:46:27,-1
442586.83749999997,4428052.3,40013.2401967593,40013.2410069444,34.740466318834606,2009-07-19,05:45:53,2009-07-19,05:47:03,202
442619.7,4428138.0,40013.4598263889,40013.4598263889,0.0,2009-07-19,11:02:09,2009-07-19,11:02:09,-1
441536.4153846155,4429073.123076924,40013.657025463,40014.0141898148,41.65309112188666,2009-07-19,15:46:07,2009-07-20,00:20:26,206
442588.34,4428039.16,40014.0385532407,40014.0387847222,49.154959058061756,2009-07-20,00:55:31,2009-07-20,00:55:51,202
442455.08666666655,4428660.1066666655,40014.2540509259,40014.3101273148,44.31624984115336,2009-07-20,06:05:50,2009-07-20,07:26:35,203
442570.92000000004,4427999.475,40014.3137731481,40014.3147569444,17.941293152937224,2009-07-20,07:31:50,2009-07-20,07:33:15,202
442563.89999999997,4428132.533333333,40014.4573263889,40014.4573842593,0.36055512712342874,2009-07-20,10:58:33,2009-07-20,10:58:38,202
441596.36000000004,4429191.92,40014.6515856481,40014.6517592593,8.373768566445527,2009-07-20,15:38:17,2009-07-20,15:38:32,-1
442569.93500000006,4427975.235,40015.0404166667,40015.1903935185,45.9915209571123,2009-07-21,00:58:12,2009-07-21,04:34:10,202
441552.94000000006,4429057.66,40015.2258680556,40015.226099537,27.238942710763418,2009-07-21,05:25:15,2009-07-21,05:25:35,206
442568.952631579,4427989.031578947,40015.2790162037,40015.2800578704,38.88148659722262,2009-07-21,06:41:47,2009-07-21,06:43:17,202
442571.3857142857,4427420.842857143,40015.4669097222,40015.4672569444,30.58251134226412,2009-07-21,11:12:21,2009-07-21,11:12:51,-1
442527.9833333334,4428093.691666667,40015.5380902778,40015.539537037,44.7733179474778,2009-07-21,12:54:51,2009-07-21,12:56:56,202
441551.679961464,4429056.293063582,40015.8733449074,40015.9134490741,44.27064490156416,2009-07-21,20:57:37,2009-07-21,21:55:22,206
442638.3,4428031.5,40016.0655439815,40016.0655439815,0.0,2009-07-22,01:34:23,2009-07-22,01:34:23,-1
441532.3750000002,4429080.74375,40016.2148958333,40016.2172685185,36.503835415112135,2009-07-22,05:09:27,2009-07-22,05:12:52,206
442569.7076923077,4427962.776923075,40016.4532523148,40016.4538888889,42.01713936003315,2009-07-22,10:52:41,2009-07-22,10:53:36,202
441546.5797297297,4429087.082432431,40016.7801273148,40017.0117013889,43.68352092041175,2009-07-22,18:43:23,2009-07-23,00:16:51,206
442560.98750000005,4428016.668749999,40017.0262268518,40017.1779166667,48.033529955323075,2009-07-23,00:37:46,2009-07-23,04:16:12,202
441536.66410256416,4429060.84102564,40017.1991550926,40017.2010648148,14.600342461769356,2009-07-23,04:46:47,2009-07-23,04:49:32,206
442107.85,4420819.825,40017.2855208333,40017.2879513889,28.39788724535322,2009-07-23,06:51:09,2009-07-23,06:54:39,-1
442564.81578947377,4427975.0763157895,40017.4527893519,40017.4547569444,27.81600258834126,2009-07-23,10:52:01,2009-07-23,10:54:51,202
441542.24000000005,4429076.76,40017.6177662037,40018.0181597222,38.91657744383673,2009-07-23,14:49:35,2009-07-24,00:26:09,206
442573.7,4427985.883333333,40018.0301388889,40018.0310648148,39.944211095578424,2009-07-24,00:43:24,2009-07-24,00:44:44,202
441535.3724999999,4429073.752500001,40018.2007986111,40018.2028240741,12.059850745346226,2009-07-24,04:49:09,2009-07-24,04:52:04,206
442451.5199999999,4428662.6450000005,40018.2570601852,40018.2582175926,44.06778869004142,2009-07-24,06:10:10,2009-07-24,06:11:50,203
442612.63958333345,4421001.293749999,40018.4622916667,40018.571099537,46.9469913839068,2009-07-24,11:05:42,2009-07-24,13:42:23,-1
442605.9,4428055.4799999995,40018.612650463,40018.6128240741,37.729829048105266,2009-07-24,14:42:13,2009-07-24,14:42:28,202
441557.9928571428,4429096.321428572,40018.8364930556,40019.0688425926,33.761664651055604,2009-07-24,20:04:33,2009-07-25,01:39:08,206
481455.5749999999,4421885.493749999,40019.1780439815,40019.178912037,22.507998578273302,2009-07-25,04:16:23,2009-07-25,04:17:38,212
483025.8081081081,4421373.252252251,40019.43,40019.465474537,23.12509459412505,2009-07-25,10:19:12,2009-07-25,11:10:17,-1
481454.29166666674,4421913.816666667,40019.5278703704,40019.5284490741,33.65546018108172,2009-07-25,12:40:08,2009-07-25,12:40:58,212
445909.7888888889,4417759.11111111,40020.1678240741,40020.168287037,49.74022517039059,2009-07-26,04:01:40,2009-07-26,04:02:20,-1
442570.04565217404,4427997.491304349,40020.3152662037,40020.4212384259,39.03857067054705,2009-07-26,07:33:59,2009-07-26,10:06:35,202
442575.00923076936,4427967.972307694,40020.4529976852,40020.6706365741,49.785339207362085,2009-07-26,10:52:19,2009-07-26,16:05:43,202
441533.62321428565,4429069.782142857,40020.6789699074,40021.0344675926,46.462457963251225,2009-07-26,16:17:43,2009-07-27,00:49:38,206
442581.6914285714,4427981.551428571,40021.0455208333,40021.0474305556,6.84470598364613,2009-07-27,01:05:33,2009-07-27,01:08:18,202
442396.99090909085,4428577.954545455,40021.254224537,40021.2552083333,41.907517225247645,2009-07-27,06:06:05,2009-07-27,06:07:30,-1
442558.9437500001,4427997.453125001,40021.3291435185,40021.43375,47.477363026838255,2009-07-27,07:53:58,2009-07-27,10:24:36,202
442584.1,4428076.8100000005,40021.4644212963,40021.4649421296,21.187260323220176,2009-07-27,11:08:46,2009-07-27,11:09:31,202
441584.0,4428999.65,40021.5673726852,40021.5674305556,2.773084924752259,2009-07-27,13:37:01,2009-07-27,13:37:06,-1
442578.12258064514,4427967.4,40022.0681365741,40022.0697569444,34.22426040038505,2009-07-28,01:38:07,2009-07-28,01:40:27,202
444668.40454545454,4425760.249999999,40022.2193634259,40022.2207523148,42.26925596695097,2009-07-28,05:15:53,2009-07-28,05:17:53,-1
442546.02857142856,4427148.151428573,40022.3670833333,40022.3688773148,49.13023508993155,2009-07-28,08:48:36,2009-07-28,08:51:11,-1
442575.3999999999,4427961.623809524,40022.4769212963,40022.7151041667,48.759101714315946,2009-07-28,11:26:46,2009-07-28,17:09:45,202
441547.4675675676,4429055.92972973,40022.7225694444,40022.7244212963,18.97182120862964,2009-07-28,17:20:30,2009-07-28,17:23:10,206