442619.0399999999,4427129.912,39784.4766550926,39784.4779282407,21.910727966005876,2008-12-02,11:26:23,2008-12-02,11:28:13,-1
440579.9666666667,4433402.061111111,39784.5412384259,39784.9714236111,47.30803314393581,2008-12-02,12:59:23,2008-12-02,23:18:51,-1
443106.4833333334,4425012.208333333,39784.9925462963,39784.9937615741,27.548684179275888,2008-12-02,23:49:16,2008-12-02,23:51:01,217
443069.3538461539,4425140.86923077,39785.4167592593,39785.4173958333,41.77714686267444,2008-12-03,10:00:08,2008-12-03,10:01:03,-1
440581.5538461538,4433397.107692309,39785.4899421296,39785.4906365741,49.69547263099857,2008-12-03,11:45:31,2008-12-03,11:46:31,-1
443089.8333333333,4424812.366666666,39786.1337962963,39786.133912037,31.255399533890646,2008-12-04,03:12:40,2008-12-04,03:12:50,-1
442985.47272727266,4425032.254545455,39790.1192939815,39790.1198148148,49.04049347259374,2008-12-08,02:51:47,2008-12-08,02:52:32,-1
443108.5677419356,4425016.1645161295,39790.2974884259,39790.2990509259,49.87233702163956,2008-12-08,07:08:23,2008-12-08,07:10:38,217
442524.2961538462,4426935.242307692,39791.4141666667,39791.4156712963,49.3471377082868,2008-12-09,09:56:24,2008-12-09,09:58:34,-1
440586.80666666664,4433398.3533333335,39791.4914814815,39791.4922916667,48.318216027352605,2008-12-09,11:47:44,2008-12-09,11:48:54,-1
443095.05,4425000.678571428,39792.2326736111,39792.2334259259,16.16446720433267,2008-12-10,05:35:03,2008-12-10,05:36:08,217
443098.95428571425,4425030.862857142,39793.1682523148,39793.170162037,22.231509170571215,2008-12-11,04:02:17,2008-12-11,04:05:02,217
443106.22142857156,4425007.128571429,39793.9948726852,39793.995625,21.88264152231579,2008-12-11,23:52:37,2008-12-11,23:53:42,217
440577.88461538445,4433369.207692308,39797.4374074074,39797.9941087963,46.182464203973126,2008-12-15,10:29:52,2008-12-15,23:51:31,-1
441886.4636363637,4426329.154545455,39798.0222337963,39798.0227546296,40.68464083651768,2008-12-16,00:32:01,2008-12-16,00:32:46,-1
442802.2,4426680.3,39798.5254976852,39798.5254976852,0.0,2008-12-16,12:36:43,2008-12-16,12:36:43,-1
440581.425,4433367.024999999,39798.6398263889,39798.6402314815,31.360006377360865,2008-12-16,15:21:21,2008-12-16,15:21:56,-1
441913.49333333323,4426324.9,39799.0217939815,39799.064224537,44.91770252325302,2008-12-17,00:31:23,2008-12-17,01:32:29,-1
443028.86190476187,4425086.771428572,39799.211400463,39799.2124421296,14.624978632474326,2008-12-17,05:04:25,2008-12-17,05:05:55,-1
443093.0,4425157.2,39800.1603472222,39800.1604050926,34.80804504745702,2008-12-18,03:50:54,2008-12-18,03:50:59,-1
443124.1335106377,4425022.310815603,39800.3752199074,39800.4265509259,49.4534124201874,2008-12-18,09:00:19,2008-12-18,10:14:14,217
443117.09689655143,4425037.320689654,39800.5444328704,39800.5745833333,11.503912377665108,2008-12-18,13:03:59,2008-12-18,13:47:24,217
443014.1928571429,4425105.45,39800.5812962963,39800.582974537,23.19999999986512,2008-12-18,13:57:04,2008-12-18,13:59:29,-1
443102.30999999994,4425042.99,39801.0647569444,39801.0652777778,8.03616824110362,2008-12-19,01:33:15,2008-12-19,01:34:00,-1
452902.8,4418383.3,39834.9967708333,39834.9967708333,0.0,2009-01-21,23:55:21,2009-01-21,23:55:21,-1