444823.6333333333,4426307.733333333,39463.4044212963,39463.4050462963,42.70105385118078,2008-01-16,09:42:22,2008-01-16,09:43:16,-1
440993.1,4425187.0,39464.4200810185,39464.4200810185,0.0,2008-01-17,10:04:55,2008-01-17,10:04:55,-1
450325.0,4419547.6,39465.0276388889,39465.0277893519,24.28250398945187,2008-01-18,00:39:48,2008-01-18,00:40:01,-1
444807.7,4426251.3,39465.3338194444,39465.3366782407,41.86167698558685,2008-01-18,08:00:42,2008-01-18,08:04:49,-1
442755.99999999994,4426963.4,39466.3526851852,39466.3533449074,41.28074611746595,2008-01-19,08:27:52,2008-01-19,08:28:49,-1
440331.2,4426030.2,39501.2022916667,39501.2026851852,33.84981536175471,2008-02-23,04:51:18,2008-02-23,04:51:52,-1
444744.3333333333,4426291.7,39501.3824421296,39501.3837847222,49.9092175855083,2008-02-23,09:10:43,2008-02-23,09:12:39,311
444816.0,4426272.0,39504.1640277778,39504.1643634259,38.206282206242484,2008-02-26,03:56:12,2008-02-26,03:56:41,-1
435517.8333333333,4417857.433333334,39506.4800925926,39506.480474537,39.81067695986386,2008-02-28,11:31:20,2008-02-28,11:31:53,-1
460809.5,4419755.7,39509.5412384259,39509.5412384259,0.0,2008-03-02,12:59:23,2008-03-02,12:59:23,-1
444701.375,4426256.225,39509.5992824074,39509.5999884259,34.73154186057114,2008-03-02,14:22:58,2008-03-02,14:23:59,311
449596.8,4426479.4,39511.0190740741,39511.0190740741,0.0,2008-03-04,00:27:28,2008-03-04,00:27:28,-1
445024.77499999997,4425813.575,39511.3081134259,39511.3085648148,42.66110640818714,2008-03-04,07:23:41,2008-03-04,07:24:20,-1
449132.5,4426430.7,39518.0240740741,39518.0240740741,0.0,2008-03-11,00:34:40,2008-03-11,00:34:40,-1
435482.7,4417804.066666667,39520.3325578704,39520.3329050926,40.14386628188143,2008-03-13,07:58:53,2008-03-13,07:59:23,-1
444754.0,4426320.600000001,39521.2350115741,39521.2382175926,35.15181360886135,2008-03-14,05:38:25,2008-03-14,05:43:02,-1
444715.94999999995,4426306.1,39521.3747453704,39521.375,42.83514911841903,2008-03-14,08:59:38,2008-03-14,09:00:00,311
440825.64999999997,4426814.45,39522.2301041667,39522.2306944444,39.59116062960288,2008-03-15,05:31:21,2008-03-15,05:32:12,-1
444766.35,4426286.25,39525.5572569444,39525.5573842593,25.005999279967675,2008-03-18,13:22:27,2008-03-18,13:22:38,311
442844.44999999995,4425243.2,39526.3189236111,39526.3190972222,16.107451691614145,2008-03-19,07:39:15,2008-03-19,07:39:30,-1
444728.6054794521,4426289.649315069,39588.4149652778,39588.4185069444,20.930838492340268,2008-05-20,09:57:33,2008-05-20,10:02:39,311
440773.4257575757,4425816.8545454545,39588.5340509259,39588.5485648148,34.80703951778039,2008-05-20,12:49:02,2008-05-20,13:09:56,-1
444721.49398584873,4426278.918278292,39588.6331018518,39588.6786805556,25.45937941130169,2008-05-20,15:11:40,2008-05-20,16:17:18,311
440328.1022364217,4426791.823961658,39589.1596527778,39589.1821296296,41.82487298276849,2008-05-21,03:49:54,2008-05-21,04:22:16,-1
444726.5125,4426268.016666665,39589.3230902778,39589.3236226852,27.26059427100011,2008-05-21,07:45:15,2008-05-21,07:46:01,311
449596.0093749999,4426538.693749999,39589.4413310185,39589.4420486111,45.317656603488885,2008-05-21,10:35:31,2008-05-21,10:36:33,-1
444719.10272572417,4426269.558091991,39589.6219097222,39589.6849189815,45.93963430430076,2008-05-21,14:55:33,2008-05-21,16:26:17,311
444709.0484234238,4426268.895045048,39589.6850115741,39589.6953587963,32.80243893364105,2008-05-21,16:26:25,2008-05-21,16:41:19,311
435338.4483568079,4417790.874553986,39590.4460185185,39590.5247453704,49.20010162623819,2008-05-22,10:42:16,2008-05-22,12:35:38,-1
435588.23999999993,4418527.26,39590.5457638889,39590.5458564815,42.2965719651132,2008-05-22,13:05:54,2008-05-22,13:06:02,-1
444733.9891891893,4426289.162162163,39591.2895833333,39591.3015625,43.96282520493001,2008-05-23,06:57:00,2008-05-23,07:14:15,311
442587.5931818182,4419857.470454545,39593.4065393518,39593.4075347222,18.3412104283349,2008-05-25,09:45:25,2008-05-25,09:46:51,-1
440332.6360510815,4425782.75746561,39593.488900463,39593.5326736111,35.44079570157077,2008-05-25,11:44:01,2008-05-25,12:47:03,-1
444739.4855431985,4426297.302566288,39593.5639467593,39593.6106597222,27.028318482843957,2008-05-25,13:32:05,2008-05-25,14:39:21,311
444737.6508342609,4426284.476640718,39593.6146180556,39593.6812152778,46.057572667406674,2008-05-25,14:45:03,2008-05-25,16:20:57,311
444735.48985680164,4426308.1406921325,39593.7114467593,39593.7555671296,49.04538714266487,2008-05-25,17:04:29,2008-05-25,18:08:01,311
444733.9813926942,4426298.784360728,39593.7910069444,39593.8280671296,49.79256972715657,2008-05-25,18:59:03,2008-05-25,19:52:25,311
444734.14267053705,4426299.485050798,39593.8283217593,39593.8684606481,47.0026594990621,2008-05-25,19:52:47,2008-05-25,20:50:35,311
444725.90456989256,4426295.583602148,39593.8687847222,39593.9072800926,46.90266516891748,2008-05-25,20:51:03,2008-05-25,21:46:29,311
444727.66835357656,4426298.182253707,39593.9077662037,39593.9641319444,45.83939353838125,2008-05-25,21:47:11,2008-05-25,23:08:21,311
444728.46838074387,4426305.637527353,39593.9651967593,39594.0037384259,22.87116088020611,2008-05-25,23:09:53,2008-05-26,00:05:23,311
444731.5603539821,4426288.656637163,39594.0122337963,39594.085474537,49.52585183554202,2008-05-26,00:17:37,2008-05-26,02:03:05,311
444728.48031898896,4426307.332621122,39594.0862384259,39594.1864467593,49.68057970646574,2008-05-26,02:04:11,2008-05-26,04:28:29,311
444742.34554455447,4426316.932673266,39594.2594097222,39594.2647337963,45.24433666257961,2008-05-26,06:13:33,2008-05-26,06:21:13,311
440756.7002141327,4426957.002890787,39594.5509375,39594.5931597222,49.30770730829005,2008-05-26,13:13:21,2008-05-26,14:14:09,-1
440077.8198412697,4427072.246825389,39594.6196412037,39594.6306828704,44.59529123128578,2008-05-26,14:52:17,2008-05-26,15:08:11,-1
444773.744117647,4426310.102941177,39594.7131134259,39594.7146412037,21.70023041336071,2008-05-26,17:06:53,2008-05-26,17:09:05,-1
435490.6418604652,4417751.790697674,39595.3748032407,39595.4258680556,49.91592932102543,2008-05-27,08:59:43,2008-05-27,10:13:15,-1
444738.34347826056,4426298.544314383,39595.483900463,39595.5236689815,39.993249430380715,2008-05-27,11:36:49,2008-05-27,12:34:05,311
444726.59236641205,4426291.004198472,39595.5809606481,39595.6044328704,27.43319157534901,2008-05-27,13:56:35,2008-05-27,14:30:23,311
441090.0906976744,4425434.237209303,39596.4137268519,39596.4146990741,46.82093548840699,2008-05-28,09:55:46,2008-05-28,09:57:10,-1
444725.27050053235,4426286.169329069,39596.5071296296,39596.5503009259,21.27204738618265,2008-05-28,12:10:16,2008-05-28,13:12:26,311
435506.41764705867,4417791.179411765,39597.3331365741,39597.3339236111,47.77457482806171,2008-05-29,07:59:43,2008-05-29,08:00:51,-1
444722.88870967855,4426280.994946234,39598.4883449074,39598.5454976852,49.23921201593725,2008-05-30,11:43:13,2008-05-30,13:05:31,311
444726.5145339644,4426296.130173779,39598.5467708333,39598.561400463,34.669871646344696,2008-05-30,13:07:21,2008-05-30,13:28:25,311
441074.594736842,4425441.689473686,39599.1694675926,39599.1703240741,48.52133551307723,2008-05-31,04:04:02,2008-05-31,04:05:16,-1
444759.2134615384,4426284.353846154,39599.3154166667,39599.3177083333,20.270421801411842,2008-05-31,07:34:12,2008-05-31,07:37:30,311
440417.1094594594,4426556.100000001,39599.4707175926,39599.4739814815,35.75430044017226,2008-05-31,11:17:50,2008-05-31,11:22:32,-1
444740.6424723755,4426290.177693382,39599.555787037,39599.5934259259,49.41275139108254,2008-05-31,13:20:20,2008-05-31,14:14:32,311
444731.9875,4426300.786641221,39599.6017824074,39599.6893055556,47.351029555487955,2008-05-31,14:26:34,2008-05-31,16:32:36,311
444724.28461538453,4426271.461538461,39599.6962731481,39599.6975810185,48.781143898584546,2008-05-31,16:42:38,2008-05-31,16:44:31,311
442457.95666666667,4420009.523333334,39600.4369444444,39600.4376157407,47.61354849176344,2008-06-01,10:29:12,2008-06-01,10:30:10,-1
444733.36615120276,4426286.677061851,39600.589375,39600.6465046296,48.94486694226041,2008-06-01,14:08:42,2008-06-01,15:30:58,311
444716.7510101008,4426282.881313131,39600.6465740741,39600.653125,29.10017182067801,2008-06-01,15:31:04,2008-06-01,15:40:30,311
440073.89677419345,4427156.729032257,39601.1785648148,39601.1792592593,49.36172606366618,2008-06-02,04:17:08,2008-06-02,04:18:08,-1
444720.5715827338,4426285.549640288,39601.3400462963,39601.3559837963,47.75866413530142,2008-06-02,08:09:40,2008-06-02,08:32:37,311
435341.61166666663,4417801.831666665,39602.0646643518,39602.0660300926,37.87162526220264,2008-06-03,01:33:07,2008-06-03,01:35:05,-1
444725.48502617853,4426290.322513099,39602.2330092593,39602.277662037,48.845880071617024,2008-06-03,05:35:32,2008-06-03,06:39:50,311
444732.60747384164,4426287.904484304,39602.2776851852,39602.3209953704,29.78925980946973,2008-06-03,06:39:52,2008-06-03,07:42:14,311
435399.84693877556,4417691.22857143,39602.4404050926,39602.5430439815,49.43814316915731,2008-06-03,10:34:11,2008-06-03,13:01:59,-1
444769.5285714287,4426225.057142857,39602.6410185185,39602.6411921296,30.231440587750555,2008-06-03,15:23:04,2008-06-03,15:23:19,-1
444725.4218107001,4426289.289359199,39603.6357986111,39603.7273032407,48.14083505733744,2008-06-04,15:15:33,2008-06-04,17:27:19,311
444724.35384615354,4426300.525128205,39603.7742013889,39603.8089930556,48.61614958004393,2008-06-04,18:34:51,2008-06-04,19:24:57,311
444725.48441558395,4426289.741958045,39603.8101967593,39603.8549652778,48.40588807178348,2008-06-04,19:26:41,2008-06-04,20:31:09,311
444726.13405405346,4426288.805675675,39603.8572800926,39603.8923032407,48.43397567897772,2008-06-04,20:34:29,2008-06-04,21:24:55,311
444716.50934210536,4426305.253157893,39603.8945717593,39603.9352199074,49.60252009725313,2008-06-04,21:28:11,2008-06-04,22:26:43,311
444735.6628194203,4426294.605494043,39603.9455208333,39604.0536226852,40.49111013528177,2008-06-04,22:41:33,2008-06-05,01:17:13,311
444729.1782545107,4426305.9871282345,39604.0567013889,39604.1561226852,49.7322832777522,2008-06-05,01:21:39,2008-06-05,03:44:49,311
444730.0168076921,4426299.151461534,39604.1875347222,39604.2971875,49.58517923734315,2008-06-05,04:30:03,2008-06-05,07:07:57,311
444735.5275618379,4426290.803975261,39604.2992476852,39604.3545717593,48.42003717452443,2008-06-05,07:10:55,2008-06-05,08:30:35,311
435516.5666666667,4417810.879166667,39604.4243634259,39604.4248958333,47.875359006388955,2008-06-05,10:11:05,2008-06-05,10:11:51,-1
444729.8695238098,4426291.722222209,39605.2266203704,39605.2776157407,31.751692868307355,2008-06-06,05:26:20,2008-06-06,06:39:46,311
440789.3272727272,4425825.054545456,39605.4047453704,39605.4052314815,36.09127318353744,2008-06-06,09:42:50,2008-06-06,09:43:32,-1
440797.22440476203,4425925.353571426,39605.4553472222,39605.4705324074,34.49710132756597,2008-06-06,10:55:42,2008-06-06,11:17:34,-1
444815.5833333333,4426214.475000001,39605.5853703704,39605.5856828704,29.95363083131684,2008-06-06,14:02:56,2008-06-06,14:03:23,-1
442596.6258064516,4419884.490322581,39606.4126041667,39606.4132986111,46.23126647608512,2008-06-07,09:54:09,2008-06-07,09:55:09,-1
444730.24593698164,4426274.788059698,39606.5653125,39606.6278125,16.901183389780552,2008-06-07,13:34:03,2008-06-07,15:04:03,311
444739.6614864865,4426319.568243245,39606.8425694444,39606.8857407407,43.433742643434414,2008-06-07,20:13:18,2008-06-07,21:15:28,311
444723.0599415201,4426277.242032167,39606.9017824074,39606.9446990741,41.96486625752342,2008-06-07,21:38:34,2008-06-07,22:40:22,311
444736.7392278949,4426299.016562886,39606.9524768519,39607.0460416667,48.05424018698187,2008-06-07,22:51:34,2008-06-08,01:06:18,311
444724.2369390642,4426286.599574862,39607.0832175926,39607.1593518518,36.516845427999975,2008-06-08,01:59:50,2008-06-08,03:49:28,311
444734.3977161499,4426297.67438826,39607.1840740741,39607.2623842593,49.26601262532814,2008-06-08,04:25:04,2008-06-08,06:17:50,311
444735.218525519,4426289.281537494,39607.2625925926,39607.3430787037,49.75670809051714,2008-06-08,06:18:08,2008-06-08,08:14:02,311
444724.72296650696,4426282.3217703365,39607.3565277778,39607.3663657407,19.391235133722905,2008-06-08,08:33:24,2008-06-08,08:47:34,311
440677.2941176471,4426735.405882352,39608.1705671296,39608.1722800926,49.23545470510101,2008-06-09,04:05:37,2008-06-09,04:08:05,-1
440423.3224242426,4425105.607272724,39608.4430208333,39608.5149652778,33.301651610693426,2008-06-09,10:37:57,2008-06-09,12:21:33,-1
444740.9511244375,4426276.397051467,39608.5457986111,39608.6159143519,47.21366327671157,2008-06-09,13:05:57,2008-06-09,14:46:55,311
445306.98,4426152.26,39608.7671412037,39608.7681365741,31.060103026322746,2008-06-09,18:24:41,2008-06-09,18:26:07,-1
444721.78663101624,4426280.006417114,39609.5844675926,39609.6228472222,49.781924430509086,2008-06-10,14:01:38,2008-06-10,14:56:54,311
444724.12083333335,4426287.29236111,39609.6649537037,39609.7073611111,49.99369960276836,2008-06-10,15:57:32,2008-06-10,16:58:36,311
444715.77296587854,4426283.523950137,39609.7382407407,39609.8041203704,49.63275128326524,2008-06-10,17:43:04,2008-06-10,19:17:56,311
444711.60870870884,4426262.13273273,39609.8300925926,39609.8816898148,47.908767465188134,2008-06-10,19:55:20,2008-06-10,21:09:38,311
444718.7890857131,4426285.043828568,39609.8835648148,39609.9486342593,48.724737043237994,2008-06-10,21:12:20,2008-06-10,22:46:02,311
444703.04347826086,4426245.778260869,39609.9486574074,39609.9491666667,40.26474885057648,2008-06-10,22:46:04,2008-06-10,22:46:48,311
444721.8804311772,4426286.67341072,39610.001412037,39610.0432638889,49.36000405187213,2008-06-11,00:02:02,2008-06-11,01:02:18,311
444716.545567112,4426295.587914812,39610.0474074074,39610.1724768518,49.41710230311898,2008-06-11,01:08:16,2008-06-11,04:08:22,311
444727.06880848325,4426283.155021845,39610.1726388889,39610.2097222222,22.88449256611541,2008-06-11,04:08:36,2008-06-11,05:02:00,311
444720.35459915677,4426278.8031645445,39610.2400231481,39610.3275231481,24.613004692309147,2008-06-11,05:45:38,2008-06-11,07:51:38,311
444770.31874999986,4426221.775,39610.3630787037,39610.3641666667,49.20589395540877,2008-06-11,08:42:50,2008-06-11,08:44:24,-1
435434.8917098448,4417770.813471503,39611.2208217593,39611.2702777778,49.963186447785226,2008-06-12,05:17:59,2008-06-12,06:29:12,-1
435434.58880597085,4417780.213432841,39611.2703009259,39611.2856944444,13.803260484522607,2008-06-12,06:29:14,2008-06-12,06:51:24,-1
444748.62666666665,4426296.353333333,39611.3865972222,39611.3887384259,23.70000000001164,2008-06-12,09:16:42,2008-06-12,09:19:47,311
435349.18750000006,4417771.770833332,39611.9854861111,39612.0646527778,47.377737387912944,2008-06-12,23:39:06,2008-06-13,01:33:06,-1
444726.59381818183,4426289.3352727275,39612.1384953704,39612.155162037,26.44617174629626,2008-06-13,03:19:26,2008-06-13,03:43:26,311
445880.75,4421029.55,39612.261875,39612.2619328704,19.748924020991176,2008-06-13,06:17:06,2008-06-13,06:17:11,-1
442465.10588235286,4419894.917647058,39613.4390046296,39613.4398148148,47.56059293151545,2008-06-14,10:32:10,2008-06-14,10:33:20,-1
444760.44090909086,4426287.398484848,39613.5819675926,39613.5855555556,35.34798438369508,2008-06-14,13:58:02,2008-06-14,14:03:12,311
440425.63611111144,4426548.361805556,39614.3042939815,39614.4549884259,49.3206853154737,2008-06-15,07:18:11,2008-06-15,10:55:11,-1
440426.83355704736,4426488.643087255,39614.5539467593,39614.5966550926,48.21306876767471,2008-06-15,13:17:41,2008-06-15,14:19:11,-1
444714.45,4426235.3,39614.7153472222,39614.7155208333,30.47261065353455,2008-06-15,17:10:06,2008-06-15,17:10:21,-1
444727.6461432506,4426301.811019284,39615.3214467593,39615.3845833333,42.85848807459713,2008-06-16,07:42:53,2008-06-16,09:13:48,311
444725.8989189193,4426310.878918919,39615.3853356481,39615.4050694444,23.385679378632858,2008-06-16,09:14:53,2008-06-16,09:43:18,311
435587.2244444446,4417778.00222222,39616.2297222222,39616.2383449074,47.28974518837276,2008-06-17,05:30:48,2008-06-17,05:43:13,-1
444730.30958466465,4426300.629712459,39616.3413541667,39616.3839467593,46.60268232583478,2008-06-17,08:11:33,2008-06-17,09:12:53,311
444714.9749295772,4426303.639154933,39616.3849884259,39616.4102777778,18.57336803093389,2008-06-17,09:14:23,2008-06-17,09:50:48,311
444930.0,4426352.4,39616.4268287037,39616.4268287037,0.0,2008-06-17,10:14:38,2008-06-17,10:14:38,-1
445391.6325,4426853.516249999,39619.202974537,39619.2089351852,29.37890399611807,2008-06-20,04:52:17,2008-06-20,05:00:52,312
445427.44000000006,4426767.0200000005,39619.5174884259,39619.5177199074,39.99912499025555,2008-06-20,12:25:11,2008-06-20,12:25:31,-1
441602.97619047627,4426418.452380952,39620.0768055556,39620.0778472222,42.13039282938744,2008-06-21,01:50:36,2008-06-21,01:52:06,-1
440829.9571428572,4426571.785714286,39620.4508912037,39620.451412037,16.211415730874297,2008-06-21,10:49:17,2008-06-21,10:50:02,-1
440871.5272727273,4425973.554545454,39620.5430324074,39620.5435532407,48.040087426885165,2008-06-21,13:01:58,2008-06-21,13:02:43,-1
444612.8888888889,4426308.477777778,39620.6798958333,39620.6803587963,32.43763246577145,2008-06-21,16:19:03,2008-06-21,16:19:43,-1
440012.6818181819,4426952.527272727,39624.3088773148,39624.3094560185,48.014997656980974,2008-06-25,07:24:47,2008-06-25,07:25:37,-1
444772.10000000003,4426294.987500001,39624.5443055556,39624.5447106481,42.3987028101923,2008-06-25,13:03:48,2008-06-25,13:04:23,311
463386.8,4438763.5,39626.0049305556,39626.0049305556,0.0,2008-06-27,00:07:06,2008-06-27,00:07:06,-1
395846.5310077519,3990483.3612403106,39626.2280208333,39626.2345949074,32.38780634735544,2008-06-27,05:28:21,2008-06-27,05:37:49,-1
376002.6382352941,4041178.779411765,39628.0450810185,39628.0468171296,49.48130960265297,2008-06-29,01:04:55,2008-06-29,01:07:25,-1
376470.3,4042712.4,39628.1145717593,39628.1145717593,0.0,2008-06-29,02:44:59,2008-06-29,02:44:59,-1
444746.1354838709,4426289.109677418,39628.3970138889,39628.4019907407,35.001285690671324,2008-06-29,09:31:42,2008-06-29,09:38:52,311
444741.9907949789,4426319.546443515,39630.4614467593,39630.4786342593,21.005951537411022,2008-07-01,11:04:29,2008-07-01,11:29:14,311
442776.9600628934,4426000.188364787,39631.4271180556,39631.4844097222,49.77750495904129,2008-07-02,10:15:03,2008-07-02,11:37:33,-1
442769.0405895686,4426038.339682545,39631.484525463,39631.5090046296,49.64121271694552,2008-07-02,11:37:43,2008-07-02,12:12:58,313
444721.0191943127,4426282.37914692,39631.5329050926,39631.6044328704,34.90701935141412,2008-07-02,12:47:23,2008-07-02,14:30:23,311
444724.2917808221,4426284.986986301,39631.6049537037,39632.2712615741,47.18612084065927,2008-07-02,14:31:08,2008-07-03,06:30:37,311
440384.5882352941,4426377.105882353,39632.4294791667,39632.4302893518,41.874335815635895,2008-07-03,10:18:27,2008-07-03,10:19:37,-1
444729.8662650604,4426289.5830120435,39632.4984027778,39632.6259490741,48.382744858094064,2008-07-03,11:57:42,2008-07-03,15:01:22,311
439952.65294117643,4427091.049999999,39632.6352662037,39632.6369444444,44.962762370777455,2008-07-03,15:14:47,2008-07-03,15:17:12,-1
445373.8287234043,4426864.008510639,39632.8036342593,39632.8121412037,34.0248438644466,2008-07-03,19:17:14,2008-07-03,19:29:29,312
449953.05000000005,4422063.6,39635.4022106482,39635.4027893519,44.538185863181305,2008-07-06,09:39:11,2008-07-06,09:40:01,-1
444693.8,4426194.678947367,39635.4986805556,39635.4998958333,15.195394039534388,2008-07-06,11:58:06,2008-07-06,11:59:51,-1
444728.29205955367,4426306.3091811435,39636.288287037,39636.3271759259,38.94932605340716,2008-07-07,06:55:08,2008-07-07,07:51:08,311
444735.7896073901,4426304.320323322,39636.3315740741,39636.4385763889,49.99079915330506,2008-07-07,07:57:28,2008-07-07,10:31:33,311
444730.4634545455,4426291.139,39636.5077893519,39636.6157175926,48.947012166215956,2008-07-07,12:11:13,2008-07-07,14:46:38,311
445406.8083333333,4426871.6,39636.6967939815,39636.6973726852,45.10399095428054,2008-07-07,16:43:23,2008-07-07,16:44:13,312
444651.3679999999,4426269.752,39637.5574652778,39637.5587384259,9.679876032142582,2008-07-08,13:22:45,2008-07-08,13:24:35,-1
441053.8622950821,4425616.918032786,39638.115462963,39638.1184722222,23.669811997593136,2008-07-09,02:46:16,2008-07-09,02:50:36,-1
445376.40350877173,4426861.85263158,39638.1913888889,39638.198275463,11.415778554209814,2008-07-09,04:35:36,2008-07-09,04:45:31,312
442759.94104477577,4426051.811194027,39638.4478819444,39638.5000810185,49.84826977937238,2008-07-09,10:44:57,2008-07-09,12:00:07,313
444719.02619047614,4426274.6619047625,39638.796087963,39638.8061111111,46.08307715437283,2008-07-09,19:06:22,2008-07-09,19:20:48,311
445435.50000000006,4426783.7625,39639.0527199074,39639.053125,42.02594436758493,2008-07-10,01:15:55,2008-07-10,01:16:30,-1
444721.02649800264,4426285.490812248,39639.3059606481,39639.3751851852,4.701063709602991,2008-07-10,07:20:35,2008-07-10,09:00:16,311
440839.31621621625,4426133.832432432,39639.4075,39639.4118402778,31.681224723549793,2008-07-10,09:46:48,2008-07-10,09:53:03,-1
444728.17142857146,4426292.285714285,39639.5972800926,39639.597650463,16.137533888053692,2008-07-10,14:20:05,2008-07-10,14:20:37,311
450353.92500000005,4419412.1,39640.1164467593,39640.1166203704,46.3130651106691,2008-07-11,02:47:41,2008-07-11,02:47:56,-1
453642.53125,4425227.325000001,39640.3234490741,39640.3250694444,48.386981719941936,2008-07-11,07:45:46,2008-07-11,07:48:06,-1
442794.53199381806,4426034.225502318,39640.4872222222,39640.5485069444,47.86115335001788,2008-07-11,11:41:36,2008-07-11,13:09:51,313
445513.8666666667,4426877.899999999,39640.5894212963,39640.589537037,43.30357952870289,2008-07-11,14:08:46,2008-07-11,14:08:56,-1
446979.9382352941,4427961.005882351,39644.5567592593,39644.5584375,32.330326320958875,2008-07-15,13:21:44,2008-07-15,13:24:09,314
444706.80000000005,4426311.954545454,39645.3799884259,39645.5556365741,45.8450651654458,2008-07-16,09:07:11,2008-07-16,13:20:07,-1
447080.1500000001,4427944.70673077,39645.6602662037,39645.6659375,21.14048249245668,2008-07-16,15:50:47,2008-07-16,15:58:57,-1
449591.79230769223,4426474.084615385,39646.0824537037,39646.0830902778,47.41951075239731,2008-07-17,01:58:44,2008-07-17,01:59:39,-1
435484.1153846154,4417813.653846153,39646.1596527778,39646.1602893519,18.278402556510095,2008-07-17,03:49:54,2008-07-17,03:50:49,-1
435529.1615384615,4417642.5,39646.3152314815,39646.3159259259,48.12660386935728,2008-07-17,07:33:56,2008-07-17,07:34:56,-1
447025.28571428574,4427997.928571428,39646.573912037,39646.5769212963,35.141570824143564,2008-07-17,13:46:26,2008-07-17,13:50:46,-1
447019.8710526315,4427961.80460526,39647.2745949074,39647.3611111111,48.8267344801056,2008-07-18,06:35:25,2008-07-18,08:40:00,314
447029.4445562669,4427951.740805122,39647.3626736111,39647.4171296296,33.68857373064098,2008-07-18,08:42:15,2008-07-18,10:00:40,314
440188.3375,4425956.46875,39648.2492592593,39648.2500694444,48.20663854717457,2008-07-19,05:58:56,2008-07-19,06:00:06,-1
442784.6412499994,4426063.039062501,39648.4157523148,39648.5131481481,49.68581286401003,2008-07-19,09:58:41,2008-07-19,12:18:56,313
442577.93333333335,4426008.3,39648.5247800926,39648.5250694444,48.33425286500462,2008-07-19,12:35:41,2008-07-19,12:36:06,-1
447003.0529411766,4427968.782352941,39648.7294675926,39648.7303356482,33.81198012486045,2008-07-19,17:30:26,2008-07-19,17:31:41,314
447003.4068965517,4419326.355172414,39649.245462963,39649.3140393518,48.37354648964113,2008-07-20,05:53:28,2008-07-20,07:32:13,-1
447019.1933333333,4427965.816666667,39649.4550115741,39649.4622453704,26.0541743301797,2008-07-20,10:55:13,2008-07-20,11:05:38,314
449731.3705882352,4419438.852941177,39650.2367592593,39650.2375694444,37.19274122719539,2008-07-21,05:40:56,2008-07-21,05:42:06,-1
453545.95,4425266.825,39650.3549305556,39650.3551041667,15.99999999983702,2008-07-21,08:31:06,2008-07-21,08:31:21,-1
453694.2666666666,4425266.733333333,39650.4024421296,39650.4025578704,44.568374437476365,2008-07-21,09:39:31,2008-07-21,09:39:41,-1
447023.3350364965,4427987.166788323,39650.5448611111,39650.5830555556,44.79397280885008,2008-07-21,13:04:36,2008-07-21,13:59:36,314
447022.60487288155,4427972.46440678,39650.6832291667,39650.7343287037,39.2195104510894,2008-07-21,16:23:51,2008-07-21,17:37:26,314
447003.71800486604,4427969.595133819,39650.7346759259,39650.7705555556,33.60074403935221,2008-07-21,17:37:56,2008-07-21,18:29:36,314
446997.2147540983,4427980.838797816,39650.7955555556,39650.8102546296,46.52956049602022,2008-07-21,19:05:36,2008-07-21,19:26:46,314
447015.6150326791,4427971.199673202,39650.8757060185,39650.925474537,46.64000428806543,2008-07-21,21:01:01,2008-07-21,22:12:41,314
447009.22995049536,4427974.213861385,39650.9276736111,39650.9773842593,49.99849997745276,2008-07-21,22:15:51,2008-07-21,23:27:26,314
447028.2652928416,4427953.150108458,39651.0771527778,39651.1235069444,49.32930163687173,2008-07-22,01:51:06,2008-07-22,02:57:51,314
447035.6000000001,4427975.357575757,39651.1243171296,39651.1258796296,39.60934233248562,2008-07-22,02:59:01,2008-07-22,03:01:16,314
443060.9461538461,4425172.156410257,39651.2270138889,39651.2295601852,6.140032573334325,2008-07-22,05:26:54,2008-07-22,05:30:34,-1
447019.43541666644,4427958.261607142,39651.4315277778,39651.4663657407,46.35536646354043,2008-07-22,10:21:24,2008-07-22,11:11:34,314
447163.7,4427011.890909092,39651.538599537,39651.5391898148,32.323366161882916,2008-07-22,12:55:35,2008-07-22,12:56:26,-1
447027.00240963855,4427947.987148592,39652.3650115741,39652.3840509259,27.448861542816704,2008-07-23,08:45:37,2008-07-23,09:13:02,314
442809.81270207884,4426041.495150119,39652.4527430556,39652.5000231481,29.12335832292301,2008-07-23,10:51:57,2008-07-23,12:00:02,-1
447018.44835164817,4427977.906593408,39652.6921527778,39652.6988078704,18.99736823893123,2008-07-23,16:36:42,2008-07-23,16:46:17,314
440809.5733333333,4426338.406666666,39653.1574652778,39653.158275463,48.19180428274649,2008-07-24,03:46:45,2008-07-24,03:47:55,-1
446262.075,4427942.2125,39653.4412384259,39653.4417361111,16.26929623573297,2008-07-24,10:35:23,2008-07-24,10:36:06,-1
448907.31000000006,4418369.58,39654.1827083333,39654.1831712963,46.86843287352746,2008-07-25,04:23:06,2008-07-25,04:23:46,-1
449197.5333333334,4418272.166666667,39654.2525810185,39654.2526967593,27.36457564127918,2008-07-25,06:03:43,2008-07-25,06:03:53,-1
447020.6790960453,4427924.575141244,39654.35375,39654.3882407407,40.078423122821135,2008-07-25,08:29:24,2008-07-25,09:19:04,-1
442786.41065759654,4426050.726530611,39655.436875,39655.5023263889,48.877397639399746,2008-07-26,10:29:06,2008-07-26,12:03:21,313
441891.7888888891,4427087.518518518,39655.5627430556,39655.5641319444,24.639805193661207,2008-07-26,13:30:21,2008-07-26,13:32:21,-1
447003.70909090905,4427951.081818182,39655.737337963,39655.7378009259,11.1803398876593,2008-07-26,17:41:46,2008-07-26,17:42:26,314
440169.27,4425942.09,39656.2137847222,39656.2143055556,41.58088503096566,2008-07-27,05:07:51,2008-07-27,05:08:36,-1
440228.4,4425790.8,39656.3205671296,39656.3205671296,0.0,2008-07-27,07:41:37,2008-07-27,07:41:37,-1
448079.72500000003,4421193.602941178,39656.5126041667,39656.5539814815,41.326988760629554,2008-07-27,12:18:09,2008-07-27,13:17:44,-1
447871.00810810836,4421034.481081083,39656.5806597222,39656.5861574074,47.245105567020076,2008-07-27,13:56:09,2008-07-27,14:04:04,-1
447013.05243902444,4427921.409756097,39656.7799652778,39656.7877199074,8.98888202178576,2008-07-27,18:43:09,2008-07-27,18:54:19,-1
447014.1318181818,4427990.50909091,39658.5617592593,39659.3893981481,47.96415328157636,2008-07-29,13:28:56,2008-07-30,09:20:44,314
442799.7890776701,4426058.367475727,39659.4420601852,39659.479849537,30.161730719649405,2008-07-30,10:36:34,2008-07-30,11:30:59,-1
446939.28333333327,4428025.3,39659.5844212963,39659.5847106481,33.514922049737784,2008-07-30,14:01:34,2008-07-30,14:01:59,-1
463404.7,4438386.0,39660.0125231481,39660.0125231481,0.0,2008-07-31,00:18:02,2008-07-31,00:18:02,-1
364903.08947368414,4001009.454385964,39660.3455671296,39660.3485763889,46.462457963307344,2008-07-31,08:17:37,2008-07-31,08:21:57,-1
651763.4,4595565.5,39663.8441550926,39663.8441550926,0.0,2008-08-03,20:15:35,2008-08-03,20:15:35,-1
678958.3,3808634.4,39667.6202893518,39667.6202893518,0.0,2008-08-07,14:53:13,2008-08-07,14:53:13,-1
440626.7720000001,4424768.824000001,39678.4958333333,39678.4963888889,47.4140274601895,2008-08-18,11:54:00,2008-08-18,11:54:48,-1
440594.3,4424784.422222223,39679.5038773148,39679.5060763889,41.36568626280056,2008-08-19,12:05:35,2008-08-19,12:08:45,315
449891.89125000004,4431242.803750001,39680.1772222222,39680.1790509259,7.629547824089262,2008-08-20,04:15:12,2008-08-20,04:17:50,-1
449555.2444444444,4431310.777777779,39682.0426041667,39682.0427893519,25.124689052802225,2008-08-22,01:01:21,2008-08-22,01:01:37,-1
441223.2047619047,4424314.371428572,39682.4144212963,39682.4148842593,37.72346749703438,2008-08-22,09:56:46,2008-08-22,09:57:26,-1
449404.39999999997,4431304.066666666,39685.0465856481,39685.0468634259,43.30404138185033,2008-08-25,01:07:05,2008-08-25,01:07:29,-1
440565.7840236688,4424789.451479289,39685.4356712963,39685.4431944444,24.633716731299067,2008-08-25,10:27:22,2008-08-25,10:38:12,315
449523.13404255314,4431273.353191488,39687.0268287037,39687.0278935185,49.6729302537016,2008-08-27,00:38:38,2008-08-27,00:40:10,-1
441040.8,4425596.927586206,39687.4653703704,39687.4666898148,49.26662156049664,2008-08-27,11:10:08,2008-08-27,11:12:02,-1
440657.3833333333,4424812.783333333,39687.5739351852,39687.5748611111,31.563586614973378,2008-08-27,13:46:28,2008-08-27,13:47:48,-1
440572.7407407407,4424809.540740741,39691.5468287037,39691.5481018518,41.05849485826156,2008-08-31,13:07:26,2008-08-31,13:09:16,-1
449764.9,4431330.1,39692.0652083333,39692.0652083333,0.0,2008-09-01,01:33:54,2008-09-01,01:33:54,-1
440548.625,4424762.858333333,39692.5340625,39692.5343171296,25.46075411294803,2008-09-01,12:49:03,2008-09-01,12:49:25,-1
440513.8,4420957.8,39693.4213078704,39693.4213078704,0.0,2008-09-02,10:06:41,2008-09-02,10:06:41,-1
447000.7666666668,4427967.0125,39723.6151851852,39723.6205671296,35.97360143263526,2008-10-02,14:45:52,2008-10-02,14:53:37,314
440127.43333333335,4426529.166666667,39724.2185763889,39724.2186921296,31.53284002448658,2008-10-03,05:14:45,2008-10-03,05:14:55,-1
446457.1,4427992.314285714,39724.3100115741,39724.3103587963,35.106979363083916,2008-10-03,07:26:25,2008-10-03,07:26:55,-1
440819.3875,4425732.925000001,39726.4495949074,39726.45,6.420280367917607,2008-10-05,10:47:25,2008-10-05,10:48:00,-1
446991.0768831163,4427971.635844154,39726.9350347222,39726.9970717593,48.578287331204244,2008-10-05,22:26:27,2008-10-05,23:55:47,314
446990.1473684211,4427888.421052632,39727.0224768519,39727.0235185185,49.81445573306483,2008-10-06,00:32:22,2008-10-06,00:33:52,-1
444730.64444444433,4426284.685555556,39727.1757175926,39727.1838194444,43.945534471638524,2008-10-06,04:13:02,2008-10-06,04:24:42,311
447028.29893617047,4427962.87101064,39727.6026273148,39727.6423842593,6.637017402048824,2008-10-06,14:27:47,2008-10-06,15:25:02,314
450405.88076923066,4419414.403846153,39728.0368055556,39728.0399305556,46.69582422444217,2008-10-07,00:53:00,2008-10-07,00:57:30,-1
450301.35090909083,4419560.243636364,39728.114849537,39728.1245138889,45.57027539962313,2008-10-07,02:45:23,2008-10-07,02:59:18,-1
447017.33125,4427891.8875,39728.495462963,39728.4962731482,47.12218161373016,2008-10-07,11:53:28,2008-10-07,11:54:38,-1
446977.1333333333,4427879.533333334,39729.3026273148,39729.3029166667,49.43885111921557,2008-10-08,07:15:47,2008-10-08,07:16:12,-1
440670.975862069,4424784.041379309,39730.4280324074,39730.4286805556,41.01536297480992,2008-10-09,10:16:22,2008-10-09,10:17:18,-1
449680.89999999997,4419404.284615384,39731.0793055556,39731.0799421296,41.593268686290074,2008-10-10,01:54:12,2008-10-10,01:55:07,-1
450652.47142857144,4417278.128571429,39731.20875,39731.2090972222,45.3131327549376,2008-10-10,05:00:36,2008-10-10,05:01:06,-1
683991.0913043479,4857448.443222508,39731.6139930556,39731.6642824074,48.95160875795234,2008-10-10,14:44:09,2008-10-10,15:56:34,316
684002.993822394,4857455.206949805,39731.6643402778,39731.7007407407,49.50838312884273,2008-10-10,15:56:39,2008-10-10,16:49:04,316
683996.0370078747,4857451.0456693005,39731.7468055556,39731.8463425926,43.538029353597416,2008-10-10,17:55:24,2008-10-10,20:18:44,316
683986.4801652881,4857440.686363639,39731.8664236111,39731.9208796296,39.996249823998525,2008-10-10,20:47:39,2008-10-10,22:06:04,316
683997.2333873579,4857450.678768229,39731.9617939815,39732.0161921296,48.79846309049586,2008-10-10,23:04:59,2008-10-11,00:23:19,316
684025.263888889,4857175.4472222235,39732.0201273148,39732.0843634259,45.38942608153141,2008-10-11,00:28:59,2008-10-11,02:01:29,-1
683995.6635164825,4857452.910329667,39732.1046759259,39732.1283564815,49.92884937592773,2008-10-11,02:30:44,2008-10-11,03:04:50,316
440566.1855421687,4424787.257831326,39732.1877893518,39732.1901041667,35.24769496002565,2008-10-11,04:30:25,2008-10-11,04:33:45,315
440395.2346153846,4424177.407692307,39733.4360416667,39733.4366203704,45.4973625604014,2008-10-12,10:27:54,2008-10-12,10:28:44,-1
440589.0227272728,4424777.472727273,39733.5284490741,39733.5294444444,48.21711314493014,2008-10-12,12:40:58,2008-10-12,12:42:24,315
440568.33846153837,4424769.115384615,39738.4268634259,39751.2097222222,48.05424018754391,2008-10-17,10:14:41,2008-10-30,05:02:00,-1
440594.1313031162,4424793.485835691,39751.2242824074,39751.254212963,22.244100341473917,2008-10-30,05:22:58,2008-10-30,06:06:04,315