442242.30000000005,4424234.425,39365.6472453704,39365.6479050926,18.501081049497472,2007-10-10,15:32:02,2007-10-10,15:32:59,-1
442837.5999999999,4425243.866666667,39366.0563194444,39366.0570601852,46.31759924676173,2007-10-11,01:21:06,2007-10-11,01:22:10,323
442844.75,4425279.25,39367.0422800926,39367.0424421296,47.957689686524645,2007-10-12,01:00:53,2007-10-12,01:01:07,-1
443673.8833333333,4424422.416666667,39368.3325925926,39368.4163773148,48.756230371280466,2007-10-13,07:58:56,2007-10-13,09:59:35,-1
442855.43999999994,4425244.96,39370.0590509259,39370.6330439815,37.293699199988964,2007-10-15,01:25:02,2007-10-15,15:11:35,323
442531.2,4424187.4,39370.6373263889,39370.6373263889,0.0,2007-10-15,15:17:45,2007-10-15,15:17:45,-1
442855.525,4425246.375,39371.0647453704,39372.4925578704,21.609257275508888,2007-10-16,01:33:14,2007-10-17,11:49:17,323
443691.275,4424419.675,39372.5005787037,39372.5882986111,49.82258524001781,2007-10-17,12:00:50,2007-10-17,14:07:09,-1
442228.3,4424286.800000001,39372.6354513889,39373.0498726852,39.48024822661915,2007-10-17,15:15:03,2007-10-18,01:11:49,324
442850.54000000004,4425233.92,39373.0556712963,39373.6330902778,22.87116088020611,2007-10-18,01:20:10,2007-10-18,15:11:39,323
442245.0166666666,4424266.949999999,39373.6401388889,39373.6415740741,39.51531348717929,2007-10-18,15:21:48,2007-10-18,15:23:52,324
442849.06666666665,4425253.0,39374.0530902778,39374.0536458333,43.145335785513296,2007-10-19,01:16:27,2007-10-19,01:17:15,323
431507.8083333333,4427169.008333333,39374.4010300926,39374.4749884259,49.421655172729,2007-10-19,09:37:29,2007-10-19,11:23:59,-1
442853.44999999995,4425395.75,39374.4937962963,39374.4945138889,16.916855499033442,2007-10-19,11:51:04,2007-10-19,11:52:06,-1
442844.6666666667,4425235.833333333,39377.0310416667,39377.0316666667,39.748459089483454,2007-10-22,00:44:42,2007-10-22,00:45:36,323
443127.1333333333,4425261.433333334,39377.4263773148,39377.4281018519,32.2601921882508,2007-10-22,10:13:59,2007-10-22,10:16:28,-1
442214.99999999994,4424254.525,39377.6411805556,39377.6417013889,26.899999999991042,2007-10-22,15:23:18,2007-10-22,15:24:03,324
442854.3333333333,4425263.466666667,39378.0633217593,39378.0637037037,35.141143976454266,2007-10-23,01:31:11,2007-10-23,01:31:44,323
442218.62,4424261.92,39378.6429861111,39378.643587963,33.5715653494305,2007-10-23,15:25:54,2007-10-23,15:26:46,324
442842.86,4425237.3,39379.0546180556,39381.6300925926,35.99236030049311,2007-10-24,01:18:39,2007-10-26,15:07:20,323
442214.52,4424246.76,39381.6338888889,39382.2284027778,17.41952927049587,2007-10-26,15:12:48,2007-10-27,05:28:54,324
442840.89999999997,4425242.633333333,39382.2333449074,39382.2339699074,22.257582977681604,2007-10-27,05:36:01,2007-10-27,05:36:55,323
442848.5,4425240.066666667,39385.08375,39385.0843055556,26.038625155709155,2007-10-30,02:00:36,2007-10-30,02:01:24,323
442216.1666666667,4424252.066666666,39385.6391782407,39385.6394791667,36.90541965661473,2007-10-30,15:20:25,2007-10-30,15:20:51,324
442226.3,4424330.3,39387.6333912037,39387.6333912037,0.0,2007-11-01,15:12:05,2007-11-01,15:12:05,-1
442864.7,4425252.266666667,39388.5575115741,39388.5581134259,33.53937983996754,2007-11-02,13:22:49,2007-11-02,13:23:41,323
442245.1,4424369.0,39388.6278356481,39388.6278356481,0.0,2007-11-02,15:04:05,2007-11-02,15:04:05,-1
442838.8666666667,4425221.666666667,39389.2429976852,39389.2435069444,49.746256140476824,2007-11-03,05:49:55,2007-11-03,05:50:39,323
442223.42000000004,4424255.220000001,39390.6185648148,39390.6190972222,37.348360070784224,2007-11-04,14:50:44,2007-11-04,14:51:30,324
442833.375,4425234.025,39394.0493518518,39394.050162037,23.331095130585656,2007-11-08,01:11:04,2007-11-08,01:12:14,323
442229.06666666665,4424264.899999999,39394.6326388889,39394.6334375,45.89999999998904,2007-11-08,15:11:00,2007-11-08,15:12:09,324
442852.975,4425243.15,39395.0604166667,39395.0609375,39.401142114698615,2007-11-09,01:27:00,2007-11-09,01:27:45,323
432242.6,4424394.8,39414.5502893519,39414.5502893519,0.0,2007-11-28,13:12:25,2007-11-28,13:12:25,-1
442836.45,4425374.2,39414.7630439815,39414.7634722222,38.23885458546704,2007-11-28,18:18:47,2007-11-28,18:19:24,-1
431466.60000000003,4426750.744444445,39584.2554050926,39584.2560069444,48.769252608337766,2008-05-16,06:07:47,2008-05-16,06:08:39,-1