443983.56666666665,4425596.7,39294.5262152778,39294.5265740741,36.19419842990894,2007-07-31,12:37:45,2007-07-31,12:38:16,-1
443435.89999999997,4425396.975000001,39294.6570486111,39294.6574537037,22.67377339553272,2007-07-31,15:46:09,2007-07-31,15:46:44,-1
455464.8666666667,4428854.433333334,39295.0355439815,39295.0359490741,46.41228285716388,2007-08-01,00:51:11,2007-08-01,00:51:46,-1
451161.4,4426598.7,39295.5011342593,39295.5011342593,0.0,2007-08-01,12:01:38,2007-08-01,12:01:38,-1
443656.6,4425364.8,39295.6410763889,39295.6411805556,18.918773744970938,2007-08-01,15:23:09,2007-08-01,15:23:18,-1
443999.3,4425673.666666667,39296.0200347222,39296.0203240741,33.551453023496336,2007-08-02,00:28:51,2007-08-02,00:29:16,-1
452809.80000000005,4418179.833333333,39296.1327430556,39296.1330555556,42.670833129730255,2007-08-02,03:11:09,2007-08-02,03:11:36,-1
453406.20000000007,4417238.342857143,39296.1909143519,39296.1999421296,38.72492737212999,2007-08-02,04:34:55,2007-08-02,04:47:55,-1
443446.5,4425375.58,39296.654212963,39296.6571064815,37.773270972968454,2007-08-02,15:42:04,2007-08-02,15:46:14,-1
443784.56666666665,4425887.366666666,39297.0081944444,39297.0085532407,35.201278386063,2007-08-03,00:11:48,2007-08-03,00:12:19,-1
444008.06666666665,4425636.0,39297.1782291667,39297.1785763889,27.54650613055777,2007-08-03,04:16:39,2007-08-03,04:17:09,-1
444209.32499999995,4425573.0,39297.4530439815,39297.523900463,38.374210089436126,2007-08-03,10:52:23,2007-08-03,12:34:25,-1
443466.60000000003,4425360.633333333,39297.5881597222,39297.5885185185,33.61621632468348,2007-08-03,14:06:57,2007-08-03,14:07:28,-1
443993.83999999997,4425682.000000001,39298.1914236111,39298.1926388889,15.285614151721115,2007-08-04,04:35:39,2007-08-04,04:37:24,-1
446164.53333333327,4422999.066666666,39298.3433564815,39298.343900463,38.56319488822119,2007-08-04,08:14:26,2007-08-04,08:15:13,-1
446163.775,4423010.2,39298.4380671296,39298.4396643518,45.181080110899366,2007-08-04,10:30:49,2007-08-04,10:33:07,-1
445657.5,4425033.9,39298.5345023148,39298.5345023148,0.0,2007-08-04,12:49:41,2007-08-04,12:49:41,-1
443475.3,4425386.5,39298.6694907407,39298.6695833333,11.400000000023283,2007-08-04,16:04:04,2007-08-04,16:04:12,-1
444102.4,4425735.58,39299.1034606481,39299.1044097222,42.937745632398965,2007-08-05,02:28:59,2007-08-05,02:30:21,-1
444106.9,4425722.675,39299.1965740741,39299.1971527778,48.206327385149734,2007-08-05,04:43:04,2007-08-05,04:43:54,-1
444085.85,4425663.2,39299.497650463,39299.4977777778,20.989759408207007,2007-08-05,11:56:37,2007-08-05,11:56:48,-1
443461.925,4425403.7,39299.6654398148,39299.6675925926,49.627109526811395,2007-08-05,15:58:14,2007-08-05,16:01:20,-1
455409.0333333334,4428873.266666667,39300.0253356481,39300.0257407407,45.82979380254823,2007-08-06,00:36:29,2007-08-06,00:37:04,-1
444113.07999999996,4425634.1,39300.5335300926,39300.5353240741,48.42354799076435,2007-08-06,12:48:17,2007-08-06,12:50:52,-1
443494.06666666665,4425354.3,39300.6772685185,39300.6776851852,40.23742039450088,2007-08-06,16:15:16,2007-08-06,16:15:52,-1
455470.3666666667,4428822.333333333,39301.0275,39301.0277083333,28.21790211939147,2007-08-07,00:39:36,2007-08-07,00:39:54,-1
443968.3666666667,4425656.0,39301.4491087963,39301.4493981482,49.13857954794609,2007-08-07,10:46:43,2007-08-07,10:47:08,-1
443469.55000000005,4425422.15,39301.6449189815,39301.6457407407,29.585300404079003,2007-08-07,15:28:41,2007-08-07,15:29:52,-1
455449.1499999999,4428840.666666666,39302.0211458333,39302.0223032407,24.35836611908657,2007-08-08,00:30:27,2007-08-08,00:32:07,-1
444091.65,4425591.0,39302.4661342593,39302.4662037037,18.553975315022537,2007-08-08,11:11:14,2007-08-08,11:11:20,-1
443503.6666666667,4425368.399999999,39302.5960416667,39302.5964583333,41.30193700057343,2007-08-08,14:18:18,2007-08-08,14:18:54,-1
443979.3666666667,4425606.0,39303.0433101852,39303.0436574074,29.064239195446252,2007-08-09,01:02:22,2007-08-09,01:02:52,-1
443994.43333333335,4425593.25,39303.435162037,39303.6610416667,11.175866856387454,2007-08-09,10:26:38,2007-08-09,15:51:54,-1
443503.73333333334,4425375.8,39303.6668634259,39303.6671990741,47.511367060813264,2007-08-09,16:00:17,2007-08-09,16:00:46,-1
455452.10000000003,4428829.757142858,39304.0221180556,39304.023275463,8.508818954774057,2007-08-10,00:31:51,2007-08-10,00:33:31,-1