442878.25384615373,4425467.503846153,40611.4533912037,40611.454537037,33.841542517980734,2011-03-09,10:52:53,2011-03-09,10:54:32,-1
442182.0583333333,4435603.433333334,40611.5652893518,40611.5666319444,46.31133770470342,2011-03-09,13:34:01,2011-03-09,13:35:57,-1
442867.77999999997,4425284.0600000005,40612.0777893519,40612.0786458333,42.988486830604124,2011-03-10,01:52:01,2011-03-10,01:53:15,-1
442685.8,4425392.95,40612.1567939815,40612.1568055556,42.09049773982858,2011-03-10,03:45:47,2011-03-10,03:45:48,-1
442809.6714285714,4425631.385714286,40612.4571064815,40612.4574189815,48.38729171985778,2011-03-10,10:58:14,2011-03-10,10:58:41,-1
442201.39999999997,4435915.2,40612.5812847222,40612.5813078704,23.58495283014151,2011-03-10,13:57:03,2011-03-10,13:57:05,-1
442896.86666666664,4425278.875,40613.066712963,40613.0672916667,47.65679384950927,2011-03-11,01:36:04,2011-03-11,01:36:54,-1
442827.8727272728,4425356.945454546,40613.1561458333,40613.1565509259,32.6496554346447,2011-03-11,03:44:51,2011-03-11,03:45:26,-1
442888.309090909,4425421.463636363,40613.4619791667,40613.4630787037,37.59694136504053,2011-03-11,11:05:15,2011-03-11,11:06:50,-1
442163.91538461536,4435570.799999999,40613.6178587963,40613.6185532407,40.11383801119852,2011-03-11,14:49:43,2011-03-11,14:50:43,-1
429382.01428571425,4427101.242857141,40614.2084606481,40614.2110648148,47.29746293403056,2011-03-12,05:00:11,2011-03-12,05:03:56,-1
441545.8256830604,4426350.585792351,40614.4392939815,40614.4814236111,20.18960128375349,2011-03-12,10:32:35,2011-03-12,11:33:15,-1
442668.1,4425540.2,40784.4990393519,40784.4990393519,0.0,2011-08-29,11:58:37,2011-08-29,11:58:37,-1