442859.32,4425350.4799999995,40402.6625231481,40402.6627546296,38.10052493039457,2010-08-12,15:54:02,2010-08-12,15:54:22,-1
443275.1,4425211.2,40436.6941550926,40436.6941550926,0.0,2010-09-15,16:39:35,2010-09-15,16:39:35,-1
245330.9339853301,3356922.920782398,40474.6744328704,40474.7104976852,39.84595337052976,2010-10-23,16:11:11,2010-10-23,17:03:07,-1
245220.0,3355702.0,40474.8013310185,40474.8013888889,18.660117898529776,2010-10-23,19:13:55,2010-10-23,19:14:00,-1
245305.46985871272,3356943.1813186808,40475.3736805556,40475.4303935185,43.44951092934912,2010-10-24,08:58:06,2010-10-24,10:19:46,-1
245300.58842975184,3356937.9198347065,40475.4329976852,40475.4876851852,25.317977802147528,2010-10-24,10:23:31,2010-10-24,11:42:16,-1
245312.95416666672,3356936.4816176463,40475.5068981481,40475.5596180556,48.040191506730814,2010-10-24,12:09:56,2010-10-24,13:25:51,-1
228368.72105263153,3349449.221052632,40475.8099652778,40475.8112384259,47.91179395486403,2010-10-24,19:26:21,2010-10-24,19:28:11,-1
290081.7,3408466.2,40475.8820138889,40475.8820138889,0.0,2010-10-24,21:10:06,2010-10-24,21:10:06,-1
442850.60000000003,4425243.178571428,40510.6825925926,40510.6833449074,49.55199289610858,2010-11-28,16:22:56,2010-11-28,16:24:01,351
442963.1444444444,4425580.899999999,40517.6615740741,40517.662037037,48.56439024619195,2010-12-05,15:52:40,2010-12-05,15:53:20,352
442857.5083333333,4425249.966666666,40518.8051388889,40518.805775463,47.133958034529485,2010-12-06,19:19:24,2010-12-06,19:20:19,351
442711.52916666673,4425208.579166667,40519.3917361111,40519.3934143518,17.327723451163457,2010-12-07,09:24:06,2010-12-07,09:26:31,-1
442809.0857142857,4425161.228571428,40520.0192592593,40520.0196064815,44.20011312166135,2010-12-08,00:27:44,2010-12-08,00:28:14,-1
448879.2333333334,4428210.5,40523.69875,40523.6993865741,44.04736087477365,2010-12-11,16:46:12,2010-12-11,16:47:07,-1
442845.7866666667,4425249.100000001,40526.4256828704,40526.5223263889,48.967948701256276,2010-12-14,10:12:59,2010-12-14,12:32:09,351
442858.87499999994,4425250.833333333,40526.5779976852,40526.5786342593,48.39855369694679,2010-12-14,13:52:19,2010-12-14,13:53:14,351
442827.31333333324,4425170.760000001,40526.6749884259,40526.6757986111,45.431817044726685,2010-12-14,16:11:59,2010-12-14,16:13:09,-1
442821.47887931066,4425293.338362072,40526.769224537,40526.785625,10.3730419837885,2010-12-14,18:27:41,2010-12-14,18:51:18,-1
442879.9000000001,4425341.366666666,40527.031412037,40527.0315277778,12.229881438768066,2010-12-15,00:45:14,2010-12-15,00:45:24,-1
453087.9749999999,4423464.675,40531.7154861111,40531.7158912037,47.16322720067516,2010-12-19,17:10:18,2010-12-19,17:10:53,-1
456162.04672897194,4412934.503738317,40536.8380671296,40536.8868402778,46.95540437469746,2010-12-24,20:06:49,2010-12-24,21:17:03,-1
453527.1375,4414969.243750001,40536.9161805556,40536.916724537,47.48526087108167,2010-12-24,21:59:18,2010-12-24,22:00:05,-1
445593.89411764714,4425456.276470588,40543.6912847222,40543.7790740741,46.184196431383505,2010-12-31,16:35:27,2010-12-31,18:41:52,-1
442915.44000000006,4425269.71,40543.7946990741,40543.7952199074,48.35917699876374,2010-12-31,19:04:22,2010-12-31,19:05:07,-1
442782.5727272727,4425291.1,40552.6136574074,40552.6140393519,38.92788203833944,2011-01-09,14:43:40,2011-01-09,14:44:13,-1
443014.0950680273,4425584.527210883,40553.965625,40554.0608796296,21.56710458082299,2011-01-10,23:10:30,2011-01-11,01:27:40,353
443013.3569767442,4425585.266279071,40559.6532175926,40559.6601041667,29.684507743382778,2011-01-16,15:40:38,2011-01-16,15:50:33,353
442872.20999999996,4425340.93,40561.8573958333,40561.8579513889,33.85158784975762,2011-01-18,20:34:39,2011-01-18,20:35:27,-1
450903.36153846147,4418015.13076923,40571.8077893518,40571.8084837963,44.200000000009005,2011-01-28,19:23:13,2011-01-28,19:24:13,-1
443010.6462427746,4425581.23063584,40572.7306481482,40572.7396064815,20.31206537977992,2011-01-29,17:32:08,2011-01-29,17:45:02,353
463652.2,4436437.5,40573.3691666667,40573.3691666667,0.0,2011-01-30,08:51:36,2011-01-30,08:51:36,-1
782471.0615384616,2549066.7346153846,40573.6330092593,40573.6773032407,49.18831161973747,2011-01-30,15:11:32,2011-01-30,16:15:19,-1
779113.7666666666,2547620.4666666673,40573.6960416667,40573.6966898148,46.372836876763934,2011-01-30,16:42:18,2011-01-30,16:43:14,-1
777358.1,2546596.9,40574.765,40574.765,0.0,2011-01-31,18:21:36,2011-01-31,18:21:36,-1
779124.7066666665,2547600.1,40575.8017013889,40577.6865046296,15.784802817986655,2011-02-01,19:14:27,2011-02-03,16:28:34,-1
779009.3,2547613.5,40577.8022222222,40577.8022222222,0.0,2011-02-03,19:15:12,2011-02-03,19:15:12,-1
779110.7363636363,2547578.1545454543,40578.822349537,40578.8229282407,43.30935233853645,2011-02-04,19:44:11,2011-02-04,19:45:01,-1
779039.9,2547558.7666666666,40581.7948842593,40581.795,14.822280526319425,2011-02-07,19:04:38,2011-02-07,19:04:48,-1
735803.4,2587577.0,40582.8027893519,40582.8028009259,44.082195952384545,2011-02-08,19:16:01,2011-02-08,19:16:02,-1
443028.83636363636,4425476.636363636,40583.0241087963,40583.0243055556,47.6944441208919,2011-02-09,00:34:43,2011-02-09,00:35:00,354
450960.1625000001,4418009.2125,40607.4124074074,40607.4906712963,32.4784543960109,2011-03-05,09:53:52,2011-03-05,11:46:34,-1
442987.4153846154,4425647.946153846,40607.563599537,40607.5640162037,49.322205952446396,2011-03-05,13:31:35,2011-03-05,13:32:11,-1
443015.6526666666,4425622.6758333305,40614.8762268518,40614.9102662037,25.164459064177976,2011-03-12,21:01:46,2011-03-12,21:50:47,353
443014.4673275179,4425620.914829502,40615.0151967593,40615.0909606481,48.73109890022926,2011-03-13,00:21:53,2011-03-13,02:10:59,353
443007.09479326155,4425655.195865234,40615.1438078704,40615.1810648148,49.70010060340174,2011-03-13,03:27:05,2011-03-13,04:20:44,353
443024.1764275257,4425617.952562222,40615.181099537,40615.2170949074,49.9601841466771,2011-03-13,04:20:47,2011-03-13,05:12:37,353
442996.30434782617,4425644.526086955,40615.2592476852,40615.2631365741,49.846163342833584,2011-03-13,06:13:19,2011-03-13,06:18:55,353
448138.9448818899,4414849.283464565,40621.2229976852,40621.2584837963,49.7467586883717,2011-03-19,05:21:07,2011-03-19,06:12:13,-1
446067.67500000005,4417700.55,40621.3871759259,40621.3875462963,48.46483261105503,2011-03-19,09:17:32,2011-03-19,09:18:04,-1
449642.45714285714,4422172.0476190485,40622.3690625,40622.3697569444,41.8010765411547,2011-03-20,08:51:27,2011-03-20,08:52:27,-1
451121.8617647059,4417671.1,40622.5218287037,40622.5229050926,37.24043501347606,2011-03-20,12:31:26,2011-03-20,12:32:59,-1
441944.53846153844,4418452.711538462,40628.2322453704,40628.2330439815,49.540488491733,2011-03-26,05:34:26,2011-03-26,05:35:35,-1
438255.2185944365,4418382.222254757,40628.4326041667,40628.4794097222,49.258907823874445,2011-03-26,10:22:57,2011-03-26,11:30:21,-1
448371.9677419354,4417580.741935484,40628.5586226852,40628.5596296296,29.068883707497267,2011-03-26,13:24:25,2011-03-26,13:25:52,-1
442959.0714285715,4425595.621428571,40628.6215625,40628.6231712963,49.70975759345953,2011-03-26,14:55:03,2011-03-26,14:57:22,352
442977.145,4425557.525,40640.5555902778,40640.5556365741,42.92936058242391,2011-04-07,13:20:03,2011-04-07,13:20:07,352
440609.71851851844,4425663.9123456795,40641.1488310185,40641.1494097222,45.48285391224824,2011-04-08,03:34:19,2011-04-08,03:35:09,355
443028.7966666666,4425546.426666669,40641.4653240741,40641.4659953704,43.57441910125149,2011-04-08,11:10:04,2011-04-08,11:11:02,353
442902.6217391304,4425726.304347826,40641.6183101852,40641.6189583333,44.14748010877218,2011-04-08,14:50:22,2011-04-08,14:51:18,-1
443014.1,4425624.1,40641.8864699074,40641.8864699074,0.0,2011-04-08,21:16:31,2011-04-08,21:16:31,353
451067.55,4422605.625,40642.1568171296,40642.1568518518,48.24686518350509,2011-04-09,03:45:49,2011-04-09,03:45:52,-1
445938.6525,4417591.1225,40642.2253009259,40642.2257523148,47.88454865630319,2011-04-09,05:24:26,2011-04-09,05:25:05,-1
447730.49821428565,4429225.528571428,40642.269849537,40642.3067476852,48.24987046595121,2011-04-09,06:28:35,2011-04-09,07:21:43,-1
447656.928205128,4428863.416666668,40642.3900694444,40642.3912384259,45.52416940464271,2011-04-09,09:21:42,2011-04-09,09:23:23,-1
443016.1176470588,4425613.282352942,40642.6952662037,40642.7099421296,36.62703919237417,2011-04-09,16:41:11,2011-04-09,17:02:19,353
443023.9272727272,4425602.745454546,40643.2789351852,40643.2791666667,36.21118611718515,2011-04-10,06:41:40,2011-04-10,06:42:00,353
442864.9341074019,4425225.42249636,40644.4847337963,40644.550150463,30.66153942664562,2011-04-11,11:38:01,2011-04-11,13:12:13,351
442912.942857143,4425531.152380954,40644.5614467593,40644.5624189815,27.503636123474077,2011-04-11,13:28:29,2011-04-11,13:29:53,-1
442789.8212121213,4425307.066666666,40645.0471064815,40645.0487731481,46.86800614467402,2011-04-12,01:07:50,2011-04-12,01:10:14,-1
440612.28974358964,4425660.556410256,40645.1043055556,40645.1051851852,43.89282401502845,2011-04-12,02:30:12,2011-04-12,02:31:28,355
443011.01737637393,4425597.26037088,40645.7393402778,40645.8447106481,43.60045871318328,2011-04-12,17:44:39,2011-04-12,20:16:23,353
443030.0313378112,4425594.291142352,40645.8450810185,40645.8829513889,25.079872407968907,2011-04-12,20:16:55,2011-04-12,21:11:27,353
443022.3663190195,4425602.42325154,40645.9219560185,40645.9870949074,47.79037560066692,2011-04-12,22:07:37,2011-04-12,23:41:25,353
443038.5037766826,4425618.898850565,40646.0127893519,40646.0553125,48.76822736167824,2011-04-13,00:18:25,2011-04-13,01:19:39,353
443012.52169625304,4425623.007988168,40646.0565393518,40646.0986226852,43.27227749975835,2011-04-13,01:21:25,2011-04-13,02:22:01,353
440694.2142857142,4425630.780000001,40646.121099537,40646.1226967593,5.977457653725496,2011-04-13,02:54:23,2011-04-13,02:56:41,-1
442911.8,4425615.71,40646.5871643518,40646.5873726852,48.54791447615215,2011-04-13,14:05:31,2011-04-13,14:05:49,-1
440670.0164179103,4425619.408955226,40647.0683680556,40647.0698958333,47.564903027085954,2011-04-14,01:38:27,2011-04-14,01:40:39,-1
441103.8329545453,4425480.70909091,40647.4590856481,40647.4623263889,25.205753311335624,2011-04-14,11:01:05,2011-04-14,11:05:45,-1
452824.776744186,4420674.986046511,40647.5123148148,40647.513287037,39.95209631521713,2011-04-14,12:17:44,2011-04-14,12:19:08,-1
442999.59259259264,4425584.399999999,40649.3435185185,40649.3441203704,47.90876746483883,2011-04-16,08:14:40,2011-04-16,08:15:32,353
440653.85714285716,4425818.621428571,40651.2275810185,40651.2278819444,48.28436599959251,2011-04-18,05:27:43,2011-04-18,05:28:09,-1
443073.81944444444,4425558.576984123,40651.6069097222,40651.6183680556,9.042676595384899,2011-04-18,14:33:57,2011-04-18,14:50:27,-1
440634.5431818182,4425646.029545453,40652.1513310185,40652.1523263889,23.637258724835466,2011-04-19,03:37:55,2011-04-19,03:39:21,355
441146.7647058825,4425464.267647057,40652.217650463,40652.2184143519,46.31133770470217,2011-04-19,05:13:25,2011-04-19,05:14:31,-1
443046.25324675324,4425567.38311688,40652.6049421296,40652.6141435185,12.403628501411369,2011-04-19,14:31:07,2011-04-19,14:44:22,353
440629.66451612895,4425696.377419354,40653.2439236111,40653.2446180556,43.423611089194665,2011-04-20,05:51:15,2011-04-20,05:52:15,-1
442961.6660377359,4425520.077358491,40653.5380208333,40653.539224537,23.58007633603897,2011-04-20,12:54:45,2011-04-20,12:56:29,356
440672.86377171194,4425196.395947077,40655.1773263889,40655.2458449074,20.60218434972934,2011-04-22,04:15:21,2011-04-22,05:54:01,-1
440604.9065217392,4425682.734782608,40655.2942476852,40655.2952893519,43.42038691675016,2011-04-22,07:03:43,2011-04-22,07:05:13,355
443041.4655355246,4425573.862460236,40655.5838194444,40655.6452314815,48.850997942433274,2011-04-22,14:00:42,2011-04-22,15:29:08,353
443021.72938802984,4425606.400605229,40655.6944444444,40655.7633101852,49.04936289083683,2011-04-22,16:40:00,2011-04-22,18:19:10,353
443021.90750870213,4425596.660865254,40655.7770138889,40655.8848842593,43.04880950698178,2011-04-22,18:38:54,2011-04-22,21:14:14,353
443025.2232034633,4425599.5533333225,40655.885787037,40655.958125,49.25413688174132,2011-04-22,21:15:32,2011-04-22,22:59:42,353
443035.58959365654,4425596.171060449,40656.0095833333,40656.0921296296,49.961685319549495,2011-04-23,00:13:48,2011-04-23,02:12:40,353
443037.37390167284,4425569.102092048,40656.0968055556,40656.1426157407,35.18465574646593,2011-04-23,02:19:24,2011-04-23,03:25:22,353
440632.3753246754,4425629.83116883,40656.1879398148,40656.1896990741,46.09772228646444,2011-04-23,04:30:38,2011-04-23,04:33:10,355
442987.73636363633,4425613.036363637,40656.6371412037,40656.6372569444,42.290660907581,2011-04-23,15:17:29,2011-04-23,15:17:39,353
440648.10294117645,4425651.467647059,40658.1070138889,40658.1077777778,34.539832078341085,2011-04-25,02:34:06,2011-04-25,02:35:12,355
442970.60833333334,4425718.374999999,40658.5464351852,40658.5469444444,28.679086456860414,2011-04-25,13:06:52,2011-04-25,13:07:36,-1
440634.18780487805,4425633.770731708,40659.1944328704,40659.1956712963,48.96948029081598,2011-04-26,04:39:59,2011-04-26,04:41:46,355
442952.5655172415,4425536.299999999,40659.4941666667,40659.4946064815,49.289349762400605,2011-04-26,11:51:36,2011-04-26,11:52:14,356
440542.5847457626,4425586.07457627,40660.1672222222,40660.1683912037,32.723080539760694,2011-04-27,04:00:48,2011-04-27,04:02:29,357
443049.8092105265,4425569.231578948,40660.5511921296,40660.5565162037,36.06119798340642,2011-04-27,13:13:43,2011-04-27,13:21:23,353
440639.59423076897,4425658.52115385,40661.047337963,40661.0485069444,45.63474553436235,2011-04-28,01:08:10,2011-04-28,01:09:51,355
440599.2065217392,4425674.780434783,40661.1359953704,40661.1365856482,49.32433476488938,2011-04-28,03:15:50,2011-04-28,03:16:41,355
442951.99999999994,4425534.288888889,40661.4982291667,40661.4987268519,38.629134082596785,2011-04-28,11:57:27,2011-04-28,11:58:10,356
442935.7,4425754.5,40661.5886689815,40661.5886921296,4.49444101014431,2011-04-28,14:07:41,2011-04-28,14:07:43,-1
440612.54749999987,4425669.725000001,40662.0533796296,40662.0542824074,39.26576116655591,2011-04-29,01:16:52,2011-04-29,01:18:10,355
442966.31666666665,4425525.783333334,40662.5083796296,40662.5086458333,16.19289967857598,2011-04-29,12:12:04,2011-04-29,12:12:27,356
443006.25652173907,4425526.595652174,40662.5884490741,40662.5889583333,46.508708862257166,2011-04-29,14:07:22,2011-04-29,14:08:06,-1
437893.5,4418221.4,40663.3104861111,40663.3104861111,0.0,2011-04-30,07:27:06,2011-04-30,07:27:06,-1
439104.11875000014,4417630.270833332,40663.3783101852,40663.3791087963,45.42796495546555,2011-04-30,09:04:46,2011-04-30,09:05:55,-1
451288.2571428571,4425239.964285715,40663.5870717593,40663.5872222222,48.93955455446054,2011-04-30,14:05:23,2011-04-30,14:05:36,-1
440651.73076923075,4425635.061538461,40664.0895717593,40664.090775463,31.624357700455267,2011-05-01,02:08:59,2011-05-01,02:10:43,355
442968.1347826088,4425543.473913046,40664.5872800926,40664.5877893518,47.26192971092829,2011-05-01,14:05:41,2011-05-01,14:06:25,356
440598.544,4425676.164,40666.049375,40666.0499305556,38.18481373543033,2011-05-03,01:11:06,2011-05-03,01:11:54,355
442935.151724138,4425534.393103449,40666.6057060185,40666.6063541667,48.18059775427363,2011-05-03,14:32:13,2011-05-03,14:33:09,-1
440634.7736842105,4425640.892982456,40667.1105324074,40667.1118287037,34.42005229468943,2011-05-04,02:39:10,2011-05-04,02:41:02,355
440561.82499999995,4425594.325,40667.1653935185,40667.1659837963,49.158620810430406,2011-05-04,03:58:10,2011-05-04,03:59:01,357
442963.37733333337,4425481.615999999,40667.5890393518,40667.5920023148,22.797587591570505,2011-05-04,14:08:13,2011-05-04,14:12:29,-1
440623.64838709676,4425671.577419355,40668.0433449074,40668.0440393519,45.31544990367943,2011-05-05,01:02:25,2011-05-05,01:03:25,355
440543.51666666666,4425620.833333334,40668.1462037037,40668.1469791667,48.74833330499159,2011-05-05,03:30:32,2011-05-05,03:31:39,-1
442928.3833333333,4425540.597222222,40668.6127314815,40668.6135416667,47.60346626021871,2011-05-05,14:42:20,2011-05-05,14:43:30,-1
440634.47368421056,4425660.984210525,40669.0925810185,40669.0938773148,47.48936723094554,2011-05-06,02:13:19,2011-05-06,02:15:11,355
440568.4318181819,4425618.674999998,40669.1642013889,40669.1647800926,37.121557079560944,2011-05-06,03:56:27,2011-05-06,03:57:17,-1
442971.8588235294,4425769.152941176,40669.594224537,40669.5947453704,25.94339993140337,2011-05-06,14:15:41,2011-05-06,14:16:26,-1
515595.4,4333809.7,40670.4396412037,40670.4396412037,0.0,2011-05-07,10:33:05,2011-05-07,10:33:05,-1
446487.72187500005,4412789.103124999,40670.5484722222,40670.5511226852,40.722598149523236,2011-05-07,13:09:48,2011-05-07,13:13:37,-1
443021.368,4425581.768000001,40670.6530439815,40670.6536342593,33.96954518406739,2011-05-07,15:40:23,2011-05-07,15:41:14,353
442734.5571428571,4425212.338095238,40671.5306134259,40671.5310763889,29.149442533078933,2011-05-08,12:44:05,2011-05-08,12:44:45,-1
440627.24230769236,4425646.103846154,40672.0473842593,40672.047962963,48.93107397122041,2011-05-09,01:08:14,2011-05-09,01:09:04,355
442943.48863636353,4425572.843181819,40672.6213657407,40672.6218634259,49.80291156072749,2011-05-09,14:54:46,2011-05-09,14:55:29,352
440549.11232876714,4425572.168493153,40673.1341898148,40673.1351851852,37.2001344084928,2011-05-10,03:13:14,2011-05-10,03:14:40,357
442983.3,4425671.2,40673.6329166667,40673.6329166667,0.0,2011-05-10,15:11:24,2011-05-10,15:11:24,-1
440510.0,4425626.1,40674.1919560185,40674.1919560185,0.0,2011-05-11,04:36:25,2011-05-11,04:36:25,-1
442950.1727272728,4425734.018181818,40674.6059606481,40674.6065162037,45.79617887971998,2011-05-11,14:32:35,2011-05-11,14:33:23,-1
440665.04576271184,4425584.028813558,40675.0755439815,40675.0768865741,12.535549449639557,2011-05-12,01:48:47,2011-05-12,01:50:43,-1
443014.49396551726,4425627.553448276,40675.6403703704,40675.6439814815,39.81519810305007,2011-05-12,15:22:08,2011-05-12,15:27:20,353
443020.3452032262,4425596.258238672,40675.6998611111,40675.9031481481,48.51360633867667,2011-05-12,16:47:48,2011-05-12,21:40:32,353
443020.58274336247,4425621.625221239,40675.9447916667,40676.0304398148,6.670832032063167,2011-05-12,22:40:30,2011-05-13,00:43:50,353
440601.9499999999,4425680.499999999,40676.0560416667,40676.0565740741,49.577414212324406,2011-05-13,01:20:42,2011-05-13,01:21:28,355
465736.4,4435366.0,40676.9977777778,40676.9977777778,0.0,2011-05-13,23:56:48,2011-05-13,23:56:48,-1
340020.36,3452852.7,40677.0844907407,40677.0845601852,16.39999999999489,2011-05-14,02:01:40,2011-05-14,02:01:46,-1
356427.3,3464111.2,40677.1918634259,40677.1918634259,0.0,2011-05-14,04:36:17,2011-05-14,04:36:17,-1
357941.3657894737,3463861.3000000007,40677.3725231481,40677.3732407407,31.434057962559134,2011-05-14,08:56:26,2011-05-14,08:57:28,-1
357568.43783783785,3463866.7108108094,40677.4933912037,40677.4987384259,49.17234995401133,2011-05-14,11:50:29,2011-05-14,11:58:11,-1
443002.63,4425651.65,40678.6932986111,40678.699525463,38.18481373514192,2011-05-15,16:38:21,2011-05-15,16:47:19,353
523478.5,3522986.2,40684.0284143519,40684.0284143519,0.0,2011-05-21,00:40:55,2011-05-21,00:40:55,-1
441638.34629629634,4417530.540740741,40686.0004166667,40686.0015972222,44.18144406849082,2011-05-23,00:00:36,2011-05-23,00:02:18,-1
442951.8,4425620.0,40686.0920717593,40686.0920717593,0.0,2011-05-23,02:12:35,2011-05-23,02:12:35,-1
439370.2486486486,4424878.254054055,40695.1697916667,40695.1702083333,32.461669704402716,2011-06-01,04:04:30,2011-06-01,04:05:06,-1
440529.35,4425603.550000001,40695.2651736111,40695.2658333333,43.7056060479236,2011-06-01,06:21:51,2011-06-01,06:22:48,357
712454.6,4410322.2,40698.4355324074,40698.4391087963,37.30147450133114,2011-06-04,10:27:10,2011-06-04,10:32:19,-1
712354.7000000001,4410355.466666667,40698.5800462963,40698.5800694444,4.328972164428927,2011-06-04,13:55:16,2011-06-04,13:55:18,-1
713839.1000000001,4410705.815384616,40699.5346412037,40699.5680555556,34.311076928217545,2011-06-05,12:49:53,2011-06-05,13:38:00,-1
712430.2137931036,4410366.879310344,40699.6105439815,40699.6109490741,29.769279467271808,2011-06-05,14:39:11,2011-06-05,14:39:46,-1
735780.7181818183,4431293.309090909,40700.2911921296,40700.291724537,25.33140343545881,2011-06-06,06:59:19,2011-06-06,07:00:05,-1
467246.5,4435438.9,40702.3266203704,40702.3266203704,0.0,2011-06-08,07:50:20,2011-06-08,07:50:20,-1
523478.43750000006,3522976.875000001,40702.4190740741,40705.013125,49.18617691966756,2011-06-08,10:03:28,2011-06-11,00:18:54,-1
523103.9931034483,3487108.4,40705.1398032407,40705.1401273148,41.876007450523204,2011-06-11,03:21:19,2011-06-11,03:21:47,-1
523499.75,3522967.95,40705.427037037,40705.4323611111,31.116876449897024,2011-06-11,10:14:56,2011-06-11,10:22:36,-1
443014.2,4425464.9,40711.1675347222,40711.1675347222,0.0,2011-06-17,04:01:15,2011-06-17,04:01:15,354
452140.58360655745,4422951.4606557395,40711.401087963,40711.4022337963,48.741358208628434,2011-06-17,09:37:34,2011-06-17,09:39:13,-1
451524.77142857143,4422983.8,40711.5696875,40711.5966782407,10.52615789328276,2011-06-17,13:40:21,2011-06-17,14:19:13,-1
443013.9,4425453.2,40711.6525578704,40711.6525578704,0.0,2011-06-17,15:39:41,2011-06-17,15:39:41,354
452027.0399999999,4422429.680000001,40712.1228356481,40712.1541203704,43.01918176798804,2011-06-18,02:56:53,2011-06-18,03:41:56,-1
446973.7,4420910.8,40712.2870717593,40712.2870717593,0.0,2011-06-18,06:53:23,2011-06-18,06:53:23,-1
447804.0,4427143.7,40712.4403240741,40712.4403240741,0.0,2011-06-18,10:34:04,2011-06-18,10:34:04,-1
447612.7209302325,4426734.339534884,40712.5433796296,40712.5546180556,49.252106553583864,2011-06-18,13:02:28,2011-06-18,13:18:39,-1
451826.2,4422759.550000001,40712.6459259259,40712.6512731481,33.22122815294865,2011-06-18,15:30:08,2011-06-18,15:37:50,-1
451569.85,4422991.7,40714.2943055556,40714.3016203704,2.6476404586089193,2011-06-20,07:03:48,2011-06-20,07:14:20,-1
445353.3,4434351.4,40719.2381944444,40719.2381944444,0.0,2011-06-25,05:43:00,2011-06-25,05:43:00,-1
445235.0069767442,4434201.08372093,40719.317974537,40719.319375,16.19197331997536,2011-06-25,07:37:53,2011-06-25,07:39:54,-1
443019.55000000005,4425462.4,40719.5066550926,40719.5173726852,10.911003619663054,2011-06-25,12:09:35,2011-06-25,12:25:01,354