442808.3272727272,4425326.05909091,39643.7452546296,39643.7460532407,6.280127387235988,2008-07-14,17:53:10,2008-07-14,17:54:19,-1
442986.65789473685,4425493.778947369,39647.02125,39647.0216666667,48.72011904743776,2008-07-18,00:30:36,2008-07-18,00:31:12,-1
443121.34166666656,4425176.975,39647.7410300926,39647.7417708333,49.397267130893646,2008-07-18,17:47:05,2008-07-18,17:48:09,-1
442720.5,4425602.5,39647.8495138889,39647.8495138889,0.0,2008-07-18,20:23:18,2008-07-18,20:23:18,-1
442865.9566666667,4425262.043333334,39649.3266203704,39649.3994907407,49.511715785759684,2008-07-20,07:50:20,2008-07-20,09:35:16,459
441022.0,4432928.6,39649.4191550926,39649.4191550926,0.0,2008-07-20,10:03:35,2008-07-20,10:03:35,-1
443330.80999999994,4425312.6450000005,39660.5635416667,39660.5639930556,46.817518088946755,2008-07-31,13:31:30,2008-07-31,13:32:09,-1
442854.8282608694,4425258.532608695,39667.8652083333,39667.8662615741,45.1154075674509,2008-08-07,20:45:54,2008-08-07,20:47:25,459
442858.41818181815,4425254.886363637,39675.3683449074,39675.3688310185,49.6179403040501,2008-08-15,08:50:25,2008-08-15,08:51:07,459
442826.319642857,4425259.671428571,39675.8189351852,39676.4026157407,48.900102249504364,2008-08-15,19:39:16,2008-08-16,09:39:46,-1
442834.9,4425253.618181818,39676.4182060185,39676.4187384259,46.465578657673646,2008-08-16,10:02:13,2008-08-16,10:02:59,-1
442961.5,4425517.4,39677.5664467593,39677.5664467593,0.0,2008-08-17,13:35:41,2008-08-17,13:35:41,-1
445431.63333333336,4423127.508333334,39677.9212847222,39677.9215393519,32.54842546078496,2008-08-17,22:06:39,2008-08-17,22:07:01,-1
442872.9794871795,4425270.807692309,39679.2284606481,39679.5895717593,48.65850388140907,2008-08-19,05:28:59,2008-08-19,14:08:59,459
442911.42549019604,4425530.050980393,39679.5997453704,39679.6009027778,42.49823525748904,2008-08-19,14:23:38,2008-08-19,14:25:18,-1
442577.35,4425591.325,39680.0098958333,39680.0099652778,19.028662590937916,2008-08-20,00:14:15,2008-08-20,00:14:21,-1
442858.27894736844,4425252.747368421,39680.4834143519,39680.4838310185,49.90911740368299,2008-08-20,11:36:07,2008-08-20,11:36:43,459
442422.8428571428,4425251.385714286,39682.0357060185,39682.0362037037,38.45334835872362,2008-08-22,00:51:25,2008-08-22,00:52:08,-1
442622.61428571434,4425878.1,39683.0733333333,39683.0746875,49.1350180624776,2008-08-23,01:45:36,2008-08-23,01:47:33,-1
448045.81000000006,4417608.63,39683.4461805556,39683.4490740741,19.165072397379827,2008-08-23,10:42:30,2008-08-23,10:46:40,-1
442916.7043478261,4425523.795652174,39685.1152546296,39685.1157638889,49.44855912967956,2008-08-25,02:45:58,2008-08-25,02:46:42,-1
442943.07631578954,4425496.702631579,39685.6823611111,39685.6832175926,43.0285951427898,2008-08-25,16:22:36,2008-08-25,16:23:50,-1
442662.0083333333,4425682.774999999,39686.0561226852,39686.0564467593,46.401077573701194,2008-08-26,01:20:49,2008-08-26,01:21:17,-1