442730.4717525773,4425943.767628867,39639.4392476852,39639.4708217593,20.900239233452975,2008-07-10,10:32:31,2008-07-10,11:17:59,-1
442814.4961538461,4425270.503846154,39639.4864699074,39639.487037037,30.09601302537442,2008-07-10,11:40:31,2008-07-10,11:41:20,464
441904.39427083393,4428857.410119049,39639.6721875,39639.7228356482,49.139495316904565,2008-07-10,16:07:57,2008-07-10,17:20:53,465
441907.2659361316,4428862.558609895,39639.7571990741,39639.8421990741,48.53720222674653,2008-07-10,18:10:22,2008-07-10,20:12:46,465
441906.4330301581,4428873.356055537,39639.8637268519,39639.9756944444,49.385524195024786,2008-07-10,20:43:46,2008-07-10,23:25:00,465
442794.4911111111,4425226.862222222,39640.0446527778,39640.0456481481,32.125535015368676,2008-07-11,01:04:18,2008-07-11,01:05:44,-1
441908.94444444444,4428889.494444445,39640.5068402778,39640.5093865741,48.24479246507354,2008-07-11,12:09:51,2008-07-11,12:13:31,465
442525.89285714284,4425327.035714286,39641.2325115741,39641.2327777778,46.736923304632754,2008-07-12,05:34:49,2008-07-12,05:35:12,-1
440662.3187499998,4438042.252083333,39641.4215046296,39641.4225925926,34.17089404740871,2008-07-12,10:06:58,2008-07-12,10:08:32,-1
442798.14999999997,4425294.8125,39643.0477083333,39643.0478703704,46.622955718799346,2008-07-14,01:08:42,2008-07-14,01:08:56,464
441140.93999999994,4425370.683999999,39644.1713310185,39644.1724652778,35.61867487708198,2008-07-15,04:06:43,2008-07-15,04:08:21,-1
442861.52999999997,4425283.140000001,39644.2469560185,39644.2471643519,42.85650475696901,2008-07-15,05:55:37,2008-07-15,05:55:55,464
442496.89230769227,4427359.465384616,39644.4315393518,39644.4321180556,49.542910693685556,2008-07-15,10:21:25,2008-07-15,10:22:15,-1
442824.2953488373,4425292.072093023,39645.0476967593,39645.0488657407,39.87605797963606,2008-07-16,01:08:41,2008-07-16,01:10:22,464
442856.7096153845,4425252.357692307,39645.479525463,39645.5819328704,37.74824499242433,2008-07-16,11:30:31,2008-07-16,13:57:59,464
442056.75,4428834.45,39645.5971643519,39645.5971759259,20.068383093856802,2008-07-16,14:19:55,2008-07-16,14:19:56,-1
442783.9166666667,4425219.7055555545,39646.0443865741,39646.0451967593,30.88769981692627,2008-07-17,01:03:55,2008-07-17,01:05:05,-1
441905.4880952381,4428857.892857143,39646.5429513889,39646.5549537037,39.18634966376362,2008-07-17,13:01:51,2008-07-17,13:19:08,465
441908.5494845361,4428862.223505158,39646.7098263889,39646.7668865741,48.94374321624733,2008-07-17,17:02:09,2008-07-17,18:24:19,465
441908.5827030375,4428876.455796642,39646.7684143518,39646.8151851852,49.31379117430306,2008-07-17,18:26:31,2008-07-17,19:33:52,465
441908.8347054084,4428861.2984261485,39646.8152083333,39646.941712963,46.78001710160607,2008-07-17,19:33:54,2008-07-17,22:36:04,465
441904.9827338131,4428888.449160673,39646.9654861111,39647.0329166667,45.61107321717227,2008-07-17,23:10:18,2008-07-18,00:47:24,465
442829.9881355931,4425271.883050848,39647.0493402778,39647.157974537,48.736126231143906,2008-07-18,01:11:03,2008-07-18,03:47:29,464
442483.19402985054,4427136.082089554,39647.1815277778,39647.1830555556,48.23028094435708,2008-07-18,04:21:24,2008-07-18,04:23:36,-1
442879.27,4425188.35,39647.4332523148,39647.4334606482,49.41760819770588,2008-07-18,10:23:53,2008-07-18,10:24:11,-1
441902.03922378237,4428862.853592076,39647.6446180556,39647.6998726852,47.33677217572088,2008-07-18,15:28:15,2008-07-18,16:47:49,465
441893.26709265186,4428867.71661342,39647.7028356481,39647.7327430556,4.554119014518409,2008-07-18,16:52:05,2008-07-18,17:35:09,465
440899.8430555559,4437676.735138894,39648.4073611111,39648.4456712963,48.74187111759248,2008-07-19,09:46:36,2008-07-19,10:41:46,-1
442833.43333333335,4425310.6,39648.5404513889,39648.5405439815,22.968238939881328,2008-07-19,12:58:15,2008-07-19,12:58:23,-1
442847.4142857143,4425260.685714285,39649.1999305556,39649.435462963,34.08724101482716,2008-07-20,04:47:54,2008-07-20,10:27:04,464
442385.17000000004,4427335.090000001,39649.4893055556,39649.4897453704,48.08034941629244,2008-07-20,11:44:36,2008-07-20,11:45:14,-1
442836.83870967757,4425268.726881721,39650.2321875,39650.4317013889,45.63343072782261,2008-07-21,05:34:21,2008-07-21,10:21:39,464
442822.65357142856,4425353.996428571,39650.4857638889,39650.4863888889,26.882894189469564,2008-07-21,11:39:30,2008-07-21,11:40:24,-1
441898.9785714285,4428883.1928571435,39650.5938194444,39650.5947685185,47.214086881398565,2008-07-21,14:15:06,2008-07-21,14:16:28,465
442843.6615384616,4425243.746153845,39651.0542592593,39651.054837963,46.89232346556302,2008-07-22,01:18:08,2008-07-22,01:18:58,464
442007.8,4429006.0,39651.4444444444,39651.4457638889,49.22641567273031,2008-07-22,10:40:00,2008-07-22,10:41:54,-1
441902.1872340425,4428868.637234043,39651.6446759259,39651.6484606481,29.4923718952997,2008-07-22,15:28:20,2008-07-22,15:33:47,465
442803.30000000005,4425251.744444446,39652.0592592593,39652.0596412037,34.79080338286464,2008-07-23,01:25:20,2008-07-23,01:25:53,464
442705.6853658536,4425905.675609756,39652.4238310185,39652.4675694444,44.27301661278264,2008-07-23,10:10:19,2008-07-23,11:13:18,-1
442839.1629032257,4425246.683870967,39652.4804050926,39652.5646990741,46.760667232093816,2008-07-23,11:31:47,2008-07-23,13:33:10,464
441813.68,4428872.7,39652.590775463,39652.5908680556,0.5385164807826274,2008-07-23,14:10:43,2008-07-23,14:10:51,-1
442857.2659090909,4425261.779545456,39653.0676736111,39653.0686689815,48.137511360638875,2008-07-24,01:37:27,2008-07-24,01:38:53,464
442799.4083333334,4425974.616666666,39653.476087963,39653.4763425926,48.83205914136328,2008-07-24,11:25:34,2008-07-24,11:25:56,-1
442848.24166666664,4425231.566666666,39653.5563194444,39653.5568518518,48.65922317505208,2008-07-24,13:21:06,2008-07-24,13:21:52,464
441931.0052631578,4428817.8131578965,39653.6545833333,39653.6554398148,48.18983295295236,2008-07-24,15:42:36,2008-07-24,15:43:50,465
442866.4518518519,4425262.881481481,39654.064537037,39654.0651388889,38.43461981047692,2008-07-25,01:32:56,2008-07-25,01:33:48,464
441948.5470588236,4428820.897058822,39654.4356828704,39654.4364467593,47.783051388084125,2008-07-25,10:27:23,2008-07-25,10:28:29,465
442704.4,4425896.5,39656.4226041667,39656.4228356481,46.18852671393146,2008-07-27,10:08:33,2008-07-27,10:08:53,-1
442605.1130000001,4427919.449,39656.6057060185,39656.6101041667,27.153268680232525,2008-07-27,14:32:13,2008-07-27,14:38:33,466
442815.43333333335,4425248.933333334,39657.0680787037,39657.0684490741,42.60575078554537,2008-07-28,01:38:02,2008-07-28,01:38:34,464
441936.4626506022,4428858.814457832,39657.5585185185,39657.5604166667,36.80054347406157,2008-07-28,13:24:16,2008-07-28,13:27:00,465
442862.54347826086,4425267.021739131,39658.0621412037,39658.062650463,47.59464255564905,2008-07-29,01:29:29,2008-07-29,01:30:13,464
443629.26666666666,4426065.366666666,39659.0731712963,39659.0732060185,32.999696968431536,2008-07-30,01:45:22,2008-07-30,01:45:25,-1
442487.54545454547,4425202.090909091,39659.1159259259,39659.1161458333,15.446682491409195,2008-07-30,02:46:56,2008-07-30,02:47:15,-1
442841.63461538457,4425238.453846156,39659.4809837963,39659.6103240741,49.84616334290085,2008-07-30,11:32:37,2008-07-30,14:38:52,464
441934.21142857167,4428867.3257142855,39659.6238425926,39659.6246296296,30.351606218350636,2008-07-30,14:58:20,2008-07-30,14:59:28,465
442846.7651162792,4425241.651162789,39660.0713541667,39660.0723263889,48.518243991608536,2008-07-31,01:42:45,2008-07-31,01:44:09,464
442854.27749999997,4425242.732499999,39660.2059143518,39660.2068171296,49.030602688857456,2008-07-31,04:56:31,2008-07-31,04:57:49,464
441921.0862068966,4428858.944827586,39660.5115277778,39660.5135416667,47.50789408087881,2008-07-31,12:16:36,2008-07-31,12:19:30,465
442851.9581395347,4425244.409302326,39661.077962963,39661.0789351852,47.73782567292832,2008-08-01,01:52:16,2008-08-01,01:53:40,464
442716.947826087,4425921.295652173,39661.4454282407,39661.4459375,49.279306001657474,2008-08-01,10:41:25,2008-08-01,10:42:09,-1
441903.4671232876,4428868.1965753455,39661.6465509259,39661.6548148148,26.224606765344184,2008-08-01,15:31:02,2008-08-01,15:42:56,465
442619.6115296802,4427913.666894974,39664.5822337963,39664.6297337963,47.41571469390287,2008-08-04,13:58:25,2008-08-04,15:06:49,466
442618.080745342,4427912.333540375,39664.6297569444,39664.6371875,40.22188458983315,2008-08-04,15:06:51,2008-08-04,15:17:33,466
442923.30000000005,4425549.522222223,39665.0816203704,39665.0818055556,46.86064446863214,2008-08-05,01:57:32,2008-08-05,01:57:48,-1
441972.18750000006,4428802.470833333,39665.6477430556,39665.648275463,46.539875375871986,2008-08-05,15:32:45,2008-08-05,15:33:31,465
442859.79230769235,4425246.53076923,39666.0663773148,39666.0672569444,44.62039892196133,2008-08-06,01:35:35,2008-08-06,01:36:51,464
442847.99318181834,4425245.345454545,39671.0603240741,39671.5354861111,45.35945325948756,2008-08-11,01:26:52,2008-08-11,12:51:06,464
442606.9775933614,4427912.712448133,39671.5489583333,39671.5594328704,24.04682931290488,2008-08-11,13:10:30,2008-08-11,13:25:35,466
442852.75,4425261.605,39672.0677199074,39672.0687268519,48.65264638246627,2008-08-12,01:37:31,2008-08-12,01:38:58,464
442593.5720930234,4427924.768604649,39672.5583680556,39672.5628240741,17.901117283939044,2008-08-12,13:24:03,2008-08-12,13:30:28,466
442839.1418604652,4425233.424418607,39673.0637384259,39673.4194097222,48.13190210238341,2008-08-13,01:31:47,2008-08-13,10:03:57,464
444902.6363636363,4424045.262337663,39673.4373958333,39673.4391435185,28.15137652107697,2008-08-13,10:29:51,2008-08-13,10:32:22,-1
442844.0407407407,4425269.312962964,39674.0729166667,39674.5614351852,49.74464795322227,2008-08-14,01:45:00,2008-08-14,13:28:28,464
442623.68000000005,4427948.84,39674.5732986111,39674.5746875,46.622955719288996,2008-08-14,13:45:33,2008-08-14,13:47:33,-1
442852.99250000005,4425248.17,39675.084837963,39675.0857407407,42.782823656645085,2008-08-15,02:02:10,2008-08-15,02:03:28,464
440704.73333333334,4437559.633333334,39676.5113310185,39676.5113773148,2.408318915719788,2008-08-16,12:16:19,2008-08-16,12:16:23,-1
441907.4688131315,4428859.932386366,39676.6578125,39676.7278819444,49.06128820159887,2008-08-16,15:47:15,2008-08-16,17:28:09,465
441910.7845086708,4428894.194219651,39676.7283217593,39676.7664236111,48.61213840112788,2008-08-16,17:28:47,2008-08-16,18:23:39,465
441907.5386914831,4428851.883192337,39676.7798032407,39676.8593865741,49.48989795963433,2008-08-16,18:42:55,2008-08-16,20:37:31,465
441902.0193931402,4428894.267150391,39676.8601736111,39676.897349537,49.751884386422994,2008-08-16,20:38:39,2008-08-16,21:32:11,465
442476.4244094486,4427961.301574806,39677.0145138889,39677.0706712963,48.883637344194135,2008-08-17,00:20:54,2008-08-17,01:41:46,-1
442511.5783783783,4427060.783783784,39677.085625,39677.0868287037,24.0407986555862,2008-08-17,02:03:18,2008-08-17,02:05:02,-1
442137.9,4428834.1,39677.2487268519,39677.2487268519,0.0,2008-08-17,05:58:10,2008-08-17,05:58:10,-1
442635.6386138613,4427055.907920792,39681.4311226852,39681.4347916667,47.8806850410816,2008-08-21,10:20:49,2008-08-21,10:26:06,-1
442847.2027777777,4425237.5166666685,39682.0827314815,39682.0835416667,43.24742766927533,2008-08-22,01:59:08,2008-08-22,02:00:18,464
441896.9160804019,4428886.512562815,39682.6150115741,39682.6250115741,20.519746586782436,2008-08-22,14:45:37,2008-08-22,15:00:01,465
441942.42695652175,4428855.973043479,39685.5959490741,39686.0528125,49.02509561419084,2008-08-25,14:18:10,2008-08-26,01:16:03,465
442848.2588235294,4425243.468627449,39686.0711574074,39686.0723148148,42.10427531761698,2008-08-26,01:42:28,2008-08-26,01:44:08,464
441880.22000000003,4428946.053333334,39687.715,39687.7153240741,40.433896670623135,2008-08-27,17:09:36,2008-08-27,17:10:04,-1
441904.51666666666,4428754.208333333,39688.4963773148,39688.4979050926,41.243787411138854,2008-08-28,11:54:47,2008-08-28,11:56:59,-1
441932.8041666667,4428817.299999999,39689.6543518519,39689.6554398148,43.87277059893994,2008-08-29,15:42:16,2008-08-29,15:43:50,465
441002.575471698,4437920.526415095,39691.4753125,39691.4765162037,49.66538029649428,2008-08-31,11:24:27,2008-08-31,11:26:11,-1
441918.3442105261,4428857.54631579,39691.5608101852,39691.5631481481,27.183082974675933,2008-08-31,13:27:34,2008-08-31,13:30:56,465
442852.237837838,4425248.854054054,39692.0894212963,39692.0902546296,47.205508153206935,2008-09-01,02:08:46,2008-09-01,02:09:58,464
441936.6466666666,4428812.54,39692.6379282407,39692.638599537,44.04588516521193,2008-09-01,15:18:37,2008-09-01,15:19:35,465
441925.7055555556,4428861.355555556,39694.5587847222,39694.5613425926,49.86481725625794,2008-09-03,13:24:39,2008-09-03,13:28:20,465
441908.42783171555,4428827.068608413,39698.7359606481,39698.7466319444,29.802684443298038,2008-09-07,17:39:47,2008-09-07,17:55:09,-1
441902.0633077765,4428861.106900329,39698.8755555556,39698.9222337963,37.31862805697686,2008-09-07,21:00:48,2008-09-07,22:08:01,465
441920.8222222222,4428775.322222222,39698.9647569444,39698.9650115741,47.99510391714748,2008-09-07,23:09:15,2008-09-07,23:09:37,-1
442641.29444444436,4427955.252777779,39709.0763078704,39709.0783564815,11.920570456124555,2008-09-18,01:49:53,2008-09-18,01:52:50,-1
441131.75000000006,4425374.728571429,39710.17,39710.1703009259,47.47230771677288,2008-09-19,04:04:48,2008-09-19,04:05:14,-1
442887.75,4425274.391666667,39710.2590046296,39710.259537037,49.403339968039134,2008-09-19,06:12:58,2008-09-19,06:13:44,-1
441932.46326530597,4428816.57755102,39710.6490046296,39710.6501041667,32.65884260028191,2008-09-19,15:34:34,2008-09-19,15:36:09,465
441927.0246753247,4428808.705194805,39722.5953819444,39724.0737615741,49.51979402273716,2008-10-01,14:17:21,2008-10-03,01:46:13,465
441440.66250000003,4435703.387499999,39724.4380324074,39724.4394907407,13.45362404707371,2008-10-03,10:30:46,2008-10-03,10:32:52,-1
442604.8501066101,4427923.7773987185,39727.5605208333,39727.6095949074,44.234036668486,2008-10-06,13:27:09,2008-10-06,14:37:49,466
442617.61152103613,4427924.142588992,39727.6112847222,39727.6802893518,49.99299950977595,2008-10-06,14:40:15,2008-10-06,16:19:37,466
441904.75473340537,4428869.118607183,39727.6913310185,39727.7375578704,17.65106229062806,2008-10-06,16:35:31,2008-10-06,17:42:05,465
441930.25749999983,4428822.069999998,39729.6305671296,39729.6314699074,34.34020966738555,2008-10-08,15:08:01,2008-10-08,15:09:19,465
442846.9161290323,4425235.2516129045,39731.0988194444,39731.0995138889,47.952163663361496,2008-10-10,02:22:18,2008-10-10,02:23:18,464
441931.3957446809,4428853.721276596,39734.6084837963,39734.6099189815,32.4499614791307,2008-10-13,14:36:13,2008-10-13,14:38:17,465
442849.39696969715,4425238.56060606,39735.0931944444,39735.0939351852,49.20416649046096,2008-10-14,02:14:12,2008-10-14,02:15:16,464
441675.3680851063,4428984.30212766,39735.4444444444,39735.4455092593,48.40836704540781,2008-10-14,10:40:00,2008-10-14,10:41:32,-1
442840.0944444444,4425240.022222224,39736.1142824074,39736.5905902778,10.272779565565989,2008-10-15,02:44:34,2008-10-15,14:10:27,464
441919.39313725475,4428870.422549018,39736.6081597222,39737.069537037,16.886681142070664,2008-10-15,14:35:45,2008-10-16,01:40:08,465
442838.43518518517,4425237.255555555,39737.0865046296,39737.1469675926,48.30983336753385,2008-10-16,02:04:34,2008-10-16,03:31:38,464
441948.4653061224,4428843.271428572,39737.1868981481,39737.1891435185,46.27580361269846,2008-10-16,04:29:08,2008-10-16,04:32:22,465
441936.71702127665,4428881.274468084,39737.6103356481,39737.611400463,24.708095839229298,2008-10-16,14:38:53,2008-10-16,14:40:25,465
441925.8121212121,4428826.3151515145,39739.5882175926,39739.5889583333,25.14478077060433,2008-10-18,14:07:02,2008-10-18,14:08:06,465
441931.4727272727,4428818.263636364,39741.6524074074,39741.6534027778,48.559345135271315,2008-10-20,15:39:28,2008-10-20,15:40:54,465
442035.8830985916,4428740.671830987,39743.434224537,39743.4368634259,37.870437018553076,2008-10-22,10:25:17,2008-10-22,10:29:05,-1
441932.5163265307,4428824.07755102,39745.7031828704,39745.7042939815,33.63049211654917,2008-10-24,16:52:35,2008-10-24,16:54:11,465
440806.4487804877,4437636.953658537,39746.3915393518,39746.3924652778,33.90722636838037,2008-10-25,09:23:49,2008-10-25,09:25:09,-1
441948.1718750001,4428841.615624999,39746.5997222222,39746.6011805556,48.15080477001397,2008-10-25,14:23:36,2008-10-25,14:25:42,465
440830.85801526706,4426146.013740459,39747.1243634259,39747.1273611111,18.71095935527522,2008-10-26,02:59:05,2008-10-26,03:03:24,-1
441919.0414893619,4428869.843085107,39747.2458912037,39747.2542708333,16.564117844983627,2008-10-26,05:54:05,2008-10-26,06:06:09,465
440776.6631578948,4437805.9052631585,39747.514224537,39747.5146412037,49.73047355551407,2008-10-26,12:20:29,2008-10-26,12:21:05,467
442426.21724137926,4427347.355172413,39748.0964930556,39748.0971412037,41.05569388005995,2008-10-27,02:18:57,2008-10-27,02:19:53,-1
442842.25999999995,4425346.880000001,39748.3166782407,39748.3167708333,6.315061361723861,2008-10-27,07:36:01,2008-10-27,07:36:09,-1
443118.62000000005,4425260.38,39748.5481944444,39748.5485185185,42.08622102303793,2008-10-27,13:09:24,2008-10-27,13:09:52,-1
441922.288372093,4428879.181395348,39748.7808333333,39748.7846412037,39.44426447526195,2008-10-27,18:44:24,2008-10-27,18:49:53,465
441908.3218358832,4428861.0,39748.9384375,39748.9736689815,45.477247058979074,2008-10-27,22:31:21,2008-10-27,23:22:05,465
441908.61777535354,4428860.0463467855,39748.973900463,39749.0161226852,49.076267176527814,2008-10-27,23:22:25,2008-10-28,00:23:13,465
441907.26007905137,4428876.053359687,39749.0181597222,39749.0550578704,47.08800271848031,2008-10-28,00:26:09,2008-10-28,01:19:17,465
441908.33338815765,4428859.121710531,39749.0552893518,39749.0800810185,18.085353189636887,2008-10-28,01:19:37,2008-10-28,01:55:19,465
441907.0401524773,4428848.999872938,39749.4913078704,39749.5306134259,44.01136216933077,2008-10-28,11:47:29,2008-10-28,12:44:05,465
441903.45761772833,4428854.675346258,39749.5519328704,39749.5708449074,32.90744596528813,2008-10-28,13:14:47,2008-10-28,13:42:01,465
441900.9996499416,4428868.302100357,39751.6169212963,39751.6578009259,49.42276803292999,2008-10-30,14:48:22,2008-10-30,15:47:14,465
441904.74182344356,4428862.8599131685,39751.7100462963,39751.7455324074,49.27930600123662,2008-10-30,17:02:28,2008-10-30,17:53:34,465
441872.3071428572,4428951.485714286,39751.7824652778,39751.7830902778,48.8786251857823,2008-10-30,18:46:45,2008-10-30,18:47:39,-1
443034.734090909,4426996.148863636,39753.1089930556,39753.1543865741,41.12383736959996,2008-11-01,02:36:57,2008-11-01,03:42:19,-1
441863.96315789485,4428807.308771929,39753.2844328704,39753.2857291667,42.136919678228615,2008-11-01,06:49:35,2008-11-01,06:51:27,-1
442339.00000000006,4427318.23888889,39753.4526851852,39753.4530787037,48.49999999976717,2008-11-01,10:51:52,2008-11-01,10:52:26,-1
440787.87499999994,4437811.641666667,39753.5308912037,39753.5314236111,48.18723897428172,2008-11-01,12:44:29,2008-11-01,12:45:15,467
441905.76228070154,4428865.364912281,39757.6690162037,39757.7018865741,23.262201099820377,2008-11-05,16:03:23,2008-11-05,16:50:43,465
442378.7473684211,4427345.763157894,39758.2222453704,39758.2235648148,46.51300893295641,2008-11-06,05:20:02,2008-11-06,05:21:56,-1
442540.88181818184,4427247.872727273,39758.3052777778,39758.3055324074,49.662964067432036,2008-11-06,07:19:36,2008-11-06,07:19:58,-1
442484.2426470588,4427128.866176471,39759.4318518518,39759.5592361111,48.97029711978707,2008-11-07,10:21:52,2008-11-07,13:25:18,-1
440195.72000000003,4437899.2,39759.5912384259,39759.5913310185,40.36248257967535,2008-11-07,14:11:23,2008-11-07,14:11:31,-1
440338.72500000003,4433579.025,39761.1028009259,39761.102962963,44.23324541546649,2008-11-09,02:28:02,2008-11-09,02:28:16,-1
440789.3703703704,4437794.774074075,39761.5319097222,39761.5325115741,47.50789408032207,2008-11-09,12:45:57,2008-11-09,12:46:49,467
442835.09230769216,4425237.003846155,39766.2155555556,39766.2161342593,49.819674828323436,2008-11-14,05:10:24,2008-11-14,05:11:14,464
442039.22307692317,4428985.646153847,39767.1533217593,39767.153599537,46.27504727124964,2008-11-15,03:40:47,2008-11-15,03:41:11,-1
443047.1413793104,4427007.727586206,39767.4839236111,39767.4845717593,48.11590173765082,2008-11-15,11:36:51,2008-11-15,11:37:47,-1
441927.67500000005,4428817.502777779,39767.5805439815,39767.5813541667,42.248786964846104,2008-11-15,13:55:59,2008-11-15,13:57:09,465
440771.50833333324,4437790.529166668,39768.3267013889,39768.3272337963,47.89415413197783,2008-11-16,07:50:27,2008-11-16,07:51:13,467
443103.2545454545,4425167.663636364,39769.1543634259,39769.1545949074,25.17657641540873,2008-11-17,03:42:17,2008-11-17,03:42:37,-1
440677.175862069,4437666.972413794,39769.3011111111,39769.3017592593,49.559055680902375,2008-11-17,07:13:36,2008-11-17,07:14:32,-1
441660.3856060605,4428978.4818181805,39780.5037731482,39780.5094907407,31.801415062850687,2008-11-28,12:05:26,2008-11-28,12:13:40,-1
441890.5392405064,4428869.447468352,39780.6609027778,39780.6731712963,14.167568598476597,2008-11-28,15:51:42,2008-11-28,16:09:22,465
451976.4,4423706.828571429,39781.1416319444,39781.1417708333,44.479208625814366,2008-11-29,03:23:57,2008-11-29,03:24:09,-1
440867.4454545455,4426106.654545455,39781.2396759259,39781.2399074074,46.615233561658364,2008-11-29,05:45:08,2008-11-29,05:45:28,-1
441911.55263157905,4428871.815789473,39781.343587963,39781.3444444444,22.13820227624043,2008-11-29,08:14:46,2008-11-29,08:16:00,465
442610.52686183876,4427923.479866471,39783.587662037,39783.6754861111,49.837536054487224,2008-12-01,14:06:14,2008-12-01,16:12:42,466
441911.46201022126,4428864.106218068,39783.7478240741,39783.8020833333,29.800167784307444,2008-12-01,17:56:52,2008-12-01,19:15:00,465
441910.8444628093,4428855.716198349,39783.8437037037,39783.8576851852,31.384391024656733,2008-12-01,20:14:56,2008-12-01,20:35:04,465
441906.95458125346,4428869.118587522,39783.937662037,39784.0927893519,34.26601815237546,2008-12-01,22:30:14,2008-12-02,02:13:37,465
441912.06680636987,4428865.103604362,39784.0944560185,39784.1577662037,48.88598981288932,2008-12-02,02:16:01,2008-12-02,03:47:11,465
442850.93255813955,4425243.56511628,39784.2212384259,39784.2222106481,45.654463089443816,2008-12-02,05:18:35,2008-12-02,05:19:59,464
441882.5125,4429170.3875,39785.6014467593,39785.6016087963,41.90298318773041,2008-12-03,14:26:05,2008-12-03,14:26:19,-1
442847.4647058824,4425238.626470588,39787.2579166667,39787.2586805556,49.07310872600241,2008-12-05,06:11:24,2008-12-05,06:12:30,464
441901.5958885945,4428858.207427046,39787.4364467593,39787.4741666667,48.80983507487176,2008-12-05,10:28:29,2008-12-05,11:22:48,465
441901.57716150035,4428853.769657416,39787.4752314815,39787.5110185185,46.502688094508784,2008-12-05,11:24:20,2008-12-05,12:15:52,465
441900.8218426505,4428862.697204968,39787.5131481481,39787.550625,48.44801337515674,2008-12-05,12:18:56,2008-12-05,13:12:54,465
441904.5781431335,4428883.802901354,39787.6137847222,39787.6361226852,8.895504483301803,2008-12-05,14:43:51,2008-12-05,15:16:01,465
442851.60652173904,4425249.782608695,39790.1670833333,39790.168125,47.38744559516015,2008-12-08,04:00:36,2008-12-08,04:02:06,464
441931.13648648636,4428856.285135135,39792.4385416667,39793.0414467593,48.99765300452052,2008-12-10,10:31:30,2008-12-11,00:59:41,465