442439.5,4425234.25,39416.4203819444,39416.4242939815,41.89045237280839,2007-11-30,10:05:21,2007-11-30,10:10:59,-1
440326.5,4426398.4,39416.5559490741,39416.5559490741,0.0,2007-11-30,13:20:34,2007-11-30,13:20:34,-1
442077.3,4425889.1,39417.3829166667,39417.3829166667,0.0,2007-12-01,09:11:24,2007-12-01,09:11:24,-1
441026.7,4426768.5,39417.4574074074,39417.4578703704,38.72621850922153,2007-12-01,10:58:40,2007-12-01,10:59:20,-1
440801.1,4426761.949999999,39418.0638310185,39418.0641898148,43.02476031326589,2007-12-02,01:31:55,2007-12-02,01:32:26,-1
440357.4,4426434.25,39442.5735648148,39442.5742708333,42.538100568783726,2007-12-26,13:45:56,2007-12-26,13:46:57,-1
443455.6,4417929.5,39446.2230208333,39446.2230208333,0.0,2007-12-30,05:21:09,2007-12-30,05:21:09,-1
440374.9,4426583.0,39446.4705787037,39446.4705787037,0.0,2007-12-30,11:17:38,2007-12-30,11:17:38,-1
440342.35,4426421.4,39447.5501736111,39447.5506944444,49.00295909419181,2007-12-31,13:12:15,2007-12-31,13:13:00,-1
441104.3,4426316.5,39452.177037037,39452.177037037,0.0,2008-01-05,04:14:56,2008-01-05,04:14:56,-1
449721.5,4419715.2,39452.3755324074,39452.3755324074,0.0,2008-01-05,09:00:46,2008-01-05,09:00:46,-1
449775.2,4419862.9,39452.428125,39452.428125,0.0,2008-01-05,10:16:30,2008-01-05,10:16:30,-1
440695.55,4426733.15,39454.4461226852,39454.447337963,45.803274992236275,2008-01-07,10:42:25,2008-01-07,10:44:10,-1
487672.0,4464832.65,39465.1810416667,39465.222025463,39.00064101981898,2008-01-18,04:20:42,2008-01-18,05:19:43,-1
441132.8,4425398.7,39465.4527083333,39465.4527083333,0.0,2008-01-18,10:51:54,2008-01-18,10:51:54,-1
440313.7,4426396.7,39465.5631018518,39465.5631018518,0.0,2008-01-18,13:30:52,2008-01-18,13:30:52,-1
441478.15,4416339.6,39473.3397569444,39473.3419791667,49.8081318662859,2008-01-26,08:09:15,2008-01-26,08:12:27,-1
469939.3,3822007.5,39473.7918634259,39473.7918634259,0.0,2008-01-26,19:00:17,2008-01-26,19:00:17,-1
370120.0,3817542.4,39473.8479398148,39473.8479398148,0.0,2008-01-26,20:21:02,2008-01-26,20:21:02,-1
635587.2,3751738.5,39474.0994907407,39474.0994907407,0.0,2008-01-27,02:23:16,2008-01-27,02:23:16,-1
582088.2,3611474.6,39474.2410763889,39474.2410763889,0.0,2008-01-27,05:47:09,2008-01-27,05:47:09,-1
409768.6,3389195.4,39474.4987962963,39474.4987962963,0.0,2008-01-27,11:58:16,2008-01-27,11:58:16,-1
409536.9,3389178.9,39478.1322106481,39478.1322106481,0.0,2008-01-31,03:10:23,2008-01-31,03:10:23,-1
410972.1,3391980.2,39478.3158564815,39478.3158564815,0.0,2008-01-31,07:34:50,2008-01-31,07:34:50,-1
411160.3,3391365.4,39478.3851736111,39478.3851736111,0.0,2008-01-31,09:14:39,2008-01-31,09:14:39,-1
411157.0,3390772.5,39478.6330671296,39478.6330671296,0.0,2008-01-31,15:11:37,2008-01-31,15:11:37,-1
348956.35,3434415.15,39480.4165625,39480.4171412037,36.2229209203396,2008-02-02,09:59:51,2008-02-02,10:00:41,-1
352503.85,3458365.4000000004,39490.4715162037,39490.4748611111,43.80148399321901,2008-02-12,11:18:59,2008-02-12,11:23:48,-1
581352.0,3632794.0,39490.6855671296,39490.6855671296,0.0,2008-02-12,16:27:13,2008-02-12,16:27:13,-1
488397.3,4238394.1,39490.9689930556,39490.9689930556,0.0,2008-02-12,23:15:21,2008-02-12,23:15:21,-1
441079.69999999995,4426719.050000001,39501.2343287037,39501.2393055556,46.3349759898795,2008-02-23,05:37:26,2008-02-23,05:44:36,-1
444192.5,4418364.4,39501.2902083333,39501.2902083333,0.0,2008-02-23,06:57:54,2008-02-23,06:57:54,-1
441768.0,4424343.0,39522.4213541667,39522.4213541667,0.0,2008-03-15,10:06:45,2008-03-15,10:06:45,-1
440313.9,4426426.3,39522.5095833333,39522.5095833333,0.0,2008-03-15,12:13:48,2008-03-15,12:13:48,-1