442256.1,4424139.5,39357.6147916667,39357.6147916667,0.0,2007-10-02,14:45:18,2007-10-02,14:45:18,-1
442836.7,4425250.7,39358.3331944444,39358.3331944444,0.0,2007-10-03,07:59:48,2007-10-03,07:59:48,-1
464248.89999999997,4419746.166666667,39358.4804861111,39358.4960532407,24.033310217445344,2007-10-03,11:31:54,2007-10-03,11:54:19,-1
523396.65,4501196.1,39359.1831944444,39359.1846064815,36.27519813854073,2007-10-04,04:23:48,2007-10-04,04:25:50,-1
522920.8,4500171.5,39359.3039930556,39359.3039930556,0.0,2007-10-04,07:17:45,2007-10-04,07:17:45,-1
442170.3,4426334.2,39361.0318171296,39361.0318171296,0.0,2007-10-06,00:45:49,2007-10-06,00:45:49,-1
442194.7,4426359.9,39361.4148611111,39361.4148611111,0.0,2007-10-06,09:57:24,2007-10-06,09:57:24,-1
442090.2,4425156.4,39361.6040972222,39361.6040972222,0.0,2007-10-06,14:29:54,2007-10-06,14:29:54,-1
442842.9,4427024.7,39362.3256134259,39362.3256134259,0.0,2007-10-07,07:48:53,2007-10-07,07:48:53,-1
442983.3,4427147.6,39362.4456365741,39362.4456365741,0.0,2007-10-07,10:41:43,2007-10-07,10:41:43,-1
442168.9,4426337.9,39363.0307407407,39363.0307407407,0.0,2007-10-08,00:44:16,2007-10-08,00:44:16,-1
442098.8,4425163.7,39363.6187962963,39363.6187962963,0.0,2007-10-08,14:51:04,2007-10-08,14:51:04,-1