442763.05000000005,4436533.3,39254.5197685185,39254.519837963,21.39369065868496,2007-06-21,12:28:28,2007-06-21,12:28:34,-1
442794.21666666673,4436555.566666666,39255.629525463,39258.0613078704,26.582701141918655,2007-06-22,15:06:31,2007-06-25,01:28:17,-1
442895.3,4425281.65,39258.0817592593,39258.0819444444,20.303940504246953,2007-06-25,01:57:44,2007-06-25,01:58:00,-1
442780.1666666667,4436579.100000001,39260.4799305556,39260.4803587963,46.41045140895342,2007-06-27,11:31:06,2007-06-27,11:31:43,-1
442879.6,4425279.050000001,39262.1078587963,39262.1082060185,34.60823601397248,2007-06-29,02:35:19,2007-06-29,02:35:49,-1
442773.9,4436563.7,39262.6549652778,39262.6552777778,19.29248558412249,2007-06-29,15:43:09,2007-06-29,15:43:36,-1
440365.2,4435858.9,39267.1244097222,39267.1244097222,0.0,2007-07-04,02:59:09,2007-07-04,02:59:09,-1