444613.4666666666,4424206.611111111,39540.7535648148,39540.753912037,44.31624984133265,2008-04-02,18:05:08,2008-04-02,18:05:38,-1
433933.80000000005,4425798.15,39542.0888425926,39542.0948726852,38.62499190937348,2008-04-04,02:07:56,2008-04-04,02:16:37,-1
442404.7,4429092.6,39542.1948263889,39542.1948263889,0.0,2008-04-04,04:40:33,2008-04-04,04:40:33,-1
448681.19999999995,4423750.35,39543.2427430556,39543.2487847222,36.20842443374087,2008-04-05,05:49:33,2008-04-05,05:58:15,-1
447733.2,4420966.2,39543.4874884259,39543.4874884259,0.0,2008-04-05,11:41:59,2008-04-05,11:41:59,-1
447628.15,4421005.800000001,39543.5334375,39543.5382291667,41.096593532654744,2008-04-05,12:48:09,2008-04-05,12:55:03,-1
448721.4,4423695.5,39543.6396990741,39543.6396990741,0.0,2008-04-05,15:21:10,2008-04-05,15:21:10,-1
447449.6,4423884.4,39550.6336921296,39550.6336921296,0.0,2008-04-12,15:12:31,2008-04-12,15:12:31,-1
440150.5,4425137.0,39550.6998842593,39550.6998842593,0.0,2008-04-12,16:47:50,2008-04-12,16:47:50,-1
450529.3,4424496.973333333,39552.7247685185,39552.7252546296,46.94017469070991,2008-04-14,17:23:40,2008-04-14,17:24:22,-1
442912.5,4425450.8,39552.8936921296,39552.8936921296,0.0,2008-04-14,21:26:55,2008-04-14,21:26:55,-1
442795.8346938776,4425288.551020407,39560.6149884259,39560.6160532407,34.050844336180816,2008-04-22,14:45:35,2008-04-22,14:47:07,-1
448404.4340961097,4420401.636041191,39564.5046180556,39564.5574305556,14.422205101826899,2008-04-26,12:06:39,2008-04-26,13:22:42,-1
448720.3391304348,4423743.747826086,39564.5893055556,39564.5898032407,46.027817675837206,2008-04-26,14:08:36,2008-04-26,14:09:19,-1
450312.742857143,4425306.402857143,39565.2808912037,39565.2880902778,48.662100242385755,2008-04-27,06:44:29,2008-04-27,06:54:51,-1
450751.15263157897,4424744.631578948,39565.3525347222,39565.3530208333,49.97729484477833,2008-04-27,08:27:39,2008-04-27,08:28:21,-1
503607.6,4513875.3,39569.4981365741,39569.4981365741,0.0,2008-05-01,11:57:19,2008-05-01,11:57:19,-1
546034.7,4548128.55,39569.5542476852,39569.5542708333,31.23859791967241,2008-05-01,13:18:07,2008-05-01,13:18:09,-1
562855.1470588235,4643861.7352941185,39569.6750925926,39569.675462963,43.188540146456894,2008-05-01,16:12:08,2008-05-01,16:12:40,-1
562848.8447368421,4644507.62894737,39569.7207060185,39569.7244675926,33.41810886293724,2008-05-01,17:17:49,2008-05-01,17:23:14,-1
578831.45,4537519.3,39570.7367708333,39570.7367939815,12.0070812436334,2008-05-02,17:40:57,2008-05-02,17:40:59,-1
575993.5625,4538221.5625,39570.8881018519,39570.888287037,25.0,2008-05-02,21:18:52,2008-05-02,21:19:08,-1
454717.60000000003,4417586.024999999,39571.5975231482,39571.5976388889,28.319604516823087,2008-05-03,14:20:26,2008-05-03,14:20:36,-1
442836.3612903225,4425252.980645161,39571.6981944444,39571.6991319444,42.66708333177589,2008-05-03,16:45:24,2008-05-03,16:46:45,531
452015.72857142857,4423436.314285714,39578.0714814815,39578.0717476852,5.059644256085338,2008-05-10,01:42:56,2008-05-10,01:43:19,-1
484281.67777777783,4488503.061111111,39578.2796759259,39578.2846990741,48.186408872710714,2008-05-10,06:42:44,2008-05-10,06:49:58,-1
484315.1854545456,4488516.65090909,39578.4803703704,39578.4844560185,44.818857638199304,2008-05-10,11:31:44,2008-05-10,11:37:37,-1
484298.2846153847,4488510.665384616,39579.1867476852,39579.1895833333,48.89713693060345,2008-05-11,04:28:55,2008-05-11,04:33:00,-1
450667.57777777786,4424677.933333334,39579.3359722222,39579.3362152778,47.828234339329,2008-05-11,08:03:48,2008-05-11,08:04:09,532
442865.5222222222,4425253.688888889,39580.6411458333,39580.6413310185,47.60010504155034,2008-05-12,15:23:15,2008-05-12,15:23:31,531
440669.3202702704,4426776.537837837,39584.4660416667,39584.4712384259,39.52176615471766,2008-05-16,11:11:06,2008-05-16,11:18:35,-1
441990.60000000003,4428661.295652173,39584.5915740741,39584.5922337963,28.1042701381828,2008-05-16,14:11:52,2008-05-16,14:12:49,533
450591.85,4424813.1,39585.1311111111,39585.1311342593,27.50654467537351,2008-05-17,03:08:48,2008-05-17,03:08:50,-1
447926.35,4424579.65,39585.2032638889,39585.203287037,25.176576415415667,2008-05-17,04:52:42,2008-05-17,04:52:44,-1
450176.6333333333,4423600.899999999,39586.257962963,39586.2580092593,17.67257762713178,2008-05-18,06:11:28,2008-05-18,06:11:32,-1
450552.47428571427,4424522.305714286,39586.304837963,39586.3058101852,42.804322211643566,2008-05-18,07:18:58,2008-05-18,07:20:22,-1
450565.5038461539,4424607.569230769,39586.6025462963,39586.6031597222,43.845638323730086,2008-05-18,14:27:40,2008-05-18,14:28:33,-1
441168.4888888889,4425343.325925926,39589.4284375,39589.4700810185,38.38033350560047,2008-05-21,10:16:57,2008-05-21,11:16:55,-1
450671.89999999997,4424662.853571428,39589.5927083333,39589.5934375,47.71247216411077,2008-05-21,14:13:30,2008-05-21,14:14:33,532
440193.2666666666,4425621.733333333,39590.4331481481,39590.4332175926,48.41249838622047,2008-05-22,10:23:44,2008-05-22,10:23:50,-1
440535.54000000004,4424824.053333334,39590.5056944444,39590.5060300926,48.81475186854171,2008-05-22,12:08:12,2008-05-22,12:08:41,-1
449708.2677966101,4428660.150847458,39591.3276157407,39591.4072453704,49.34298329024757,2008-05-23,07:51:46,2008-05-23,09:46:26,-1
449997.41500000004,4426502.325,39591.433900463,39591.4343634259,47.35652014251726,2008-05-23,10:24:49,2008-05-23,10:25:29,-1
450325.19999999984,4424930.328571429,39591.504212963,39591.5048726852,29.841246622917787,2008-05-23,12:06:04,2008-05-23,12:07:01,-1
450591.4137931037,4424658.593103446,39595.5906597222,39595.5922337963,0.6324555318312002,2008-05-27,14:10:33,2008-05-27,14:12:49,-1
441108.71111111116,4427785.455555558,39596.4156134259,39596.4172800926,33.15493930020081,2008-05-28,09:58:29,2008-05-28,10:00:53,-1
450664.6466666666,4424660.693333333,39596.6204050926,39596.6208449074,48.65850388181866,2008-05-28,14:53:23,2008-05-28,14:54:01,532
450680.24603174586,4424615.242857141,39597.4028587963,39597.4059722222,15.849605673337681,2008-05-29,09:40:07,2008-05-29,09:44:36,532
454774.0,4428744.066666666,39599.2575462963,39599.2575925926,48.26313292781376,2008-05-31,06:10:52,2008-05-31,06:10:56,-1
450669.1029411765,4424661.185294116,39599.5799768518,39599.5809722222,32.42344830514341,2008-05-31,13:55:10,2008-05-31,13:56:36,532
445999.8,4427297.7,39600.3646180556,39600.3646180556,0.0,2008-06-01,08:45:03,2008-06-01,08:45:03,-1
450650.4571428571,4424659.600000001,39600.488275463,39600.4884259259,45.82935740260025,2008-06-01,11:43:07,2008-06-01,11:43:20,532
452015.925,4423444.7,39601.2344328704,39601.2348148148,47.809308716990394,2008-06-02,05:37:35,2008-06-02,05:38:08,-1
449737.3,4425981.0,39601.354849537,39601.3548726852,19.308029418566232,2008-06-02,08:30:59,2008-06-02,08:31:01,-1
450686.3333333333,4424733.930952381,39601.410474537,39601.4117361111,36.01610750725599,2008-06-02,09:51:05,2008-06-02,09:52:54,534
450803.26666666666,4425090.533333333,39601.9930092593,39601.9930671296,7.038465741911575,2008-06-02,23:49:56,2008-06-02,23:50:01,-1
449755.22857142857,4423606.960714285,39602.3497800926,39602.3506134259,30.023990407670468,2008-06-03,08:23:41,2008-06-03,08:24:53,-1
450334.9166666667,4423563.583333333,39602.3875115741,39602.3877546296,1.6278820592416767,2008-06-03,09:18:01,2008-06-03,09:18:22,-1
441162.70000000007,4425345.225,39604.3936689815,39604.4388541667,49.921638594486964,2008-06-05,09:26:53,2008-06-05,10:31:57,-1
441974.19250000006,4428678.899999999,39604.4704050926,39604.4718634259,47.764840625820135,2008-06-05,11:17:23,2008-06-05,11:19:29,533
450619.0647058824,4424525.794117647,39604.5979398148,39604.5983796296,48.649768755617096,2008-06-05,14:21:02,2008-06-05,14:21:40,-1
450517.3833333333,4417058.316666666,39606.0080324074,39606.0081712963,48.100727645085,2008-06-07,00:11:34,2008-06-07,00:11:46,-1
706770.6248322147,4413901.21946309,39606.1961574074,39606.2426388889,49.46311757294632,2008-06-07,04:42:28,2008-06-07,05:49:24,-1
712082.1974358977,4410873.338461538,39606.4428935185,39606.4478240741,46.3624848343831,2008-06-07,10:37:46,2008-06-07,10:44:52,-1
712075.5002481384,4410896.147394547,39607.4568171296,39608.072337963,47.66182959119554,2008-06-08,10:57:49,2008-06-09,01:44:10,535
712089.3957446807,4410878.319148935,39608.2285648148,39608.2303125,48.04508299514184,2008-06-09,05:29:08,2008-06-09,05:31:39,535
706802.2551724138,4413922.84137931,39608.3693634259,39608.3701851852,49.87233702199111,2008-06-09,08:51:53,2008-06-09,08:53:04,-1
450348.5142857143,4424581.9428571435,39608.6606134259,39608.6606828704,44.15993659378475,2008-06-09,15:51:17,2008-06-09,15:51:23,-1
442740.7447058824,4427030.254117648,39613.1712615741,39613.3891550926,49.89929859235887,2008-06-14,04:06:37,2008-06-14,09:20:23,-1
445588.43793103436,4425474.910344827,39613.4105439815,39613.4130671296,30.348805577710035,2008-06-14,09:51:11,2008-06-14,09:54:49,-1
442867.4137931034,4425254.655172414,39613.5940740741,39613.5948958333,43.28660300824235,2008-06-14,14:15:28,2008-06-14,14:16:39,531
450209.5857142856,4426635.9771428555,39614.204525463,39614.2067939815,35.9806892650023,2008-06-15,04:54:31,2008-06-15,04:57:47,-1
450366.9055555556,4424709.6,39619.4699652778,39619.4726388889,45.868071683180375,2008-06-20,11:16:45,2008-06-20,11:20:36,-1
440852.09583333327,4426179.070833333,39620.3437731481,39620.344525463,40.853151653226924,2008-06-21,08:15:02,2008-06-21,08:16:07,-1
442885.21875000006,4425235.48125,39621.2119791667,39621.2141319444,49.26672304925917,2008-06-22,05:05:15,2008-06-22,05:08:21,531
450683.4023255815,4424726.690697674,39621.547962963,39621.5490509259,20.020489504201073,2008-06-22,13:09:04,2008-06-22,13:10:38,534
448734.45641025645,4423783.860897439,39627.3820833333,39627.392025463,36.19129729620153,2008-06-28,09:10:12,2008-06-28,09:24:31,-1
441667.77727272734,4422930.613636363,39628.1458912037,39628.1464351852,47.66308844323228,2008-06-29,03:30:05,2008-06-29,03:30:52,-1
441213.77647058823,4429501.182352941,39628.3728703704,39628.3732523148,40.1931586218462,2008-06-29,08:56:56,2008-06-29,08:57:29,-1
440585.06,4424814.96,39628.5225925926,39628.5229166667,40.61785321749759,2008-06-29,12:32:32,2008-06-29,12:33:00,-1
442826.4772727272,4425253.936363636,39629.3034027778,39629.3044791667,47.85154125006817,2008-06-30,07:16:54,2008-06-30,07:18:27,531
449797.6428571428,4428828.014285714,39635.2827430556,39635.2828587963,38.34383914007569,2008-07-06,06:47:09,2008-07-06,06:47:19,-1
449391.1448571432,4427684.170571428,39635.387337963,39635.4103240741,27.16210595683357,2008-07-06,09:17:46,2008-07-06,09:50:52,-1
450362.688,4424305.447999999,39635.5100347222,39635.5106597222,46.56361240225968,2008-07-06,12:14:27,2008-07-06,12:15:21,-1
442007.76666666643,4429012.628205127,39641.2043634259,39641.2054861111,14.246754015937487,2008-07-12,04:54:17,2008-07-12,04:55:54,-1
442731.6,4427038.1,39641.5488194444,39641.5488194444,0.0,2008-07-12,13:10:18,2008-07-12,13:10:18,-1
442875.4199999999,4425251.953333334,39641.6354282407,39641.6360416667,41.66917325849654,2008-07-12,15:15:01,2008-07-12,15:15:54,531
441725.85000000003,4428661.108333333,39642.4323958333,39642.4995949074,47.75824536159234,2008-07-13,10:22:39,2008-07-13,11:59:25,-1
444099.41739130433,4429624.082608694,39642.5447337963,39642.5455671296,27.3016483016872,2008-07-13,13:04:25,2008-07-13,13:05:37,-1
450689.9,4424640.35,39643.3059722222,39645.3210648148,49.679472622525594,2008-07-14,07:20:36,2008-07-16,07:42:20,532
451195.96666666673,4425507.391666667,39645.3384722222,39645.33875,49.50646422437167,2008-07-16,08:07:24,2008-07-16,08:07:48,-1
450913.5107142857,4425195.507142857,39645.4158217593,39645.4165856481,48.303726564313855,2008-07-16,09:58:47,2008-07-16,09:59:53,-1
441979.9227272728,4429081.0227272725,39647.4253935185,39647.4259953704,44.161634932952666,2008-07-18,10:12:34,2008-07-18,10:13:26,-1
452488.3,4423485.9,39647.6473842593,39647.6473842593,0.0,2008-07-18,15:32:14,2008-07-18,15:32:14,-1
450740.71874999994,4424555.643749999,39648.5500462963,39648.5506365741,32.51122882950906,2008-07-19,13:12:04,2008-07-19,13:12:55,-1
441214.54324324324,4425368.237837837,39652.399537037,39652.4017592593,12.625371281816834,2008-07-23,09:35:20,2008-07-23,09:38:32,-1
440934.0838235293,4425113.544117647,39652.4400231481,39652.5766666667,41.82439479541189,2008-07-23,10:33:38,2008-07-23,13:50:24,-1
450639.2,4424768.5,39652.6128240741,39652.6129166667,29.45929394963599,2008-07-23,14:42:28,2008-07-23,14:42:36,-1
450707.83125000005,4424819.2375,39653.0117592593,39653.1222337963,48.098752582754415,2008-07-24,00:16:56,2008-07-24,02:56:01,-1
450675.8571428571,4424642.864285714,39653.1235069444,39653.1242592593,44.26511041451097,2008-07-24,02:57:51,2008-07-24,02:58:56,532
450455.51428571425,4424808.8,39653.2044444444,39653.2047916667,31.231394461171433,2008-07-24,04:54:24,2008-07-24,04:54:54,-1
449767.02941176464,4423596.235294118,39654.4497685185,39654.4887615741,38.53686546744982,2008-07-25,10:47:40,2008-07-25,11:43:49,-1
450333.52285714285,4424921.785714285,39654.4954861111,39654.4972106481,39.52518184607668,2008-07-25,11:53:30,2008-07-25,11:55:59,-1
450682.52424242435,4424666.096969697,39654.5920833333,39655.0223263889,12.731064370398194,2008-07-25,14:12:36,2008-07-26,00:32:09,532
462110.1117647059,4428456.794117647,39655.0673032407,39655.0681134259,41.12031128274685,2008-07-26,01:36:55,2008-07-26,01:38:05,-1
426275.10930232564,4448615.772093022,39656.3564467593,39656.4528472222,22.28542124332074,2008-07-27,08:33:17,2008-07-27,10:52:06,-1
450694.8873684208,4424638.525263159,39656.5119328704,39656.5165625,17.31126800614534,2008-07-27,12:17:11,2008-07-27,12:23:51,532
450502.43749999994,4424899.193750001,39656.9994560185,39657.0002662037,46.939216013939145,2008-07-27,23:59:13,2008-07-28,00:00:23,-1
450703.0864457831,4424674.70391566,39657.2701851852,39657.3076851852,47.70796579176035,2008-07-28,06:29:04,2008-07-28,07:23:04,-1
450660.16521739116,4424640.595652174,39657.3294444444,39657.331412037,33.9611542793329,2008-07-28,07:54:24,2008-07-28,07:57:14,532
450697.8149532709,4424664.041121496,39658.6514351852,39658.6574537037,22.705505940143368,2008-07-29,15:38:04,2008-07-29,15:46:44,532
450328.22307692305,4425319.853846154,39660.4621180556,39660.4628125,48.60504089100746,2008-07-31,11:05:27,2008-07-31,11:06:27,-1
442819.6095238096,4425238.785714285,39660.6223148148,39660.6234722222,42.66427076606051,2008-07-31,14:56:08,2008-07-31,14:57:48,531
447636.9162162162,4426195.494594594,39662.435474537,39662.5285300926,28.64000698392835,2008-08-02,10:27:05,2008-08-02,12:41:05,-1
450299.7333333335,4425302.009999999,39662.6090625,39662.6117476852,49.987398411980514,2008-08-02,14:37:03,2008-08-02,14:40:55,-1
442047.3,4428764.5,39662.6737384259,39662.6738541667,45.62455479166558,2008-08-02,16:10:11,2008-08-02,16:10:21,-1
450273.8999999998,4426582.24054054,39663.1884027778,39663.1892361111,41.651530583956635,2008-08-03,04:31:18,2008-08-03,04:32:30,-1
450367.6677419355,4424902.403225807,39663.4305671296,39663.4312615741,49.58638926131437,2008-08-03,10:20:01,2008-08-03,10:21:01,-1
441988.89999999997,4428697.2282051295,39663.5564236111,39663.5572916667,49.30638903848469,2008-08-03,13:21:15,2008-08-03,13:22:30,533
712443.4206367923,4410730.890094338,39668.1244675926,39668.1628240741,20.382345301629524,2008-08-08,02:59:14,2008-08-08,03:54:28,-1
712070.1963922292,4410910.235892686,39668.1772685185,39668.2260416667,43.75077142182477,2008-08-08,04:15:16,2008-08-08,05:25:30,535
712072.6316446692,4410905.87106675,39668.4126157407,39668.4774768518,32.64597984475485,2008-08-08,09:54:10,2008-08-08,11:27:34,535
698120.3592485548,4389572.759537587,39669.1237615741,39669.1317476852,40.74825149591064,2008-08-09,02:58:13,2008-08-09,03:09:43,-1
697933.1533783787,4389860.145945944,39669.228275463,39669.2351851852,43.30011547333284,2008-08-09,05:28:43,2008-08-09,05:38:40,-1
713954.0123287672,4411498.1280821925,39669.4900115741,39669.5010763889,48.09656952407254,2008-08-09,11:45:37,2008-08-09,12:01:33,-1
713916.4057692309,4411480.281089746,39670.1392013889,39670.172650463,48.03051113621635,2008-08-10,03:20:27,2008-08-10,04:08:37,-1
713761.3026548671,4411373.405752209,39670.2471527778,39670.2523611111,43.42027176295252,2008-08-10,05:55:54,2008-08-10,06:03:24,-1
450347.5333333334,4424527.233333333,39670.5839930556,39670.5840393519,36.05551275463989,2008-08-10,14:00:57,2008-08-10,14:01:01,-1
441239.375,4425332.7625,39671.4105208333,39671.4109259259,46.209955637288864,2008-08-11,09:51:09,2008-08-11,09:51:44,-1
450695.5333333334,4424622.100000001,39671.5977083333,39671.598125,25.985572920372565,2008-08-11,14:20:42,2008-08-11,14:21:18,532
445564.34482758614,4425478.572413793,39672.4455324074,39672.447037037,47.21281605652006,2008-08-12,10:41:34,2008-08-12,10:43:44,-1
450704.0209302326,4424618.044186046,39672.5705092593,39672.5756597222,41.002682838497606,2008-08-12,13:41:32,2008-08-12,13:48:57,532
450286.0260073259,4426603.083516486,39676.2598148148,39676.4290277778,48.71550061307623,2008-08-16,06:14:08,2008-08-16,10:17:48,-1
453654.1866666667,4425218.266666668,39676.4459259259,39676.4496875,44.154274990881504,2008-08-16,10:42:08,2008-08-16,10:47:33,-1
450688.1428571429,4424686.8,39676.5856018519,39676.5859490741,47.31595925230166,2008-08-16,14:03:16,2008-08-16,14:03:46,532
442880.56666666665,4425272.1,39677.1892361111,39677.1893518518,31.44073790499307,2008-08-17,04:32:30,2008-08-17,04:32:40,531
440872.5199999999,4425944.72,39695.4447569444,39695.4454282407,47.59716378108253,2008-09-04,10:40:27,2008-09-04,10:41:25,-1
450650.34193548386,4424636.483870967,39695.5919328704,39695.5926273148,48.077541534330614,2008-09-04,14:12:23,2008-09-04,14:13:23,-1
450353.76249999995,4424812.96875,39699.3939814815,39699.3943287037,46.74719242924969,2008-09-08,09:27:20,2008-09-08,09:27:50,-1
441806.78571428574,4428006.3,39703.4259722222,39703.4261111111,24.493468517218133,2008-09-12,10:13:24,2008-09-12,10:13:36,-1
450687.7446428571,4424662.9625,39703.5959375,39703.5994097222,21.5522620620962,2008-09-12,14:18:09,2008-09-12,14:23:09,532
443221.5545454545,4425584.027272727,39704.1567476852,39704.1647337963,17.04142012859951,2008-09-13,03:45:43,2008-09-13,03:57:13,-1
442863.73500000004,4425242.690000001,39704.231412037,39704.2333796296,36.88793840814958,2008-09-13,05:33:14,2008-09-13,05:36:04,531
442854.7571428572,4425253.828571429,39704.5798263889,39704.5801736111,33.828538248471034,2008-09-13,13:54:57,2008-09-13,13:55:27,531
450696.425,4424753.45,39706.4082638889,39706.408900463,49.19613805979218,2008-09-15,09:47:54,2008-09-15,09:48:49,534
442846.26363636367,4425250.518181819,39706.5382523148,39706.5388310185,45.40539615498708,2008-09-15,12:55:05,2008-09-15,12:55:55,531
442002.64230769227,4428662.276923077,39706.8604861111,39707.2553009259,41.735356713428175,2008-09-15,20:39:06,2008-09-16,06:07:38,533
442860.50384615373,4425250.103846154,39707.2678009259,39707.2691319444,32.045592520568405,2008-09-16,06:25:38,2008-09-16,06:27:33,531
441987.02424242423,4428679.106060607,39707.794212963,39708.1446064815,44.73209138842512,2008-09-16,19:03:40,2008-09-17,03:28:14,533
442854.54117647064,4425229.199999999,39708.1714814815,39708.172349537,33.6867926642773,2008-09-17,04:06:56,2008-09-17,04:08:11,531
442854.32571428566,4425243.537142858,39708.2439236111,39708.6974652778,39.91804103434033,2008-09-17,05:51:15,2008-09-17,16:44:21,531
441994.6444444445,4428661.1,39708.7083449074,39708.70875,34.468101195188204,2008-09-17,17:00:01,2008-09-17,17:00:36,533
442854.2071428571,4425230.149999999,39709.1646296296,39709.1653240741,48.676277589919444,2008-09-18,03:57:04,2008-09-18,03:58:04,531
450406.8870967742,4426493.4451612905,39709.357349537,39709.358912037,31.51586901863885,2008-09-18,08:34:35,2008-09-18,08:36:50,-1
442890.4375,4425270.375,39709.5461805556,39709.5465856481,44.50404476002098,2008-09-18,13:06:30,2008-09-18,13:07:05,531
441111.9999999999,4425399.9399999995,39710.1696527778,39710.1701736111,49.70160963152202,2008-09-19,04:04:18,2008-09-19,04:05:03,-1
442872.87499999994,4425238.875,39710.259525463,39710.2599305556,47.40042193849155,2008-09-19,06:13:43,2008-09-19,06:14:18,531
442877.88,4425269.300000001,39710.7789236111,39710.7791550926,49.42974812802344,2008-09-19,18:41:39,2008-09-19,18:41:59,531
442442.65,4428649.125,39711.1988657407,39711.2019907407,40.1601792826177,2008-09-20,04:46:22,2008-09-20,04:50:52,-1
448648.76406249986,4423812.799999997,39711.3182060185,39711.3221875,25.681510858967837,2008-09-20,07:38:13,2008-09-20,07:43:57,-1
442923.85833333334,4425293.183333334,39712.2941087963,39712.2946412037,49.79407595293453,2008-09-21,07:03:31,2008-09-21,07:04:17,-1
450329.1555555556,4424731.311111111,39714.4865509259,39714.4887268519,47.93881517082163,2008-09-23,11:40:38,2008-09-23,11:43:46,-1
450434.4971428572,4424862.559999999,39714.5764814815,39714.5772685185,49.05547879695869,2008-09-23,13:50:08,2008-09-23,13:51:16,-1
442423.0884615385,4427099.661538461,39720.464375,39720.4649768519,42.28711387619932,2008-09-29,11:08:42,2008-09-29,11:09:34,-1
450632.8384615385,4424644.215384616,39720.5558217593,39720.5666550926,47.464723743136545,2008-09-29,13:20:23,2008-09-29,13:35:59,-1
442870.1187499999,4425246.721875001,39721.1668981481,39721.1699074074,5.688585060964429,2008-09-30,04:00:20,2008-09-30,04:04:40,531
442439.04029850726,4428653.829850745,39721.2741782407,39721.3109375,45.609757727924844,2008-09-30,06:34:49,2008-09-30,07:27:45,-1
442430.4758620688,4427060.841379311,39721.4000694444,39721.4007175926,12.242957158991777,2008-09-30,09:36:06,2008-09-30,09:37:02,-1
450671.5315789473,4424699.9052631585,39721.5904513889,39721.5908680556,49.14346345122034,2008-09-30,14:10:15,2008-09-30,14:10:51,532
450599.08571428555,4424524.34,39722.4238541667,39722.4254513889,46.64354188964593,2008-10-01,10:10:21,2008-10-01,10:12:39,-1
450622.65588235296,4424525.117647059,39723.1539236111,39723.1556828704,49.118733697349185,2008-10-02,03:41:39,2008-10-02,03:44:11,-1
449763.6446428572,4424821.044642857,39723.3671064815,39723.3698611111,46.20789975803318,2008-10-02,08:48:38,2008-10-02,08:52:36,-1
442871.4142857143,4425332.799999999,39723.4915046296,39723.4916435185,11.574109037158035,2008-10-02,11:47:46,2008-10-02,11:47:58,531
442007.6355555556,4428662.435555558,39727.7360648148,39728.1869097222,48.711908194626524,2008-10-06,17:39:56,2008-10-07,04:29:09,533
442860.7199999999,4425397.819999999,39728.2007523148,39728.2008449074,9.831073186774946,2008-10-07,04:49:05,2008-10-07,04:49:13,-1
442862.62098765426,4425249.4296296295,39729.2062615741,39729.2086689815,48.72217154419849,2008-10-08,04:57:01,2008-10-08,05:00:29,531
442012.23513513524,4428664.899999999,39729.7676273148,39730.1838541667,46.62038180852988,2008-10-08,18:25:23,2008-10-09,04:24:45,533
442816.85,4425209.65,39730.1969328704,39730.1970023148,14.78681845446821,2008-10-09,04:43:35,2008-10-09,04:43:41,-1
448484.9069767445,4448027.024418606,39732.2879398148,39732.2960648148,46.40775797199609,2008-10-11,06:54:38,2008-10-11,07:06:20,-1
448504.95851183747,4448040.0564825265,39733.0374884259,39733.0801851852,49.940965149045454,2008-10-12,00:53:59,2008-10-12,01:55:28,-1
448575.2842578713,4447057.304947512,39733.1616550926,39733.2178587963,45.0564090892272,2008-10-12,03:52:47,2008-10-12,05:13:43,-1
442905.0718750001,4425280.296875001,39733.3106018519,39733.3113194444,48.380264571169356,2008-10-12,07:27:16,2008-10-12,07:28:18,531
442001.43448275863,4428669.403448277,39733.6823032407,39733.6829513889,40.80747480548141,2008-10-12,16:22:31,2008-10-12,16:23:27,533
441822.4348314607,4428766.744943818,39734.1773726852,39734.1794097222,36.81480680305431,2008-10-13,04:15:25,2008-10-13,04:18:21,-1
441953.79749999987,4428660.0200000005,39734.5010763889,39734.5019791667,49.85147941631346,2008-10-13,12:01:33,2008-10-13,12:02:51,533
442874.74000000005,4425229.41,39735.1309953704,39735.1325,43.965554699148655,2008-10-14,03:08:38,2008-10-14,03:10:48,531
441990.2136363637,4428645.081818182,39735.4379398148,39735.4384259259,43.3175484071063,2008-10-14,10:30:38,2008-10-14,10:31:20,533
442838.2,4425348.0,39736.1693055556,39736.1693055556,0.0,2008-10-15,04:03:48,2008-10-15,04:03:48,536
447515.440909091,4427578.163636364,39736.5618981481,39736.5628472222,49.86070597192257,2008-10-15,13:29:08,2008-10-15,13:30:30,-1
441976.3999999999,4428655.494117648,39736.6415740741,39736.642337963,41.21674417037735,2008-10-15,15:23:52,2008-10-15,15:24:58,533
442863.48000000016,4425314.6680000005,39737.1577314815,39737.1584953704,20.624742422807827,2008-10-16,03:47:08,2008-10-16,03:48:14,531
441966.5259259262,4428660.512962963,39737.4378240741,39737.4390509259,45.38039224171833,2008-10-16,10:30:28,2008-10-16,10:32:14,533
442834.46428571414,4425237.278571429,39738.0975810185,39738.0984375,49.568235796696094,2008-10-17,02:20:31,2008-10-17,02:21:45,531
442866.8911111109,4425274.424444445,39738.2593055556,39738.2598148148,32.45242671974242,2008-10-17,06:13:24,2008-10-17,06:14:08,531
441807.0474576272,4428793.488135593,39738.438900463,39738.4413541667,20.09278477430823,2008-10-17,10:32:01,2008-10-17,10:35:33,-1
441782.1724137933,4428797.956896552,39739.1279050926,39739.1314236111,48.94742076931572,2008-10-18,03:04:11,2008-10-18,03:09:15,-1
443099.08333333343,4425183.083333331,39739.2345717593,39739.2356597222,15.74960316905516,2008-10-18,05:37:47,2008-10-18,05:39:21,-1
447881.568,4417567.228,39739.5098032407,39739.5103587963,48.11257631849016,2008-10-18,12:14:07,2008-10-18,12:14:55,-1
441964.2913043478,4428653.8304347815,39739.578287037,39739.5787962963,49.08971378961278,2008-10-18,13:52:44,2008-10-18,13:53:28,533
442014.9619047618,4428667.271428574,39740.1401273148,39740.1405902778,49.17570538373253,2008-10-19,03:21:47,2008-10-19,03:22:27,533
441303.6,4426020.7,39740.2374305556,39740.2374305556,0.0,2008-10-19,05:41:54,2008-10-19,05:41:54,-1
442871.0022569439,4425236.498958323,39740.5527662037,39740.6076851852,48.90480548975567,2008-10-19,13:15:59,2008-10-19,14:35:04,531
441780.5483870967,4428698.3048387095,39740.6246990741,39740.6273842593,39.1541824071674,2008-10-19,14:59:34,2008-10-19,15:03:26,-1
442865.4636363636,4425325.336363638,39741.089837963,39741.0900694444,10.948059188710939,2008-10-20,02:09:22,2008-10-20,02:09:42,531
441777.5157894736,4428706.605263158,39741.407037037,39741.4074537037,45.94790528413997,2008-10-20,09:46:08,2008-10-20,09:46:44,-1
441769.88999999996,4428742.239999999,39741.4829282407,39741.4842939815,49.438851119523804,2008-10-20,11:35:25,2008-10-20,11:37:23,-1
442857.3627906979,4425240.683720929,39742.1486342593,39742.1496064815,49.32930163705427,2008-10-21,03:34:02,2008-10-21,03:35:26,531
442936.6922222223,4425270.873333336,39743.3383101852,39743.4139814815,47.02393007820593,2008-10-22,08:07:10,2008-10-22,09:56:08,-1
442856.4086956521,4425232.678260868,39743.4720023148,39743.4725115741,43.23389873697734,2008-10-22,11:19:41,2008-10-22,11:20:25,531
441998.66190476186,4428667.309523811,39743.7086805556,39743.7091435185,44.41125983353847,2008-10-22,17:00:30,2008-10-22,17:01:10,533
442864.80677966104,4425238.330508474,39744.1267824074,39744.128125,49.679170685050366,2008-10-23,03:02:34,2008-10-23,03:04:30,531
441991.7877551021,4428674.893877552,39744.7240046296,39744.7251157407,40.42301324739413,2008-10-23,17:22:34,2008-10-23,17:24:10,533
442851.205263158,4425238.957894738,39745.0579861111,39745.2005555556,36.776351096866584,2008-10-24,01:23:30,2008-10-24,04:48:48,531
442966.2088888889,4425006.657777778,39745.2074305556,39745.2552083333,47.32229918319672,2008-10-24,04:58:42,2008-10-24,06:07:30,-1
442868.15925925924,4425273.818518518,39745.2593981481,39745.2614583333,34.73974668896086,2008-10-24,06:13:32,2008-10-24,06:16:30,531
442854.0714285715,4425240.714285715,39745.4737037037,39745.4743287037,47.44006745359162,2008-10-24,11:22:08,2008-10-24,11:23:02,531
442316.97619047627,4428200.657142856,39747.4480439815,39747.4495949074,39.414971774589574,2008-10-26,10:45:11,2008-10-26,10:47:25,-1
450681.0313782992,4424656.25938416,39747.5456597222,39747.5819791667,45.57422517168335,2008-10-26,13:05:45,2008-10-26,13:58:03,532
450630.41764705884,4424730.104411764,39747.5820023148,39747.5835532407,42.980228012372365,2008-10-26,13:58:05,2008-10-26,14:00:19,-1
442892.89999999997,4425287.753846154,39752.1973032407,39752.1978125,26.174797038624178,2008-10-31,04:44:07,2008-10-31,04:44:51,531
442861.4307692308,4425264.053846153,39753.2558564815,39753.2571990741,45.570275399399215,2008-11-01,06:08:26,2008-11-01,06:10:22,531
450696.3428571429,4424630.017857142,39753.6093518519,39753.6133564815,34.75356096863324,2008-11-01,14:37:28,2008-11-01,14:43:14,532
442018.66071428574,4428488.535714286,39753.8959259259,39753.8965509259,43.54595273960601,2008-11-01,21:30:08,2008-11-01,21:31:02,-1
441978.86363636365,4428663.790909088,39754.8568055556,39754.8578009259,45.3855703942991,2008-11-02,20:33:48,2008-11-02,20:35:14,533
442851.45,4425238.746428573,39755.0834953704,39755.0841203704,40.15295754987983,2008-11-03,02:00:14,2008-11-03,02:01:08,531
448913.6,4428329.3,39755.266412037,39755.266412037,0.0,2008-11-03,06:23:38,2008-11-03,06:23:38,-1
442845.82413793093,4425278.775862069,39755.456724537,39755.4573726852,47.30591929139578,2008-11-03,10:57:41,2008-11-03,10:58:37,531
441993.02820512827,4428673.141025641,39755.7480787037,39755.7489583333,48.530917980126326,2008-11-03,17:57:14,2008-11-03,17:58:30,533
440339.57333333336,4421611.776666667,39756.5649884259,39756.6042708333,45.98314908745805,2008-11-04,13:33:35,2008-11-04,14:30:09,-1
441970.3684931507,4428682.756164384,39756.6568402778,39756.6585069444,33.87107910873262,2008-11-04,15:45:51,2008-11-04,15:48:15,533
441988.3411764707,4428696.952941176,39756.6934837963,39756.6938541667,42.720018726587654,2008-11-04,16:38:37,2008-11-04,16:39:09,533
450721.3333333333,4424593.833333333,39757.3840972222,39757.3841435185,5.738466694029362,2008-11-05,09:13:06,2008-11-05,09:13:10,-1
450778.44285714295,4424856.228571428,39757.4609837963,39757.4611226852,49.10651687896571,2008-11-05,11:03:49,2008-11-05,11:04:01,-1
449785.15250000014,4425200.135000001,39757.6266550926,39757.6275578704,47.95049530505394,2008-11-05,15:02:23,2008-11-05,15:03:41,-1
441956.4333333333,4428743.377777778,39758.7840625,39758.7842476852,31.219385003392283,2008-11-06,18:49:03,2008-11-06,18:49:19,-1
442863.32599999994,4425237.198,39759.2736342593,39759.2747685185,48.19180428283961,2008-11-07,06:34:02,2008-11-07,06:35:40,531
442865.1225806452,4425234.967741935,39769.067349537,39769.0680439815,46.952742198541216,2008-11-17,01:36:59,2008-11-17,01:37:59,531
441983.3449999999,4428652.649999999,39769.2303703704,39769.2308333333,37.75950211555291,2008-11-17,05:31:44,2008-11-17,05:32:24,533
442772.6440000001,4425237.235999999,39769.3090972222,39769.3096527778,46.083402652093014,2008-11-17,07:25:06,2008-11-17,07:25:54,-1
442869.0285714286,4425330.071428572,39770.0556134259,39770.0557523148,27.954427198299122,2008-11-18,01:20:05,2008-11-18,01:20:17,531
442868.1021276598,4425247.063829786,39770.2391898148,39770.675787037,47.2411896549616,2008-11-18,05:44:26,2008-11-18,16:13:08,531
442020.8333333333,4428670.261111111,39770.6863194444,39770.686712963,26.847718711584132,2008-11-18,16:28:18,2008-11-18,16:28:52,533
442864.31590909103,4425221.736363635,39771.0837847222,39771.0847800926,37.982364328461635,2008-11-19,02:00:39,2008-11-19,02:02:05,531
442850.5233333333,4425280.206666667,39772.1009375,39772.1015625,49.47261868939327,2008-11-20,02:25:21,2008-11-20,02:26:15,531
450711.1878048782,4424761.585365853,39772.4800694444,39772.4809953704,48.120889435160905,2008-11-20,11:31:18,2008-11-20,11:32:38,-1
442853.6000000001,4425254.964705883,39772.5523958333,39772.5527662037,48.685624161545945,2008-11-20,13:15:27,2008-11-20,13:15:59,531
442852.2,4425373.6,39773.0818865741,39773.0818865741,0.0,2008-11-21,01:57:55,2008-11-21,01:57:55,536
442547.2,4425102.2,39774.1761574074,39774.1761574074,0.0,2008-11-22,04:13:40,2008-11-22,04:13:40,-1
442115.4888888889,4428654.877777778,39774.6178819444,39774.6180671296,46.25883699373359,2008-11-22,14:49:45,2008-11-22,14:50:01,-1
442003.5833333333,4428670.4,39775.7425810185,39775.742974537,45.693872674553276,2008-11-23,17:49:19,2008-11-23,17:49:53,533
442861.75555555563,4425251.055555553,39776.0850694444,39776.086087963,49.097861460404765,2008-11-24,02:02:30,2008-11-24,02:03:58,531
441997.3444444444,4428668.722222222,39776.6650694444,39777.0701388889,35.06565271012241,2008-11-24,15:57:42,2008-11-25,01:41:00,533
442848.8095238095,4425294.285714285,39777.0834722222,39777.0839351852,47.83565615711646,2008-11-25,02:00:12,2008-11-25,02:00:52,531
442857.4111111111,4425293.774074075,39777.2078587963,39777.2084606481,36.277403435370815,2008-11-25,04:59:19,2008-11-25,05:00:11,531
441988.14893617015,4428682.025531913,39777.6464236111,39777.6474884259,48.077541534739346,2008-11-25,15:30:51,2008-11-25,15:32:23,533
442855.60892857146,4425243.721428571,39778.0962268518,39778.0975,49.257080709463004,2008-11-26,02:18:34,2008-11-26,02:20:24,531
450680.1324786327,4424735.136752138,39778.3392476852,39778.3758680556,49.12117669592465,2008-11-26,08:08:31,2008-11-26,09:01:15,534
450718.23750000005,4424819.100000001,39778.3789236111,39778.3790856482,42.905710574903566,2008-11-26,09:05:39,2008-11-26,09:05:53,-1
441993.8184210526,4428666.713157895,39778.6593981481,39778.6602199074,49.08543572173777,2008-11-26,15:49:32,2008-11-26,15:50:43,533
442845.5681818181,4425283.390909092,39779.1061342593,39779.1069444444,45.82630249029115,2008-11-27,02:32:50,2008-11-27,02:34:00,531
442007.17000000004,4428664.430000001,39779.6162384259,39779.6164467593,41.89367494023392,2008-11-27,14:47:23,2008-11-27,14:47:41,533
442862.90000000014,4425286.835555555,39780.1970717593,39780.1991087963,20.761743663986415,2008-11-28,04:43:47,2008-11-28,04:46:43,531
442516.05,4427136.85,39780.5430787037,39780.5431481482,46.06354306806186,2008-11-28,13:02:02,2008-11-28,13:02:08,-1
442743.1354838709,4425301.625806452,39780.5897337963,39780.5904282407,22.900218339537993,2008-11-28,14:09:13,2008-11-28,14:10:13,-1
442849.3073170731,4425250.460975611,39781.212025463,39781.2129513889,41.713786689770274,2008-11-29,05:05:19,2008-11-29,05:06:39,531
451225.8181818182,4424351.736363635,39781.3786342593,39781.380462963,49.01469167505236,2008-11-29,09:05:14,2008-11-29,09:07:52,-1
442870.71666666673,4425293.024999999,39781.5077430556,39781.5079976852,44.75991510218681,2008-11-29,12:11:09,2008-11-29,12:11:31,531
441990.0210526316,4428666.394736841,39782.6771990741,39782.6780555556,35.05709628591621,2008-11-30,16:15:10,2008-11-30,16:16:24,533
442751.61600000004,4425288.898000001,39783.1039930556,39783.6668865741,49.8485706916423,2008-12-01,02:29:45,2008-12-01,16:00:19,-1
441964.2604166667,4428716.258333332,39783.6911689815,39783.6933912037,12.780062597811447,2008-12-01,16:35:17,2008-12-01,16:38:29,-1
441998.1484848486,4428673.157575759,39784.662650463,39784.6633912037,45.60043859425738,2008-12-02,15:54:13,2008-12-02,15:55:17,533
442863.7,4425321.750000001,39785.106099537,39785.1063078704,11.221853679340215,2008-12-03,02:32:47,2008-12-03,02:33:05,531
442001.48421052634,4428665.843859649,39785.6480902778,39785.6493865741,40.16030378369855,2008-12-03,15:33:15,2008-12-03,15:35:07,533
442854.07241379295,4425241.020689655,39786.0928240741,39786.0934722222,42.21670285565951,2008-12-04,02:13:40,2008-12-04,02:14:36,531
450539.2272727273,4424912.763636365,39790.5206134259,39790.5218171296,40.67099703701605,2008-12-08,12:29:41,2008-12-08,12:31:25,-1
442006.8266666666,4428665.333333333,39790.6701851852,39790.6705092593,46.591093569488784,2008-12-08,16:05:04,2008-12-08,16:05:32,533
442858.05,4425310.983333333,39791.1891203704,39791.1892361111,10.977249199702756,2008-12-09,04:32:20,2008-12-09,04:32:30,531
442863.4857142857,4425281.042857142,39792.1472337963,39792.148599537,41.12468844866882,2008-12-10,03:32:01,2008-12-10,03:33:59,531
442126.94999999995,4428850.25,39793.1986805556,39793.2033564815,16.664333169677086,2008-12-11,04:46:06,2008-12-11,04:52:50,-1
442851.3171428572,4425247.282857144,39793.3159490741,39793.3167361111,39.02870738298017,2008-12-11,07:34:58,2008-12-11,07:36:06,531
441994.6409090909,4428679.045454546,39793.6454861111,39793.6459722222,43.65329311757437,2008-12-11,15:29:30,2008-12-11,15:30:12,533
442865.79375000007,4425291.9906250015,39794.1594907407,39794.1604861111,31.384709652205977,2008-12-12,03:49:40,2008-12-12,03:51:06,531
445941.56666666665,4439313.066666667,39795.141412037,39795.1416666667,47.51778614384885,2008-12-13,03:23:38,2008-12-13,03:24:00,-1
448757.5782608694,4423678.769565218,39795.383900463,39795.3844097222,43.200115740585694,2008-12-13,09:12:49,2008-12-13,09:13:33,-1
442898.77999999997,4425366.126666667,39796.3057986111,39796.3061226852,39.830264874347144,2008-12-14,07:20:21,2008-12-14,07:20:49,-1
442823.7828571429,4425239.762857143,39796.5729166667,39796.5737037037,41.76984558234069,2008-12-14,13:45:00,2008-12-14,13:46:08,531
442211.45,4421058.589285715,39797.420474537,39797.421099537,49.154653899615994,2008-12-15,10:05:29,2008-12-15,10:06:23,-1
442848.08378378383,4425252.754054053,39797.5265393518,39797.5273726852,43.96191533606946,2008-12-15,12:38:13,2008-12-15,12:39:25,531
442002.909090909,4428677.681818183,39798.6367361111,39798.6372106481,46.06788469204984,2008-12-16,15:16:54,2008-12-16,15:17:35,533
442857.6875,4425321.05,39799.0707407407,39799.0709027778,12.106609765476932,2008-12-17,01:41:52,2008-12-17,01:42:06,531
442893.95000000007,4425224.69375,39802.4005902778,39802.4009375,46.61523356174827,2008-12-20,09:36:51,2008-12-20,09:37:21,531
450297.1469387755,4424327.312244899,39802.5861342593,39802.6253819444,47.62709312981596,2008-12-20,14:04:02,2008-12-20,15:00:33,-1
450334.2428571429,4424361.0571428565,39802.6254050926,39802.6255439815,18.94465623893381,2008-12-20,15:00:35,2008-12-20,15:00:47,-1
450744.16774193547,4424733.622580645,39803.437025463,39803.4388773148,34.54924022337392,2008-12-21,10:29:19,2008-12-21,10:31:59,-1
442004.3874999999,4428674.609375,39804.6582060185,39804.6598263889,19.00000000016298,2008-12-22,15:47:49,2008-12-22,15:50:09,533
442857.30833333335,4425240.116666666,39805.102349537,39805.1029861111,44.91970614344272,2008-12-23,02:27:23,2008-12-23,02:28:18,531
453648.8727272728,4425241.381818182,39805.5451273148,39805.5457060185,45.93963430443469,2008-12-23,13:04:59,2008-12-23,13:05:49,-1
442870.37500000006,4425283.875,39805.6269675926,39805.6273726852,48.97887299647026,2008-12-23,15:02:50,2008-12-23,15:03:25,531
441268.0975308642,4425327.581481483,39806.4248263889,39806.4285532407,33.01893396164035,2008-12-24,10:11:45,2008-12-24,10:17:07,-1
441995.0857142858,4428670.357142857,39806.6410069444,39806.641724537,30.513275799243033,2008-12-24,15:23:03,2008-12-24,15:24:05,533
442855.6999999999,4425243.075,39807.0740393519,39807.0747916667,43.865704143544086,2008-12-25,01:46:37,2008-12-25,01:47:42,531
441991.6000000001,4428675.896428571,39807.7534027778,39807.7547337963,41.06214801971835,2008-12-25,18:04:54,2008-12-25,18:06:49,533
442861.25555555563,4425275.566666666,39808.0797916667,39808.0802546296,47.14657993886295,2008-12-26,01:54:54,2008-12-26,01:55:34,531
442849.6555555556,4425260.244444445,39808.2482291667,39808.2486921296,42.09049774022907,2008-12-26,05:57:27,2008-12-26,05:58:07,531
450321.37345971604,4426621.403317535,39808.4487268519,39808.4888310185,36.144847489222606,2008-12-26,10:46:10,2008-12-26,11:43:55,-1
453659.6499999999,4425183.088888888,39808.504224537,39808.505150463,47.0558179186531,2008-12-26,12:06:05,2008-12-26,12:07:25,-1
441995.9534246577,4428670.458904109,39808.7806712963,39809.031400463,5.882176468146926,2008-12-26,18:44:10,2008-12-27,00:45:13,533
434118.5833333333,4453206.483333333,39809.1608101852,39809.161099537,47.78755068059081,2008-12-27,03:51:34,2008-12-27,03:51:59,-1
442916.01875000005,4424967.2375,39809.3361805556,39809.3369328704,37.987629565581564,2008-12-27,08:04:06,2008-12-27,08:05:11,-1
450383.9000000001,4426346.325,39810.1606712963,39810.1611921296,36.43473617305594,2008-12-28,03:51:22,2008-12-28,03:52:07,-1
450723.8599999999,4424589.494,39810.3904050926,39810.3922106481,25.695524902242283,2008-12-28,09:22:11,2008-12-28,09:24:47,-1
441992.85000000003,4428459.016666667,39810.7264814815,39810.727025463,30.095846889541335,2008-12-28,17:26:08,2008-12-28,17:26:55,-1
442852.8272727273,4425237.709090909,39811.1166203704,39811.1171412037,42.40577790820492,2008-12-29,02:47:56,2008-12-29,02:48:41,531
441993.15312499995,4428664.043749999,39811.682337963,39812.0658449074,49.603729698303304,2008-12-29,16:22:34,2008-12-30,01:34:49,533
442061.82631578954,4428609.384210526,39812.0659027778,39812.0668287037,16.901183390245492,2008-12-30,01:34:54,2008-12-30,01:36:14,-1
441055.94000000006,4425477.694545455,39813.4314699074,39813.5380208333,48.580757507485394,2008-12-31,10:21:19,2008-12-31,12:54:45,-1
443020.37600000016,4424548.156,39813.547337963,39813.5485532407,34.37586362501812,2008-12-31,13:08:10,2008-12-31,13:09:55,-1
442944.24503546115,4425263.92925532,39814.6462615741,39814.6995601852,44.24081825680385,2009-01-01,15:30:37,2009-01-01,16:47:22,-1
442857.45,4425309.9,39814.7473611111,39814.7474189815,9.042676594651082,2009-01-01,17:56:12,2009-01-01,17:56:17,531
441967.9,4428681.5,39819.4440393519,39819.4440393519,0.0,2009-01-06,10:39:25,2009-01-06,10:39:25,533
442888.625,4425308.775,39819.5571412037,39819.5573148148,3.981205847537359,2009-01-06,13:22:17,2009-01-06,13:22:32,531
442020.53478260874,4428664.173913045,39824.5660763889,39824.5671180556,43.60103209793779,2009-01-11,13:35:09,2009-01-11,13:36:39,533
442851.10000000003,4425301.425,39825.1750578704,39825.1752314815,18.21675053314933,2009-01-12,04:12:05,2009-01-12,04:12:20,531
442035.8625,4428662.524999999,39825.696724537,39825.6970717593,35.47647107555071,2009-01-12,16:43:17,2009-01-12,16:43:47,-1
442861.34,4425236.890000001,39826.0913541667,39826.0918171296,36.00347205449514,2009-01-13,02:11:33,2009-01-13,02:12:13,531
442863.78125000006,4425259.79375,39826.2119791667,39826.2127314815,3.2893768403403025,2009-01-13,05:05:15,2009-01-13,05:06:20,531
442867.61500000005,4425233.1,39827.5263541667,39827.5272800926,41.10985283358184,2009-01-14,12:37:57,2009-01-14,12:39:17,531
442028.7368421053,4428668.600000001,39827.7649884259,39828.0752777778,44.93484171537418,2009-01-14,18:21:35,2009-01-15,01:48:24,533
442850.7266666667,4425248.88,39828.0883564815,39828.0890509259,45.80927853612972,2009-01-15,02:07:14,2009-01-15,02:08:14,531
450048.12,4426550.11,39828.4405324074,39828.4409953704,29.3073369654557,2009-01-15,10:34:22,2009-01-15,10:35:02,-1
442872.93846153846,4425273.984615385,39828.536087963,39828.5367824074,49.14682085340469,2009-01-15,12:51:58,2009-01-15,12:52:58,531
442854.50625000003,4425276.73125,39829.1162731481,39829.1174305556,45.94126685271974,2009-01-16,02:47:26,2009-01-16,02:49:06,531
442555.75999999995,4427004.033333332,39829.1831365741,39829.1839467593,42.20426518744246,2009-01-16,04:23:43,2009-01-16,04:24:53,-1
442837.7666666666,4425441.584848484,39829.2553240741,39829.2569444444,45.621924553850725,2009-01-16,06:07:40,2009-01-16,06:10:00,-1
441974.7615384615,4428665.142307692,39829.7316435185,39829.7370833333,8.030566605166555,2009-01-16,17:33:34,2009-01-16,17:41:24,533
442863.0500000001,4425234.524999999,39830.1212962963,39830.1220486111,33.00681747759335,2009-01-17,02:54:40,2009-01-17,02:55:45,531
441990.575,4429057.6125,39831.1884837963,39831.1888310185,49.30415803919907,2009-01-18,04:31:25,2009-01-18,04:31:55,-1
441952.98124999995,4428690.58125,39831.4183564815,39831.419224537,32.17592267518404,2009-01-18,10:02:26,2009-01-18,10:03:41,533
450695.04666666663,4424652.306666668,39831.6247800926,39831.6274189815,28.785065572337093,2009-01-18,14:59:41,2009-01-18,15:03:29,532
442850.4777777778,4425217.022222223,39832.3034490741,39832.3038541667,39.99299938740333,2009-01-19,07:16:58,2009-01-19,07:17:33,-1
442887.7388888889,4425216.46111111,39833.2551273148,39833.2559606481,15.117208736670825,2009-01-20,06:07:23,2009-01-20,06:08:35,531
442003.31666666665,4428671.483333333,39833.4405208333,39833.4407523148,36.1863233835045,2009-01-20,10:34:21,2009-01-20,10:34:41,533
442862.05833333335,4425293.366666665,39834.2900231481,39834.2906018518,19.958456854313066,2009-01-21,06:57:38,2009-01-21,06:58:28,531
442031.50833333336,4428669.8,39834.7870601852,39834.7876388889,43.522178253980115,2009-01-21,18:53:22,2009-01-21,18:54:12,533
453559.1859375,4420677.587499999,39835.3031828704,39835.3046412037,25.59707014464846,2009-01-22,07:16:35,2009-01-22,07:18:41,-1
450684.6488372093,4424668.644186047,39835.5235532407,39835.524525463,7.421590126077907,2009-01-22,12:33:55,2009-01-22,12:35:19,532
442173.1466666666,4429176.306666667,39837.2040972222,39837.2047916667,47.271238613109624,2009-01-24,04:53:54,2009-01-24,04:54:54,537
442134.27,4429192.215,39838.1288078704,39838.1297916667,41.07967867439682,2009-01-25,03:05:29,2009-01-25,03:06:54,537
453572.14285714284,4426800.142857143,39839.3676851852,39839.3678240741,48.505051283334986,2009-01-26,08:49:28,2009-01-26,08:49:40,-1
442842.8145454547,4425249.838181818,39839.6041203704,39839.6053703704,37.406550228536176,2009-01-26,14:29:56,2009-01-26,14:31:44,531
442774.2315789475,4425144.921052632,39841.2222106481,39841.2231365741,37.209138661913784,2009-01-28,05:19:59,2009-01-28,05:21:19,-1
442134.7612903226,4429190.193548387,39846.4776736111,39846.4793518518,37.619808612499696,2009-02-02,11:27:51,2009-02-02,11:30:16,537
442851.3916666668,4425233.970833332,39847.2852314815,39847.2863310185,48.16658592793427,2009-02-03,06:50:44,2009-02-03,06:52:19,531
442144.99999999994,4429179.611111111,39847.6183564815,39847.6191666667,45.37851914718824,2009-02-03,14:50:26,2009-02-03,14:51:36,537
442835.9166666667,4425384.066666666,39848.2125462963,39848.2127777778,49.40708451222065,2009-02-04,05:06:04,2009-02-04,05:06:24,-1
442861.8799999999,4425366.266666667,39849.1597685185,39849.160462963,38.6419461205175,2009-02-05,03:50:04,2009-02-05,03:51:04,536
442877.80999999994,4425261.535000001,39850.2544560185,39850.2553819444,37.38047618753839,2009-02-06,06:06:25,2009-02-06,06:07:45,531
442862.54166666657,4425244.004166667,39851.0438310185,39851.0451041667,44.382541613157954,2009-02-07,01:03:07,2009-02-07,01:04:57,531
441838.85454545455,4427715.481818181,39851.4553125,39851.4558333333,43.722419878447006,2009-02-07,10:55:39,2009-02-07,10:56:24,-1
438036.85594713676,4451585.87268722,39852.1443981482,39852.1943287037,49.68913362095539,2009-02-08,03:27:56,2009-02-08,04:39:50,-1
442897.03750000003,4425264.274999999,39852.2710416667,39852.2712037037,25.318965223822286,2009-02-08,06:30:18,2009-02-08,06:30:32,531
442254.4,4429228.659999999,39854.6680902778,39854.6682638889,10.929318367940413,2009-02-10,16:02:03,2009-02-10,16:02:18,-1
442864.43333333335,4425345.925,39855.2070138889,39855.2075347222,43.385020456402366,2009-02-11,04:58:06,2009-02-11,04:58:51,536
442140.825,4429184.41,39855.407662037,39855.4086226852,29.71211873950783,2009-02-11,09:47:02,2009-02-11,09:48:25,537
442859.83181818185,4425250.068181818,39857.1362268519,39857.1373842593,38.63586416774525,2009-02-13,03:16:10,2009-02-13,03:17:50,531
444451.57,4415564.01,39858.3052893518,39858.3063888889,30.907927785550402,2009-02-14,07:19:37,2009-02-14,07:21:12,-1
442140.1857142858,4429176.961904762,39858.4550810185,39858.4561226852,40.57351352794944,2009-02-14,10:55:19,2009-02-14,10:56:49,537
450482.7047619047,4424840.580952382,39859.4779166667,39859.4783796296,49.059657561117454,2009-02-15,11:28:12,2009-02-15,11:28:52,-1
442178.19999999995,4429187.4846153855,39859.761712963,39859.762349537,48.89764820532616,2009-02-15,18:16:52,2009-02-15,18:17:47,537
442849.8655172413,4425237.041379311,39860.1652314815,39860.7265740741,46.56006872850042,2009-02-16,03:57:56,2009-02-16,17:26:16,531
442181.66363636364,4429176.0636363635,39860.7386111111,39860.7391319444,33.10498451909301,2009-02-16,17:43:36,2009-02-16,17:44:21,537
442839.08333333326,4425245.283333333,39861.0907060185,39861.0909953704,45.58826603411541,2009-02-17,02:10:37,2009-02-17,02:11:02,531
442873.8594501722,4425192.958419245,39866.4972800926,39866.532025463,49.922539999466835,2009-02-22,11:56:05,2009-02-22,12:46:07,-1