441404.0,4416143.7,40677.5066898148,40677.5066898148,0.0,2011-05-14,12:09:38,2011-05-14,12:09:38,-1
247125.03076923083,3382085.843956044,40677.9964814815,40685.3584143519,46.499892473154986,2011-05-14,23:54:56,2011-05-22,08:36:07,-1
236042.72000000003,3391090.9799999995,40685.4390046296,40685.4390509259,49.21788292899962,2011-05-22,10:32:10,2011-05-22,10:32:14,-1
236473.80000000002,3390844.733333333,40685.5025,40685.5130671296,26.630809225483294,2011-05-22,12:03:36,2011-05-22,12:18:49,-1
445230.1964285714,4434563.082142857,40734.1339236111,40734.1342361111,49.20376001907605,2011-07-10,03:12:51,2011-07-10,03:13:18,-1