442805.3,4425329.5,39416.3299537037,39416.3300925926,35.15280927574884,2007-11-30,07:55:08,2007-11-30,07:55:20,-1
442277.0,4427273.2,39416.446412037,39416.446412037,0.0,2007-11-30,10:42:50,2007-11-30,10:42:50,-1
440660.5,4424792.8,39416.5515162037,39416.5515740741,42.847637040658924,2007-11-30,13:14:11,2007-11-30,13:14:16,-1
442294.0,4428188.8,39417.0890856481,39417.0890856481,0.0,2007-12-01,02:08:17,2007-12-01,02:08:17,-1
442317.75,4428230.25,39417.2202430556,39417.2214351852,43.42464737963037,2007-12-01,05:17:09,2007-12-01,05:18:52,-1
441351.6,4424616.3,39418.0632523148,39418.0632523148,0.0,2007-12-02,01:31:05,2007-12-02,01:31:05,-1
441047.7,4425625.050000001,39421.4202893519,39421.4904513889,44.704474048840986,2007-12-05,10:05:13,2007-12-05,11:46:15,-1
440676.55,4424753.8,39421.5122337963,39421.5135185185,41.84746109381729,2007-12-05,12:17:37,2007-12-05,12:19:28,-1
442159.35,4428357.25,39423.1876157407,39423.4361342593,47.36010979655449,2007-12-07,04:30:10,2007-12-07,10:28:02,-1
440435.9,4424923.1,39423.4606134259,39423.4606134259,0.0,2007-12-07,11:03:17,2007-12-07,11:03:17,-1
440242.5,4425483.3,39424.0916435185,39424.0916435185,0.0,2007-12-08,02:11:58,2007-12-08,02:11:58,-1
440647.65,4424788.25,39424.1352083333,39424.1354166667,49.472618690095445,2007-12-08,03:14:42,2007-12-08,03:15:00,-1
441376.7,4424548.6,39425.2869328704,39425.2929861111,43.64813856281946,2007-12-09,06:53:11,2007-12-09,07:01:54,-1
441399.69999999995,4424578.05,39425.4074652778,39425.408587963,35.48309456647374,2007-12-09,09:46:45,2007-12-09,09:48:22,-1