431483.1,4427148.1,39374.4024074074,39374.4024074074,0.0,2007-10-19,09:39:28,2007-10-19,09:39:28,-1
442861.8,4425370.7,39374.4956018519,39374.4956018519,0.0,2007-10-19,11:53:40,2007-10-19,11:53:40,-1
441256.6,4424108.3,39374.5536342593,39374.5542824074,45.60175435225583,2007-10-19,13:17:14,2007-10-19,13:18:10,-1
443554.3,4424139.050000001,39374.9256134259,39374.9269791667,30.56550343110862,2007-10-19,22:12:53,2007-10-19,22:14:51,-1
514648.0,4328638.4,39375.1198726852,39375.1198726852,0.0,2007-10-20,02:52:37,2007-10-20,02:52:37,-1
521101.7,4329977.3,39376.3739351852,39376.3739351852,0.0,2007-10-21,08:58:28,2007-10-21,08:58:28,-1
443544.0,4424287.1,39376.4972916667,39376.4972916667,0.0,2007-10-21,11:56:06,2007-10-21,11:56:06,-1