Location:0;0	NaN	NaN	0.0; PointsCount:0; UsersCount:0; Diameter:0.0; Radius:0.0
Location:-1;-1	395192.4661770864	3942772.447820947	1934048.7698840802; PointsCount:458; UsersCount:1; Diameter:2461639.591252282; Radius:1934048.7698840802
Location:215;215	440501.4713495223	4426560.809126123	162.46180990425114; PointsCount:200; UsersCount:1; Diameter:265.0368144027196; Radius:162.46180990425114
Location:216;216	453139.4328412564	4422935.449604448	16.809643805838988; PointsCount:4; UsersCount:1; Diameter:27.049327403145973; Radius:16.809643805838988
Location:217;217	440832.8957699556	4426730.4866410885	24.091887811065515; PointsCount:4; UsersCount:1; Diameter:39.806866971676634; Radius:24.091887811065515
Location:218;218	440633.2073868432	4426639.227782486	29.85314128732839; PointsCount:7; UsersCount:1; Diameter:51.69766628058292; Radius:29.85314128732839
Location:219;219	439576.18561735423	4427633.567328899	20.801020447538296; PointsCount:4; UsersCount:1; Diameter:40.60048251423864; Radius:20.801020447538296
Location:220;220	440278.42965664185	4426499.343157725	21.627686194747227; PointsCount:5; UsersCount:1; Diameter:39.507582522328065; Radius:21.627686194747227
Location:221;221	244531.4153469188	3498365.7286783624	37.78190765655981; PointsCount:23; UsersCount:1; Diameter:72.4499644037148; Radius:37.78190765655981
Location:222;222	245908.78262830875	3497520.753295078	20.49545180318293; PointsCount:5; UsersCount:1; Diameter:37.481040202450345; Radius:20.49545180318293
Location:223;223	440364.050644297	4426506.156249644	19.26180216915997; PointsCount:4; UsersCount:1; Diameter:32.40835416770188; Radius:19.26180216915997
Location:224;224	439638.3392867175	4433704.895288007	61.91208540055861; PointsCount:25; UsersCount:1; Diameter:102.32769597089204; Radius:61.91208540055861
Location:225;225	448858.7096153918	4421735.319138309	58.56580834134522; PointsCount:23; UsersCount:1; Diameter:93.88476259475124; Radius:58.56580834134522
