Location:0;0	NaN	NaN	0.0; PointsCount:0; UsersCount:0; Diameter:0.0; Radius:0.0
Location:-1;-1	452674.48806607124	4424707.730243444	21827.670630179822; PointsCount:34; UsersCount:1; Diameter:33403.935466254676; Radius:21827.670630179822
Location:266;266	443106.4891995614	4425095.596663925	19.03820757196699; PointsCount:8; UsersCount:1; Diameter:36.72611416815742; Radius:19.03820757196699
Location:267;267	443104.1749764091	4425038.182923337	18.00464376742685; PointsCount:6; UsersCount:1; Diameter:31.931159697279796; Radius:18.00464376742685
Location:268;268	445484.4528414062	4422537.621903076	11.718041535119944; PointsCount:8; UsersCount:1; Diameter:22.68393839337149; Radius:11.718041535119944
