Location:0;0	NaN	NaN	0.0; PointsCount:0; UsersCount:0; Diameter:0.0; Radius:0.0
Location:-1;-1	444340.8820745095	4424309.900367317	32974.686483024336; PointsCount:196; UsersCount:1; Diameter:55060.859309455656; Radius:32974.686483024336
Location:270;270	440860.56089338206	4425849.2157536065	17.39669072012645; PointsCount:4; UsersCount:1; Diameter:29.85802366895165; Radius:17.39669072012645
Location:271;271	444992.1831344704	4431571.610671932	60.80838675125391; PointsCount:36; UsersCount:1; Diameter:100.92616272582777; Radius:60.80838675125391
Location:272;272	440978.5995215465	4426207.527415364	19.20987238348636; PointsCount:8; UsersCount:1; Diameter:33.82890287650049; Radius:19.20987238348636
Location:273;273	440835.61526198464	4425884.3738164725	23.852772908431657; PointsCount:9; UsersCount:1; Diameter:37.817459440687784; Radius:23.852772908431657
Location:274;274	441098.57237869705	4426017.0648557125	24.127456504347624; PointsCount:5; UsersCount:1; Diameter:41.861007664267994; Radius:24.127456504347624
Location:275;275	441010.16214570514	4426159.134408143	22.61183961868751; PointsCount:6; UsersCount:1; Diameter:37.552687627432704; Radius:22.61183961868751
