Location:0;0	NaN	NaN	0.0; PointsCount:0; UsersCount:0; Diameter:0.0; Radius:0.0
Location:-1;-1	437485.035170814	4410286.796600372	723358.0264931048; PointsCount:115; UsersCount:1; Diameter:751296.8852567091; Radius:723358.0264931048
Location:377;377	431633.5684180872	4427407.087298302	10.62840146225794; PointsCount:4; UsersCount:1; Diameter:16.57258670034321; Radius:10.62840146225794
Location:378;378	431623.69197858474	4427465.27866654	25.986951419959567; PointsCount:8; UsersCount:1; Diameter:41.89142936171016; Radius:25.986951419959567
Location:379;379	438088.08888918726	4423268.0917726215	20.016142012342165; PointsCount:4; UsersCount:1; Diameter:29.780712773472107; Radius:20.016142012342165
Location:380;380	438100.3470167826	4423174.465882637	10.76548536199247; PointsCount:4; UsersCount:1; Diameter:15.366048450819115; Radius:10.76548536199247
Location:381;381	431622.4295546893	4427337.888720968	9.219118768343506; PointsCount:4; UsersCount:1; Diameter:15.222766911652847; Radius:9.219118768343506
Location:382;382	440518.7512551705	4414201.266652403	8.085037405991342; PointsCount:4; UsersCount:1; Diameter:16.170074811982683; Radius:8.085037405991342
