Location:0;0	NaN	NaN	0.0; PointsCount:0; UsersCount:0; Diameter:0.0; Radius:0.0
Location:-1;-1	429581.9653942506	4280251.047224545	896391.7608120147; PointsCount:395; UsersCount:1; Diameter:1106252.4247849947; Radius:896391.7608120147
Location:411;411	440496.2608855181	4426555.879687513	138.44238828252819; PointsCount:133; UsersCount:1; Diameter:256.30647380141124; Radius:138.44238828252819
Location:412;412	440366.68681257527	4426507.742107603	16.142868728708333; PointsCount:6; UsersCount:1; Diameter:30.794157709663924; Radius:16.142868728708333
Location:413;413	440388.7035214505	4426460.48933861	18.880513867994274; PointsCount:4; UsersCount:1; Diameter:30.285813507785253; Radius:18.880513867994274
Location:414;414	439986.12372549024	4426359.398833333	26.398994973552195; PointsCount:4; UsersCount:1; Diameter:42.75058583794542; Radius:26.398994973552195
Location:415;415	244523.4055976327	3498365.452359059	23.52603432278844; PointsCount:5; UsersCount:1; Diameter:41.05658190377733; Radius:23.52603432278844
Location:416;416	440647.7181475816	4426655.182621761	22.707724791374357; PointsCount:5; UsersCount:1; Diameter:44.02870783211965; Radius:22.707724791374357
Location:417;417	454557.4794154391	4418568.834581494	19.645821142971343; PointsCount:6; UsersCount:1; Diameter:30.35488200462489; Radius:19.645821142971343
