Location:0;0	NaN	NaN	0.0; PointsCount:0; UsersCount:0; Diameter:0.0; Radius:0.0
Location:-1;-1	465874.8176404227	4425356.362808756	249703.63157062882; PointsCount:53; UsersCount:1; Diameter:283578.9363114861; Radius:249703.63157062882
Location:472;472	442747.3071727527	4425221.630554155	75.2137974748656; PointsCount:29; UsersCount:1; Diameter:127.9720678123848; Radius:75.2137974748656
Location:473;473	442380.7953447908	4424881.788915902	43.667437108552676; PointsCount:28; UsersCount:1; Diameter:84.92820357688488; Radius:43.667437108552676
Location:474;474	442434.56716660556	4424921.577860497	26.91517184517368; PointsCount:6; UsersCount:1; Diameter:39.78889657001883; Radius:26.91517184517368
Location:475;475	442869.8515178487	4425258.958645954	11.144767469409125; PointsCount:4; UsersCount:1; Diameter:16.49930213528038; Radius:11.144767469409125
