Location:0;0	NaN	NaN	0.0; PointsCount:0; UsersCount:0; Diameter:0.0; Radius:0.0
Location:-1;-1	436819.3102389706	4424652.821360294	6834.861081716522; PointsCount:4; UsersCount:1; Diameter:12715.20416830566; Radius:6834.861081716522
Location:592;592	431343.7073404596	4421697.327260766	17.11656547865724; PointsCount:11; UsersCount:1; Diameter:31.923135346708353; Radius:17.11656547865724
Location:593;593	442879.1042054032	4425342.860074352	25.92218187140631; PointsCount:9; UsersCount:1; Diameter:46.238854562720704; Radius:25.92218187140631
