Location:0;0	NaN	NaN	0.0; PointsCount:0; UsersCount:0; Diameter:0.0; Radius:0.0
Location:-1;-1	446681.67260420066	4214381.535507338	1990339.6799034725; PointsCount:1479; UsersCount:1; Diameter:3754959.8452079506; Radius:1990339.6799034725
Location:713;713	444018.26570373116	4424403.312179538	12.644932627145375; PointsCount:4; UsersCount:1; Diameter:24.003777332991703; Radius:12.644932627145375
Location:714;714	444042.346296052	4424292.415633461	73.56489801179427; PointsCount:32; UsersCount:1; Diameter:125.53937003327997; Radius:73.56489801179427
Location:715;715	454876.6570225809	4419863.182490401	205.06221465202543; PointsCount:395; UsersCount:1; Diameter:303.3287073384771; Radius:205.06221465202543
Location:716;716	452982.0124701994	4426390.82747686	168.4742108199809; PointsCount:603; UsersCount:1; Diameter:331.0432463905573; Radius:168.4742108199809
Location:717;717	442935.63386706135	4425249.5123360455	92.1898399234755; PointsCount:65; UsersCount:1; Diameter:178.83231005175722; Radius:92.1898399234755
Location:718;718	454842.9815048119	4417725.024051407	94.94231878401452; PointsCount:157; UsersCount:1; Diameter:177.44978492200028; Radius:94.94231878401452
Location:719;719	442779.34746810637	4425231.293894616	36.78489058232683; PointsCount:12; UsersCount:1; Diameter:55.48463772736862; Radius:36.78489058232683
Location:720;720	444250.0964274291	4421289.488054732	22.696692507322023; PointsCount:5; UsersCount:1; Diameter:39.009399472636844; Radius:22.696692507322023
Location:721;721	443068.2369322241	4425230.3925700085	14.178791548742886; PointsCount:4; UsersCount:1; Diameter:28.028719385916684; Radius:14.178791548742886
Location:722;722	445703.4671768647	4417845.363421966	16.8736503656886; PointsCount:5; UsersCount:1; Diameter:31.45951956574844; Radius:16.8736503656886
Location:723;723	445999.09297069773	4417618.99894757	47.76652569825673; PointsCount:11; UsersCount:1; Diameter:77.55463591730928; Radius:47.76652569825673
Location:724;724	453589.68579034053	4420444.997488616	24.16446109627747; PointsCount:5; UsersCount:1; Diameter:41.89020901983033; Radius:24.16446109627747
Location:725;725	452897.59755090566	4420432.091097218	13.374186129364778; PointsCount:5; UsersCount:1; Diameter:22.931162486561067; Radius:13.374186129364778
Location:726;726	457599.20504385175	4427791.010054594	7.696821573076399; PointsCount:4; UsersCount:1; Diameter:15.255720027240436; Radius:7.696821573076399
Location:727;727	457929.1093697798	4428110.791914122	16.75422712323614; PointsCount:5; UsersCount:1; Diameter:32.541209144251035; Radius:16.75422712323614
Location:728;728	457952.1593653358	4428156.374649853	24.299892266779164; PointsCount:5; UsersCount:1; Diameter:42.9680100404343; Radius:24.299892266779164
Location:729;729	455971.9081944444	4418360.677361111	19.283394779214813; PointsCount:4; UsersCount:1; Diameter:34.0434290533511; Radius:19.283394779214813
Location:730;730	453520.31665605895	4421070.363429893	26.632926326069782; PointsCount:12; UsersCount:1; Diameter:44.72876452147953; Radius:26.632926326069782
Location:731;731	453312.8946216731	4416254.633760166	29.435332382047324; PointsCount:7; UsersCount:1; Diameter:52.47650361996951; Radius:29.435332382047324
Location:732;732	453189.4560945479	4426891.547501603	32.41142023566803; PointsCount:4; UsersCount:1; Diameter:57.721782683862905; Radius:32.41142023566803
Location:733;733	453464.3726211571	4418653.278918247	33.678856328296035; PointsCount:13; UsersCount:1; Diameter:61.30276580655734; Radius:33.678856328296035
Location:734;734	453420.57529206155	4418539.42238123	35.289391954467405; PointsCount:16; UsersCount:1; Diameter:55.6942227313665; Radius:35.289391954467405
Location:735;735	453568.6825217868	4425220.027223259	20.614737905396165; PointsCount:4; UsersCount:1; Diameter:40.17330155963638; Radius:20.614737905396165
Location:736;736	454179.5432664676	4426862.47830238	19.52936262445381; PointsCount:5; UsersCount:1; Diameter:37.509224292914745; Radius:19.52936262445381
Location:737;737	451320.17224106664	4425316.946282324	30.194463849344356; PointsCount:11; UsersCount:1; Diameter:47.962747082623515; Radius:30.194463849344356
Location:738;738	452377.5093737188	4427155.335839079	40.13263213879865; PointsCount:7; UsersCount:1; Diameter:71.76286640830774; Radius:40.13263213879865
Location:739;739	452859.192996252	4426584.845112263	69.96494010853272; PointsCount:25; UsersCount:1; Diameter:134.51625077478056; Radius:69.96494010853272
Location:740;740	453002.8281546227	4426523.68159005	14.677392557230187; PointsCount:4; UsersCount:1; Diameter:29.17721271832695; Radius:14.677392557230187
Location:741;741	452315.19353525696	4427150.574314243	17.88835739096048; PointsCount:6; UsersCount:1; Diameter:29.551066658734666; Radius:17.88835739096048
Location:742;742	452360.22474766005	4424837.282215808	111.58312057891318; PointsCount:344; UsersCount:1; Diameter:186.45526019460485; Radius:111.58312057891318
Location:743;743	452776.48807041557	4430069.073236681	36.67941143877476; PointsCount:13; UsersCount:1; Diameter:67.86669595546071; Radius:36.67941143877476
Location:744;744	455231.00732005783	4426550.711146688	42.250832758313486; PointsCount:11; UsersCount:1; Diameter:78.7555456420714; Radius:42.250832758313486
Location:745;745	453132.5509248014	4425912.055008433	16.394674994243974; PointsCount:4; UsersCount:1; Diameter:27.066193524444582; Radius:16.394674994243974
Location:746;746	684466.0995881682	4862450.839102963	20.35381927486966; PointsCount:5; UsersCount:1; Diameter:31.487879711552537; Radius:20.35381927486966
Location:747;747	454432.2401726282	4427079.293671223	12.635533678948821; PointsCount:7; UsersCount:1; Diameter:18.114890308123424; Radius:12.635533678948821
Location:748;748	455286.653120924	4426508.622726624	17.203429159486763; PointsCount:4; UsersCount:1; Diameter:28.305856639135484; Radius:17.203429159486763
Location:749;749	453107.61875558586	4426195.869648413	31.775745762406324; PointsCount:4; UsersCount:1; Diameter:51.20187108408843; Radius:31.775745762406324
Location:750;750	454088.5003339347	4428874.814921429	11.5876098736468; PointsCount:4; UsersCount:1; Diameter:21.688499753726795; Radius:11.5876098736468
Location:751;751	451455.5586248513	4431080.991569743	24.305501724625433; PointsCount:4; UsersCount:1; Diameter:42.744258152657686; Radius:24.305501724625433
Location:752;752	228327.19608629122	3352842.039593103	26.170469847983448; PointsCount:7; UsersCount:1; Diameter:39.369682240436326; Radius:26.170469847983448
Location:753;753	452819.92892936023	4417402.323567345	14.954282129285007; PointsCount:4; UsersCount:1; Diameter:29.003212302973505; Radius:14.954282129285007
Location:754;754	450632.32317639864	4431365.1956923315	65.40963375139818; PointsCount:45; UsersCount:1; Diameter:128.56885938712685; Radius:65.40963375139818
Location:755;755	484267.7327737714	3619275.1101388885	25.41660680546506; PointsCount:4; UsersCount:1; Diameter:41.418208601327215; Radius:25.41660680546506
Location:756;756	450735.744190891	4431369.2392506385	24.11521865144646; PointsCount:5; UsersCount:1; Diameter:38.733873154038335; Radius:24.11521865144646
