450350.6966666666,4423494.4,39718.5334722222,39718.5355208333,197.08721419660907,2008-09-27,12:48:12,2008-09-27,12:51:09,-1
442903.25909090915,4425381.081818182,39719.009525463,39719.1902662037,198.88896399769126,2008-09-28,00:13:43,2008-09-28,04:33:59,116
440970.568918919,4425465.021171174,39719.2075231481,39719.2180439815,194.32200081316032,2008-09-28,04:58:50,2008-09-28,05:13:59,-1
440931.29756447027,4425490.138681951,39719.2367592593,39719.2599652778,199.82697515609766,2008-09-28,05:40:56,2008-09-28,06:14:21,-1
599695.8516778524,4389269.873825503,39719.4067013889,39720.0122222222,198.71305946029125,2008-09-28,09:45:39,2008-09-29,00:17:36,-1
599719.7307692303,4389457.540909096,39720.0264583333,39720.1037152778,198.6619490488135,2008-09-29,00:38:06,2008-09-29,02:29:21,-1
600146.1782608697,4388958.2597826095,39720.1173611111,39720.1204513889,163.8513045414616,2008-09-29,02:49:00,2008-09-29,02:53:27,-1
600004.638323353,4388924.637125749,39720.3894791667,39720.3979861111,199.31106341614074,2008-09-29,09:20:51,2008-09-29,09:33:06,-1
599603.5809917359,4389349.891735537,39720.5785532407,39720.5810416667,78.56494129020533,2008-09-29,13:53:07,2008-09-29,13:56:42,-1
599723.5615384616,4389356.099999995,39720.9816782407,39721.0369097222,199.5940880891254,2008-09-29,23:33:37,2008-09-30,00:53:09,-1
600023.7792207791,4388945.15974026,39721.0397222222,39721.065150463,166.77194008604445,2008-09-30,00:57:12,2008-09-30,01:33:49,-1
599693.2173913043,4389180.097826087,39721.0727893518,39721.0758101852,195.86589800132725,2008-09-30,01:44:49,2008-09-30,01:49:10,-1
644106.4315992288,4373046.741040459,39722.2096064815,39722.2416666667,199.08503208410906,2008-10-01,05:01:50,2008-10-01,05:48:00,-1
644167.4327035834,4373005.111986966,39722.2417013889,39722.3298958333,197.41410790536963,2008-10-01,05:48:03,2008-10-01,07:55:03,-1
643107.9306122451,4374651.828942486,39722.3539814815,39723.026400463,194.94296601828964,2008-10-01,08:29:44,2008-10-02,00:38:01,-1
639527.4683794465,4356964.256916994,39723.0660648148,39723.087974537,196.31192016824141,2008-10-02,01:35:08,2008-10-02,02:06:41,-1
643110.4569869001,4374622.766157206,39723.1399421296,39723.1624421296,194.03262612253235,2008-10-02,03:21:31,2008-10-02,03:53:55,-1
643119.9463354807,4374613.423673715,39723.1624768519,39723.3684722222,80.70501843106264,2008-10-02,03:53:58,2008-10-02,08:50:36,-1
450705.72769230773,4422953.426923076,39727.4213773148,39727.4326041667,195.02886965809807,2008-10-06,10:06:47,2008-10-06,10:22:57,-1
450720.45783132483,4422879.070783134,39727.4545601852,39727.5055671296,137.56631128296084,2008-10-06,10:54:34,2008-10-06,12:08:01,117
442886.2967032968,4425413.259340657,39728.0040162037,39728.3955208333,155.1736124477263,2008-10-07,00:05:47,2008-10-07,09:29:33,116
450362.16133333324,4423024.027999999,39728.4215509259,39728.4233217593,129.06192312146192,2008-10-07,10:07:02,2008-10-07,10:09:35,-1
442827.75891472865,4425333.277519382,39729.004212963,39729.3910185185,192.60885234079325,2008-10-08,00:06:04,2008-10-08,09:23:04,118
450682.337037037,4422958.720987655,39729.418900463,39729.421712963,197.07128152017293,2008-10-08,10:03:13,2008-10-08,10:07:16,119
442826.99818181817,4425395.170909092,39729.9987384259,39730.0006134259,191.55544889161774,2008-10-08,23:58:11,2008-10-09,00:00:53,-1
450358.2152173914,4423046.99347826,39730.4367939815,39730.4379166667,195.03509940520985,2008-10-09,10:28:59,2008-10-09,10:30:36,-1
442865.4541666665,4425270.621428572,39731.0010532407,39731.406724537,189.26579194354056,2008-10-10,00:01:31,2008-10-10,09:45:41,-1
450652.5049180327,4422982.954098362,39731.4394560185,39731.4429282407,196.7260277643898,2008-10-10,10:32:49,2008-10-10,10:37:49,119
442109.71612903214,4423589.278494624,39732.1067361111,39732.1100694444,171.2965265263718,2008-10-11,02:33:42,2008-10-11,02:38:30,-1
450463.6306451613,4423276.466935483,39732.203599537,39733.9777430556,184.34776917609875,2008-10-11,04:53:11,2008-10-12,23:27:57,-1
442920.54852941167,4425391.83382353,39734.0065162037,39734.179212963,158.08696973502586,2008-10-13,00:09:23,2008-10-13,04:18:04,116
443828.7064516129,4425556.259677419,39734.1939236111,39734.1960069444,196.3722230868502,2008-10-13,04:39:15,2008-10-13,04:42:15,-1
450671.14935064915,4422982.728571429,39734.4097916667,39734.4123726852,164.27309578931886,2008-10-13,09:50:06,2008-10-13,09:53:49,119
442822.5317460318,4425312.474603175,39734.9999189815,39735.3723958333,194.04793222307734,2008-10-13,23:59:53,2008-10-14,08:56:15,118
450675.36909090943,4422956.831818184,39735.3960416667,39735.3996180556,197.57978135452532,2008-10-14,09:30:18,2008-10-14,09:35:27,119
442887.3524390245,4425380.047560975,39736.011087963,39736.3687152778,190.7151016569722,2008-10-15,00:15:58,2008-10-15,08:50:57,116
450668.3305785123,4422955.766942149,39736.4030439815,39736.4095023148,193.5060205782712,2008-10-15,09:40:23,2008-10-15,09:49:41,119
442900.4042253522,4425358.918309859,39737.0008680556,39737.0031944444,198.62066861196956,2008-10-16,00:01:15,2008-10-16,00:04:36,116
450696.5990243899,4422921.953658534,39737.4051851852,39737.4149421296,190.24116273839823,2008-10-16,09:43:28,2008-10-16,09:57:31,-1
450715.9473227202,4422888.266859624,39737.4504282407,39737.5133912037,8.700000000186265,2008-10-16,10:48:37,2008-10-16,12:19:17,117
450713.95394321723,4422881.445741324,39737.5153703704,39737.5439814815,104.80458005259122,2008-10-16,12:22:08,2008-10-16,13:03:20,117
450712.47111506475,4422883.005516021,39737.5449189815,39737.9712731481,196.1602661088552,2008-10-16,13:04:41,2008-10-16,23:18:38,117
442909.6269230769,4425427.64423077,39738.0060648148,39738.0078356481,195.43564158072772,2008-10-17,00:08:44,2008-10-17,00:11:17,-1
450659.70274725277,4422991.536263739,39738.4270486111,39738.4315972222,197.22094209297154,2008-10-17,10:14:57,2008-10-17,10:21:30,119
450064.2792452832,4433031.688336196,39739.1199652778,39739.1430902778,185.32201704074726,2008-10-18,02:52:45,2008-10-18,03:26:03,-1
450155.10994152055,4432454.933918128,39739.1541782407,39739.1589351852,185.0028378157054,2008-10-18,03:42:01,2008-10-18,03:48:52,-1
450381.22932330874,4432228.2273182925,39739.2024074074,39739.2311805556,199.4129383970404,2008-10-18,04:51:28,2008-10-18,05:32:54,-1
448777.2496385546,4424767.460240959,39739.2919212963,39739.3136689815,199.68287357692202,2008-10-18,07:00:22,2008-10-18,07:31:41,-1
450377.29716981144,4423163.883018869,39739.3382175926,39740.9734490741,196.40824829874245,2008-10-18,08:07:02,2008-10-19,23:21:46,-1
442922.5712328768,4425380.556164384,39741.0040856482,39741.0071527778,199.31492668638955,2008-10-20,00:05:53,2008-10-20,00:10:18,116
450661.24161073857,4422993.132885907,39741.4202199074,39741.4222222222,198.70847994008088,2008-10-20,10:05:07,2008-10-20,10:08:00,119
442906.6294871796,4425285.437820514,39742.0053587963,39742.3952083333,192.50974001333023,2008-10-21,00:07:43,2008-10-21,09:29:06,-1
450598.4951219513,4423047.536585365,39742.4168634259,39742.9704513889,195.86365155420225,2008-10-21,10:00:17,2008-10-21,23:17:27,120
442918.4891156462,4425408.64489796,39742.9983217593,39743.000474537,197.9270825331098,2008-10-21,23:57:35,2008-10-22,00:00:41,116
450335.0717948718,4422983.017948719,39743.4328935185,39743.4333449074,183.26606341656506,2008-10-22,10:23:22,2008-10-22,10:24:01,-1
442827.01092436974,4425392.576470588,39744.0077430556,39744.009525463,188.90508198493535,2008-10-23,00:11:09,2008-10-23,00:13:43,-1
442735.36999999994,4425154.723333333,39744.4097685185,39744.4103935185,78.65551474625153,2008-10-23,09:50:04,2008-10-23,09:50:58,-1
450717.31539538177,4422888.227711691,39744.4647453704,39744.5931944444,116.55676728601917,2008-10-23,11:09:14,2008-10-23,14:14:12,117
444431.7363636364,4424396.964049585,39745.0146296296,39745.0277777778,190.70828508472377,2008-10-24,00:21:04,2008-10-24,00:40:00,-1
425731.38875379896,4446675.696656534,39745.4584143519,39745.5204861111,130.79590972225893,2008-10-24,11:00:07,2008-10-24,12:29:30,-1
425726.62830769253,4446747.10738462,39745.5214814815,39745.9292476852,198.30564792747592,2008-10-24,12:30:56,2008-10-24,22:18:07,121
425688.2661702128,4446631.464042554,39745.9292592593,39745.9566203704,199.45137251939528,2008-10-24,22:18:08,2008-10-24,22:57:32,-1
425737.20189328754,4446780.429604131,39745.9566319444,39746.0423842593,198.81169482703845,2008-10-24,22:57:33,2008-10-25,01:01:02,-1
425722.24,4446570.448571429,39746.0423958333,39746.0428587963,37.66019118394449,2008-10-25,01:01:03,2008-10-25,01:01:43,-1
425700.3354646215,4446704.746291555,39746.9283449074,39747.3228356481,162.65684738178754,2008-10-25,22:16:49,2008-10-26,07:44:53,-1
425768.77087576356,4446679.928716903,39747.4367013889,39747.4681828704,172.52272314104,2008-10-26,10:28:51,2008-10-26,11:14:11,122
425753.55,4446584.9375,39747.4790393518,39747.4791319444,11.727318534023922,2008-10-26,11:29:49,2008-10-26,11:29:57,-1
425739.81917098403,4446768.061658033,39747.5340972222,39747.5409722222,167.4230569547169,2008-10-26,12:49:06,2008-10-26,12:59:00,121
425786.98603896034,4446698.582359312,39747.9490393519,39748.0453009259,197.21696174588095,2008-10-26,22:46:37,2008-10-27,01:05:14,122
425839.4294605809,4446649.343568464,39748.0466203704,39748.1196759259,199.87538617862108,2008-10-27,01:07:08,2008-10-27,02:52:20,-1
425760.124815864,4446698.534277625,39748.1196875,39748.927662037,197.8870637510273,2008-10-27,02:52:21,2008-10-27,22:15:50,122
425898.58252279647,4446608.268541035,39748.9276736111,39748.9526851852,199.79289276701235,2008-10-27,22:15:51,2008-10-27,22:51:52,-1
425794.27410714293,4446713.089285717,39748.9526967593,39749.0271180556,183.35975567179065,2008-10-27,22:51:53,2008-10-28,00:39:03,-1
425668.8672413798,4446606.814263326,39749.098599537,39749.1279861111,199.74904255015298,2008-10-28,02:21:59,2008-10-28,03:04:18,-1
425772.2201716735,4446683.737768241,39749.1280208333,39749.264849537,199.81441389478184,2008-10-28,03:04:21,2008-10-28,06:21:23,122
425822.5519861832,4446644.211226247,39749.2648611111,39749.4295833333,167.54324814792574,2008-10-28,06:21:24,2008-10-28,10:18:36,-1
425770.80594059394,4446690.864851485,39749.4296296296,39749.9305787037,198.76106258492703,2008-10-28,10:18:40,2008-10-28,22:20:02,122
425778.8589665657,4446687.00896657,39749.9332407407,39749.9955324074,199.8874183137819,2008-10-28,22:23:52,2008-10-28,23:53:34,122
425748.3721878863,4446750.108034614,39749.9955439815,39750.2605902778,199.05659999120556,2008-10-28,23:53:35,2008-10-29,06:15:15,121
425898.7597826088,4446611.710869567,39750.2606018518,39750.2688310185,119.48171408223567,2008-10-29,06:15:16,2008-10-29,06:27:07,-1
425953.1489130436,4446544.344565217,39750.2977199074,39750.3476388889,199.22412002530126,2008-10-29,07:08:43,2008-10-29,08:20:36,-1
425761.5292553191,4446719.740691495,39750.3486342593,39750.930462963,197.89060109060458,2008-10-29,08:22:02,2008-10-29,22:19:52,-1
425775.03306122427,4446683.86,39750.944849537,39750.9481018518,199.8373838898695,2008-10-29,22:40:35,2008-10-29,22:45:16,122
425734.0113445375,4446734.438655461,39751.0638773148,39751.2608912037,197.78902901811097,2008-10-30,01:31:59,2008-10-30,06:15:41,121
425741.22465181083,4446593.400417821,39751.2609027778,39751.3615277778,186.68907305999565,2008-10-30,06:15:42,2008-10-30,08:40:36,-1
425733.9514925374,4446741.613432839,39751.3640509259,39752.0404166667,199.07910488044817,2008-10-30,08:44:14,2008-10-31,00:58:12,121
425734.6206073755,4446613.9251626935,39752.0404282407,39752.1327893519,189.2482232413306,2008-10-31,00:58:13,2008-10-31,03:11:13,-1
425729.4285223367,4446773.974226799,39752.1372222222,39752.1509837963,160.11573938891985,2008-10-31,03:17:36,2008-10-31,03:37:25,121
450645.6938650309,4422997.195705521,39752.4152083333,39752.4172569444,196.91533713743783,2008-10-31,09:57:54,2008-10-31,10:00:51,119
450649.0772151898,4422795.01772152,39752.5558912037,39752.5575462963,44.01908676996793,2008-10-31,13:20:29,2008-10-31,13:22:52,-1
449839.48828125006,4411881.593749998,39753.0877083333,39753.0903587963,199.03077651458833,2008-11-01,02:06:18,2008-11-01,02:10:07,-1
450622.10359281447,4423016.705988025,39753.1201388889,39753.1224537037,199.1506967095882,2008-11-01,02:53:00,2008-11-01,02:56:20,-1
450675.4666666666,4422939.5,39753.1410648148,39753.141087963,17.613914953808536,2008-11-01,03:23:08,2008-11-01,03:23:10,119
449540.15986547107,4422744.434080717,39754.1010185185,39754.1325578704,182.60191674757817,2008-11-02,02:25:28,2008-11-02,03:10:53,-1
450477.67394958006,4422555.006302519,39754.1891435185,39754.2105671296,198.24979192892914,2008-11-02,04:32:22,2008-11-02,05:03:13,-1
450689.33741496596,4422780.821088435,39754.2121875,39754.2146527778,199.28745570155752,2008-11-02,05:05:33,2008-11-02,05:09:06,-1
442803.8279850747,4425332.4332089545,39755.0017708333,39755.3983101852,195.0104099785643,2008-11-03,00:02:33,2008-11-03,09:33:34,118
450669.83563218405,4422977.695402298,39755.4266782407,39755.4297800926,195.25688208101656,2008-11-03,10:14:25,2008-11-03,10:18:53,119
449464.32,4424277.443333332,39755.9893981481,39755.9897337963,198.6734003333559,2008-11-03,23:44:44,2008-11-03,23:45:13,-1
450690.8090322577,4422964.3387096785,39756.419212963,39756.4225231481,167.92438774642167,2008-11-04,10:03:40,2008-11-04,10:08:26,119
442921.6870503597,4425379.610071943,39757.0021412037,39757.003912037,199.89749873373742,2008-11-05,00:03:05,2008-11-05,00:05:38,116
450652.1491712707,4422999.589502761,39757.4182407407,39757.4204976852,199.06446192104826,2008-11-05,10:02:16,2008-11-05,10:05:31,119
442904.8301775147,4425393.606508877,39758.0023842593,39758.0046875,196.39961812591085,2008-11-06,00:03:26,2008-11-06,00:06:45,116
450668.72233502544,4422981.041624363,39758.4175,39758.4206134259,189.7687276657603,2008-11-06,10:01:12,2008-11-06,10:05:41,119
442817.6523364485,4425358.703738317,39758.9831365741,39759.5246412037,196.45386226744398,2008-11-06,23:35:43,2008-11-07,12:35:29,118
450696.58321167884,4422815.848175186,39759.5564351852,39759.5583333333,199.41476876099222,2008-11-07,13:21:16,2008-11-07,13:24:00,-1
442813.82692307694,4425708.646153846,39762.0067708333,39762.0073032407,94.33456418548356,2008-11-10,00:09:45,2008-11-10,00:10:31,-1
450605.3391812866,4423041.267836256,39762.4791782407,39762.9722222222,199.98462440842337,2008-11-10,11:30:01,2008-11-10,23:20:00,120
442802.80947368406,4425315.701052632,39763.0046990741,39763.424375,190.70167802099527,2008-11-11,00:06:46,2008-11-11,10:11:06,118
450633.6096296296,4423002.737037037,39763.4518634259,39763.453912037,199.7390798020838,2008-11-11,10:50:41,2008-11-11,10:53:38,119
442867.2192028986,4425336.744927537,39764.0041898148,39764.454212963,199.07950673015742,2008-11-12,00:06:02,2008-11-12,10:54:04,-1
450371.82714285725,4422498.054285713,39764.4846180556,39764.4859143518,198.37081438539948,2008-11-12,11:37:51,2008-11-12,11:39:43,123
442869.85269709537,4425349.27966805,39764.9964236111,39765.1300347222,198.91196545219623,2008-11-12,23:54:51,2008-11-13,03:07:15,-1
442817.5273195875,4425330.588659793,39765.161087963,39765.4082986111,191.04829232423782,2008-11-13,03:51:58,2008-11-13,09:47:57,118
450626.48150684935,4423007.093835615,39765.4318055556,39765.4336226852,198.1333894122947,2008-11-13,10:21:48,2008-11-13,10:24:25,119
450661.5071428572,4422958.675274726,39766.5102777778,39766.5148958333,198.9295855322842,2008-11-14,12:14:48,2008-11-14,12:21:27,119
450669.8065675348,4423609.672986369,39768.2428587963,39768.274212963,198.46652110608633,2008-11-16,05:49:43,2008-11-16,06:34:52,-1
450967.59638752043,4422984.881609197,39768.2808564815,39768.3044328704,103.41726161544408,2008-11-16,06:44:26,2008-11-16,07:18:23,-1
450785.6353293414,4422856.908383231,39768.3675578704,39768.3700462963,185.28356645962967,2008-11-16,08:49:17,2008-11-16,08:52:52,-1
442807.39487179485,4425370.412820512,39769.0050925926,39769.0074421296,199.85417183518072,2008-11-17,00:07:20,2008-11-17,00:10:43,-1
450608.7107462686,4423046.951940297,39769.4229513889,39769.9726967593,199.13020865755195,2008-11-17,10:09:03,2008-11-17,23:20:41,120
442914.6838028171,4425383.189436617,39770.0018287037,39783.3816550926,192.75105706626286,2008-11-18,00:02:38,2008-12-01,09:09:35,116
450622.44466666656,4422997.380666668,39783.4206944444,39783.4227662037,195.22423005354636,2008-12-01,10:05:48,2008-12-01,10:08:47,119
442879.6202380952,4425372.000000001,39784.0038425926,39784.3858796296,198.50251887570596,2008-12-02,00:05:32,2008-12-02,09:15:40,116
450546.3021108185,4423018.641160949,39784.4132291667,39784.9738657407,199.67055366264287,2008-12-02,09:55:03,2008-12-02,23:22:22,-1
442803.3734219272,4425368.789700995,39785.0003472222,39785.3755671296,193.26098933823084,2008-12-03,00:00:30,2008-12-03,09:00:49,-1
450372.073076923,4422506.607692308,39785.4041666667,39785.4049421296,193.81847177247215,2008-12-03,09:42:00,2008-12-03,09:43:07,123
442870.40116279095,4425346.833720929,39786.0056944444,39786.3890740741,198.80042756506074,2008-12-04,00:08:12,2008-12-04,09:20:16,-1
450642.9804687502,4422984.642187501,39786.4237847222,39786.4262847222,199.86700578109966,2008-12-04,10:10:15,2008-12-04,10:13:51,119
442910.87610619474,4425376.53362832,39787.0060532407,39787.0076967593,198.9902761450435,2008-12-05,00:08:43,2008-12-05,00:11:05,116
450534.8945945947,4422684.247972974,39787.4424768519,39787.4442824074,198.8009054305209,2008-12-05,10:37:10,2008-12-05,10:39:46,-1
442786.7424836602,4425289.238562089,39789.9981365741,39790.4690046296,199.574472315284,2008-12-07,23:57:19,2008-12-08,11:15:22,-1
450545.7563829787,4423005.651063831,39790.4925578704,39790.9729050926,199.74986858584307,2008-12-08,11:49:17,2008-12-08,23:20:59,-1
442911.3799999999,4425407.095454546,39791.0046064815,39791.0061226852,199.61194853997327,2008-12-09,00:06:38,2008-12-09,00:08:49,116
450648.8864864863,4423004.419594595,39791.5340856481,39791.5358449074,199.92561116575334,2008-12-09,12:49:05,2008-12-09,12:51:37,119
442854.61268656695,4425287.920149255,39792.0002199074,39792.5160532407,187.95089784311895,2008-12-10,00:00:19,2008-12-10,12:23:07,-1
450664.5688741721,4422988.967549669,39792.5384837963,39792.5402430556,199.69196278282266,2008-12-10,12:55:25,2008-12-10,12:57:57,119
442810.72961538495,4425320.681538463,39792.991712963,39793.506400463,195.39777378464632,2008-12-10,23:48:04,2008-12-11,12:09:13,118
450547.20656565635,4423018.683838385,39793.5284375,39793.975625,192.38848718111868,2008-12-11,12:40:57,2008-12-11,23:24:54,-1
442905.0303703701,4425411.573333333,39794.0060763889,39794.0078240741,199.38490414272084,2008-12-12,00:08:45,2008-12-12,00:11:16,116
450655.1309523811,4423001.86845238,39794.5434722222,39794.5455208333,198.15398053042856,2008-12-12,13:02:36,2008-12-12,13:05:33,119
450339.54035087716,4422546.753508773,39795.0905324074,39795.0921180556,150.57546280889187,2008-12-13,02:10:22,2008-12-13,02:12:39,-1
449998.91572327056,4426492.693081762,39796.3542013889,39796.3572453704,131.04476334450504,2008-12-14,08:30:03,2008-12-14,08:34:26,-1
450365.19146341446,4422529.419512193,39796.4105208333,39796.4118287037,198.919204704002,2008-12-14,09:51:09,2008-12-14,09:53:02,-1
442910.8191489359,4425395.990070922,39796.9996875,39797.001412037,199.40925254379155,2008-12-14,23:59:33,2008-12-15,00:02:02,116
450358.7630952382,4422497.651190477,39826.4762268519,39826.4777662037,196.53116801159047,2009-01-13,11:25:46,2009-01-13,11:27:59,123
442802.71902833995,4425312.931983807,39826.9985532407,39827.3852430556,191.1477439050952,2009-01-13,23:57:55,2009-01-14,09:14:45,118
450699.27801418456,4422822.449645392,39827.4137731481,39827.4162847222,184.47249117452782,2009-01-14,09:55:50,2009-01-14,09:59:27,-1
450623.5957831325,4423011.088554218,39828.4128587963,39828.4148726852,199.82654978778694,2009-01-15,09:54:31,2009-01-15,09:57:25,119
442913.8831325301,4425434.540963857,39829.0194212963,39829.0207175926,194.31790962180693,2009-01-16,00:27:58,2009-01-16,00:29:50,-1
450369.0622950815,4422545.06338798,39829.4307175926,39829.4339467593,198.28598034134276,2009-01-16,10:20:14,2009-01-16,10:24:53,-1
449771.76761904726,4423465.619047621,39830.3895486111,39830.3927893518,198.30022692857958,2009-01-17,09:20:57,2009-01-17,09:25:37,-1
450421.5050228315,4423257.341552509,39830.4220833333,39831.0184490741,187.00524056827945,2009-01-17,10:07:48,2009-01-18,00:26:34,-1
450153.5370370374,4423015.800925924,39831.0213773148,39831.0316435185,93.0394539966888,2009-01-18,00:30:47,2009-01-18,00:45:34,-1
442829.1054263565,4425392.964341085,39832.0069444444,39832.0090162037,188.2541367402116,2009-01-19,00:10:00,2009-01-19,00:12:59,-1
450713.7616923959,4422887.610901467,39832.4825578704,39832.8995833333,24.76065427245044,2009-01-19,11:34:53,2009-01-19,21:35:24,117
450662.5883211677,4422996.475182477,39833.4194907407,39833.4324768518,189.36747344782458,2009-01-20,10:04:04,2009-01-20,10:22:46,119
442766.5045146729,4425329.11873589,39833.9953356481,39834.3653819444,189.94622923354405,2009-01-20,23:53:17,2009-01-21,08:46:09,-1
450483.39117647044,4422987.189869282,39834.3927430556,39834.5142361111,198.61553312883484,2009-01-21,09:25:33,2009-01-21,12:20:30,-1
450450.65657370567,4417183.564541833,39834.5345023148,39834.5388310185,167.96800290604236,2009-01-21,12:49:41,2009-01-21,12:55:55,-1
373818.4229508196,4305555.967213113,39835.0197916667,39835.0237384259,189.5722026039632,2009-01-22,00:28:30,2009-01-22,00:34:11,-1
374952.8852882706,4307162.376341949,39836.0792013889,39836.126724537,194.79561083367443,2009-01-23,01:54:03,2009-01-23,03:02:29,-1
373704.9,4306244.2,39836.1309953704,39836.1310069444,7.727871634171971,2009-01-23,03:08:38,2009-01-23,03:08:39,-1
377014.70869565225,4306261.3304347815,39837.067662037,39837.069837963,193.96249637457854,2009-01-24,01:37:26,2009-01-24,01:40:34,-1
373897.1544871795,4305436.408333331,39837.2127430556,39837.2173842593,199.71021506135065,2009-01-24,05:06:21,2009-01-24,05:13:02,-1
372748.3,4304247.2,39837.3683680556,39837.3683680556,0.0,2009-01-24,08:50:27,2009-01-24,08:50:27,-1
373868.51620111725,4305510.453631286,39838.4269791667,39838.4297222222,197.42707514362,2009-01-25,10:14:51,2009-01-25,10:18:48,-1
373801.5317460316,4305579.00952381,39839.2974305556,39839.2986805556,181.09414678544601,2009-01-26,07:08:18,2009-01-26,07:10:06,-1
377630.92965116305,4304182.689651159,39840.0984953704,39840.1216203704,199.07712073451006,2009-01-27,02:21:50,2009-01-27,02:55:08,-1
377079.39545454545,4306037.704545454,39840.1455208333,39840.1487615741,199.7256368114737,2009-01-27,03:29:33,2009-01-27,03:34:13,-1
373898.36170212727,4305497.236595742,39840.3038541667,39840.3075462963,197.53283271379405,2009-01-27,07:17:33,2009-01-27,07:22:52,-1
381724.2415929202,4308992.96792035,39841.3099884259,39841.3569328704,197.88463811000815,2009-01-28,07:26:23,2009-01-28,08:33:59,-1
373863.5640522877,4305520.5836601285,39841.392962963,39841.3953587963,199.28677828647378,2009-01-28,09:25:52,2009-01-28,09:29:19,-1
377007.4455882353,4306231.252941175,39843.1348958333,39843.1375,192.9389799916124,2009-01-30,03:14:15,2009-01-30,03:18:00,-1
381188.9571428571,4308938.6,39843.372650463,39843.3744675926,197.1645505660582,2009-01-30,08:56:37,2009-01-30,08:59:14,-1
450662.5181818182,4417480.381818183,39843.9097106481,39843.9107060185,54.74687205693327,2009-01-30,21:49:59,2009-01-30,21:51:25,-1
450616.2390728478,4423041.12847682,39845.4779398148,39845.9738310185,170.4254675805887,2009-02-01,11:28:14,2009-02-01,23:22:19,120
442900.77375000005,4425355.6000000015,39845.9992824074,39846.4184837963,163.13567972713716,2009-02-01,23:58:58,2009-02-02,10:02:37,116
450618.7296296295,4423013.440740741,39846.4399421296,39846.4417476852,199.3852802991426,2009-02-02,10:33:31,2009-02-02,10:36:07,-1
442807.69285714254,4425350.532142856,39846.9965972222,39846.999375,194.41885196657026,2009-02-02,23:55:06,2009-02-02,23:59:06,118
450369.97941176477,4422491.2235294115,39847.4440162037,39847.4450578704,186.71887960227963,2009-02-03,10:39:23,2009-02-03,10:40:53,123
450715.96123193786,4422888.4513939405,39847.4805555556,39847.9711226852,199.7621836078712,2009-02-03,11:32:00,2009-02-03,23:18:25,117
442802.6607734806,4425355.8281767955,39847.997962963,39848.1824537037,199.47383287003078,2009-02-03,23:57:04,2009-02-04,04:22:44,118
442858.1,4425491.7,39848.1824768518,39848.1824768518,0.0,2009-02-04,04:22:46,2009-02-04,04:22:46,-1
450659.2559322034,4423203.644067797,39848.4661342593,39848.4681134259,198.23465892719375,2009-02-04,11:11:14,2009-02-04,11:14:05,-1
442796.8834170853,4425280.748241208,39849.0038310185,39849.3721875,193.31686424120008,2009-02-05,00:05:31,2009-02-05,08:55:57,-1
450708.81560283696,4422903.4255319135,39849.4032291667,39849.4121875,24.340295807838594,2009-02-05,09:40:39,2009-02-05,09:53:33,117
450385.9620000001,4422485.403999999,39850.4032638889,39850.4048263889,191.62045819759743,2009-02-06,09:40:42,2009-02-06,09:42:57,123
443789.99178082193,4424353.59178082,39851.1812037037,39851.1839814815,176.8500494769581,2009-02-07,04:20:56,2009-02-07,04:24:56,-1
450144.4,4423961.6,39852.4796527778,39852.4796527778,0.0,2009-02-08,11:30:42,2009-02-08,11:30:42,-1
450325.9534482761,4423378.939655173,39852.9885300926,39853.9823726852,192.43222183409125,2009-02-08,23:43:29,2009-02-09,23:34:37,-1
442791.98471337574,4425296.870700637,39854.0078587963,39855.3946643519,190.89855944979823,2009-02-10,00:11:19,2009-02-11,09:28:19,-1
450644.6896551725,4423001.763218392,39855.4231481481,39855.4253125,198.20789590704064,2009-02-11,10:09:20,2009-02-11,10:12:27,119
443032.1934065936,4425225.772527472,39859.2732175926,39859.2755439815,198.15650380444242,2009-02-15,06:33:26,2009-02-15,06:36:47,-1
450128.22993630567,4424702.410191084,39859.9805439815,39859.9832060185,199.15024478993408,2009-02-15,23:31:59,2009-02-15,23:35:49,-1
450631.901744186,4423003.893604654,39861.4123958333,39861.4143865741,199.1200642831791,2009-02-17,09:53:51,2009-02-17,09:56:43,119
449377.41176470596,4424019.194117647,39863.4042592593,39863.4044675926,199.22622819302052,2009-02-19,09:42:08,2009-02-19,09:42:26,-1
450672.12334801763,4423001.509691631,39864.4192708333,39864.4228935185,198.84028766802345,2009-02-20,10:03:45,2009-02-20,10:08:58,119
452690.174698795,4424132.265060241,39865.2719097222,39865.2730208333,192.13424994023143,2009-02-21,06:31:33,2009-02-21,06:33:09,-1
450149.88623188395,4431955.385507247,39866.2766550926,39866.2787037037,196.64206060740491,2009-02-22,06:38:23,2009-02-22,06:41:20,-1
441335.2640350878,4424728.220175442,39872.2413657407,39872.2442592593,195.89652881063506,2009-02-28,05:47:34,2009-02-28,05:51:44,-1
442737.0290697675,4425230.610465116,39876.4030902778,39876.4049768519,39.7744893116002,2009-03-04,09:40:27,2009-03-04,09:43:10,-1