441862.3458333334,4426328.833333334,39741.2395833333,39741.2966203704,199.1216964575738,2008-10-20,05:45:00,2008-10-20,07:07:08,125
441944.9404761905,4426287.088095239,39741.3122337963,39741.4129282407,139.7930613444393,2008-10-20,07:29:37,2008-10-20,09:54:37,126
460469.56666666653,4444605.373333333,39741.4691203704,39741.4708796296,199.339158221022,2008-10-20,11:15:32,2008-10-20,11:18:04,-1
441862.3458333334,4426328.833333334,39741.5729166667,39741.6299537037,199.1216964575738,2008-10-20,13:45:00,2008-10-20,15:07:08,125
441944.9404761905,4426287.088095239,39741.6455671296,39741.7462615741,139.7930613444393,2008-10-20,15:29:37,2008-10-20,17:54:37,126
460516.7714285713,4444562.569387754,39741.8024537037,39741.9981365741,191.11412820582112,2008-10-20,19:15:32,2008-10-20,23:57:19,-1
460487.5275862069,4439355.987931033,39742.0167939815,39742.0387268519,189.40646768262368,2008-10-21,00:24:11,2008-10-21,00:55:46,-1
460442.23170731706,4444493.614634145,39742.0475347222,39742.0508449074,6.90651865988982,2008-10-21,01:08:27,2008-10-21,01:13:13,127
442979.7947368421,4425396.389473684,39742.1783449074,39742.2597106481,190.47900146735336,2008-10-21,04:16:49,2008-10-21,06:13:59,-1
442946.44482758624,4425526.165517242,39742.2597453704,39742.2886574074,187.47045100444754,2008-10-21,06:14:02,2008-10-21,06:55:40,-1
442892.27837837854,4425271.275675676,39742.2909722222,39742.3427777778,197.791430552269,2008-10-21,06:59:00,2008-10-21,08:13:36,-1
441928.62258064514,4426328.019354839,39742.3455324074,39742.3796527778,198.13470165496676,2008-10-21,08:17:34,2008-10-21,09:06:42,126
441949.8849056604,4426451.871698113,39742.3797106481,39742.4072453704,192.71027476486177,2008-10-21,09:06:47,2008-10-21,09:46:26,-1
442979.7947368421,4425396.389473684,39742.5116782407,39742.5930439815,190.47900146735336,2008-10-21,12:16:49,2008-10-21,14:13:59,-1
442946.44482758624,4425526.165517242,39742.5930787037,39742.6219907407,187.47045100444754,2008-10-21,14:14:02,2008-10-21,14:55:40,-1
442892.27837837854,4425271.275675676,39742.6243055556,39742.6761111111,197.791430552269,2008-10-21,14:59:00,2008-10-21,16:13:36,-1
441928.62258064514,4426328.019354839,39742.6788657407,39742.7129861111,198.13470165496676,2008-10-21,16:17:34,2008-10-21,17:06:42,126
441949.8849056604,4426451.871698113,39742.7130439815,39742.7405787037,192.71027476486177,2008-10-21,17:06:47,2008-10-21,17:46:26,-1
460482.3710526317,4444505.168421052,39742.7773263889,39742.7789930556,139.63559718064832,2008-10-21,18:39:21,2008-10-21,18:41:45,-1
441950.0431578947,4426378.92,39743.032650463,39743.1536226852,194.67647521023648,2008-10-22,00:47:01,2008-10-22,03:41:13,128
442963.3821428572,4427012.085714285,39743.1559722222,39743.1568171296,197.87725993671842,2008-10-22,03:44:36,2008-10-22,03:45:49,-1
441993.3999999999,4426266.824999999,39743.2379050926,39743.3073842593,198.78073347225154,2008-10-22,05:42:35,2008-10-22,07:22:38,126
441936.0544554456,4426373.833663366,39743.3073958333,39743.4868055556,193.48757066022992,2008-10-22,07:22:39,2008-10-22,11:41:00,128
442963.3821428572,4427012.085714285,39743.4893055556,39743.490150463,197.87725993671842,2008-10-22,11:44:36,2008-10-22,11:45:49,-1
441993.3999999999,4426266.824999999,39743.5712384259,39743.6407175926,198.78073347225154,2008-10-22,13:42:35,2008-10-22,15:22:38,126
441853.3727272728,4426395.927272728,39743.6407291667,39743.6409606481,161.02748212667842,2008-10-22,15:22:39,2008-10-22,15:22:59,-1
442595.7031249998,4424878.675,39744.4845717593,39744.5301967593,126.12680127609994,2008-10-23,11:37:47,2008-10-23,12:43:29,-1
446666.9833333334,4427864.508333334,39744.542962963,39744.5434722222,73.03266392499089,2008-10-23,13:01:52,2008-10-23,13:02:36,129
442595.7031249998,4424878.675,39744.8179050926,39744.8635300926,126.12680127609994,2008-10-23,19:37:47,2008-10-23,20:43:29,-1
446666.9833333334,4427864.508333334,39744.8762962963,39744.8768055556,73.03266392499089,2008-10-23,21:01:52,2008-10-23,21:02:36,129
441994.76666666666,4426293.625000001,39745.0019097222,39745.0034027778,181.26337192033503,2008-10-24,00:02:45,2008-10-24,00:04:54,126
442386.73333333334,4427545.366666666,39745.0703472222,39745.0703703704,43.738312724652964,2008-10-24,01:41:18,2008-10-24,01:41:20,-1
441880.232903226,4426324.553548388,39745.1122800926,39745.3235648148,22.80789337004767,2008-10-24,02:41:41,2008-10-24,07:45:56,125
441994.76666666666,4426293.625000001,39745.3352430556,39745.3367361111,181.26337192033503,2008-10-24,08:02:45,2008-10-24,08:04:54,126
442386.73333333334,4427545.366666666,39745.4036805556,39745.4037037037,43.738312724652964,2008-10-24,09:41:18,2008-10-24,09:41:20,-1
441880.97536231903,4426317.852173913,39745.4456134259,39745.6817476852,190.46348731450945,2008-10-24,10:41:41,2008-10-24,16:21:43,125
445055.86499999993,4423673.265,39745.6902893518,39745.6907638889,197.16340938417255,2008-10-24,16:34:01,2008-10-24,16:34:42,-1
439483.082051282,4424072.811965814,39745.7557175926,39745.8534490741,191.44863540926795,2008-10-24,18:08:14,2008-10-24,20:28:58,-1
446677.57499999995,4427887.970833332,39745.8716203704,39745.8723611111,193.50173125830258,2008-10-24,20:55:08,2008-10-24,20:56:12,129
441521.47142857144,4424505.442857143,39746.0779050926,39746.1260763889,199.5056390179759,2008-10-25,01:52:11,2008-10-25,03:01:33,-1
441977.3696969698,4426270.051515152,39746.1331018518,39746.1549074074,195.32787819471764,2008-10-25,03:11:40,2008-10-25,03:43:04,126
454804.49230769236,4422307.853846153,39746.1786111111,39746.2624652778,198.67553951148102,2008-10-25,04:17:12,2008-10-25,06:17:57,-1
446649.70689655177,4427910.399999999,39746.2784143519,39746.3402314815,192.96074730338304,2008-10-25,06:40:55,2008-10-25,08:09:56,129
441521.47142857144,4424505.442857143,39746.4112384259,39746.4594097222,199.5056390179759,2008-10-25,09:52:11,2008-10-25,11:01:33,-1
441977.3696969698,4426270.051515152,39746.4664351852,39746.4882407407,195.32787819471764,2008-10-25,11:11:40,2008-10-25,11:43:04,126
454804.49230769236,4422307.853846153,39746.5119444444,39746.5957986111,198.67553951148102,2008-10-25,12:17:12,2008-10-25,14:17:57,-1
446649.70689655177,4427910.399999999,39746.6117476852,39746.6735648148,192.96074730338304,2008-10-25,14:40:55,2008-10-25,16:09:56,129
460533.96111111104,4444538.327777777,39746.7283796296,39746.7300115741,179.09422101225238,2008-10-25,17:28:52,2008-10-25,17:31:13,130
445945.80500000005,4412791.3100000005,39747.0396064815,39747.0401273148,192.8818291075604,2008-10-26,00:57:02,2008-10-26,00:57:47,-1
445945.80500000005,4412791.3100000005,39747.3729398148,39747.3734606481,192.8818291075604,2008-10-26,08:57:02,2008-10-26,08:57:47,-1
440735.9,4432816.899999999,39747.4515162037,39747.4515509259,197.8476434025715,2008-10-26,10:50:11,2008-10-26,10:50:14,-1
440735.9,4432816.899999999,39747.784849537,39747.7848842593,197.8476434025715,2008-10-26,18:50:11,2008-10-26,18:50:14,-1
441514.11486486497,4425708.366216219,39748.0380902778,39748.0674189815,196.59687179604717,2008-10-27,00:54:51,2008-10-27,01:37:05,-1
441955.08250000014,4426273.6575,39748.0686689815,39748.0738657407,171.0708917380625,2008-10-27,01:38:53,2008-10-27,01:46:22,126
441514.11486486497,4425708.366216219,39748.3714236111,39748.4007523148,196.59687179604717,2008-10-27,08:54:51,2008-10-27,09:37:05,-1
441955.08250000014,4426273.6575,39748.4020023148,39748.4071990741,171.0708917380625,2008-10-27,09:38:53,2008-10-27,09:46:22,126
446629.17727272736,4427984.8136363635,39748.4525810185,39748.4530902778,192.43921118101142,2008-10-27,10:51:43,2008-10-27,10:52:27,-1
442016.4933333334,4426274.262222221,39749.017650463,39749.1881018518,194.4231467697852,2008-10-28,00:25:25,2008-10-28,04:30:52,126
442585.36842105264,4425435.992982457,39749.1899074074,39749.2450925926,195.1598831725598,2008-10-28,04:33:28,2008-10-28,05:52:56,131
441969.38787878794,4426282.863636363,39749.2471759259,39749.4321180556,190.7782482358762,2008-10-28,05:55:56,2008-10-28,10:22:15,126
446640.32857142854,4427882.014285714,39749.4408680556,39749.4418634259,195.0589654438719,2008-10-28,10:34:51,2008-10-28,10:36:17,129
446619.21904761903,4427877.695238095,39749.5759027778,39749.5764236111,197.73113057917402,2008-10-28,13:49:18,2008-10-28,13:50:03,129
442955.79375000007,4425047.537500001,39750.0490740741,39750.0495023148,193.388158893122,2008-10-29,01:10:40,2008-10-29,01:11:17,132
441975.4599999999,4426275.163999999,39750.1615162037,39750.3600810185,199.7642860971456,2008-10-29,03:52:35,2008-10-29,08:38:31,126
445199.563076923,4423672.938461538,39750.3696296296,39750.3944675926,197.16340938423076,2008-10-29,08:52:16,2008-10-29,09:28:02,-1
439450.0785714285,4424217.8178571435,39750.4249884259,39750.4994560185,190.29148693498843,2008-10-29,10:11:59,2008-10-29,11:59:13,133
446627.43200000003,4427898.591999999,39750.5184259259,39750.5189583333,159.56566046625755,2008-10-29,12:26:32,2008-10-29,12:27:18,129
441989.8642857144,4426269.471428571,39751.0181828704,39751.1606134259,198.0837196743025,2008-10-30,00:26:11,2008-10-30,03:51:17,126
443648.63157894736,4423559.347368421,39751.1741666667,39751.205775463,191.93540580030142,2008-10-30,04:10:48,2008-10-30,04:56:19,134
442965.21499999997,4425045.07,39751.2799189815,39751.3755671296,198.37792215887893,2008-10-30,06:43:05,2008-10-30,09:00:49,132
462465.11076923064,4440817.9061538465,39751.4314930556,39751.4756481481,198.47302083659787,2008-10-30,10:21:21,2008-10-30,11:24:56,-1
460578.64799999987,4444193.964,39751.4928703704,39751.4938888889,191.62698139913175,2008-10-30,11:49:44,2008-10-30,11:51:12,135
441992.25333333336,4426294.723333334,39752.0379513889,39752.1349421296,192.4310266044066,2008-10-31,00:54:39,2008-10-31,03:14:19,126
441969.44999999995,4426366.283333332,39752.1354166667,39752.2031944444,194.04393832340563,2008-10-31,03:15:00,2008-10-31,04:52:36,128
441989.2666666667,4426413.878431371,39752.2035069444,39752.2431712963,199.05215396938758,2008-10-31,04:53:03,2008-10-31,05:50:10,-1
441960.61176470586,4426223.020588235,39752.2431944444,39752.2662152778,199.96679724436265,2008-10-31,05:50:12,2008-10-31,06:23:21,-1
441799.0677777779,4426448.5600000005,39752.2669097222,39752.3984722222,195.79627167043333,2008-10-31,06:24:21,2008-10-31,09:33:48,-1
439453.6555555556,4424203.661111111,39752.4260763889,39752.4271759259,191.11308170855477,2008-10-31,10:13:33,2008-10-31,10:15:08,133
446594.66000000003,4427843.593333333,39752.536400463,39752.5367013889,195.5032480543035,2008-10-31,12:52:25,2008-10-31,12:52:51,129
460526.5617647059,4444524.502941175,39753.3709490741,39753.4026736111,194.95796982936648,2008-11-01,08:54:10,2008-11-01,09:39:51,130
448952.45,4447405.610714286,39753.4175231481,39753.4184027778,197.55376483371353,2008-11-01,10:01:14,2008-11-01,10:02:30,-1
460547.1039473682,4444493.565789473,39753.4955671296,39754.9750694444,197.9534541243955,2008-11-01,11:53:37,2008-11-02,23:24:06,136
442042.2461538463,4426284.625,39755.0230555556,39757.4348726852,188.05842177350297,2008-11-03,00:33:12,2008-11-05,10:26:13,-1
446500.27916666673,4427523.158333332,39757.4438541667,39757.4454976852,199.58687331562996,2008-11-05,10:39:09,2008-11-05,10:41:31,-1
444589.50000000006,4423692.850000001,39757.5364930556,39757.5365393519,176.28400381234454,2008-11-05,12:52:33,2008-11-05,12:52:37,-1
441898.41212121217,4426343.133333332,39758.0259143518,39758.2663657407,184.57586516118513,2008-11-06,00:37:19,2008-11-06,06:23:34,125
455994.42500000005,4428674.85,39758.2754282407,39758.275462963,196.25730559638944,2008-11-06,06:36:37,2008-11-06,06:36:40,-1
441989.62083333335,4426258.541666667,39758.385162037,39758.3862962963,193.26851787059005,2008-11-06,09:14:38,2008-11-06,09:16:16,126
445197.93275862053,4423681.025862069,39758.4723842593,39758.5039467593,189.51519727978894,2008-11-06,11:20:14,2008-11-06,12:05:41,-1
446639.9838709678,4427874.535483872,39758.5107175926,39758.511412037,195.7073836114178,2008-11-06,12:15:26,2008-11-06,12:16:26,129
442012.6772727273,4426301.318181819,39759.0168287037,39759.0175925926,198.04736807140154,2008-11-07,00:24:14,2008-11-07,00:25:20,126
441904.1,4426309.75,39759.151412037,39759.1514467593,15.989058759205678,2008-11-07,03:38:02,2008-11-07,03:38:05,125
442418.6,4423675.1,39759.2288425926,39759.2288425926,0.0,2008-11-07,05:29:32,2008-11-07,05:29:32,-1
435362.8770491804,4422635.952459018,39759.2681944444,39759.3151273148,193.48436629334506,2008-11-07,06:26:12,2008-11-07,07:33:47,-1
441969.0229166667,4426296.635416667,39759.3273958333,39759.3554166667,197.2919156988415,2008-11-07,07:51:27,2008-11-07,08:31:48,126
439428.11707317067,4424313.124390243,39759.412349537,39759.5193865741,196.24833757257016,2008-11-07,09:53:47,2008-11-07,12:27:55,-1
446708.3857142857,4427908.571428571,39759.5349652778,39759.5355324074,190.38324506120156,2008-11-07,12:50:21,2008-11-07,12:51:10,-1
452961.0405797103,4403309.118840578,39761.1087847222,39761.2668981481,189.056869751109,2008-11-09,02:36:39,2008-11-09,06:24:20,-1
452866.7227272727,4406945.122727274,39761.2750347222,39761.3258333333,199.81413863888676,2008-11-09,06:36:03,2008-11-09,07:49:12,-1
446678.1176470588,4427830.3,39761.3528587963,39761.3532407407,92.45501608901279,2008-11-09,08:28:07,2008-11-09,08:28:40,-1
441992.2826086957,4426301.126086957,39762.0193402778,39762.0697106481,197.74250933974346,2008-11-10,00:27:51,2008-11-10,01:40:23,126
442951.7777777778,4425070.166666666,39762.075150463,39762.0758217593,197.8120572670397,2008-11-10,01:48:13,2008-11-10,01:49:11,132
442000.4416666667,4426261.645833333,39762.1945023148,39762.1956481481,195.68139921866475,2008-11-10,04:40:05,2008-11-10,04:41:44,126
446624.3387096774,4427873.348387095,39762.5292361111,39762.5299189815,195.3105475898656,2008-11-10,12:42:06,2008-11-10,12:43:05,129
446922.2571428573,4427769.054545454,39762.6410763889,39762.692349537,186.962456124234,2008-11-10,15:23:09,2008-11-10,16:36:59,-1
448181.35000000003,4429138.4,39762.692974537,39762.6930092593,190.89814037874,2008-11-10,16:37:53,2008-11-10,16:37:56,-1
442017.2047619048,4426264.628571428,39763.0271180556,39763.1959259259,198.2144797941649,2008-11-11,00:39:03,2008-11-11,04:42:08,126
443635.2913043478,4423576.92173913,39763.2030092593,39763.2046412037,167.01703505930487,2008-11-11,04:52:20,2008-11-11,04:54:41,134
441179.782,4427410.4339999985,39763.2838541667,39763.3451851852,161.00198756537046,2008-11-11,06:48:45,2008-11-11,08:17:04,-1
441986.202631579,4426329.118421053,39763.3525694444,39763.553275463,193.86474666649994,2008-11-11,08:27:42,2008-11-11,13:16:43,126
446610.5652173913,4427884.243478261,39763.5662152778,39763.5666666667,191.50010443877207,2008-11-11,13:35:21,2008-11-11,13:36:00,129
442002.71249999985,4426297.020833333,39763.9919444444,39764.1441203704,194.50863734031563,2008-11-11,23:48:24,2008-11-12,03:27:32,126
423424.8275362319,4433878.063768117,39764.1816319444,39764.2438888889,197.33930171145644,2008-11-12,04:21:33,2008-11-12,05:51:12,-1
441960.496875,4426274.640624999,39764.271412037,39764.2727662037,96.57727475988237,2008-11-12,06:30:50,2008-11-12,06:32:47,126
446737.97187499993,4427579.001562499,39764.456099537,39764.5001273148,192.97733027498478,2008-11-12,10:56:47,2008-11-12,12:00:11,-1
446628.855,4427888.04,39764.5001967593,39764.5008217593,144.7814905298269,2008-11-12,12:00:17,2008-11-12,12:01:11,129
441981.9125000001,4426292.468750001,39765.022662037,39765.4107986111,198.1002271578472,2008-11-13,00:32:38,2008-11-13,09:51:33,126
462444.09540229896,4440840.208045977,39765.4441550926,39765.4921643519,193.1098392107688,2008-11-13,10:39:35,2008-11-13,11:48:43,-1
460437.0447058824,4444473.285882353,39765.5039814815,39765.5627893518,194.66990008760155,2008-11-13,12:05:44,2008-11-13,13:30:25,127
460583.65789473685,4444186.963157895,39765.5628240741,39766.0149652778,194.9877944899888,2008-11-13,13:30:28,2008-11-14,00:21:33,135
442014.3772727272,4426295.886363636,39766.0420717593,39766.0430092593,194.88919929021537,2008-11-14,01:00:35,2008-11-14,01:01:56,126
443644.5156249999,4423577.2171875,39766.1796875,39766.2812152778,196.4006109964647,2008-11-14,04:18:45,2008-11-14,06:44:57,134
442014.9499999999,4426292.399999999,39766.2919212963,39766.2924305556,194.73440887525624,2008-11-14,07:00:22,2008-11-14,07:01:06,126
442949.1111111111,4425049.611111111,39766.3188194444,39766.3581944444,197.10591061678718,2008-11-14,07:39:06,2008-11-14,08:35:48,132
439442.551724138,4424292.834482758,39766.4189930556,39766.5219444444,193.88042706836262,2008-11-14,10:03:21,2008-11-14,12:31:36,-1
446619.37142857135,4427879.50952381,39766.5392476852,39766.5397685185,197.23985398526634,2008-11-14,12:56:31,2008-11-14,12:57:16,129
445968.30566037755,4431236.396226415,39767.3201967593,39767.3538194444,199.60643777174522,2008-11-15,07:41:05,2008-11-15,08:29:30,-1
446727.70519480534,4427581.720779221,39767.3599421296,39767.4473148148,198.59307641505063,2008-11-15,08:38:19,2008-11-15,10:44:08,-1
446628.1739130436,4427898.682608696,39767.4474074074,39767.4481597222,163.59489600841258,2008-11-15,10:44:16,2008-11-15,10:45:21,129
448918.3464285712,4428298.48392857,39768.0056944444,39768.0277662037,194.3087491598676,2008-11-16,00:08:12,2008-11-16,00:39:59,-1
459207.2631578947,4450052.942105264,39768.0845949074,39768.1331018518,192.94900880803715,2008-11-16,02:01:49,2008-11-16,03:11:40,-1
457815.32222222217,4436966.338888888,39768.1639351852,39768.1644675926,158.5638672585908,2008-11-16,03:56:04,2008-11-16,03:56:50,-1
446852.85853658535,4427586.453658537,39768.4068518518,39768.4364236111,192.1031493755119,2008-11-16,09:45:52,2008-11-16,10:28:27,-1
441060.6142857143,4424016.905714286,39768.4703819444,39768.519212963,184.92336250488992,2008-11-16,11:17:21,2008-11-16,12:27:40,-1
442589.64800000004,4425507.58,39768.5252777778,39768.5260300926,181.1780339879287,2008-11-16,12:36:24,2008-11-16,12:37:29,-1
441999.68260869564,4426298.67826087,39769.0228703704,39769.0825347222,195.31740833831353,2008-11-17,00:32:56,2008-11-17,01:58:51,126
446528.8583333332,4427544.016666666,39769.1548611111,39769.1874652778,162.7777011748148,2008-11-17,03:43:00,2008-11-17,04:29:57,-1
454358.45869565214,4420089.430434783,39769.2028240741,39769.2064930556,91.81508590590062,2008-11-17,04:52:04,2008-11-17,04:57:21,-1
441998.9863636364,4426306.79090909,39769.3186342593,39769.3196180556,192.91596616137312,2008-11-17,07:38:50,2008-11-17,07:40:15,126
446688.4382978723,4427573.891489361,39769.4619328704,39769.5084606481,188.39599252663902,2008-11-17,11:05:11,2008-11-17,12:12:11,-1
446699.06923076924,4428089.953846154,39769.5090740741,39769.5094212963,76.74144903505537,2008-11-17,12:13:04,2008-11-17,12:13:34,-1
441813.48653846147,4425721.938461539,39770.1645833333,39770.2150115741,197.7243030079931,2008-11-18,03:57:00,2008-11-18,05:09:37,-1
442582.2724137931,4425421.046551724,39770.2161689815,39770.2186111111,155.24396928706264,2008-11-18,05:11:17,2008-11-18,05:14:48,131
446640.0142857144,4427868.946428572,39770.4666666667,39770.4675810185,194.1041215430805,2008-11-18,11:12:00,2008-11-18,11:13:19,129
442000.4333333333,4426300.3791666655,39772.0303703704,39772.2197106481,199.1518516107445,2008-11-20,00:43:44,2008-11-20,05:16:23,126
440240.5274509802,4432586.125490194,39772.2427314815,39772.2940972222,189.92988179879399,2008-11-20,05:49:32,2008-11-20,07:03:30,-1
442013.86190476187,4426294.152380953,39772.3250347222,39772.3256481481,194.4389107149375,2008-11-20,07:48:03,2008-11-20,07:48:56,126
446640.5827586206,4427868.448275862,39772.4879513889,39772.4886574074,172.4191404690478,2008-11-20,11:42:39,2008-11-20,11:43:40,129
442006.4125000001,4426271.007500001,39773.0040046296,39773.2054282407,190.38256222619682,2008-11-21,00:05:46,2008-11-21,04:55:49,126
442939.29000000004,4424706.58,39773.2111226852,39773.2112268518,169.42030574890214,2008-11-21,05:04:01,2008-11-21,05:04:10,-1
441800.2610526315,4425328.993684211,39773.3828819444,39773.4044791667,198.2758179909622,2008-11-21,09:11:21,2008-11-21,09:42:27,-1
439432.8707317072,4424324.370731708,39773.4253703704,39773.5250231481,192.54415078142662,2008-11-21,10:12:32,2008-11-21,12:36:02,-1
446637.36333333334,4427888.913333335,39773.5482060185,39773.5488657407,194.38469589991578,2008-11-21,13:09:25,2008-11-21,13:10:22,129
442954.16875000007,4425061.275,39774.0906018519,39774.0910648148,192.38840921464913,2008-11-22,02:10:28,2008-11-22,02:11:08,132
460555.91492537316,4444493.889552239,39774.3661458333,39775.0848148148,192.91889487591357,2008-11-22,08:47:15,2008-11-23,02:02:08,136
459217.82040816324,4450059.195918368,39775.0911805556,39775.1544560185,188.59151624611394,2008-11-23,02:11:18,2008-11-23,03:42:25,-1
460442.9297297297,4444526.662162162,39775.1648611111,39775.2964699074,195.49140646076847,2008-11-23,03:57:24,2008-11-23,07:06:55,137
460575.25714285707,4444186.114285715,39775.3373032407,39775.3377893518,184.9179547797615,2008-11-23,08:05:43,2008-11-23,08:06:25,135
441997.6838709677,4426304.80967742,39776.0997453704,39776.2378009259,193.1341761574289,2008-11-24,02:23:38,2008-11-24,05:42:26,126
441956.8323943664,4426305.857746479,39776.2472337963,39776.273287037,145.3817732729767,2008-11-24,05:56:01,2008-11-24,06:33:32,126
448224.3088235294,4414088.570588236,39776.3216203704,39776.3716087963,191.02944799147673,2008-11-24,07:43:08,2008-11-24,08:55:07,-1
441907.384375,4426277.284374999,39776.4085069444,39776.4329166667,194.28046736602673,2008-11-24,09:48:15,2008-11-24,10:23:24,125
446644.0,4427879.583333333,39776.4657638889,39776.466724537,195.48751878284503,2008-11-24,11:10:42,2008-11-24,11:12:05,129
441941.57096774207,4426308.387096774,39777.0000347222,39777.1547337963,197.59159901168866,2008-11-25,00:00:03,2008-11-25,03:42:49,126
442943.43076923065,4425153.673076922,39777.1616782407,39777.1623263889,194.412396724006,2008-11-25,03:52:49,2008-11-25,03:53:45,-1
441981.58749999997,4426273.995833334,39777.2847453704,39777.2853240741,192.52438806552078,2008-11-25,06:50:02,2008-11-25,06:50:52,126
448942.10416666657,4425870.3875,39777.3757291667,39777.3772685185,199.8008007991761,2008-11-25,09:01:03,2008-11-25,09:03:16,-1
446626.07586206903,4427865.493103448,39777.4774884259,39777.4782060185,179.87467859585067,2008-11-25,11:27:35,2008-11-25,11:28:37,129
441992.0520000001,4426296.364000001,39777.9945833333,39778.1601041667,198.66114365924707,2008-11-25,23:52:12,2008-11-26,03:50:33,126
442609.4199999999,4424824.619999999,39778.1676851852,39778.2171412037,197.6658038210484,2008-11-26,04:01:28,2008-11-26,05:12:41,-1
440445.13499999995,4420767.1049999995,39778.2500694444,39778.2514583333,155.75532093672797,2008-11-26,06:00:06,2008-11-26,06:02:06,-1
441979.725,4426279.816666666,39778.4307986111,39778.5949305556,192.63156542969818,2008-11-26,10:20:21,2008-11-26,14:16:42,126
446656.0125000001,4427964.6291666655,39778.6192939815,39778.6198263889,198.7394777089732,2008-11-26,14:51:47,2008-11-26,14:52:33,138
442015.37142857135,4426296.100000001,39778.9941087963,39778.9946064815,199.34598064670905,2008-11-26,23:51:31,2008-11-26,23:52:14,126
448307.6522388059,4427014.316417909,39779.4755208333,39779.5186689815,191.12836001026716,2008-11-27,11:24:45,2008-11-27,12:26:53,-1
446638.0086956521,4427933.365217391,39779.5251157407,39779.5256944444,172.07190357514554,2008-11-27,12:36:10,2008-11-27,12:37:00,-1
441956.0567567566,4426270.167567567,39780.0000462963,39780.0012037037,97.57971100565643,2008-11-28,00:00:04,2008-11-28,00:01:44,126
439467.5739130434,4424186.817391305,39780.4292824074,39780.4506018519,197.4933416593675,2008-11-28,10:18:10,2008-11-28,10:48:52,-1
446697.1733333333,4427938.433333334,39780.5408796296,39780.5417013889,199.57797974742982,2008-11-28,12:58:52,2008-11-28,13:00:03,139
448194.90204081615,4414100.5571428565,39781.2803009259,39781.3328125,196.22502388800783,2008-11-29,06:43:38,2008-11-29,07:59:15,-1
446621.09565217386,4427884.743478261,39781.362337963,39781.3628587963,195.49979539589737,2008-11-29,08:41:46,2008-11-29,08:42:31,129
448001.8681818182,4416354.368181816,39782.0648032407,39782.0684027778,197.25072876961926,2008-11-30,01:33:19,2008-11-30,01:38:30,-1
460579.55652173917,4444180.939130435,39782.1477314815,39782.1484490741,197.7088768868348,2008-11-30,03:32:44,2008-11-30,03:33:46,135
446619.07142857154,4428030.79047619,39782.2486342593,39782.2490277778,191.31931423653592,2008-11-30,05:58:02,2008-11-30,05:58:36,-1
442002.75909090915,4426296.331818182,39783.0251273148,39783.0264814815,185.13697631751674,2008-12-01,00:36:11,2008-12-01,00:38:08,126
445181.965,4423669.095,39783.4732638889,39783.4738078704,197.30060820991466,2008-12-01,11:21:30,2008-12-01,11:22:17,-1
446639.8965517242,4427879.741379309,39783.5072916667,39783.5080671296,168.17092495432564,2008-12-01,12:10:30,2008-12-01,12:11:37,129
442011.9772727272,4426298.754545455,39785.0060648148,39785.0071875,199.03165577366357,2008-12-03,00:08:44,2008-12-03,00:10:21,126
441938.5534883721,4426225.009302327,39785.2643865741,39785.2908101852,192.04908226773517,2008-12-03,06:20:43,2008-12-03,06:58:46,-1
441933.38499999995,4426214.4399999995,39785.2909143518,39785.3373148148,195.47738999745593,2008-12-03,06:58:55,2008-12-03,08:05:44,-1
441889.66153846146,4426315.588461539,39785.3427546296,39785.389525463,194.80092402243633,2008-12-03,08:13:34,2008-12-03,09:20:55,125
440596.39473684214,4419541.252631578,39785.4175694444,39785.4209722222,131.82492177175874,2008-12-03,10:01:18,2008-12-03,10:06:12,-1
441948.0789473684,4426302.147368421,39786.0176851852,39786.0183101852,185.45910600447502,2008-12-04,00:25:28,2008-12-04,00:26:22,126
447993.64999999997,4426747.825,39786.4900578704,39786.4900925926,101.30745283522644,2008-12-04,11:45:41,2008-12-04,11:45:44,-1
441964.78749999986,4426299.387499999,39787.0255092593,39787.026099537,192.8284211417557,2008-12-05,00:36:44,2008-12-05,00:37:35,126
443682.2705882353,4423486.814705882,39787.2328356481,39787.2743402778,199.39280328017998,2008-12-05,05:35:17,2008-12-05,06:35:03,-1
441940.5017857142,4426413.1125,39787.2982291667,39787.3625347222,187.7598732418952,2008-12-05,07:09:27,2008-12-05,08:42:03,-1
439460.18307692325,4424183.195384612,39787.4306018518,39787.5164583333,192.64550345128518,2008-12-05,10:20:04,2008-12-05,12:23:42,-1
446645.7346153846,4427873.71923077,39787.5270601852,39787.5277430556,196.58870771191283,2008-12-05,12:38:58,2008-12-05,12:39:57,129
441618.1382352941,4426244.532352942,39788.075775463,39788.1469444444,196.27618296680924,2008-12-06,01:49:07,2008-12-06,03:31:36,-1
441879.22916666674,4426086.402777779,39788.147037037,39788.2357060185,189.3682655567455,2008-12-06,03:31:44,2008-12-06,05:39:25,-1
439862.7579710146,4417100.449275361,39788.2591782407,39788.3120138889,192.5998182761348,2008-12-06,06:13:13,2008-12-06,07:29:18,-1
460522.67419354833,4444524.5548387095,39788.3690277778,39790.0778587963,196.22237385167523,2008-12-06,08:51:24,2008-12-08,01:52:07,130
460489.4600000001,4444298.325000001,39790.0780902778,39790.1145138889,192.83075480835984,2008-12-08,01:52:27,2008-12-08,02:44:54,-1
441979.92580645153,4426299.522580646,39790.147974537,39790.4631597222,190.84679719607558,2008-12-08,03:33:05,2008-12-08,11:06:57,126
446593.56500000006,4427854.300000001,39790.5047337963,39790.5050347222,199.09841787399793,2008-12-08,12:06:49,2008-12-08,12:07:15,129
442014.3190476191,4426293.561904763,39791.0207175926,39791.0216782407,199.9981249912158,2008-12-09,00:29:50,2008-12-09,00:31:13,126
442006.542857143,4426298.185714286,39792.0362731481,39792.0374768519,188.68134512983772,2008-12-10,00:52:14,2008-12-10,00:53:58,126
446612.57391304354,4427891.334782609,39792.4308101852,39792.4315046296,191.71825682511366,2008-12-10,10:20:22,2008-12-10,10:21:22,129
441978.59545454546,4426305.963636363,39793.0211111111,39793.0215972222,191.07550863467563,2008-12-11,00:30:24,2008-12-11,00:31:06,126
446628.2035714284,4427891.685714286,39793.5103472222,39793.5110185185,181.80167765992533,2008-12-11,12:14:54,2008-12-11,12:15:52,129
442009.290909091,4426296.304545454,39794.0350925926,39794.0356018519,197.7894334892307,2008-12-12,00:50:32,2008-12-12,00:51:16,126
442951.52941176476,4425091.158823529,39794.0941550926,39794.0946643518,198.5315340195302,2008-12-12,02:15:35,2008-12-12,02:16:19,132
443651.01249999995,4426073.8,39794.1680324074,39794.1681134259,184.56825295803668,2008-12-12,04:01:58,2008-12-12,04:02:05,-1
442963.17058823537,4424996.7,39794.3217476852,39794.3632407407,198.36040431479012,2008-12-12,07:43:19,2008-12-12,08:43:04,132
439477.34375,4424146.124999999,39794.4085648148,39794.4102546296,108.77357215813267,2008-12-12,09:48:20,2008-12-12,09:50:46,-1
438880.7,4424908.8,39794.4433101852,39794.4433101852,0.0,2008-12-12,10:38:22,2008-12-12,10:38:22,-1
446634.40689655166,4427897.975862068,39794.5276851852,39794.5282986111,193.1406223459276,2008-12-12,12:39:52,2008-12-12,12:40:45,129
442953.73214285716,4420860.517857143,39796.0552083333,39796.0565162037,198.79610157144563,2008-12-14,01:19:30,2008-12-14,01:21:23,-1
446691.92000000004,4427917.67,39796.1557986111,39796.1561689815,78.76001523609209,2008-12-14,03:44:21,2008-12-14,03:44:53,139
442003.8095238095,4426294.995238095,39797.0053356481,39797.0059375,192.2706945949054,2008-12-15,00:07:41,2008-12-15,00:08:33,126
446609.71428571426,4427885.557142857,39797.4489351852,39797.4500347222,195.73885664292672,2008-12-15,10:46:28,2008-12-15,10:48:03,129
460445.3976744186,4444484.113953492,39798.0335532407,39798.0862847222,198.4621878342859,2008-12-16,00:48:19,2008-12-16,02:04:15,127
433998.5086956521,4417483.4130434785,39798.1546412037,39798.2310763889,190.7012847353574,2008-12-16,03:42:41,2008-12-16,05:32:45,-1
441909.97954545455,4426262.18409091,39798.2490162037,39798.478275463,187.80332797904381,2008-12-16,05:58:35,2008-12-16,11:28:43,125
446636.7966666667,4427892.8100000005,39798.4899768519,39798.4905092593,191.62734669144564,2008-12-16,11:45:34,2008-12-16,11:46:20,129
441999.0,4426299.777272727,39799.0215740741,39799.0219907407,189.0365308610662,2008-12-17,00:31:04,2008-12-17,00:31:40,126
441771.0717948718,4426104.407692309,39799.1943865741,39799.1955671296,145.24479336640732,2008-12-17,04:39:55,2008-12-17,04:41:37,-1
442001.59230769216,4426263.723076924,39799.3218055556,39799.3223842593,198.16316509322002,2008-12-17,07:43:24,2008-12-17,07:44:14,126
446608.68750000006,4427873.783333333,39799.4594212963,39799.460162037,187.8323986958163,2008-12-17,11:01:34,2008-12-17,11:02:38,129
442045.2690476191,4426298.004761903,39800.0263425926,39800.0323726852,197.21262637062793,2008-12-18,00:37:56,2008-12-18,00:46:37,-1
439472.56666666665,4433249.913333334,39800.1565277778,39800.1567592593,192.4543842057103,2008-12-18,03:45:24,2008-12-18,03:45:44,-1
441991.18636363646,4426261.981818181,39800.2484375,39800.2493171296,196.30450835375242,2008-12-18,05:57:45,2008-12-18,05:59:01,126
434060.6292682926,4417334.968292682,39800.362650463,39800.3655787037,193.6760697656699,2008-12-18,08:42:13,2008-12-18,08:46:26,-1
441876.5178571428,4426295.553571427,39800.4248842593,39800.5443865741,199.0747095941517,2008-12-18,10:11:50,2008-12-18,13:03:55,125
446583.6588235294,4427846.6000000015,39800.5886342593,39800.5888657407,188.87890300401585,2008-12-18,14:07:38,2008-12-18,14:07:58,-1
441999.4380952382,4426299.871428573,39801.0274189815,39801.0279282407,198.02247347201913,2008-12-19,00:39:29,2008-12-19,00:40:13,126
441959.5259259259,4426287.137037037,39801.280775463,39801.3686689815,189.9668392116266,2008-12-19,06:44:19,2008-12-19,08:50:53,126
439455.98125000007,4424227.44375,39801.4099537037,39801.4103935185,182.1731593835871,2008-12-19,09:50:20,2008-12-19,09:50:58,133
446596.3,4427865.79,39801.5281944444,39801.5285300926,191.3473543062357,2008-12-19,12:40:36,2008-12-19,12:41:05,129
441566.4875,4424519.983333333,39802.3920717593,39802.4134837963,197.23660917786083,2008-12-20,09:24:35,2008-12-20,09:55:25,-1
442573.7833333333,4426040.966666668,39802.4264236111,39802.4595138889,194.7332791283318,2008-12-20,10:14:03,2008-12-20,11:01:42,-1
442614.7977777778,4426184.075555555,39802.4632175926,39802.5015509259,192.40532736905607,2008-12-20,11:07:02,2008-12-20,12:02:14,-1
446616.7130434782,4427899.886956521,39802.508912037,39802.5093402778,182.50273970575282,2008-12-20,12:12:50,2008-12-20,12:13:27,129
439029.8489795919,4423249.018367347,39803.0606944444,39803.0618634259,183.8156685379458,2008-12-21,01:27:24,2008-12-21,01:29:05,-1
446616.9086956522,4427893.395652174,39803.1475,39803.1480671296,175.62200887133264,2008-12-21,03:32:24,2008-12-21,03:33:13,129
446886.0181818182,4427566.127272726,39803.3514930556,39803.3523032407,198.52133386584245,2008-12-21,08:26:09,2008-12-21,08:27:19,-1
442006.7727272727,4426299.222727273,39804.0135069444,39804.0139930556,195.8375347066937,2008-12-22,00:19:27,2008-12-22,00:20:09,126
441959.1178571429,4426260.542857143,39804.2697337963,39804.2707060185,98.50329943696502,2008-12-22,06:28:25,2008-12-22,06:29:49,126
445000.9660714287,4423711.194642858,39804.3935648148,39804.4190162037,191.42228187979646,2008-12-22,09:26:44,2008-12-22,10:03:23,-1
446631.43870967743,4427888.829032258,39804.4334953704,39804.4344097222,184.70219273174456,2008-12-22,10:24:14,2008-12-22,10:25:33,129
441998.2173913043,4426265.630434783,39806.0180671296,39806.0194328704,187.0005614964993,2008-12-24,00:26:01,2008-12-24,00:27:59,126
441994.97241379315,4426335.227586209,39806.2527893518,39806.3300231481,191.5233928266414,2008-12-24,06:04:01,2008-12-24,07:55:14,126
441893.65862068965,4426389.158620688,39806.3476967593,39806.3822569444,197.92920451477573,2008-12-24,08:20:41,2008-12-24,09:10:27,-1
461727.9314814814,4434887.614814814,39806.4360648148,39806.5340046296,191.67936769513852,2008-12-24,10:27:56,2008-12-24,12:48:58,-1
446636.68387096777,4427893.758064516,39806.5563194444,39806.5570138889,189.10341086263466,2008-12-24,13:21:06,2008-12-24,13:22:06,129
442010.109090909,4426295.668181818,39807.0188657407,39807.0193402778,187.95233438296955,2008-12-25,00:27:10,2008-12-25,00:27:51,126
446720.0260273972,4427576.768493149,39807.4628125,39807.4956134259,191.6904014289607,2008-12-25,11:06:27,2008-12-25,11:53:41,-1
446584.21052631567,4427868.4,39807.4956597222,39807.4959606482,185.39441739168063,2008-12-25,11:53:45,2008-12-25,11:54:11,-1
445253.086440678,4423678.561016949,39808.0225925926,39808.1872453704,198.90643529053528,2008-12-26,00:32:32,2008-12-26,04:29:38,-1
441987.625,4426291.5200000005,39808.2028703704,39808.2033680556,166.88418139540235,2008-12-26,04:52:08,2008-12-26,04:52:51,126
404694.075,4386702.137499999,39808.4205439815,39808.420625,180.07626162266658,2008-12-26,10:05:35,2008-12-26,10:05:42,-1
446614.8777777779,4427864.981481481,39822.5296990741,39822.5303935185,180.92832835087637,2009-01-09,12:42:46,2009-01-09,12:43:46,129
441994.49565217376,4426291.556521739,39825.015,39825.0857060185,199.1012054207844,2009-01-12,00:21:36,2009-01-12,02:03:25,126
441835.45961538475,4426534.611538461,39825.1012037037,39825.1466898148,46.26888803469501,2009-01-12,02:25:44,2009-01-12,03:31:14,-1
441882.35000000003,4426326.071428571,39825.1557986111,39825.3255324074,199.93679001087003,2009-01-12,03:44:21,2009-01-12,07:48:46,125
441906.135,4426450.416666666,39825.3256365741,39825.4233912037,199.61001978821426,2009-01-12,07:48:55,2009-01-12,10:09:41,-1
446647.5333333333,4427905.453333334,39825.4525925926,39825.4533912037,195.34303161366637,2009-01-12,10:51:44,2009-01-12,10:52:53,129
442003.6,4426297.759090909,39826.0190856481,39826.0203125,195.44666791730924,2009-01-13,00:27:29,2009-01-13,00:29:15,126
441934.4279411766,4426438.964705882,39826.0887847222,39826.2494675926,197.59073864918997,2009-01-13,02:07:51,2009-01-13,05:59:14,-1
437485.2047619048,4417450.807936505,39826.3263541667,39826.3783217593,190.0164466564298,2009-01-13,07:49:57,2009-01-13,09:04:47,-1
448971.2199999999,4427632.494999999,39826.4037731481,39826.405,193.36620697523654,2009-01-13,09:41:26,2009-01-13,09:43:12,-1
446636.6580645161,4427899.519354839,39826.5959259259,39826.5966203704,196.76353828899207,2009-01-13,14:18:08,2009-01-13,14:19:08,129
442022.88249999995,4426268.842499999,39827.0115162037,39827.2155324074,189.46305708536246,2009-01-14,00:16:35,2009-01-14,05:10:22,126
442881.38461538445,4425386.338461539,39827.2192476852,39827.2976273148,198.6750110104635,2009-01-14,05:15:43,2009-01-14,07:08:35,-1
441993.5827586208,4426335.31724138,39827.313599537,39827.314224537,199.20313752535313,2009-01-14,07:31:35,2009-01-14,07:32:29,126
446724.1285714285,4427926.021428572,39827.5314467593,39827.532037037,196.36623946086337,2009-01-14,12:45:17,2009-01-14,12:46:08,139
441989.73478260863,4426294.947826087,39828.0160648148,39828.2868634259,194.5581661097784,2009-01-15,00:23:08,2009-01-15,06:53:05,126
445111.2590909092,4423681.302272728,39828.4666087963,39828.4883333333,197.40124113085002,2009-01-15,11:11:55,2009-01-15,11:43:12,-1
446638.35161290324,4427897.396774194,39828.4950347222,39828.4958217593,188.7119498070335,2009-01-15,11:52:51,2009-01-15,11:53:59,129
445317.3173913043,4423712.273913043,39829.022349537,39829.0230092593,199.97164799042497,2009-01-16,00:32:11,2009-01-16,00:33:08,-1
442972.4857142857,4424841.764285714,39829.0753587963,39829.0756365741,192.82357221119747,2009-01-16,01:48:31,2009-01-16,01:48:55,-1
441998.9705882353,4426291.0470588235,39829.1896990741,39829.1901041667,188.20717308326462,2009-01-16,04:33:10,2009-01-16,04:33:45,126
442957.825,4425004.468750001,39829.4195601852,39829.5070949074,178.1496281219767,2009-01-16,10:04:10,2009-01-16,12:10:13,132
446636.9821428571,4427907.914285715,39829.6085648148,39829.6091782407,197.54070466602917,2009-01-16,14:36:20,2009-01-16,14:37:13,129
459191.45294117654,4450054.147058824,39830.1290046296,39830.1293981481,199.88141484408197,2009-01-17,03:05:46,2009-01-17,03:06:20,-1
446688.8461538461,4427982.83846154,39830.2049652778,39830.2060763889,149.54173330563995,2009-01-17,04:55:09,2009-01-17,04:56:45,-1
441980.8782608697,4426298.504347825,39832.0168518518,39832.0180324074,197.32840647001422,2009-01-19,00:24:16,2009-01-19,00:25:58,126
446795.2620689656,4427579.979310346,39832.0756944444,39832.0766782407,198.04799923217806,2009-01-19,01:49:00,2009-01-19,01:50:25,-1
446829.5083333332,4427594.986111111,39832.1474189815,39832.1952546296,199.90042521225334,2009-01-19,03:32:17,2009-01-19,04:41:10,-1
446641.94666666654,4427904.9366666665,39832.1958796296,39832.1968402778,192.16495518137336,2009-01-19,04:42:04,2009-01-19,04:43:27,129
442005.090909091,4426296.6454545455,39833.0365046296,39833.037662037,197.41230964660105,2009-01-20,00:52:34,2009-01-20,00:54:14,126
442639.96438356175,4425356.05479452,39833.1826851852,39833.2519907407,190.95894846835844,2009-01-20,04:23:04,2009-01-20,06:02:52,-1
441959.1405405407,4426281.748648649,39833.2551851852,39833.2657175926,190.40097163601493,2009-01-20,06:07:28,2009-01-20,06:22:38,126
446632.81935483875,4427897.012903226,39833.4646412037,39833.4654398148,185.16514250812847,2009-01-20,11:09:05,2009-01-20,11:10:14,129
439205.47187499993,4427362.025,39834.0188194444,39834.0212152778,197.67248164585303,2009-01-21,00:27:06,2009-01-21,00:30:33,-1
487638.32739726023,4465025.428767125,39834.1070023148,39834.2496643519,192.08133693833176,2009-01-21,02:34:05,2009-01-21,05:59:31,-1
442014.71666666656,4426301.462499999,39834.296875,39834.2974421296,195.32193937193367,2009-01-21,07:07:30,2009-01-21,07:08:19,126
446640.40740740736,4427903.137037037,39834.4677314815,39834.4684027778,189.15898075398732,2009-01-21,11:13:32,2009-01-21,11:14:30,129
441988.4607142857,4426295.492857142,39835.0096759259,39835.1210300926,196.58527411787114,2009-01-22,00:13:56,2009-01-22,02:54:17,126
443626.55000000005,4423648.272222223,39835.1449074074,39835.1453356481,198.64896173903693,2009-01-22,03:28:40,2009-01-22,03:29:17,-1
442040.75652173924,4425805.395652174,39835.223275463,39835.2237847222,195.4123076986485,2009-01-22,05:21:31,2009-01-22,05:22:15,-1
442975.6333333333,4424833.738095239,39835.3291898148,39835.4297106481,189.52163464855747,2009-01-22,07:54:02,2009-01-22,10:18:47,-1
446647.0800000001,4427896.736666666,39835.4423958333,39835.4431481481,183.11728482037574,2009-01-22,10:37:03,2009-01-22,10:38:08,129
441987.8434782609,4426300.917391306,39836.0117476852,39836.0401736111,199.50812013549555,2009-01-23,00:16:55,2009-01-23,00:57:51,126
441795.6384615385,4425791.442307694,39836.0424189815,39836.0885648148,192.47194600701022,2009-01-23,01:01:05,2009-01-23,02:07:32,-1
441935.93333333335,4426277.513888889,39836.0900810185,39836.3219560185,183.0410882836563,2009-01-23,02:09:43,2009-01-23,07:43:37,126
446685.99761904764,4427983.7666666685,39836.4168865741,39836.4181365741,140.80980079561596,2009-01-23,10:00:19,2009-01-23,10:02:07,-1
449019.7833333333,4427628.21,39837.0626041667,39837.1323611111,175.51552637876986,2009-01-24,01:30:09,2009-01-24,03:10:36,-1
446691.3894736843,4427953.926315788,39837.1461689815,39837.1471875,100.31948963151449,2009-01-24,03:30:29,2009-01-24,03:31:57,139
437596.11969696975,4417008.483333334,39838.0621643519,39838.1367824074,198.8346549274489,2009-01-25,01:29:31,2009-01-25,03:16:58,-1
446637.958064516,4427888.964516129,39838.153900463,39838.154837963,194.10834603409364,2009-01-25,03:41:37,2009-01-25,03:42:58,129
445965.303125,4431417.2921875,39838.48125,39838.5198611111,197.35577012032203,2009-01-25,11:33:00,2009-01-25,12:28:36,-1
446810.3857142857,4427589.646428572,39838.5252314815,39838.5534722222,195.5006393852837,2009-01-25,12:36:20,2009-01-25,13:17:00,-1
446631.97,4427887.583333333,39838.5554398148,39838.5564583333,143.6540984449551,2009-01-25,13:19:50,2009-01-25,13:21:18,129
487664.3,4464564.320430108,39841.1403240741,39841.2138078704,193.238194982255,2009-01-28,03:22:04,2009-01-28,05:07:53,-1
487572.4,4464437.407142857,39841.2234837963,39841.2236574074,197.85017058296322,2009-01-28,05:21:49,2009-01-28,05:22:04,-1
487667.39669421513,4464639.74214876,39841.2948148148,39841.3716550926,191.28308864033824,2009-01-28,07:04:32,2009-01-28,08:55:11,-1
461182.0,4446257.6,39841.4293981481,39841.4293981481,0.0,2009-01-28,10:18:20,2009-01-28,10:18:20,-1
457827.16860465106,4436891.890697673,39842.2563194444,39842.2959837963,189.94925638143053,2009-01-29,06:09:06,2009-01-29,07:06:13,-1
457835.31092436996,4436885.01344538,39842.2960300926,39842.3794097222,194.17458639033558,2009-01-29,07:06:17,2009-01-29,09:06:21,-1
460480.45492957754,4444534.498591549,39842.3873726852,39842.4229513889,199.70628432799037,2009-01-29,09:17:49,2009-01-29,10:09:03,-1
460451.0535087718,4444528.7578947395,39842.4229976852,39842.4611111111,28.30194339616981,2009-01-29,10:09:07,2009-01-29,11:04:00,137
444787.8125000002,4427668.659090909,39844.0914351852,39844.1762384259,180.67819458922824,2009-01-31,02:11:40,2009-01-31,04:13:47,-1
447341.00740740745,4425801.562962962,39844.1848958333,39844.2032060185,188.4742157432492,2009-01-31,04:26:15,2009-01-31,04:52:37,-1
447354.0652173913,4425795.256521739,39844.2064930556,39844.3065393518,195.32152979126494,2009-01-31,04:57:21,2009-01-31,07:21:25,-1
446654.86,4427956.399999999,39844.3185763889,39844.3190277778,194.67434345611528,2009-01-31,07:38:45,2009-01-31,07:39:24,138
446638.10344827594,4427885.231034482,39849.6227199074,39849.6233217593,193.50917290890337,2009-02-05,14:56:43,2009-02-05,14:57:35,129
441976.39583333326,4426299.629166666,39850.0599421296,39850.1977662037,196.57186980847487,2009-02-06,01:26:19,2009-02-06,04:44:47,126
442944.6700000001,4425006.0649999995,39850.2039699074,39850.3494675926,194.44963358189324,2009-02-06,04:53:43,2009-02-06,08:23:14,132
442892.5444444444,4425386.955555555,39850.3528472222,39850.4920601852,197.48582227582406,2009-02-06,08:28:06,2009-02-06,11:48:34,-1
441808.3794117648,4425367.017647059,39850.4955208333,39850.5473726852,193.60206610469243,2009-02-06,11:53:33,2009-02-06,13:08:13,-1
446635.3034482758,4427890.179310345,39850.5551967593,39850.5559375,198.26351151958926,2009-02-06,13:19:29,2009-02-06,13:20:33,129
453474.98235294136,4447365.564705881,39852.0860069444,39852.1913888889,196.1128501654086,2009-02-08,02:03:51,2009-02-08,04:35:36,-1
460576.0178571429,4444202.110714285,39852.1973726852,39852.2394791667,198.2374838416281,2009-02-08,04:44:13,2009-02-08,05:44:51,135
460431.06666666665,4444477.444927536,39852.2399305556,39852.2709953704,191.9364738656807,2009-02-08,05:45:30,2009-02-08,06:30:14,127
446657.10769230756,4427954.015384615,39852.3068518518,39852.3074305556,198.63063711307987,2009-02-08,07:21:52,2009-02-08,07:22:42,138
444737.52933333337,4425747.030666666,39852.9984953704,39853.2043865741,193.91926154973095,2009-02-08,23:57:50,2009-02-09,04:54:19,-1
441955.80400000006,4426304.103999999,39853.2582638889,39853.3939351852,195.77420667695654,2009-02-09,06:11:54,2009-02-09,09:27:16,126
442953.6684210526,4425020.342105264,39853.4059375,39853.4401273148,199.2330293896539,2009-02-09,09:44:33,2009-02-09,10:33:47,132
442805.811111111,4424670.199999999,39853.4459722222,39853.4763773148,194.59355076682058,2009-02-09,10:42:12,2009-02-09,11:25:59,-1
446591.6736842106,4427872.578947368,39853.4843634259,39853.4846990741,185.59854525237392,2009-02-09,11:37:29,2009-02-09,11:37:58,129
441993.8857142858,4426255.4371428555,39854.0183217593,39854.2026273148,194.0781543603851,2009-02-10,00:26:23,2009-02-10,04:51:47,126
442958.0363636364,4425095.318181817,39854.2069097222,39854.2074652778,190.31755042596805,2009-02-10,04:57:57,2009-02-10,04:58:45,132
441966.97916666674,4426283.924999999,39855.0318055556,39855.0327314815,195.92613404000556,2009-02-11,00:45:48,2009-02-11,00:47:08,126
441953.0277777779,4426270.775,39855.22,39855.3201157407,177.24516918700235,2009-02-11,05:16:48,2009-02-11,07:40:58,126
442958.19642857136,4427012.614285714,39855.3285416667,39855.3727893519,199.72721396928858,2009-02-11,07:53:06,2009-02-11,08:56:49,-1
441992.3391304349,4426272.369565217,39855.3819212963,39855.3826273148,198.32561609587572,2009-02-11,09:09:58,2009-02-11,09:10:59,126
445088.3964912281,4423678.396491227,39855.4465856481,39855.4956828704,197.7778804618852,2009-02-11,10:43:05,2009-02-11,11:53:47,-1
446589.1533333333,4427855.333333333,39855.5013541667,39855.5017013889,196.70754942262923,2009-02-11,12:01:57,2009-02-11,12:02:27,129
441992.1166666668,4426292.413333333,39857.0478703704,39857.1499305556,191.47140778714066,2009-02-13,01:08:56,2009-02-13,03:35:54,126
443125.47945205483,4427680.780821918,39857.1689351852,39857.2409722222,196.15934848994124,2009-02-13,04:03:16,2009-02-13,05:47:00,-1
441942.64761904767,4426276.226190477,39857.2780439815,39857.3608680556,197.85562918505553,2009-02-13,06:40:23,2009-02-13,08:39:39,126
438845.1411764706,4423022.158823529,39857.3996990741,39857.4000462963,75.21256543974121,2009-02-13,09:35:34,2009-02-13,09:36:04,-1
446626.293548387,4427879.119354839,39857.5349305556,39857.5356481481,192.85810846319114,2009-02-13,12:50:18,2009-02-13,12:51:20,129
460440.7655737705,4444537.932786884,39859.0607060185,39859.0850578704,198.44155310773985,2009-02-15,01:27:25,2009-02-15,02:02:29,137
487656.9262295082,4465021.457377049,39859.1112731481,39859.3891319444,194.24216843921582,2009-02-15,02:40:14,2009-02-15,09:20:21,-1
460496.78591549286,4444482.454929577,39859.4159953704,39861.1036458333,196.5605504674635,2009-02-15,09:59:02,2009-02-17,02:29:15,-1
441989.0454545455,4426299.186363637,39861.1496875,39861.3612384259,198.26255319652222,2009-02-17,03:35:33,2009-02-17,08:40:11,126
448999.50416666665,4427640.066666667,39861.3716782407,39861.373900463,197.35544076595946,2009-02-17,08:55:13,2009-02-17,08:58:25,-1
446652.1766666666,4427909.523333334,39861.4908680556,39861.4918055556,197.50063291044322,2009-02-17,11:46:51,2009-02-17,11:48:12,129
442051.8095238096,4426287.333333333,39862.2754398148,39862.2757523148,198.42421727194449,2009-02-18,06:36:38,2009-02-18,06:37:05,-1
446819.34400000004,4424772.380000001,39862.3074189815,39862.3080671296,194.91870100097546,2009-02-18,07:22:41,2009-02-18,07:23:37,-1
446594.55641025637,4424883.117948717,39862.3729050926,39862.4451736111,199.76598809610405,2009-02-18,08:56:59,2009-02-18,10:41:03,-1
446631.96206896566,4427896.251724137,39862.4817013889,39862.4823263889,165.60474027043185,2009-02-18,11:33:39,2009-02-18,11:34:33,129
444707.6586206896,4425763.655172413,39863.0068634259,39863.1077662037,190.02531410315083,2009-02-19,00:09:53,2009-02-19,02:35:11,-1
439297.52142857155,4427277.591071429,39863.1368981482,39863.1932291667,195.23304023645616,2009-02-19,03:17:08,2009-02-19,04:38:15,-1
442585.306818182,4425414.059090909,39863.1996064815,39863.2012962963,121.16740485808047,2009-02-19,04:47:26,2009-02-19,04:49:52,131
442954.5764705883,4425079.088235295,39863.3733796296,39863.3738078704,198.2344571457047,2009-02-19,08:57:40,2009-02-19,08:58:17,132
441943.14444444445,4426309.270370371,39864.0173148148,39864.0213194444,136.72867292562353,2009-02-20,00:24:56,2009-02-20,00:30:42,126
446267.19615384605,4425206.126923078,39864.161712963,39864.2053125,196.24887260812386,2009-02-20,03:52:52,2009-02-20,04:55:39,-1
441931.9487179487,4426297.493589744,39864.2189699074,39864.2534953704,191.29728173709083,2009-02-20,05:15:19,2009-02-20,06:05:02,126
441872.3352941175,4426289.279411764,39864.2544212963,39864.357662037,152.3123435574112,2009-02-20,06:06:22,2009-02-20,08:35:02,125
439440.3363636365,4424223.968181818,39864.4083564815,39864.4106481481,182.7366410984267,2009-02-20,09:48:02,2009-02-20,09:51:20,133
442013.24999999994,4426294.625000001,39867.0403356481,39867.0409143518,195.96264950243568,2009-02-23,00:58:05,2009-02-23,00:58:55,126
442953.1352941177,4425082.335294118,39867.2268055556,39867.2273148148,197.54027437462221,2009-02-23,05:26:36,2009-02-23,05:27:20,132
441953.3823529412,4426274.647058822,39867.3415277778,39867.3659722222,189.86669007505384,2009-02-23,08:11:48,2009-02-23,08:47:00,126
441832.37105263164,4426265.978947369,39867.3661805556,39867.4620717593,188.78943296706686,2009-02-23,08:47:18,2009-02-23,11:05:23,-1
446645.9954545455,4427905.390909092,39867.4870601852,39867.487662037,169.0351442748502,2009-02-23,11:41:22,2009-02-23,11:42:14,129
444412.0260869565,4418199.647826088,39868.0254513889,39868.0261111111,165.02005938648065,2009-02-24,00:36:39,2009-02-24,00:37:36,-1
441980.54838709673,4426280.435483871,39868.0812268518,39868.1150347222,198.28111357366848,2009-02-24,01:56:58,2009-02-24,02:45:39,126
441869.98461538483,4426327.875000001,39868.1150810185,39868.2263078704,197.7894082099148,2009-02-24,02:45:43,2009-02-24,05:25:53,125
446315.03333333344,4416755.105882353,39868.2422106481,39868.3500115741,196.55230855934795,2009-02-24,05:48:47,2009-02-24,08:24:01,140
442002.05909090914,4426301.30909091,39868.3696296296,39868.3706481481,198.10242300387583,2009-02-24,08:52:16,2009-02-24,08:53:44,126
442954.29047619057,4424986.19047619,39868.4171527778,39868.487650463,199.94121636102386,2009-02-24,10:00:42,2009-02-24,11:42:13,-1
446528.225,4429207.8,39868.5050578704,39868.5051041667,199.2431931086812,2009-02-24,12:07:17,2009-02-24,12:07:21,-1
441994.68260869564,4426295.891304348,39870.0208101852,39870.0215046296,199.24971769115476,2009-02-26,00:29:58,2009-02-26,00:30:58,126
442966.4116279071,4425015.969767442,39870.25875,39870.2601736111,83.86375856086703,2009-02-26,06:12:36,2009-02-26,06:14:39,132
446632.5870967742,4427883.470967742,39870.6639930556,39870.6647569444,194.70729313522443,2009-02-26,15:56:09,2009-02-26,15:57:15,129
441985.44761904754,4426298.509523808,39871.028599537,39871.0292476852,197.60212549462923,2009-02-27,00:41:11,2009-02-27,00:42:07,126
447373.66451612907,4425750.925806452,39871.1855555556,39871.1872337963,129.74012486491037,2009-02-27,04:27:12,2009-02-27,04:29:37,-1
441990.17500000005,4426259.574999999,39871.2403125,39871.3183449074,199.07832629408634,2009-02-27,05:46:03,2009-02-27,07:38:25,126
442959.21666666673,4424969.052777778,39871.3249652778,39871.3705324074,197.36851319277352,2009-02-27,07:47:57,2009-02-27,08:53:34,-1
442373.2047619049,4427174.852380953,39871.4011805556,39871.4507638889,195.6949667214876,2009-02-27,09:37:42,2009-02-27,10:49:06,-1
439497.1227272728,4424077.827272727,39871.4696296296,39871.5225231481,199.57018815445056,2009-02-27,11:16:16,2009-02-27,12:32:26,-1
446639.7136363637,4427889.086363636,39871.5380208333,39871.5386458333,178.03651310876572,2009-02-27,12:54:45,2009-02-27,12:55:39,129
460468.8541666667,4444406.5125,39874.0241203704,39874.0642708333,197.58453886893548,2009-03-02,00:34:44,2009-03-02,01:32:33,-1
441986.79999999993,4426294.9,39874.1082175926,39874.2105787037,192.89147207692432,2009-03-02,02:35:50,2009-03-02,05:03:14,126
444403.55600000004,4422327.796000001,39874.2168287037,39874.2179398148,191.815666721986,2009-03-02,05:12:14,2009-03-02,05:13:50,-1
442953.85000000003,4425057.050000001,39874.3449305556,39874.3452893518,195.63069799971402,2009-03-02,08:16:42,2009-03-02,08:17:13,132
442784.0585365853,4424719.797560975,39874.3862384259,39874.5146296296,193.35795820132694,2009-03-02,09:16:11,2009-03-02,12:21:04,-1
446595.275,4427864.705,39874.5220717593,39874.5223842593,199.0349718009279,2009-03-02,12:31:47,2009-03-02,12:32:14,129
441976.2586206897,4426296.027586207,39875.0169675926,39875.2275694444,193.03823455474682,2009-03-03,00:24:26,2009-03-03,05:27:42,126
446260.47837837844,4416880.521621622,39875.2469791667,39875.3020486111,194.37556430799074,2009-03-03,05:55:39,2009-03-03,07:14:57,-1
442967.14375000005,4424921.093749999,39875.3200925926,39875.3230092593,193.78142325752515,2009-03-03,07:40:56,2009-03-03,07:45:08,-1
443201.24230769236,4424977.63076923,39875.3531134259,39875.3536226852,150.5585932452929,2009-03-03,08:28:29,2009-03-03,08:29:13,-1
441898.66969696974,4426275.016666666,39875.3890972222,39875.4570833333,193.86000103168433,2009-03-03,09:20:18,2009-03-03,10:58:12,125
446599.9904761905,4427869.7761904765,39875.4808217593,39875.4812731481,198.5027203842157,2009-03-03,11:32:23,2009-03-03,11:33:02,129
441993.54285714286,4426299.009523811,39876.01375,39876.0850925926,199.33268673254696,2009-03-04,00:19:48,2009-03-04,02:02:32,126
441967.3679245283,4426377.718867924,39876.0852083333,39876.1552083333,189.22077053035704,2009-03-04,02:02:42,2009-03-04,03:43:30,128
442632.2523076924,4425327.80923077,39876.1639236111,39876.2275578704,191.70002608260495,2009-03-04,03:56:03,2009-03-04,05:27:41,-1
441976.0057142857,4426271.614285713,39876.2346990741,39876.4694212963,195.40954429094992,2009-03-04,05:37:58,2009-03-04,11:15:58,126
446600.90476190473,4427879.414285714,39876.4963541667,39876.4966898148,195.2150096686694,2009-03-04,11:54:45,2009-03-04,11:55:14,129
442012.29565217404,4426293.769565217,39877.0231712963,39877.0241319444,198.88071801966709,2009-03-05,00:33:22,2009-03-05,00:34:45,126
441984.44230769237,4426278.796153846,39877.3056365741,39877.332974537,198.49337520397216,2009-03-05,07:20:07,2009-03-05,07:59:29,126
441428.93666666653,4426782.923333335,39877.3479976852,39877.3600231481,13.368993978742497,2009-03-05,08:21:07,2009-03-05,08:38:26,-1
462450.7229729732,4440836.20945946,39877.4582291667,39877.5134490741,191.43858022882816,2009-03-05,10:59:51,2009-03-05,12:19:22,-1
460572.0416666667,4444190.941666666,39877.5178009259,39877.6052199074,197.71545210242542,2009-03-05,12:25:38,2009-03-05,14:31:31,135
470833.6333333333,4439619.033333333,39877.6181712963,39877.6181944444,133.90877491787364,2009-03-05,14:50:10,2009-03-05,14:50:12,-1
442001.4600000001,4426295.635000001,39877.9995833333,39878.0001041667,198.9362963362111,2009-03-05,23:59:24,2009-03-06,00:00:09,126
441948.899082569,4426537.3788990835,39878.2601736111,39878.459224537,191.7342170824156,2009-03-06,06:14:39,2009-03-06,11:01:17,-1
446593.1285714285,4427863.671428571,39878.4694675926,39878.4697685185,194.86287486406061,2009-03-06,11:16:02,2009-03-06,11:16:28,129
441991.4794117647,4426299.811764706,39881.0225115741,39881.2393171296,196.20163098201877,2009-03-09,00:32:25,2009-03-09,05:44:37,126
443586.88181818184,4425263.26969697,39881.244375,39881.2613078704,194.98640978328987,2009-03-09,05:51:54,2009-03-09,06:16:17,-1
443601.0923076924,4425261.419230769,39881.2686342593,39881.3077199074,198.2302196939869,2009-03-09,06:26:50,2009-03-09,07:23:07,-1
441971.0999999999,4426284.826829268,39881.3129282407,39881.32,184.2018458102467,2009-03-09,07:30:37,2009-03-09,07:40:48,126
445098.1684210527,4423665.789473685,39881.4627314815,39881.4849189815,135.75894077372274,2009-03-09,11:06:20,2009-03-09,11:38:17,-1
446661.0,4425370.9,39881.4900810185,39881.4902083333,9.720082304056609,2009-03-09,11:45:43,2009-03-09,11:45:54,-1
441989.6764705883,4426297.5470588235,39882.0190856481,39882.2420833333,194.50434442448713,2009-03-10,00:27:29,2009-03-10,05:48:36,126
441994.7136363637,4426299.754545454,39882.2821527778,39882.4579282407,195.41230769831566,2009-03-10,06:46:18,2009-03-10,10:59:25,126
448442.5870370372,4427567.32037037,39882.4682986111,39882.5003125,191.42941257760532,2009-03-10,11:14:21,2009-03-10,12:00:27,-1
442590.3195121952,4425437.524390245,39882.5076273148,39882.5454861111,111.73025552666167,2009-03-10,12:10:59,2009-03-10,13:05:30,131
446640.66363636364,4427938.168181818,39882.5522685185,39882.5528356481,176.35929235485432,2009-03-10,13:15:16,2009-03-10,13:16:05,-1
442971.34615384624,4425030.692307693,39883.0324421296,39883.0349537037,180.4488847296661,2009-03-11,00:46:43,2009-03-11,00:50:20,132
442871.4528301886,4425335.915094339,39883.1102777778,39883.1923263889,197.1905170135387,2009-03-11,02:38:48,2009-03-11,04:36:57,-1
441995.1090909092,4426259.481818181,39883.1981712963,39883.1989814815,195.9684923651701,2009-03-11,04:45:22,2009-03-11,04:46:32,126
446325.0423076923,4416765.911538461,39883.2419328704,39883.2432523148,195.38528603759855,2009-03-11,05:48:23,2009-03-11,05:50:17,140
446279.53437500005,4416747.125,39883.273900463,39883.3213888889,195.44198627757058,2009-03-11,06:34:25,2009-03-11,07:42:48,-1
441982.40285714297,4426335.805714286,39883.3862268519,39883.4638773148,192.95058952990215,2009-03-11,09:16:10,2009-03-11,11:07:59,-1
446632.00312500005,4427881.653124999,39883.4943171296,39883.4951041667,182.43631765634512,2009-03-11,11:51:49,2009-03-11,11:52:57,129
442015.56363636354,4426295.899999999,39884.0212731481,39884.0224884259,199.7714944630324,2009-03-12,00:30:38,2009-03-12,00:32:23,126
442005.5642857143,4426248.15,39884.3006134259,39885.4374421296,193.6459656176575,2009-03-12,07:12:53,2009-03-13,10:29:55,126
442181.04666666663,4425714.726666667,39885.4383217593,39885.4386805556,186.3806052141723,2009-03-13,10:31:11,2009-03-13,10:31:42,-1
446651.640909091,4427960.65,39885.5192824074,39885.5200462963,192.78267557020826,2009-03-13,12:27:46,2009-03-13,12:28:52,138
441594.74509803904,4421882.4431372555,39886.1164814815,39886.1462152778,191.80995803134888,2009-03-14,02:47:44,2009-03-14,03:30:33,-1
446636.0966666667,4427883.493333333,39886.1589814815,39886.1598842593,192.04387519531207,2009-03-14,03:48:56,2009-03-14,03:50:14,129
441552.63333333336,4421872.016666668,39886.2283449074,39886.2286689815,196.06032235000512,2009-03-14,05:28:49,2009-03-14,05:29:17,-1
446733.19000000006,4427543.5,39886.318900463,39886.3191550926,195.12155185931582,2009-03-14,07:39:13,2009-03-14,07:39:35,-1
460416.03103448276,4444527.872413794,39886.3814930556,39886.3833449074,133.7209781595627,2009-03-14,09:09:21,2009-03-14,09:12:01,137
460480.49166666664,4444573.513888889,39886.6320486111,39886.6794097222,156.45973923026662,2009-03-14,15:10:09,2009-03-14,16:18:21,-1
460442.4793103449,4444540.937931035,39886.6865162037,39886.6990972222,100.37295452534829,2009-03-14,16:28:35,2009-03-14,16:46:42,137
442000.7125000002,4426295.520833334,39888.1169444444,39888.463599537,195.73247047946228,2009-03-16,02:48:24,2009-03-16,11:07:35,126
446628.10967741936,4427875.722580644,39888.4885416667,39888.4893402778,172.29770747168982,2009-03-16,11:43:30,2009-03-16,11:44:39,129
441999.70000000007,4426297.18095238,39889.0190277778,39889.0202893519,196.0271664846783,2009-03-17,00:27:24,2009-03-17,00:29:13,126
443638.47254901956,4423610.899999999,39889.2559027778,39889.3234259259,195.36368649210772,2009-03-17,06:08:30,2009-03-17,07:45:44,-1
442949.4066666667,4425046.720000001,39889.3357175926,39889.3716550926,199.27149821360544,2009-03-17,08:03:26,2009-03-17,08:55:11,132
441965.81176470587,4426270.98235294,39889.3780208333,39889.4913657407,194.99397426547816,2009-03-17,09:04:21,2009-03-17,11:47:34,126
441567.2116279071,4426316.481395349,39889.4917013889,39889.5289699074,192.37060586274202,2009-03-17,11:48:03,2009-03-17,12:41:43,-1
446656.23913043475,4427963.639130434,39889.5554398148,39889.5560300926,196.19604990935036,2009-03-17,13:19:50,2009-03-17,13:20:41,138
442014.5136363636,4426292.663636363,39889.9978819444,39889.9989351852,194.2645876118419,2009-03-17,23:56:57,2009-03-17,23:58:28,126
446337.6090909091,4416766.886363637,39890.2615393519,39890.2621412037,193.92949749859858,2009-03-18,06:16:37,2009-03-18,06:17:29,140
442955.0187500001,4425043.44375,39890.3740393519,39890.3744328704,189.1683905940175,2009-03-18,08:58:37,2009-03-18,08:59:11,132
442538.3018518518,4432311.622222223,39892.4672106481,39892.7240625,136.4211860379906,2009-03-20,11:12:47,2009-03-20,17:22:39,-1
440634.9200000001,4433423.024,39892.7264930556,39892.7275694444,194.5219010808251,2009-03-20,17:26:09,2009-03-20,17:27:42,-1
442934.4181818182,4425023.822727274,39903.4344328704,39903.4793055556,191.13568478999863,2009-03-31,10:25:35,2009-03-31,11:30:12,132
446659.03103448276,4427900.834482758,39903.5045486111,39903.5054513889,199.73374777421924,2009-03-31,12:06:33,2009-03-31,12:07:51,129
442006.34761904756,4426298.457142857,39904.0054398148,39904.0063657407,190.9465370201864,2009-04-01,00:07:50,2009-04-01,00:09:10,126
442006.3500000001,4426295.135,39904.2925231481,39904.2929513889,189.94994077388245,2009-04-01,07:01:14,2009-04-01,07:01:51,126
445723.35625,4426385.268750001,39904.4033101852,39904.4034953704,195.6252795525159,2009-04-01,09:40:46,2009-04-01,09:41:02,-1
446639.57777777786,4427893.977777778,39904.4492013889,39904.4497800926,176.13486310210322,2009-04-01,10:46:51,2009-04-01,10:47:41,129
442004.1952380953,4426305.361904762,39906.0443287037,39906.0454166667,189.21152184789614,2009-04-03,01:03:50,2009-04-03,01:05:24,126
442249.466037736,4427200.9905660385,39906.2936805556,39906.3333912037,195.27913355000118,2009-04-03,07:02:54,2009-04-03,08:00:05,-1
442009.6954545455,4426280.695454545,39906.33625,39906.3374884259,193.9232064504248,2009-04-03,08:04:12,2009-04-03,08:05:59,126
439463.0387096775,4424202.9677419355,39906.4069212963,39906.4081597222,40.99585344883681,2009-04-03,09:45:58,2009-04-03,09:47:45,133
446646.6413793104,4427898.382758621,39906.5376041667,39906.5382523148,179.1570540059168,2009-04-03,12:54:09,2009-04-03,12:55:05,129
442192.1277777778,4426301.111111111,39910.0156134259,39910.0158449074,192.30585014501125,2009-04-07,00:22:29,2009-04-07,00:22:49,-1
441757.03333333303,4426989.024999999,39910.1737268518,39910.2116087963,195.02187056844335,2009-04-07,04:10:10,2009-04-07,05:04:43,-1
441992.93461538473,4426339.799999999,39910.2124884259,39910.2133333333,196.1690087652602,2009-04-07,05:05:59,2009-04-07,05:07:12,-1
441873.0866666667,4426373.76,39910.2483912037,39910.4180787037,193.46012509097093,2009-04-07,05:57:41,2009-04-07,10:02:02,-1
442963.9600000001,4425043.5,39910.4257523148,39910.4291898148,127.56602212187755,2009-04-07,10:13:05,2009-04-07,10:18:02,132
441971.7333333333,4426276.786111111,39910.4625115741,39910.5130439815,192.17075740070206,2009-04-07,11:06:01,2009-04-07,12:18:47,126
460556.8626865673,4444488.5223880615,39910.5340856481,39910.9668865741,196.26311421206776,2009-04-07,12:49:05,2009-04-07,23:12:19,136
442949.4124999999,4425096.84375,39911.0023726852,39911.0027893518,195.8924449799369,2009-04-08,00:03:25,2009-04-08,00:04:01,132
441945.04166666657,4426319.616666666,39911.0421527778,39911.0429861111,196.42751843838252,2009-04-08,01:00:42,2009-04-08,01:01:54,126
446316.00833333336,4416780.425,39911.2504513889,39911.2512847222,198.363353470782,2009-04-08,06:00:39,2009-04-08,06:01:51,140
446304.51904761896,4416788.995238095,39911.2870601852,39911.3375810185,193.21099865244378,2009-04-08,06:53:22,2009-04-08,08:06:07,-1
444758.38970588235,4427653.530882353,39911.3577893519,39911.4216782407,197.82388632317534,2009-04-08,08:35:13,2009-04-08,10:07:13,-1
441988.39375,4426295.240625001,39911.4297106481,39911.4680902778,190.01815702710294,2009-04-08,10:18:47,2009-04-08,11:14:03,126
446627.2655172414,4427884.875862069,39911.4918055556,39911.4925115741,186.4455416470077,2009-04-08,11:48:12,2009-04-08,11:49:13,129
443651.48947368434,4423538.805263158,39912.1288888889,39912.2051967593,190.01034182362784,2009-04-09,03:05:36,2009-04-09,04:55:29,134
442115.2413793103,4425729.993103448,39912.2130324074,39912.2364930556,194.0103090044444,2009-04-09,05:06:46,2009-04-09,05:40:33,-1
441930.0857142858,4426284.406122449,39912.2514814815,39912.4220601852,189.2265573327409,2009-04-09,06:02:08,2009-04-09,10:07:46,126
442952.8647058824,4425034.423529412,39912.4288657407,39912.4295601852,194.66866722641993,2009-04-09,10:17:34,2009-04-09,10:18:34,132
446634.9928571428,4427872.310714287,39912.5453935185,39912.5462847222,187.64503723784742,2009-04-09,13:05:22,2009-04-09,13:06:39,129
460523.48055555555,4444523.363888889,39914.3994675926,39916.0335185185,194.76164920247862,2009-04-11,09:35:14,2009-04-13,00:48:16,130
460553.50909090904,4444491.301515151,39916.0403935185,39916.0705902778,196.71319223700638,2009-04-13,00:58:10,2009-04-13,01:41:39,136
441981.99411764694,4426287.223529411,39916.1153356481,39916.2812615741,196.32839835334954,2009-04-13,02:46:05,2009-04-13,06:45:01,126
464713.6576923077,4436451.080769232,39916.3166203704,39916.3535069444,195.24804736536626,2009-04-13,07:35:56,2009-04-13,08:29:03,-1
442007.21304347826,4426294.591304348,39916.3731944444,39916.3748611111,196.39666494117992,2009-04-13,08:57:24,2009-04-13,08:59:48,126
446628.88571428566,4427868.714285714,39916.4486342593,39916.4495486111,180.6761190636358,2009-04-13,10:46:02,2009-04-13,10:47:21,129
441976.63157894736,4426284.27368421,39917.0011226852,39917.0021064815,177.24573337608436,2009-04-14,00:01:37,2009-04-14,00:03:02,126
445715.55000000005,4423307.024999999,39917.1981365741,39917.2924884259,195.09446429889206,2009-04-14,04:45:19,2009-04-14,07:01:11,-1
441998.46086956514,4426302.760869565,39917.3112731481,39917.3208912037,193.44839105037383,2009-04-14,07:28:14,2009-04-14,07:42:05,126
441889.7652173912,4426378.304347827,39917.3405671296,39917.3771527778,192.77862952083007,2009-04-14,08:10:25,2009-04-14,09:03:06,-1
441878.5129032258,4426283.603225806,39917.4503009259,39917.4928587963,191.5035247717374,2009-04-14,10:48:26,2009-04-14,11:49:43,125
446646.6615384616,4427963.288461538,39917.5048032407,39917.5057523148,199.30378822268716,2009-04-14,12:06:55,2009-04-14,12:08:17,138
442012.490909091,4426294.859090909,39918.0286921296,39918.0300925926,192.539242753291,2009-04-15,00:41:19,2009-04-15,00:43:20,126
441959.2028571429,4426258.5600000005,39918.1136921296,39918.1161111111,103.57451423959655,2009-04-15,02:43:43,2009-04-15,02:47:12,126
446327.28000000014,4416780.076666667,39918.2560069444,39918.3347106481,196.64068754987665,2009-04-15,06:08:39,2009-04-15,08:01:59,140
441987.25428571424,4426301.374285714,39918.3611226852,39918.4237615741,199.10251128499291,2009-04-15,08:40:01,2009-04-15,10:10:13,126
446949.72857142857,4427870.492857143,39918.45375,39918.4541319444,85.5032747910787,2009-04-15,10:53:24,2009-04-15,10:53:57,-1
443652.88888888893,4423541.505555556,39919.1313541667,39919.1319907407,191.74934158984354,2009-04-16,03:09:09,2009-04-16,03:10:04,134
442142.01666666666,4425719.0,39919.2170717593,39919.2607986111,198.19273447825262,2009-04-16,05:12:35,2009-04-16,06:15:33,-1
441895.1922077922,4426285.663636364,39919.2640393519,39919.3657291667,192.82655418798058,2009-04-16,06:20:13,2009-04-16,08:46:39,125
437519.4581967212,4417538.78442623,39919.3792708333,39919.4125,194.0392228387231,2009-04-16,09:06:09,2009-04-16,09:54:00,-1
442953.58076923084,4425037.946153846,39919.4295486111,39919.5466087963,192.28356664107858,2009-04-16,10:18:33,2009-04-16,13:07:07,132
446649.78214285715,4427903.803571428,39919.5580902778,39919.55875,180.71530095727925,2009-04-16,13:23:39,2009-04-16,13:24:36,129