442944.13282051287,4425404.176923077,40780.6299652778,40781.0576273148,196.6811124633822,2011-08-25,15:07:09,2011-08-26,01:22:59,182
440607.1583333334,4425576.394791665,40781.0731134259,40781.0749421296,149.02248152617383,2011-08-26,01:45:17,2011-08-26,01:47:55,-1
440751.335742444,4425764.959132715,40782.2925231481,40782.333599537,197.29657878433807,2011-08-27,07:01:14,2011-08-27,08:00:23,-1
440624.970967742,4425628.890322582,40782.3336111111,40782.3344560185,66.78001197999677,2011-08-27,08:00:24,2011-08-27,08:01:37,183
440777.4790513835,4425646.794071147,40782.3994212963,40782.4202893519,198.8820001911598,2011-08-27,09:35:10,2011-08-27,10:05:13,-1
440637.1235294117,4425645.135294118,40782.4203009259,40782.4213541667,36.29944903178366,2011-08-27,10:05:14,2011-08-27,10:06:45,183
442903.61055900593,4425523.679503103,40782.63,40783.1903472222,110.2858558472432,2011-08-27,15:07:12,2011-08-28,04:34:06,184
442837.1820652176,4425491.089855071,40783.2727199074,40783.3018981481,198.62587948200027,2011-08-28,06:32:43,2011-08-28,07:14:44,-1
440618.9044642859,4425580.546428571,40783.3188773148,40783.6066782407,103.2632558073416,2011-08-28,07:39:11,2011-08-28,14:33:37,-1
442869.90372294415,4425531.108658014,40783.6266087963,40783.6541666667,199.95021880457548,2011-08-28,15:02:19,2011-08-28,15:42:00,184
442868.77929907857,4425519.422334423,40783.6541782407,40783.7280671296,198.74833332661348,2011-08-28,15:42:01,2011-08-28,17:28:25,184
442876.9846762598,4425561.770047965,40783.7505671296,40783.8432291667,197.18767710045228,2011-08-28,18:00:49,2011-08-28,20:14:15,184
442848.2052886408,4425556.110130349,40783.8531828704,40783.9114699074,196.21144207188323,2011-08-28,20:28:35,2011-08-28,21:52:31,-1
442862.8939572585,4425478.378015234,40783.9121759259,40784.006712963,199.64270585225165,2011-08-28,21:53:32,2011-08-29,00:09:40,-1
442706.9054968281,4425501.290274836,40784.0193518519,40784.0609490741,95.78230525524279,2011-08-29,00:27:52,2011-08-29,01:27:46,-1
440662.5723214284,4425494.9223214295,40784.0815162037,40784.0839583333,199.54798921599726,2011-08-29,01:57:23,2011-08-29,02:00:54,-1
442881.0272727274,4425534.761749573,40784.6620138889,40784.6829976852,196.09235069203118,2011-08-29,15:53:18,2011-08-29,16:23:31,184
443099.39111111104,4425573.46222222,40784.6831134259,40784.6836226852,192.21082175569617,2011-08-29,16:23:41,2011-08-29,16:24:25,-1
440649.5022900764,4425554.601526719,40785.0696296296,40785.0721990741,198.15756356944726,2011-08-30,01:40:16,2011-08-30,01:43:58,-1
442956.35000000003,4425388.945726495,40785.6045023148,40786.0745138889,199.08493162491612,2011-08-30,14:30:29,2011-08-31,01:47:18,182
440628.59430379723,4425608.051265821,40786.096712963,40786.0985300926,199.7794784257719,2011-08-31,02:19:16,2011-08-31,02:21:53,183
440764.1216666667,4425745.943333332,40786.1777893519,40786.2475347222,80.04280105062563,2011-08-31,04:16:01,2011-08-31,05:56:27,185
442899.20468749997,4425485.651562498,40786.6744328704,40787.0763657407,199.9426167675585,2011-08-31,16:11:11,2011-09-01,01:49:58,184
440545.1680473372,4425544.055029585,40787.0912962963,40787.0942476852,198.00025252479318,2011-09-01,02:11:28,2011-09-01,02:15:43,186
442925.2892405064,4425520.3227848075,40787.6267824074,40787.628599537,195.23985248960312,2011-09-01,15:02:34,2011-09-01,15:05:11,184
440603.1939849625,4425550.7819548845,40788.082037037,40788.6497916667,199.21086817767443,2011-09-02,01:58:08,2011-09-02,15:35:42,-1
442958.88888888864,4425522.423703705,40788.6705439815,40788.6727430556,187.4068301844748,2011-09-02,16:05:35,2011-09-02,16:08:45,184
440702.05273522966,4425702.348905907,40789.1958564815,40789.2193287037,195.35987305476831,2011-09-03,04:42:02,2011-09-03,05:15:50,183
440220.4707774799,4426032.631099196,40789.2243402778,40789.254525463,199.28758114846912,2011-09-03,05:23:03,2011-09-03,06:06:31,-1
440653.1375000002,4425744.079375001,40789.2584375,40789.261724537,199.18001907757346,2011-09-03,06:12:09,2011-09-03,06:16:53,-1
442918.4594936709,4425400.418143459,40789.6237731481,40790.1598611111,199.34665786012778,2011-09-03,14:58:14,2011-09-04,03:50:12,182
440541.83030303055,4425590.393939395,40790.1733912037,40790.1756712963,174.2818980839474,2011-09-04,04:09:41,2011-09-04,04:12:58,187
442922.2773195875,4425482.763402062,40790.6216550926,40791.0584490741,199.70122683687114,2011-09-04,14:55:11,2011-09-05,01:24:10,184
440555.2025210087,4425600.098739499,40791.0722916667,40791.1714814815,198.5257917752756,2011-09-05,01:44:06,2011-09-05,04:06:56,187
440743.98630136985,4425578.876712327,40791.1907175926,40791.599224537,199.9072785065175,2011-09-05,04:34:38,2011-09-05,14:22:53,-1
442755.0690909092,4425416.684848487,40791.6133680556,40791.6152662037,199.17514905240267,2011-09-05,14:43:15,2011-09-05,14:45:59,-1
440562.3292237443,4425587.571689497,40792.0809027778,40792.6253472222,162.21100455891184,2011-09-06,01:56:30,2011-09-06,15:00:30,187
442924.7558011049,4425524.356906076,40792.6489351852,40792.6519444444,107.45254766622226,2011-09-06,15:34:28,2011-09-06,15:38:48,184
442940.04794520536,4425498.803424656,40793.6409490741,40793.6433680556,49.755502208325275,2011-09-07,15:22:58,2011-09-07,15:26:27,184
440534.44127906987,4425579.727906977,40795.0938078704,40795.095787037,143.14083973517288,2011-09-09,02:15:05,2011-09-09,02:17:56,187
442941.0948571429,4425503.6839999985,40795.6738541667,40795.6769097222,153.0047058099849,2011-09-09,16:10:21,2011-09-09,16:14:45,184
440754.1145833333,4425514.910416667,40796.488125,40796.4886689815,53.54213294223227,2011-09-10,11:42:54,2011-09-10,11:43:41,-1
443212.7,4425664.6,40796.6396180556,40796.6396180556,0.0,2011-09-10,15:21:03,2011-09-10,15:21:03,-1
444300.15095201775,4421351.9204112645,40797.018125,40797.0540509259,199.43432502973027,2011-09-11,00:26:06,2011-09-11,01:17:50,-1
444294.95349412446,4421410.5897340765,40797.0540625,40797.0824652778,193.4141928610013,2011-09-11,01:17:51,2011-09-11,01:58:45,-1
444203.1391819807,4421705.749851801,40797.0824768519,40797.1229166667,194.2265172427872,2011-09-11,01:58:46,2011-09-11,02:57:00,-1
415306.42697022733,4467729.749387042,40797.1896180556,40797.2129282407,199.22268947076248,2011-09-11,04:33:03,2011-09-11,05:06:37,-1
416561.1296786403,4467907.3275047485,40797.2893634259,40797.3129513889,195.34321078521916,2011-09-11,06:56:41,2011-09-11,07:30:39,-1
442739.64961832046,4435992.1000000015,40797.438587963,40797.4507175926,127.92497801464243,2011-09-11,10:31:34,2011-09-11,10:49:02,-1
443115.39020122454,4425218.522572188,40798.2306365741,40798.2736226852,193.73902549556468,2011-09-12,05:32:07,2011-09-12,06:34:01,-1
443120.5992402662,4425185.096771131,40798.3312152778,40798.3616203704,199.03248478582898,2011-09-12,07:56:57,2011-09-12,08:40:44,-1
440614.4227941182,4425533.800980393,40798.3726273148,40798.3978703704,197.88615413922642,2011-09-12,08:56:35,2011-09-12,09:32:56,-1
440677.7345588235,4425696.270220589,40798.4098726852,40798.423599537,118.25675456365127,2011-09-12,09:50:13,2011-09-12,10:09:59,183
442919.7333333334,4425500.668075116,40798.6606828704,40798.6631365741,199.2915954072128,2011-09-12,15:51:23,2011-09-12,15:54:55,184
440535.57177914085,4425552.306748466,40799.0898148148,40799.0916898148,186.5688344822456,2011-09-13,02:09:20,2011-09-13,02:12:02,186
442948.09162303683,4425485.946073299,40799.6549537037,40800.0643287037,199.75189611102957,2011-09-13,15:43:08,2011-09-14,01:32:38,184
440537.39138756,4425569.020095697,40800.0803587963,40800.0827662037,198.12584384662827,2011-09-14,01:55:43,2011-09-14,01:59:11,186
442770.05530303036,4425384.657575756,40800.6690625,40800.6705787037,195.80921837338727,2011-09-14,16:03:27,2011-09-14,16:05:38,-1
440539.09141104296,4425512.71165644,40801.1173611111,40801.1198032407,197.9609304889803,2011-09-15,02:49:00,2011-09-15,02:52:31,-1
440528.4246575342,4425567.436986301,40802.0818865741,40802.0847569444,199.18566715523264,2011-09-16,01:57:55,2011-09-16,02:02:03,186
442911.0943820226,4425420.413483147,40802.6157060185,40803.095,199.45217471837773,2011-09-16,14:46:37,2011-09-17,02:16:48,-1
440542.7514970061,4425667.176047902,40803.125162037,40803.1306712963,189.76580303065745,2011-09-17,03:00:14,2011-09-17,03:08:10,-1
440600.232,4425647.018000001,40807.0710069444,40807.0728819444,199.9056277346673,2011-09-21,01:42:15,2011-09-21,01:44:57,-1
442958.4402555915,4425581.861980829,40807.6859027778,40807.6956597222,54.79096640904737,2011-09-21,16:27:42,2011-09-21,16:41:45,-1
440645.3278260867,4425674.049565216,40808.0652662037,40808.0670717593,196.0072702734003,2011-09-22,01:33:59,2011-09-22,01:36:35,183
440646.6067669172,4425659.472180451,40809.069537037,40809.6690972222,198.3310364009875,2011-09-23,01:40:08,2011-09-23,16:03:30,183
442958.7957746479,4425518.629577467,40809.6791550926,40809.680474537,185.53223439558857,2011-09-23,16:17:59,2011-09-23,16:19:53,184
440698.39407894714,4425640.521710527,40810.1566435185,40810.1583912037,196.090106838724,2011-09-24,03:45:34,2011-09-24,03:48:05,183
442942.9367816091,4425488.67816092,40810.6908564815,40810.6925347222,131.7567835067962,2011-09-24,16:34:50,2011-09-24,16:37:15,184
440804.22777777776,4425735.166666668,40811.1207523148,40811.1240625,199.47235397411555,2011-09-25,02:53:53,2011-09-25,02:58:39,-1
442922.02511013224,4425533.74845815,40811.6767939815,40812.070625,199.29558449704206,2011-09-25,16:14:35,2011-09-26,01:41:42,184
440742.6370370368,4425644.005555556,40812.081087963,40812.0822916667,197.81691029830372,2011-09-26,01:56:46,2011-09-26,01:58:30,-1
442911.2781249999,4425468.656696427,40812.6391782407,40813.0967013889,197.28976151841198,2011-09-26,15:20:25,2011-09-27,02:19:15,184
440685.2470588236,4425660.038823529,40813.1051157407,40813.1071759259,197.80386750544568,2011-09-27,02:31:22,2011-09-27,02:34:20,183
442857.0,4425436.922222223,40813.6275925926,40813.6288310185,199.3388321425678,2011-09-27,15:03:44,2011-09-27,15:05:31,-1
442921.13846153853,4425666.961538462,40814.6570717593,40814.6572106481,29.220711831790915,2011-09-28,15:46:11,2011-09-28,15:46:23,-1
440657.2341463415,4425626.568292684,40815.0897222222,40815.0913194444,135.50531354894406,2011-09-29,02:09:12,2011-09-29,02:11:30,183
442904.23617021285,4425457.685106382,40816.6661574074,40816.6677199074,199.68655437939645,2011-09-30,15:59:16,2011-09-30,16:01:31,184
440656.3818181818,4425653.070454545,40817.2068518519,40817.2073611111,70.46708451468405,2011-10-01,04:57:52,2011-10-01,04:58:36,183
440688.0478723404,4425717.189361703,40819.1284259259,40819.1302199074,131.536914970698,2011-10-03,03:04:56,2011-10-03,03:07:31,183
440770.1276119403,4425722.181343282,40820.1324074074,40820.1347222222,161.90037059870602,2011-10-04,03:10:40,2011-10-04,03:14:00,185
442862.126984127,4425425.804761905,40820.5416898148,40820.5431365741,198.37711561560917,2011-10-04,13:00:02,2011-10-04,13:02:07,-1
440800.2473684209,4425716.1736842105,40821.1807523148,40821.1821990741,196.0949259926051,2011-10-05,04:20:17,2011-10-05,04:22:22,-1
442967.58863636357,4425539.483333333,40821.6408680556,40821.6434490741,177.11309945891315,2011-10-05,15:22:51,2011-10-05,15:26:34,184
440789.92738095246,4425658.3309523845,40822.1746296296,40822.2005671296,132.52267730469535,2011-10-06,04:11:28,2011-10-06,04:48:49,-1
440616.9611842105,4425776.711184211,40822.2010416667,40822.2027893519,194.08876835083203,2011-10-06,04:49:30,2011-10-06,04:52:01,-1
443294.1666666667,4425468.008333334,40822.6590972222,40822.659224537,17.942686532390308,2011-10-06,15:49:06,2011-10-06,15:49:17,-1
442938.55223880586,4425505.158208955,40823.6386342593,40823.6399768519,199.769792510933,2011-10-07,15:19:38,2011-10-07,15:21:34,184
440656.0767676769,4425683.867676768,40825.0722569444,40825.073912037,195.1819919971457,2011-10-09,01:44:03,2011-10-09,01:46:26,183
442722.09195549804,4425535.548181426,40825.9040046296,40825.9522569444,191.6494977810978,2011-10-09,21:41:46,2011-10-09,22:51:15,-1
442883.5484536082,4425631.502061856,40825.9666782407,40825.9677893519,180.75511057782202,2011-10-09,23:12:01,2011-10-09,23:13:37,-1
440691.84329896903,4425643.620618556,40826.0720601852,40826.6202662037,193.84323563090638,2011-10-10,01:43:46,2011-10-10,14:53:11,183
444858.1,4425461.1,40826.635787037,40826.635787037,0.0,2011-10-10,15:15:32,2011-10-10,15:15:32,-1
440681.95730337064,4425667.338202249,40827.0755092593,40827.077037037,192.10174387543373,2011-10-11,01:48:44,2011-10-11,01:50:56,183
442822.09401709406,4425426.76153846,40827.6328240741,40828.0604166667,199.99552494990095,2011-10-11,15:11:16,2011-10-12,01:27:00,-1
440712.63253012067,4425690.642168674,40828.0688194444,40828.0704282407,199.0349718012584,2011-10-12,01:39:06,2011-10-12,01:41:25,183
440658.9010869565,4425530.326086956,40829.0873032407,40829.0883564815,194.81871060020774,2011-10-13,02:05:43,2011-10-13,02:07:14,-1
442959.18666666665,4425466.875000001,40829.6390393519,40829.6426851852,197.01921226143116,2011-10-13,15:20:13,2011-10-13,15:25:28,-1
440677.85395683465,4425644.463309351,40830.0533796296,40831.4765162037,198.60828280814474,2011-10-14,01:16:52,2011-10-15,11:26:11,183
442984.6845588235,4425545.147058822,40831.4873842593,40831.4898726852,196.3980651630542,2011-10-15,11:41:50,2011-10-15,11:45:25,-1
440735.9262626262,4425745.70909091,40832.1616898148,40832.163599537,177.62862944917367,2011-10-16,03:52:50,2011-10-16,03:55:35,185
440723.86956521723,4425614.528260871,40833.085162037,40833.0856828704,131.39140002309807,2011-10-17,02:02:38,2011-10-17,02:03:23,-1
442921.136170213,4425494.8372340435,40834.6395601852,40834.6446875,171.5208442145273,2011-10-18,15:20:58,2011-10-18,15:28:21,184
442757.0767441863,4425503.148837211,40835.6457986111,40835.6473032407,151.82522847005248,2011-10-19,15:29:57,2011-10-19,15:32:07,-1
440695.83770491823,4425647.974590164,40836.0846990741,40836.086724537,199.2018323210393,2011-10-20,02:01:58,2011-10-20,02:04:53,183
442802.3035918369,4425505.1733061215,40836.9038888889,40836.9280787037,193.18887131508802,2011-10-20,21:41:36,2011-10-20,22:16:26,-1
443003.59534883726,4425339.032558139,40836.9280902778,40836.9285763889,83.43889980087309,2011-10-20,22:16:27,2011-10-20,22:17:09,-1
441221.84375000006,4425582.89375,40837.0832291667,40837.0834027778,44.75187146914405,2011-10-21,01:59:51,2011-10-21,02:00:06,-1
440939.6000000001,4425655.777857142,40837.3214351852,40837.3236342593,198.81976762886762,2011-10-21,07:42:52,2011-10-21,07:46:02,-1
443044.65,4425592.872727272,40838.6114814815,40838.611724537,19.26265817602129,2011-10-22,14:40:32,2011-10-22,14:40:53,-1
440731.80608108104,4425674.799324324,40840.0770138889,40840.6624421296,198.16402297155605,2011-10-24,01:50:54,2011-10-24,15:53:55,183
442941.44749999995,4425487.811250002,40840.6695486111,40840.6711226852,189.84799182533294,2011-10-24,16:04:09,2011-10-24,16:06:25,184
440816.67708333343,4425655.777083333,40841.0687731481,40841.0699189815,199.052982896503,2011-10-25,01:39:02,2011-10-25,01:40:41,-1
444105.9,4425729.9,40841.6144907407,40841.6145023148,62.40576896420679,2011-10-25,14:44:52,2011-10-25,14:44:53,-1
440678.9151162791,4425680.773255813,40842.0895717593,40842.0914236111,192.31313007697676,2011-10-26,02:08:59,2011-10-26,02:11:39,183
442947.74259259267,4425534.068518518,40842.650775463,40842.652037037,86.1632172104988,2011-10-26,15:37:07,2011-10-26,15:38:56,184
440651.4903225808,4425579.684946238,40843.0773032407,40843.079212963,199.95049387271504,2011-10-27,01:51:19,2011-10-27,01:54:04,-1
442932.5977011496,4425484.166666665,40843.6808796296,40843.6826851852,196.34836388403704,2011-10-27,16:20:28,2011-10-27,16:23:04,184
440707.9554347826,4425666.728260869,40844.0666782407,40844.0677430556,182.89190796732387,2011-10-28,01:36:01,2011-10-28,01:37:33,183
440671.9124183005,4425653.427450983,40847.0861111111,40847.0878703704,199.07887883946051,2011-10-31,02:04:00,2011-10-31,02:06:32,183
440717.30631578946,4425658.510526316,40848.0811689815,40848.0822569444,188.31370104153808,2011-11-01,01:56:53,2011-11-01,01:58:27,183
440651.0453703702,4425718.3620370375,40849.0880787037,40849.0899421296,199.73855411516615,2011-11-02,02:06:50,2011-11-02,02:09:31,-1
442932.5864661653,4425506.430827069,40849.6230671296,40849.6245949074,197.87574383942825,2011-11-02,14:57:13,2011-11-02,14:59:25,184
440926.47678571433,4425540.839285713,40850.1003240741,40850.1014583333,198.29523443600777,2011-11-03,02:24:28,2011-11-03,02:26:06,-1
440661.9101694913,4425652.883050846,40851.2158449074,40851.2178819444,191.91175055225253,2011-11-04,05:10:49,2011-11-04,05:13:45,183
442970.8943298971,4425520.161340207,40851.5966203704,40851.6006134259,189.6768304250564,2011-11-04,14:19:08,2011-11-04,14:24:53,184
442278.6703846154,4428216.521923078,40852.2321064815,40852.2357060185,199.51764333010536,2011-11-05,05:34:14,2011-11-05,05:39:25,-1
440681.6537037037,4425567.716666669,40852.3564583333,40852.6480092593,172.8618523563686,2011-11-05,08:33:18,2011-11-05,15:33:08,-1
443076.06518518523,4425787.325925925,40852.6604166667,40852.6639930556,199.98032403226154,2011-11-05,15:51:00,2011-11-05,15:56:09,-1
442814.49038461526,4425340.803846153,40853.6493518518,40853.6499652778,103.39250456366638,2011-11-06,15:35:04,2011-11-06,15:35:57,-1
440647.7814285714,4425692.101428572,40854.0983333333,40854.0991319444,194.8625156359635,2011-11-07,02:21:36,2011-11-07,02:22:45,183
442963.38305084757,4425485.925423729,40854.6353819444,40854.6366435185,189.02809315053696,2011-11-07,15:14:57,2011-11-07,15:16:46,184
440647.72065217386,4425658.136956523,40855.0860185185,40855.0877893518,198.44031848394428,2011-11-08,02:03:52,2011-11-08,02:06:25,183
442948.4840336134,4425525.885714285,40855.6140856481,40855.6154513889,190.28707260315474,2011-11-08,14:44:17,2011-11-08,14:46:15,184
442901.54945054936,4425496.8,40856.6008217593,40856.6018634259,186.02432636647342,2011-11-09,14:25:11,2011-11-09,14:26:41,184
440883.57605633803,4425610.956338028,40857.0827430556,40857.084212963,164.68594354059468,2011-11-10,01:59:09,2011-11-10,02:01:16,-1
442948.6419354839,4425476.583870968,40858.6535185185,40858.6550810185,194.09886656012998,2011-11-11,15:41:04,2011-11-11,15:43:19,184
440661.48181818187,4425675.384297521,40862.0722337963,40862.0741550926,195.52946069581427,2011-11-15,01:44:01,2011-11-15,01:46:47,183
442938.29469026555,4425518.807964604,40862.6746180556,40862.6759259259,192.79784749868406,2011-11-15,16:11:27,2011-11-15,16:13:20,184
440685.0655172414,4425710.243678162,40863.0772569444,40863.6517592593,194.4165630802065,2011-11-16,01:51:15,2011-11-16,15:38:32,183
442948.2569288388,4425479.519101129,40863.6707523148,40864.0913541667,199.67506103741175,2011-11-16,16:05:53,2011-11-17,02:11:33,184
440661.8110091744,4425601.06972477,40864.1022106481,40864.1039236111,186.9727252838508,2011-11-17,02:27:11,2011-11-17,02:29:39,-1
442827.1297297297,4425223.194594595,40864.6818055556,40864.6822222222,122.90492260317201,2011-11-17,16:21:48,2011-11-17,16:22:24,-1
440623.8626666667,4425639.798666666,40865.4368634259,40865.4534606481,125.96686072171367,2011-11-18,10:29:05,2011-11-18,10:52:59,183
440866.33381294966,4425567.318705036,40866.1928587963,40866.195162037,193.39950878962105,2011-11-19,04:37:43,2011-11-19,04:41:02,-1
442668.2920353984,4425419.738053097,40866.6662962963,40866.6676967593,163.2709710879084,2011-11-19,15:59:28,2011-11-19,16:01:29,-1
442921.3021276595,4425502.806382979,40867.6791203704,40867.6801967593,193.11763254574984,2011-11-20,16:17:56,2011-11-20,16:19:29,184
440748.3258823528,4425702.481176471,40868.0706365741,40868.0716087963,196.22520225490425,2011-11-21,01:41:43,2011-11-21,01:43:07,183
440677.8075949367,4425681.3050632905,40869.0779976852,40869.0794212963,191.6745418672387,2011-11-22,01:52:19,2011-11-22,01:54:22,183
442978.5200000002,4425554.5184,40869.644837963,40869.6462731481,176.02525387001288,2011-11-22,15:28:34,2011-11-22,15:30:38,-1
442949.38765432086,4425476.545679012,40870.6623032407,40870.6641550926,199.3086049318242,2011-11-23,15:53:43,2011-11-23,15:56:23,184
440661.40724637697,4425693.180434784,40871.0913541667,40871.0929513889,195.59575660017788,2011-11-24,02:11:33,2011-11-24,02:13:51,183
442948.3426470588,4425499.379411764,40871.6662615741,40871.6677314815,199.63045859758833,2011-11-24,15:59:25,2011-11-24,16:01:32,184
440757.9776119403,4425725.941791044,40872.0807407407,40872.0819791667,195.3559315710196,2011-11-25,01:56:16,2011-11-25,01:58:03,185
442890.73575418995,4425542.862011174,40872.6460416667,40872.6533101852,143.82506735564024,2011-11-25,15:30:18,2011-11-25,15:40:46,184
440726.15901639353,4425697.640983605,40875.0809490741,40875.0823842593,197.12100344713244,2011-11-28,01:56:34,2011-11-28,01:58:38,183
442962.2243478262,4425588.488695653,40875.6477430556,40875.6490625,193.96520306487966,2011-11-28,15:32:45,2011-11-28,15:34:39,-1
440705.7732142856,4425688.236607143,40876.0897800926,40876.091724537,198.2261839413723,2011-11-29,02:09:17,2011-11-29,02:12:05,183
442896.6660869567,4425450.820434783,40876.6406481481,40877.0777777778,196.87843965251142,2011-11-29,15:22:32,2011-11-30,01:52:00,-1
440714.3514084507,4425751.621830986,40877.0880555556,40877.0904166667,113.43059551963559,2011-11-30,02:06:48,2011-11-30,02:10:12,-1
442963.09673202614,4425492.986928103,40877.6425694444,40877.6466435185,177.22745272634575,2011-11-30,15:25:18,2011-11-30,15:31:10,184
440725.11875,4425683.943750001,40878.0933217593,40878.0942361111,196.94958745825394,2011-12-01,02:14:23,2011-12-01,02:15:42,183
440589.3954545455,4425655.836363638,40878.5247106481,40878.5259722222,18.159295140432015,2011-12-01,12:35:35,2011-12-01,12:37:24,-1
440654.6574074075,4425703.725,40879.0933564815,40879.0953125,197.35919030999668,2011-12-02,02:14:26,2011-12-02,02:17:15,183
442958.7913793103,4425427.189655174,40883.6294328704,40883.630625,194.76267609614428,2011-12-06,15:06:23,2011-12-06,15:08:06,182
440658.9757281554,4425678.234951456,40886.0930902778,40886.0957638889,198.215463574529,2011-12-09,02:14:03,2011-12-09,02:17:54,183
442957.8566666667,4425527.5944444435,40890.6165162037,40890.6175462963,185.56823542805014,2011-12-13,14:47:47,2011-12-13,14:49:16,184
442923.718181818,4425473.205194806,40897.6265509259,40897.6278935185,198.49110811284913,2011-12-20,15:02:14,2011-12-20,15:04:10,184
440684.9131868132,4425677.195604396,40898.0811689815,40898.0829050926,197.32280658867995,2011-12-21,01:56:53,2011-12-21,01:59:23,183
442932.7025974026,4425461.383116883,40898.6357060185,40898.637650463,198.3833914417218,2011-12-21,15:15:25,2011-12-21,15:18:13,184
440653.36779661017,4425646.488135594,40899.1047916667,40899.105462963,145.30471430730864,2011-12-22,02:30:54,2011-12-22,02:31:52,183
440744.5507575758,4425620.459848486,40900.0949305556,40900.0965046296,199.64768969370263,2011-12-23,02:16:42,2011-12-23,02:18:58,-1