441949.5584905662,4426265.183018866,39822.3035185185,39822.3058217593,59.31820968286244,2009-01-09,07:17:04,2009-01-09,07:20:23,-1
440344.34968944086,4424480.360559006,39822.4142592593,39822.4360300926,198.61281428987448,2009-01-09,09:56:32,2009-01-09,10:27:53,-1
441434.2061728398,4424107.618209881,39822.4838194444,39822.5186342593,196.33616579737725,2009-01-09,11:36:42,2009-01-09,12:26:50,-1
440547.92600000015,4424816.116,39822.5287384259,39822.5306828704,198.8617610301186,2009-01-09,12:41:23,2009-01-09,12:44:11,190
442075.3244444446,4417020.912222221,39823.2115393518,39823.2194675926,185.31756527663302,2009-01-10,05:04:37,2009-01-10,05:16:02,-1
440296.5853092781,4424548.446907216,39824.2962037037,39824.3189583333,167.30744155647116,2009-01-11,07:06:32,2009-01-11,07:39:18,-1
440543.55882352934,4424742.211764708,39824.3190162037,39824.3213773148,183.36000109074214,2009-01-11,07:39:23,2009-01-11,07:42:47,-1
440654.4336633665,4424819.814851485,39824.4208912037,39824.4311689815,114.12786688613909,2009-01-11,10:06:05,2009-01-11,10:20:53,191
440392.56470588234,4424500.6823529415,39825.2208796296,39825.2517476852,198.4714589054099,2009-01-12,05:18:04,2009-01-12,06:02:31,-1
440600.06721311476,4424800.21967213,39825.2584837963,39825.2921875,170.73874779879037,2009-01-12,06:12:13,2009-01-12,07:00:45,-1
444320.0891304348,4421152.070652175,39825.535474537,39825.5393055556,191.77325152380445,2009-01-12,12:51:05,2009-01-12,12:56:36,-1
450541.734375,4417130.517187501,39825.5573263889,39825.5861689815,197.64981659506032,2009-01-12,13:22:33,2009-01-12,14:04:05,-1
450432.57131367346,4416892.115817693,39825.5861921296,39825.6220486111,132.1928893700293,2009-01-12,14:04:07,2009-01-12,14:55:45,-1
479486.4666666666,4369882.75,39825.6566550926,39825.656712963,168.88815825863477,2009-01-12,15:45:35,2009-01-12,15:45:40,-1
646732.8205300133,5164845.604469993,39826.4083796296,39826.7033449074,31.548375552619984,2009-01-13,09:48:04,2009-01-13,16:52:49,192
646734.1763975159,5164844.1773913065,39826.7200347222,39826.8050810185,4.58039299585675,2009-01-13,17:16:51,2009-01-13,19:19:19,192
646728.0043921559,5164859.130745099,39826.8150578704,39826.9274074074,195.61768836166172,2009-01-13,19:33:41,2009-01-13,22:15:28,192
646713.7899433428,5164868.980878189,39826.9274305556,39827.0214467593,195.1124803800737,2009-01-13,22:15:30,2009-01-14,00:30:53,-1
655365.373043478,5162238.126086959,39827.0442939815,39827.0508912037,143.6575441806648,2009-01-14,01:03:47,2009-01-14,01:13:17,-1
655378.2060810811,5162209.474155402,39827.0898148148,39827.1221875,196.97647067598206,2009-01-14,02:09:20,2009-01-14,02:55:57,193
655395.3749423521,5162213.296694845,39827.1225231481,39827.2996759259,189.37206763387087,2009-01-14,02:56:26,2009-01-14,07:11:32,193
654068.2612121212,5162203.145757571,39827.3046759259,39827.3261574074,191.79431691269917,2009-01-14,07:18:44,2009-01-14,07:49:40,-1
655342.1485714285,5162164.456571427,39827.3279282407,39827.9678703704,195.2938811128963,2009-01-14,07:52:13,2009-01-14,23:13:44,-1
655370.9595272715,5162184.80938182,39827.9690509259,39829.1663541667,196.96377839519525,2009-01-14,23:15:26,2009-01-16,03:59:33,193
647034.2021645026,5164931.903896104,39829.197349537,39829.2185648148,198.36030348885782,2009-01-16,04:44:11,2009-01-16,05:14:44,-1
646752.8207999995,5164849.826400001,39829.2196296296,39829.2510185185,199.83838470128762,2009-01-16,05:16:16,2009-01-16,06:01:28,192
655381.3562240663,5162233.307468881,39829.3010069444,39829.3481481481,199.4926565068068,2009-01-16,07:13:27,2009-01-16,08:21:20,193
646741.2706860714,5164875.968191264,39829.3811689815,39829.4181944444,199.9506439097265,2009-01-16,09:08:53,2009-01-16,10:02:12,-1
646829.8016129027,5164870.997782263,39829.428275463,39829.502650463,198.6868138553535,2009-01-16,10:16:43,2009-01-16,12:03:49,-1
646735.8951134367,5164860.018324601,39829.5026851852,39829.6744212963,194.11300832275418,2009-01-16,12:03:52,2009-01-16,16:11:10,192
646752.2008175789,5164854.834236083,39829.7209606481,39829.8867476852,198.85856783140815,2009-01-16,17:18:11,2009-01-16,21:16:55,192
646744.5582593252,5164867.6472468935,39829.8867708333,39829.9331944444,196.1379616493758,2009-01-16,21:16:57,2009-01-16,22:23:48,192
655393.9426807753,5162219.296472665,39829.968275463,39830.0042476852,196.94783573284684,2009-01-16,23:14:19,2009-01-17,00:06:07,193
655352.690510949,5162178.819708031,39830.0042824074,39830.0205902778,64.55013555342312,2009-01-17,00:06:10,2009-01-17,00:29:39,-1
646747.5251708013,5164861.10118662,39830.2274768518,39831.0482638889,25.1079668631181,2009-01-17,05:27:34,2009-01-18,01:09:30,192
646764.0576958534,5164884.960276493,39831.048912037,39831.1121875,199.6663466885283,2009-01-18,01:10:26,2009-01-18,02:41:33,-1
645526.275601374,5166606.435051541,39831.1304861111,39831.2042013889,198.34971641018024,2009-01-18,03:07:54,2009-01-18,04:54:03,194
645521.9290721646,5166632.7114433,39831.2042592593,39831.2548148148,199.16136673524667,2009-01-18,04:54:08,2009-01-18,06:06:56,194
646779.9742230342,5164882.565447895,39831.2877662037,39831.3274074074,199.8852921054082,2009-01-18,06:54:23,2009-01-18,07:51:28,-1
646773.3987551864,5164842.90539419,39831.3697800926,39831.3993287037,198.742295448232,2009-01-18,08:52:29,2009-01-18,09:35:02,-1
646738.2384661663,5164859.554105265,39831.3993865741,39831.6747453704,197.31279735493513,2009-01-18,09:35:07,2009-01-18,16:11:38,192
646714.3688026984,5164901.406408087,39831.6785648148,39831.7355092593,199.8909952951787,2009-01-18,16:17:08,2009-01-18,17:39:08,-1
646807.0302959504,5164859.047313097,39831.7355671296,39831.9826851852,198.98824085840369,2009-01-18,17:39:13,2009-01-18,23:35:04,-1
645513.3190476195,5166623.600929154,39831.9956134259,39832.0922453704,197.61508039652588,2009-01-18,23:53:41,2009-01-19,02:12:50,194
644918.788251366,5167511.695081968,39832.108287037,39832.1440972222,194.5279928442145,2009-01-19,02:35:56,2009-01-19,03:27:30,-1
645520.215410959,5166637.724486296,39832.146412037,39832.2000231481,196.96946463892579,2009-01-19,03:30:50,2009-01-19,04:48:02,-1
645531.2873180875,5166627.695634101,39832.2000694444,39832.2524884259,197.441257086295,2009-01-19,04:48:06,2009-01-19,06:03:35,194
655433.7293061223,5162202.666367334,39832.349537037,39833.175787037,172.11066207512926,2009-01-19,08:23:20,2009-01-20,04:13:08,-1
646759.8647482014,5164850.058992806,39833.1993518519,39833.2241319444,198.6282960706857,2009-01-20,04:47:04,2009-01-20,05:22:45,192
646694.6963302756,5165684.320489297,39833.2501041667,39833.2836805556,197.7752765135266,2009-01-20,06:00:09,2009-01-20,06:48:30,-1
646746.1728155338,5164842.0615533935,39833.2905671296,39833.3283333333,199.42640246466416,2009-01-20,06:58:25,2009-01-20,07:52:48,192
646751.5992484976,5164852.812374745,39833.3283912037,39833.9652314815,199.28316537044068,2009-01-20,07:52:53,2009-01-20,23:09:56,192
645507.6606194691,5166601.8960176995,39833.9754861111,39834.0082060185,196.76130208905963,2009-01-20,23:24:42,2009-01-21,00:11:49,194
645489.5879795398,5166643.439386183,39834.0082638889,39834.109212963,199.98592450433523,2009-01-21,00:11:54,2009-01-21,02:37:16,-1
644921.4179710143,5167523.305072467,39834.1106828704,39834.1433101852,196.12539356238042,2009-01-21,02:39:23,2009-01-21,03:26:22,-1
646956.5783333333,5165210.966666667,39834.1856018519,39834.1882291667,199.2174942117151,2009-01-21,04:27:16,2009-01-21,04:31:03,-1
441617.2135204082,4423111.328316323,39847.3849074074,39847.4129050926,196.70917619692153,2009-02-03,09:14:16,2009-02-03,09:54:35,-1
441572.4170212764,4422710.938297872,39847.4595486111,39847.4836921296,199.6377970228766,2009-02-03,11:01:45,2009-02-03,11:36:31,-1
441676.9604316548,4422797.961870503,39847.4874305556,39847.5131365741,199.62577488887206,2009-02-03,11:41:54,2009-02-03,12:18:55,-1
441723.86783216766,4422783.118648016,39847.5131712963,39847.5340625,196.7105996127295,2009-02-03,12:18:58,2009-02-03,12:49:03,-1
440477.9421428571,4424732.574285713,39847.5498032407,39848.1537152778,197.29272667755993,2009-02-03,13:11:43,2009-02-04,03:41:21,190
443621.79126984125,4423835.409523808,39848.1864930556,39848.2357407407,195.86464714185252,2009-02-04,04:28:33,2009-02-04,05:39:28,-1
440515.71747572813,4424713.019417476,39848.258287037,39848.4309606481,195.18119786520654,2009-02-04,06:11:56,2009-02-04,10:20:35,190
440565.50517241395,4424806.3051724145,39848.5035300926,39848.5057638889,191.71710930408554,2009-02-04,12:05:05,2009-02-04,12:08:18,190
440509.5448275863,4424699.132758621,39850.2768287037,39850.4155787037,199.8402612089517,2009-02-06,06:38:38,2009-02-06,09:58:26,190
442108.9960396042,4417319.236138614,39850.4659953704,39850.4902546296,199.20725388417472,2009-02-06,11:11:02,2009-02-06,11:45:58,-1
442084.11428571405,4417122.405000002,39850.5010069444,39850.5072106481,81.70636450152335,2009-02-06,12:01:27,2009-02-06,12:10:23,-1
440625.3673913044,4424723.1000000015,39851.0009606481,39851.0464351852,198.30252141613173,2009-02-07,00:01:23,2009-02-07,01:06:52,-1
441684.9181818182,4424519.750000002,39851.0633796296,39851.0654050926,199.6412031619643,2009-02-07,01:31:16,2009-02-07,01:34:11,-1
440335.2767441861,4424114.9488372095,39851.405625,39851.4065740741,190.9959161867139,2009-02-07,09:44:06,2009-02-07,09:45:28,-1
443413.61212121224,4425252.194949493,39851.4731944444,39851.4761342593,104.53463540856517,2009-02-07,11:21:24,2009-02-07,11:25:38,-1
446590.90250896075,4424136.831541218,39851.5685648148,39851.5983101852,101.2004940701016,2009-02-07,13:38:44,2009-02-07,14:21:34,-1
446580.6025396829,4424113.286349203,39851.5989236111,39851.6215740741,128.5296074845915,2009-02-07,14:22:27,2009-02-07,14:55:04,-1
446436.2972222221,4424290.177777777,39851.631099537,39851.6327083333,166.90683029762124,2009-02-07,15:08:47,2009-02-07,15:11:06,-1
443041.49999999965,4421147.639906105,39852.2147453704,39852.2490625,177.54506470189477,2009-02-08,05:09:14,2009-02-08,05:58:39,-1
443222.194170984,4421631.118523315,39852.2796527778,39852.3096759259,185.96905656586733,2009-02-08,06:42:42,2009-02-08,07:25:56,-1
443261.42692307703,4421314.999999999,39852.3100925926,39852.3105324074,36.1354396676314,2009-02-08,07:26:32,2009-02-08,07:27:10,-1
440588.6414893616,4424780.481914895,39853.1671064815,39853.1739583333,179.92848579393086,2009-02-09,04:00:38,2009-02-09,04:10:30,-1
447922.9868525896,4416256.347410358,39853.2634722222,39853.2900694444,198.7967052041407,2009-02-09,06:19:24,2009-02-09,06:57:42,-1
440592.35923913046,4424186.97771739,39853.3659606481,39853.3749884259,43.536191840617235,2009-02-09,08:46:59,2009-02-09,08:59:59,-1
443122.29705882334,4425026.73470588,39854.0637152778,39854.3861574074,143.30125610055669,2009-02-10,01:31:45,2009-02-10,09:16:04,195
443170.0663063058,4425045.349189187,39854.3884606481,39854.4228935185,40.70601921092143,2009-02-10,09:19:23,2009-02-10,10:08:58,195
440500.7214285712,4424701.131632655,39854.4537731481,39855.6562615741,196.42016189777158,2009-02-10,10:53:26,2009-02-11,15:45:01,190
442859.8273504274,4427001.114529915,39855.6659953704,39855.7761574074,198.12271449783535,2009-02-11,15:59:02,2009-02-11,18:37:40,-1
440628.87850467296,4424797.971962618,39855.7910648148,39855.7987384259,194.03092537033942,2009-02-11,18:59:08,2009-02-11,19:10:11,-1
443090.5475,4425031.69375,39856.0727893518,39856.0775694444,144.74684797936575,2009-02-12,01:44:49,2009-02-12,01:51:42,195
440378.88246753224,4424704.511038961,39856.4446180556,39857.1143865741,197.9002273870633,2009-02-12,10:40:15,2009-02-13,02:44:43,-1
441569.54999999964,4416297.613478262,39857.1449768519,39857.2066898148,178.28881064124928,2009-02-13,03:28:46,2009-02-13,04:57:38,-1
441199.31107491907,4422438.003908798,39857.2405092593,39857.2633680556,24.30822905934746,2009-02-13,05:46:20,2009-02-13,06:19:15,-1
443392.0216417916,4423686.482089555,39857.3598842593,39857.3942361111,197.22892789835373,2009-02-13,08:38:14,2009-02-13,09:27:42,-1
443404.405978261,4423636.0570652215,39857.3944328704,39857.4291203704,195.05601759531805,2009-02-13,09:27:59,2009-02-13,10:17:56,-1
443392.9790760875,4423690.136820647,39857.429525463,39857.4722453704,107.90889676000883,2009-02-13,10:18:31,2009-02-13,11:20:02,-1
443477.19999999995,4423251.75,39857.4847916667,39857.4848032407,5.044799302616381,2009-02-13,11:38:06,2009-02-13,11:38:07,-1
441268.61793722067,4422436.460762333,39858.1320949074,39858.2119444444,199.0205265790949,2009-02-14,03:10:13,2009-02-14,05:05:12,-1
441276.7372302159,4422413.011151079,39858.2119675926,39858.2566203704,32.15493741246261,2009-02-14,05:05:14,2009-02-14,06:09:32,-1
440259.9823529412,4425001.08627451,39858.28375,39858.2860416667,172.9869359231014,2009-02-14,06:48:36,2009-02-14,06:51:54,-1
453592.7192982457,4414945.338596491,39858.3610416667,39858.3634375,196.1194788898729,2009-02-14,08:39:54,2009-02-14,08:43:21,-1
441686.3760233918,4422456.657894737,39858.4101388889,39858.4613657407,198.10090862989864,2009-02-14,09:50:36,2009-02-14,11:04:22,-1
440487.23181818175,4424743.292424242,39858.4843055556,39858.4877777778,166.34773818693918,2009-02-14,11:37:24,2009-02-14,11:42:24,190
445918.5912820512,4417624.431794875,39860.2364814815,39860.2679282407,183.24235318287197,2009-02-16,05:40:32,2009-02-16,06:25:49,-1
445896.8939481267,4417440.496926032,39860.2682523148,39860.3426157407,198.14141414623492,2009-02-16,06:26:17,2009-02-16,08:13:22,-1
440869.93720930244,4424589.304651162,39860.3789814815,39860.3808217593,198.20214428713325,2009-02-16,09:05:44,2009-02-16,09:08:23,-1
440690.34915254236,4424720.101694917,39860.4087268518,39860.4112847222,188.62942506405352,2009-02-16,09:48:34,2009-02-16,09:52:15,-1
443109.7409547742,4425016.607663315,39861.387650463,39861.4258564815,193.76119322433104,2009-02-17,09:18:13,2009-02-17,10:13:14,195
440775.93809523794,4424814.108333334,39861.4925115741,39861.4965509259,192.83892241959745,2009-02-17,11:49:13,2009-02-17,11:55:02,-1
440475.2793650792,4424732.896825396,39863.4642361111,39863.4669791667,199.12207311109216,2009-02-19,11:08:30,2009-02-19,11:12:27,190
440668.3641975311,4424814.697530861,39863.4864351852,39863.4898263889,49.8514794161166,2009-02-19,11:40:28,2009-02-19,11:45:21,191
440368.3907834101,4424267.126728113,39864.1839583333,39864.1912152778,51.89691705695858,2009-02-20,04:24:54,2009-02-20,04:35:21,-1
440544.181355932,4424773.689830509,39864.3325462963,39864.9958101852,191.0989272603579,2009-02-20,07:58:52,2009-02-20,23:53:58,190
443392.6780104713,4427867.1026178,39865.0197800926,39865.0353819444,192.82530954203546,2009-02-21,00:28:29,2009-02-21,00:50:57,-1
443712.6073426574,4428129.156293702,39865.1519097222,39865.2134490741,193.6283037162078,2009-02-21,03:38:45,2009-02-21,05:07:22,-1
443384.8542531127,4427789.567427383,39865.2177083333,39865.3023032407,85.72380066190034,2009-02-21,05:13:30,2009-02-21,07:15:19,-1
443406.6124548736,4427838.828880867,39865.3108912037,39865.3802199074,190.16145771455265,2009-02-21,07:27:41,2009-02-21,09:07:31,-1
440787.95384615404,4424307.028846153,39865.4420717593,39865.4440625,196.66400280663802,2009-02-21,10:36:35,2009-02-21,10:39:27,-1
440298.95961538464,4424931.646153847,39866.1783564815,39866.1807175926,198.47266814368447,2009-02-22,04:16:50,2009-02-22,04:20:14,-1
454327.1038793104,4418865.050215514,39866.2191087963,39866.2601273148,198.44618917982538,2009-02-22,05:15:31,2009-02-22,06:14:35,-1
454325.95419254666,4418863.755279507,39866.2601736111,39866.3410763889,197.81873015465447,2009-02-22,06:14:39,2009-02-22,08:11:09,-1
453565.3696428571,4419227.141071429,39866.3499768519,39866.3527777778,198.91958174087367,2009-02-22,08:23:58,2009-02-22,08:28:00,-1
441337.89909090917,4422465.168181821,39866.4008333333,39866.4589351852,199.44091856988874,2009-02-22,09:37:12,2009-02-22,11:00:52,-1
440560.5236842106,4424803.715789475,39866.481712963,39866.4837152778,182.73872058229094,2009-02-22,11:33:40,2009-02-22,11:36:33,190
443100.0785714285,4424988.617500002,39867.0689930556,39867.0992013889,189.5044590504402,2009-02-23,01:39:21,2009-02-23,02:22:51,195
443125.2024523162,4425054.14986376,39867.1006365741,39867.1249421296,76.2197480968279,2009-02-23,02:24:55,2009-02-23,02:59:55,195
443054.301098901,4425096.86923077,39867.2239351852,39867.2265856481,148.98603961371902,2009-02-23,05:22:28,2009-02-23,05:26:17,196
440743.69733333314,4424314.699999999,39876.4848958333,39876.4882638889,192.9709045423577,2009-03-04,11:38:15,2009-03-04,11:43:06,-1
443122.06603153766,4425021.190998678,39877.077662037,39877.1859837963,36.9770198903895,2009-03-05,01:51:50,2009-03-05,04:27:49,195
443136.51635610766,4425022.344513458,39877.2017592593,39877.2437037037,196.9199075768703,2009-03-05,04:50:32,2009-03-05,05:50:56,195
443094.5003278689,4425018.063278692,39877.245150463,39877.2622800926,49.492726738441355,2009-03-05,05:53:01,2009-03-05,06:17:41,195
441307.8366972478,4422471.199082568,39877.472037037,39877.5149537037,198.63217262072644,2009-03-05,11:19:44,2009-03-05,12:21:32,-1
440550.7918367346,4424758.532653061,39877.5385416667,39877.5403703704,197.47131437223413,2009-03-05,12:55:30,2009-03-05,12:58:08,190
442792.3476190475,4426999.897142856,39877.6195023148,39877.7502430556,196.74923125645847,2009-03-05,14:52:05,2009-03-05,18:00:21,-1
440618.8780219782,4424715.665934065,39877.7570717593,39879.0580324074,183.74637411391905,2009-03-05,18:10:11,2009-03-07,01:23:34,-1
442924.8638888889,4425129.191666668,39879.0692824074,39879.0721643518,195.07383217701525,2009-03-07,01:39:46,2009-03-07,01:43:55,-1
443095.36274165194,4425044.179261858,39879.1209606482,39879.404224537,197.370007853611,2009-03-07,02:54:11,2009-03-07,09:42:05,195
440193.7631147541,4424799.282786883,39879.4265740741,39879.5490277778,195.4262264896887,2009-03-07,10:14:16,2009-03-07,13:10:36,-1
441496.9935483872,4422711.03548387,39879.5572685185,39879.5593287037,187.50023999983614,2009-03-07,13:22:28,2009-03-07,13:25:26,-1
440593.053968254,4424745.212698412,39879.6555555556,39879.6576041667,196.6990848989097,2009-03-07,15:44:00,2009-03-07,15:46:57,-1
443129.31935483875,4425011.79032258,39880.0816782407,39880.0855324074,100.39945218963561,2009-03-08,01:57:37,2009-03-08,02:03:10,195
442913.00601792487,4425208.708450706,39880.3586574074,39880.426712963,197.09634699824323,2009-03-08,08:36:28,2009-03-08,10:14:28,-1
440485.3223999999,4424763.264000001,39880.450462963,39881.188912037,196.2655853685358,2009-03-08,10:48:40,2009-03-09,04:32:02,190
443142.79166666657,4424971.941666667,39881.219537037,39881.222662037,137.6836954762902,2009-03-09,05:16:08,2009-03-09,05:20:38,-1
446189.3171052632,4436840.618421052,39881.5572337963,39881.5601157407,169.71888521905865,2009-03-09,13:22:25,2009-03-09,13:26:34,-1
442691.6,4424989.2,39882.0543287037,39882.0543287037,0.0,2009-03-10,01:18:14,2009-03-10,01:18:14,-1
440729.408433735,4424803.16506024,39882.5631365741,39882.5674768519,183.28693352219778,2009-03-10,13:30:55,2009-03-10,13:37:10,-1
443157.5787709495,4425045.613128494,39883.0738194444,39883.1059027778,194.15303242556362,2009-03-11,01:46:18,2009-03-11,02:32:30,195
443152.29245960497,4425046.417953317,39883.1114814815,39883.1412847222,160.97394199059133,2009-03-11,02:40:32,2009-03-11,03:23:27,195
443145.18571428605,4425045.2019607825,39883.1450578704,39883.1703587963,199.16811993885258,2009-03-11,03:28:53,2009-03-11,04:05:19,195
443120.4387732753,4425022.983351584,39883.1704166667,39883.2375115741,71.24556126517734,2009-03-11,04:05:24,2009-03-11,05:42:01,195
442818.11881188134,4427015.3603960425,39883.261099537,39883.2882060185,198.10131246391603,2009-03-11,06:15:59,2009-03-11,06:55:01,-1
442572.6748285991,4426574.574142993,39883.3000115741,39883.3562152778,197.62431530521144,2009-03-11,07:12:01,2009-03-11,08:32:57,-1
444327.03707865166,4426485.891573032,39883.3743865741,39883.4146412037,188.54840227397995,2009-03-11,08:59:07,2009-03-11,09:57:05,-1
443155.69964788726,4425016.092253519,39883.4275578704,39883.4489930556,194.61243536846743,2009-03-11,10:15:41,2009-03-11,10:46:33,195
443124.65738045773,4425012.068191271,39883.4884722222,39883.5197453704,181.43111640517395,2009-03-11,11:43:24,2009-03-11,12:28:26,195
440533.08644067793,4424762.762711863,39883.5449189815,39883.5471990741,184.5444390924591,2009-03-11,13:04:41,2009-03-11,13:07:58,190
442990.6228915665,4425095.244578313,39884.1049652778,39884.5302314815,199.14803539086785,2009-03-12,02:31:09,2009-03-12,12:43:32,-1
440589.4054054053,4424798.613513512,39884.5483333333,39884.5527083333,122.16566620780722,2009-03-12,13:09:36,2009-03-12,13:15:54,190
440732.60294117645,4424923.694117647,39884.578587963,39884.5795833333,168.67797722283868,2009-03-12,13:53:10,2009-03-12,13:54:36,-1
443139.9504885996,4425026.887622147,39885.1212037037,39892.5306481481,62.17041096855551,2009-03-13,02:54:32,2009-03-20,12:44:08,195
454081.54972677585,4428920.45136612,39892.7808680556,39892.7929050926,43.2018518127483,2009-03-20,18:44:27,2009-03-20,19:01:47,-1
443158.9970714902,4425015.00508182,39893.1328009259,39893.2266087963,97.01427729973042,2009-03-21,03:11:14,2009-03-21,05:26:19,195
440499.3756410256,4424767.401282051,39893.2723842593,39893.3032291667,193.46609522088465,2009-03-21,06:32:14,2009-03-21,07:16:39,190
441601.3361702127,4424024.638297874,39893.3268981481,39893.3295601852,198.56656314704904,2009-03-21,07:50:44,2009-03-21,07:54:34,-1
440753.816,4424692.748000001,39893.3854050926,39893.3882407407,198.1481516442476,2009-03-21,09:14:59,2009-03-21,09:19:04,-1
440649.9282051282,4424770.971794872,39893.4076851852,39893.4098263889,85.76491123960677,2009-03-21,09:47:04,2009-03-21,09:50:09,-1
441382.3047619047,4422487.487619051,39894.2465046296,39894.275787037,197.8321005296762,2009-03-22,05:54:58,2009-03-22,06:37:08,-1
442861.1355450237,4420950.254976303,39894.2991782407,39894.3481365741,193.88483695228163,2009-03-22,07:10:49,2009-03-22,08:21:19,-1
441383.4481228668,4422432.648464163,39894.3601736111,39894.3854976852,197.6283380489983,2009-03-22,08:38:39,2009-03-22,09:15:07,-1
441433.78822463774,4422365.286775359,39894.3885648148,39894.4256597222,188.24027199372574,2009-03-22,09:19:32,2009-03-22,10:12:57,-1
441425.4580508475,4422366.97881356,39894.4267592593,39894.4516435185,192.90640217477602,2009-03-22,10:14:32,2009-03-22,10:50:22,-1
441391.99135802453,4422660.066358024,39894.4677314815,39894.4912268519,114.16781507920709,2009-03-22,11:13:32,2009-03-22,11:47:22,-1
440535.5719298246,4424749.354385966,39894.5135069444,39894.5520949074,62.22057537536305,2009-03-22,12:19:27,2009-03-22,13:15:01,190
453836.4725274724,4429110.529670332,39894.6050925926,39894.6097800926,194.38716521379817,2009-03-22,14:31:20,2009-03-22,14:38:05,-1
453949.21081081073,4429247.454054054,39894.639525463,39894.6460069444,113.87225298552855,2009-03-22,15:20:55,2009-03-22,15:30:15,-1
454166.10000000003,4428828.2,39895.0063310185,39895.032025463,198.19288584565663,2009-03-23,00:09:07,2009-03-23,00:46:07,-1
441934.206849315,4426372.234246575,39895.0908796296,39895.1010648148,63.19881327998971,2009-03-23,02:10:52,2009-03-23,02:25:32,-1
440562.169047619,4424740.433333333,39896.3105671296,39896.3128819444,175.28331352412692,2009-03-24,07:27:13,2009-03-24,07:30:33,-1
443141.5333333335,4425029.564363405,39898.0520138889,39898.2012615741,192.3378797845298,2009-03-26,01:14:54,2009-03-26,04:49:49,195
443065.75734072,4425027.014681438,39898.2014930556,39898.2209375,140.22268004860936,2009-03-26,04:50:09,2009-03-26,05:18:09,-1
443127.5124999996,4425037.818627452,39898.2278240741,39898.2674074074,101.21388244714757,2009-03-26,05:28:04,2009-03-26,06:25:04,195
442990.25000000006,4424711.029411765,39898.4699189815,39898.4717708333,195.98290741834117,2009-03-26,11:16:41,2009-03-26,11:19:21,-1
440529.0583333334,4424749.368749999,39898.5602777778,39898.5629398148,165.94215859757216,2009-03-26,13:26:48,2009-03-26,13:30:38,190
443130.18000000005,4425022.205,39899.0507175926,39899.0525694444,137.62023833729413,2009-03-27,01:13:02,2009-03-27,01:15:42,195
443102.97750000015,4425083.58125,39905.4413888889,39905.4579398148,190.3676705740647,2009-04-02,10:35:36,2009-04-02,10:59:26,-1
440962.6775735295,4424365.845220588,39905.4815509259,39905.5257060185,199.15102309569548,2009-04-02,11:33:26,2009-04-02,12:37:01,-1
440654.87674418604,4424766.664341086,39905.5272106482,39905.5353703704,147.90256928092015,2009-04-02,12:39:11,2009-04-02,12:50:56,-1
440278.78867924545,4424777.2792452825,39906.0890277778,39906.0919791667,176.1862934509936,2009-04-03,02:08:12,2009-04-03,02:12:27,-1
444578.64335443097,4417907.684177214,39906.123125,39906.1451736111,184.31500210293552,2009-04-03,02:57:18,2009-04-03,03:29:03,-1
443056.61100917443,4425127.563302752,39906.1692476852,39906.1779282407,103.798651243186,2009-04-03,04:03:43,2009-04-03,04:16:13,-1
441789.248453608,4421608.032989691,39906.354224537,39906.3771412037,186.36330110853152,2009-04-03,08:30:05,2009-04-03,09:03:05,-1
443156.6957516341,4425015.180065357,39906.4166666667,39906.4421296296,199.41940728016525,2009-04-03,10:00:00,2009-04-03,10:36:40,195
443125.0676217769,4425023.952149,39906.4466435185,39906.4865740741,180.67454164874903,2009-04-03,10:43:10,2009-04-03,11:40:40,195
441485.1592760185,4422474.07556561,39906.5022569444,39906.519849537,135.08001332552135,2009-04-03,12:03:15,2009-04-03,12:28:35,-1
440552.9794871795,4424797.205128204,39908.3327662037,39908.334849537,190.7665064941697,2009-04-05,07:59:11,2009-04-05,08:02:11,190
442908.7922594139,4426974.206903761,39911.1602314815,39911.2069907407,197.0505011408007,2009-04-08,03:50:44,2009-04-08,04:58:04,-1
440466.88749999995,4424723.8513888875,39911.2608101852,39911.6179050926,186.2032491659919,2009-04-08,06:15:34,2009-04-08,14:49:47,190
440548.65624999994,4424768.83125,39911.6222453704,39911.6249652778,199.68758098602137,2009-04-08,14:56:02,2009-04-08,14:59:57,190
441903.91150793637,4426283.05952381,39912.032337963,39912.0624884259,195.98147871669346,2009-04-09,00:46:34,2009-04-09,01:29:59,-1
441123.45,4426102.5,39912.0858680556,39912.0866203704,189.75692345753896,2009-04-09,02:03:39,2009-04-09,02:04:44,-1
443151.29893428076,4425018.606631142,39913.0284953704,39913.2017592593,55.80125446568584,2009-04-10,00:41:02,2009-04-10,04:50:32,195
442823.81921824097,4427045.914657984,39913.2100925926,39913.2347453704,151.95805342264686,2009-04-10,05:02:32,2009-04-10,05:38:02,-1
443112.15409836074,4425052.339344259,39913.3181365741,39913.3445833333,193.45058800572284,2009-04-10,07:38:07,2009-04-10,08:16:12,195
443177.7454005937,4425011.354302671,39913.3446412037,39913.382662037,72.62231062143334,2009-04-10,08:16:17,2009-04-10,09:11:02,195
443064.4472727273,4425115.959999999,39913.3843981481,39913.3872916667,173.64630718795323,2009-04-10,09:13:32,2009-04-10,09:17:42,196
453318.75828220864,4417276.288343558,39913.4195833333,39913.4455092593,198.98592915095392,2009-04-10,10:04:12,2009-04-10,10:41:32,-1
453803.994117647,4417196.988235294,39913.5190625,39913.5439467593,199.70010015015384,2009-04-10,12:27:27,2009-04-10,13:03:17,-1
441937.5609375,4426307.7046875,39913.5771064815,39913.599849537,170.2652342670106,2009-04-10,13:51:02,2009-04-10,14:23:47,-1
440523.64499999984,4424768.085000002,39913.6080092593,39914.6948148148,163.3122469382001,2009-04-10,14:35:32,2009-04-11,16:40:32,190
442882.3990654204,4426916.956074764,39914.710150463,39914.8290740741,184.72804334977806,2009-04-11,17:02:37,2009-04-11,19:53:52,-1
440612.91496063006,4424752.248031495,39914.8383333333,39914.8867708333,198.4150447925017,2009-04-11,20:07:12,2009-04-11,21:16:57,-1
440501.2816901407,4424734.319718311,39914.9249074074,39916.01125,197.17144823723663,2009-04-11,22:11:52,2009-04-13,00:16:12,190
443170.3182734438,4425017.283610863,39916.0308101852,39916.2729398148,115.7066117383788,2009-04-13,00:44:22,2009-04-13,06:33:02,195
443144.33572854265,4425048.092215564,39916.5712152778,39916.6265972222,54.97635855554712,2009-04-13,13:42:33,2009-04-13,15:02:18,195
440548.8825,4424779.6225000005,39916.6422222222,39916.6444212963,193.37241271702612,2009-04-13,15:24:48,2009-04-13,15:27:58,190
443133.50249584037,4425022.170382695,39917.0509722222,39917.1228472222,65.40030580968863,2009-04-14,01:13:24,2009-04-14,02:56:54,195
443081.8266666667,4425069.586000002,39919.0190740741,39920.1458333333,141.59802258506295,2009-04-16,00:27:28,2009-04-17,03:30:00,-1
442577.34881101456,4426631.479599501,39920.1606481481,39920.2193865741,199.68407547943292,2009-04-17,03:51:20,2009-04-17,05:15:55,-1
440241.6444191344,4426970.630523917,39920.2518055556,39920.3031944444,196.83152694661817,2009-04-17,06:02:36,2009-04-17,07:16:36,-1
442623.459,4428935.148999997,39920.3186342593,39920.3429398148,195.679993867507,2009-04-17,07:38:50,2009-04-17,08:13:50,-1
442016.08387096773,4426297.14623656,39920.3717592593,39920.4699652778,196.3073610438889,2009-04-17,08:55:20,2009-04-17,11:16:45,-1
443110.4782608695,4425198.894202897,39920.4923611111,39920.495775463,193.83812834387115,2009-04-17,11:49:00,2009-04-17,11:53:55,-1
454483.36575342447,4415929.0520547945,39920.5324652778,39920.5771990741,195.79029598026065,2009-04-17,12:46:45,2009-04-17,13:51:10,-1
442375.60909090907,4427008.327272728,39920.6509259259,39920.653587963,195.15196642617482,2009-04-17,15:37:20,2009-04-17,15:41:10,-1
440640.742635659,4424762.655038763,39920.7038194444,39921.2076273148,166.84235073898665,2009-04-17,16:53:30,2009-04-18,04:58:59,-1
441162.87137014314,4422470.4558282215,39921.2290972222,39921.264224537,26.155305389144626,2009-04-18,05:29:54,2009-04-18,06:20:29,-1
441384.2918181819,4422395.586363638,39921.2880671296,39921.2957060185,101.56027766787128,2009-04-18,06:54:49,2009-04-18,07:05:49,-1
440474.08243243257,4424708.258108108,39921.4456944444,39922.1188310185,197.70556390752355,2009-04-18,10:41:48,2009-04-19,02:51:07,190
441993.7210526315,4426309.933333334,39922.1320833333,39922.1871759259,169.72510126674808,2009-04-19,03:10:12,2009-04-19,04:29:32,-1
441954.2285714286,4426286.359999999,39922.2052893518,39922.2070833333,135.4988191831752,2009-04-19,04:55:37,2009-04-19,04:58:12,-1
441486.16363636375,4422527.447272728,39922.5082986111,39922.5418055556,168.93705928554232,2009-04-19,12:11:57,2009-04-19,13:00:12,-1
440744.70000000007,4424799.028571428,39922.5628125,39922.5655324074,199.41898104249114,2009-04-19,13:30:27,2009-04-19,13:34:22,-1
443142.50576923095,4425019.614770862,39925.1071180556,39925.3412615741,185.55888553239336,2009-04-22,02:34:15,2009-04-22,08:11:25,195
443127.0246753247,4425032.419913422,39925.3572916667,39925.3721064815,25.688908112611067,2009-04-22,08:34:30,2009-04-22,08:55:50,195
443087.9578723405,4425013.912553191,39925.3795138889,39925.4336226852,112.70820733207474,2009-04-22,09:06:30,2009-04-22,10:24:25,195
443122.903240741,4425024.191203702,39925.4345486111,39925.6299074074,44.477522412905905,2009-04-22,10:25:45,2009-04-22,15:07:04,195
440564.5142857143,4424790.326190477,39925.658900463,39925.6612152778,191.5172316009993,2009-04-22,15:48:49,2009-04-22,15:52:09,190
443133.77496807143,4425027.165644967,39926.0127083333,39926.2116087963,198.16003633412276,2009-04-23,00:18:18,2009-04-23,05:04:43,195
443147.35651144385,4425023.539384369,39926.2116666667,39926.3156597222,76.76001563289468,2009-04-23,05:04:48,2009-04-23,07:34:33,195
443099.91578947334,4425043.889952153,39926.3161226852,39926.328275463,63.91126661267664,2009-04-23,07:35:13,2009-04-23,07:52:43,195
440519.4138888889,4424840.11111111,39926.6466435185,39926.6486111111,191.2370257038854,2009-04-23,15:31:10,2009-04-23,15:34:00,-1
440434.74952380935,4424730.875238096,39927.6291782407,39928.2107986111,193.7475677266671,2009-04-24,15:06:01,2009-04-25,05:03:33,-1
443153.6266021364,4425012.758444588,39928.231400463,39928.4846064815,24.123847122746582,2009-04-25,05:33:13,2009-04-25,11:37:50,195
443162.41171428544,4425019.375809525,39928.4946180556,39928.5856481481,115.58654766018405,2009-04-25,11:52:15,2009-04-25,14:03:20,195
440544.35641025635,4424776.125641025,39928.5954282407,39928.5976273148,180.5127419323988,2009-04-25,14:17:25,2009-04-25,14:20:35,190
443029.8306818182,4425107.868181818,39929.1429513889,39929.5079050926,192.1889174738106,2009-04-26,03:25:51,2009-04-26,12:11:23,196
443015.54598214285,4424558.524999999,39929.5105671296,39929.5352777778,199.96272152578462,2009-04-26,12:15:13,2009-04-26,12:50:48,-1
442439.775,4424487.0200000005,39929.5489930556,39929.5500925926,126.67391207340486,2009-04-26,13:10:33,2009-04-26,13:12:08,-1
440550.29374999995,4424783.085416666,39929.6160069444,39929.6187268518,196.4897198325254,2009-04-26,14:47:03,2009-04-26,14:50:58,190
443117.1261572385,4425031.544158712,39930.224224537,39930.3197685185,193.75350319435708,2009-04-27,05:22:53,2009-04-27,07:40:28,195
443113.62716417917,4425025.108358206,39930.3370717593,39930.3909722222,65.95528788508223,2009-04-27,08:05:23,2009-04-27,09:23:00,195
443179.9968253967,4425046.830793649,39930.3947916667,39930.4162037037,41.28256290493603,2009-04-27,09:28:30,2009-04-27,09:59:20,195
442972.20209790196,4425046.145104898,39930.4632638889,39930.5100231481,195.53096941405215,2009-04-27,11:07:06,2009-04-27,12:14:26,-1
443180.7256250003,4424668.295312502,39930.5148842593,39930.5405208333,198.53022439936404,2009-04-27,12:21:26,2009-04-27,12:58:21,-1
440668.1790322581,4424831.469354839,39930.5703819444,39930.5739351852,57.64616205757464,2009-04-27,13:41:21,2009-04-27,13:46:28,191
443151.8819875771,4425028.894824013,39931.0313888889,39931.0747337963,198.8953745064714,2009-04-28,00:45:12,2009-04-28,01:47:37,195
443121.708041958,4425010.083916084,39931.0747916667,39931.1012962963,195.81470833417296,2009-04-28,01:47:42,2009-04-28,02:25:52,195
443167.7092225605,4425010.506478652,39931.1013541667,39931.2172685185,158.40129418653868,2009-04-28,02:25:57,2009-04-28,05:12:52,195
443135.57650793734,4425019.058095237,39931.2173263889,39931.3085300926,198.9333808087177,2009-04-28,05:12:57,2009-04-28,07:24:17,195
443085.0479108631,4425031.244196842,39931.3346296296,39931.4412847222,69.45077393342618,2009-04-28,08:01:52,2009-04-28,10:35:27,195
442933.6573002751,4427078.740495868,39931.4453356481,39931.5621759259,173.89896491964896,2009-04-28,10:41:17,2009-04-28,13:29:32,-1
440543.79574468074,4424775.076595746,39931.5840509259,39931.586712963,199.92741182723097,2009-04-28,14:01:02,2009-04-28,14:04:52,190
443151.4510204082,4425025.158367348,39932.0224074074,39932.0542361111,198.60840868411339,2009-04-29,00:32:16,2009-04-29,01:18:06,195
443132.04102564114,4425015.324786323,39932.0542939815,39932.0821296296,16.376812876813528,2009-04-29,01:18:11,2009-04-29,01:58:16,195
440685.4025,4425798.197499999,39932.3337037037,39932.3739351852,196.36012833603613,2009-04-29,08:00:32,2009-04-29,08:58:28,-1
440315.4826923078,4426167.475,39932.3768287037,39932.3796064815,168.49086028619445,2009-04-29,09:02:38,2009-04-29,09:06:38,-1
443200.78735262586,4425022.248017152,39932.4635300926,39932.5783912037,69.50179853787958,2009-04-29,11:07:29,2009-04-29,13:52:53,-1
440518.96388888883,4424773.986111111,39932.6017361111,39932.6037615741,176.29940442374712,2009-04-29,14:26:30,2009-04-29,14:29:25,190
443156.9118790495,4425011.161339097,39933.1142824074,39933.1737152778,45.596929721256465,2009-04-30,02:44:34,2009-04-30,04:10:09,195
443120.9718750003,4425015.6459375,39933.2248726852,39933.2571643519,192.81436668467467,2009-04-30,05:23:49,2009-04-30,06:10:19,195
443155.72995104716,4425005.592211846,39933.2572222222,39933.4374305556,44.51213317721196,2009-04-30,06:10:24,2009-04-30,10:29:54,195
441297.22597402596,4422479.551948052,39933.4540972222,39933.4628356481,196.14792886985762,2009-04-30,10:53:54,2009-04-30,11:06:29,-1
440480.3946808511,4424699.373404255,39933.5467939815,39934.2858101852,126.24626727125687,2009-04-30,13:07:23,2009-05-01,06:51:34,190
441253.64630350185,4422409.626848247,39934.3525347222,39934.3815856481,192.67768422939747,2009-05-01,08:27:39,2009-05-01,09:09:29,-1
441260.9459259262,4422408.598765435,39934.3816435185,39934.6467476852,190.21803279433718,2009-05-01,09:09:34,2009-05-01,15:31:19,-1
440507.22500000003,4424744.478846153,39934.6541550926,39935.1964699074,194.9297309290067,2009-05-01,15:41:59,2009-05-02,04:42:55,190
438534.7916988421,4408006.756177609,39935.2630208333,39935.3127314815,170.1988542856581,2009-05-02,06:18:45,2009-05-02,07:30:20,-1
438519.86221079715,4407986.6885604095,39935.4085416667,39935.5021180556,199.82091982578686,2009-05-02,09:48:18,2009-05-02,12:03:03,-1
438527.6408567783,4407995.270332489,39935.5021759259,39936.2319328704,60.51586568772252,2009-05-02,12:03:08,2009-05-03,05:33:59,-1
440381.2349999999,4424695.268333334,39937.0732175926,39937.1226967593,193.27433870053756,2009-05-04,01:45:26,2009-05-04,02:56:41,-1
443003.3072072073,4425144.667567568,39937.1687037037,39938.3890277778,191.2432221026309,2009-05-04,04:02:56,2009-05-05,09:20:12,-1
442520.70208333334,4426926.895833333,39938.4133912037,39938.4196412037,199.6531241926846,2009-05-05,09:55:17,2009-05-05,10:04:17,-1
441390.6617977528,4422420.286516854,39938.5075462963,39938.5169212963,194.0557651810316,2009-05-05,12:10:52,2009-05-05,12:24:22,-1
441698.3006644519,4422579.415614622,39938.55875,39938.5852546296,179.42803571323506,2009-05-05,13:24:36,2009-05-05,14:02:46,-1
440518.17254901957,4424793.752941176,39938.5965393518,39938.604525463,168.2220259063193,2009-05-05,14:19:01,2009-05-05,14:30:31,190
440421.6173913044,4425541.373913044,39939.0010069444,39939.0022800926,56.94427100257203,2009-05-06,00:01:27,2009-05-06,00:03:17,-1
443135.6133079845,4425020.239923955,39939.0322569444,39939.0878125,21.86869909252969,2009-05-06,00:46:27,2009-05-06,02:06:27,195
440479.1378205127,4424755.626923075,39939.1109027778,39939.1419212963,198.22262736633348,2009-05-06,02:39:42,2009-05-06,03:24:22,190
442571.03071672365,4426624.947781571,39939.1589351852,39939.1888541667,197.97216976112102,2009-05-06,03:48:52,2009-05-06,04:31:57,-1
443113.20335781726,4425038.374186782,39939.2011226852,39939.2970717593,188.22220910391792,2009-05-06,04:49:37,2009-05-06,07:07:47,195
443133.4237586414,4425023.593840351,39939.3032638889,39939.4502546296,29.91521352067391,2009-05-06,07:16:42,2009-05-06,10:48:22,195
440532.9799999999,4424753.388333332,39939.6227199074,39939.9931481481,112.21586340691496,2009-05-06,14:56:43,2009-05-06,23:50:08,190
443111.6,4424944.3,39940.0124768519,39940.6723842593,188.3762458489323,2009-05-07,00:17:58,2009-05-07,16:08:14,-1
440662.0686440677,4424820.366949152,39940.6797916667,39942.0356712963,160.63776019333656,2009-05-07,16:18:54,2009-05-09,00:51:22,191
443062.99499999994,4425093.418333333,39942.0509490741,39942.5963541667,119.96853754220615,2009-05-09,01:13:22,2009-05-09,14:18:45,196
440427.61627907003,4424760.730232556,39942.6149305556,39943.0921527778,197.24971482874017,2009-05-09,14:45:30,2009-05-10,02:12:42,-1
440645.14045307477,4427009.571197411,39943.1211574074,39943.1420486111,198.83563563941433,2009-05-10,02:54:28,2009-05-10,03:24:33,-1
440650.09862385306,4426744.469266054,39943.1421064815,39943.1684375,195.5383594079155,2009-05-10,03:24:38,2009-05-10,04:02:33,-1
440345.9875,4426550.429166665,39943.1901388889,39943.1966203704,194.21876840324265,2009-05-10,04:33:48,2009-05-10,04:43:08,-1
440944.4786885245,4425941.404918032,39943.4000925926,39943.4033912037,198.83183849691423,2009-05-10,09:36:08,2009-05-10,09:40:53,-1
440873.15312500007,4426275.453125001,39943.4546759259,39943.459537037,178.1346120213701,2009-05-10,10:54:44,2009-05-10,11:01:44,-1
443091.1021276597,4425066.726241135,39944.0159490741,39944.2430902778,196.89299124182602,2009-05-11,00:22:58,2009-05-11,05:50:03,-1
440374.2428571429,4424745.316071429,39944.2676273148,39944.2861458333,121.75044147737324,2009-05-11,06:25:23,2009-05-11,06:52:03,-1
440550.5587155964,4424770.640366973,39944.3006134259,39944.3216782407,198.6873171593535,2009-05-11,07:12:53,2009-05-11,07:43:13,190
441395.8015151517,4422469.702525254,39944.3389814815,39944.3702314815,196.00091836519428,2009-05-11,08:08:08,2009-05-11,08:53:08,-1
443097.61040462414,4425023.523699423,39944.3877662037,39944.4069212963,184.5070459361642,2009-05-11,09:18:23,2009-05-11,09:45:58,195
443172.4282679734,4425015.059803917,39944.4139236111,39944.4568634259,164.4405363649614,2009-05-11,09:56:03,2009-05-11,10:57:53,195
443157.4729729729,4425018.377297298,39944.4592361111,39944.4983564815,166.63075946537415,2009-05-11,11:01:18,2009-05-11,11:57:38,195
443049.66078431363,4425153.790196079,39944.5009606481,39944.5037384259,197.11785814571914,2009-05-11,12:01:23,2009-05-11,12:05:23,-1
456529.5228571427,4423500.258571427,39944.545162037,39944.5553472222,114.01863882724378,2009-05-11,13:05:02,2009-05-11,13:19:42,-1
453709.57812500006,4422222.940624999,39944.595,39944.5967939815,186.25197985524042,2009-05-11,14:16:48,2009-05-11,14:19:23,-1
440543.5273684209,4424796.243157894,39944.6319212963,39945.0045601852,197.75148545564102,2009-05-11,15:09:58,2009-05-12,00:06:34,190
443121.0580971653,4425029.132591094,39945.018275463,39945.0658912037,199.9939249080544,2009-05-12,00:26:19,2009-05-12,01:34:53,195
443161.20609418285,4425034.473407206,39945.0659143519,39945.1366319444,124.90828635442499,2009-05-12,01:34:55,2009-05-12,03:16:45,195
443131.98052516405,4425024.966885492,39945.1379050926,39945.2707175926,133.01804388910546,2009-05-12,03:18:35,2009-05-12,06:29:50,195
443143.5175888175,4425025.799009896,39945.3390856481,39945.4928472222,197.3119357765866,2009-05-12,08:08:17,2009-05-12,11:49:42,195
445462.9561338293,4436033.48698885,39945.5234027778,39945.5563888889,197.33671731333072,2009-05-12,12:33:42,2009-05-12,13:21:12,-1
440523.04500000004,4424769.819999999,39945.6045949074,39945.6067361111,189.55297412546898,2009-05-12,14:30:37,2009-05-12,14:33:42,190
443159.7512499997,4425019.55375,39946.1791666667,39946.205150463,192.7882257813638,2009-05-13,04:18:00,2009-05-13,04:55:25,195
443095.1668280872,4425037.79503632,39946.2056134259,39946.2781828704,198.32362441224228,2009-05-13,04:56:05,2009-05-13,06:40:35,195
443128.53346693446,4425017.015030063,39946.2866319444,39946.3149884259,154.87091398965705,2009-05-13,06:52:45,2009-05-13,07:33:35,195
443329.03711048164,4425084.467988671,39946.3352430556,39946.3733796296,109.1027039072837,2009-05-13,08:02:45,2009-05-13,08:57:40,-1
443639.025,4425222.3125,39946.3734375,39946.3758680556,101.08817932879737,2009-05-13,08:57:45,2009-05-13,09:01:15,-1
443117.0201257862,4425008.903773585,39946.7211226852,39946.7559027778,198.2507755340785,2009-05-13,17:18:25,2009-05-13,18:08:30,195
443145.72778977605,4425029.504319655,39946.7753472222,39947.6016203704,194.39519026982202,2009-05-13,18:36:30,2009-05-14,14:26:20,195
443344.8666666667,4424091.266666667,39947.6178819444,39947.6179976852,95.70005224605634,2009-05-14,14:49:45,2009-05-14,14:49:55,-1
440533.0807017544,4424771.271929825,39947.6612268519,39948.0108333333,197.68978223469213,2009-05-14,15:52:10,2009-05-15,00:15:36,190
443118.0405572754,4425018.180804952,39948.0285416667,39948.0651736111,199.6193377404448,2009-05-15,00:41:06,2009-05-15,01:33:51,195
443144.1770695364,4425013.647599342,39948.0652314815,39948.173275463,5.920304046435046,2009-05-15,01:33:56,2009-05-15,04:09:31,195
448914.30248138995,4422351.417369728,39948.9746527778,39949.0103009259,160.96387793505357,2009-05-15,23:23:30,2009-05-16,00:14:50,-1
442089.02058823535,4420994.761764707,39953.6015509259,39953.6033449074,66.79955089658498,2009-05-20,14:26:14,2009-05-20,14:28:49,-1
444093.0117647059,4430929.605882353,39953.8221412037,39953.8230092593,60.61105509745839,2009-05-20,19:43:53,2009-05-20,19:45:08,-1
444127.70895522385,4431035.072014924,39954.1737152778,39954.195474537,199.34497736359748,2009-05-21,04:10:09,2009-05-21,04:41:29,-1
444256.64954337914,4431035.984703194,39954.1955324074,39954.2289236111,17.129214809813003,2009-05-21,04:41:34,2009-05-21,05:29:39,-1
443872.426530612,4431097.324489795,39954.3639467593,39954.3665509259,165.35356059073396,2009-05-21,08:44:05,2009-05-21,08:47:50,-1
444045.36000000004,4430802.473333334,39960.595150463,39960.5967708333,75.38892491650223,2009-05-27,14:17:01,2009-05-27,14:19:21,-1
449753.43473774707,4424463.814703351,39961.468275463,39961.5575115741,180.74116852560218,2009-05-28,11:14:19,2009-05-28,13:22:49,-1
444154.8,4431914.0,39961.6420023148,39961.6420023148,0.0,2009-05-28,15:24:29,2009-05-28,15:24:29,-1
444313.91317829466,4431010.811627907,39962.2314814815,39962.2387731481,199.3608035697651,2009-05-29,05:33:20,2009-05-29,05:43:50,-1
444097.8041095889,4430942.1013698615,39962.6184027778,39964.6778125,140.0372807505115,2009-05-29,14:50:30,2009-05-31,16:16:03,-1
444156.54545454524,4430996.012987013,39964.6886921296,39964.7225462963,150.98211814685473,2009-05-31,16:31:43,2009-05-31,17:20:28,-1
444170.74464324606,4430983.708837001,39964.724224537,39965.0506712963,199.86495440688586,2009-05-31,17:22:53,2009-06-01,01:12:58,-1
444167.8276649743,4431029.930964464,39965.053275463,39965.0980092593,187.3500733920856,2009-06-01,01:16:43,2009-06-01,02:21:08,-1
444162.9515923567,4431038.985987259,39965.1038541667,39965.112650463,58.25607264469752,2009-06-01,02:29:33,2009-06-01,02:42:13,-1
443103.26577123033,4425028.177036399,39967.454375,39967.5564236111,192.09573134199493,2009-06-03,10:54:18,2009-06-03,13:21:15,195
443141.4397222219,4424931.441111112,39967.5578703704,39967.5789930556,192.0360643208952,2009-06-03,13:23:20,2009-06-03,13:53:45,-1
443057.8749235472,4424790.93975535,39967.5796296296,39967.6021990741,198.77353948621095,2009-06-03,13:54:40,2009-06-03,14:27:10,-1
443102.19965034956,4425015.190209787,39967.6022569444,39967.6293981481,171.8111172188664,2009-06-03,14:27:15,2009-06-03,15:06:20,195
443014.83650793636,4425147.866666666,39967.6311921296,39967.634837963,179.33156442743675,2009-06-03,15:08:55,2009-06-03,15:14:10,-1
440570.0575757575,4424785.536363637,39967.6552662037,39967.6570601852,180.60011074210067,2009-06-03,15:43:35,2009-06-03,15:46:10,190
449597.70974842773,4433708.774842769,39970.1501157407,39970.1793402778,197.1610762802735,2009-06-06,03:36:10,2009-06-06,04:18:15,-1
449491.72680412384,4434139.778350517,39970.1877893518,39970.2332175926,91.42237144163317,2009-06-06,04:30:25,2009-06-06,05:35:50,-1
453653.6789617487,4425243.493715844,39970.2764236111,39970.3628240741,159.84320442224643,2009-06-06,06:38:03,2009-06-06,08:42:28,-1
449753.5344444444,4426525.691111109,39970.3662384259,39970.3711574074,134.8982579577389,2009-06-06,08:47:23,2009-06-06,08:54:28,-1
443117.7092767299,4425044.260377365,39970.3910648148,39970.4616087963,197.805384153552,2009-06-06,09:23:08,2009-06-06,11:04:43,195
443146.3407594938,4425049.661265822,39970.4616666667,39970.4895601852,188.38123579592641,2009-06-06,11:04:48,2009-06-06,11:44:58,195
443151.53508287325,4425049.998618786,39970.4901388889,39970.510625,89.61567943186114,2009-06-06,11:45:48,2009-06-06,12:15:18,195
443159.28221153846,4425022.805288462,39970.5114930556,39970.5481828704,196.28970935850683,2009-06-06,12:16:33,2009-06-06,13:09:23,195
443141.35722222226,4425035.511296298,39970.5811111111,39970.6321643519,190.87736900947178,2009-06-06,13:56:48,2009-06-06,15:10:19,195
440286.56,4424782.899999999,39970.6488310185,39970.6507986111,197.07696466083368,2009-06-06,15:34:19,2009-06-06,15:37:09,-1
443056.20289855084,4425077.568115944,39972.0306712963,39972.0373842593,111.6577359609489,2009-06-08,00:44:10,2009-06-08,00:53:50,196
441006.60020964424,4424312.492452833,39972.153125,39972.2008217593,194.76472986590016,2009-06-08,03:40:30,2009-06-08,04:49:11,-1
443161.9475409837,4425014.632665462,39972.224375,39972.3656944444,165.79728586430224,2009-06-08,05:23:06,2009-06-08,08:46:36,195
445631.3958333333,4424987.9875,39972.3736805556,39972.3748958333,31.442805218630923,2009-06-08,08:58:06,2009-06-08,08:59:51,-1
440660.86557377037,4424649.714754097,39972.6043402778,39973.0090625,188.70805494208204,2009-06-08,14:30:15,2009-06-09,00:13:03,-1
443156.1331049515,4425014.178542525,39973.0349305556,39973.3612615741,199.0307011492419,2009-06-09,00:50:18,2009-06-09,08:40:13,195
443702.4092105263,4424954.352631579,39973.364212963,39973.372025463,84.68323328720594,2009-06-09,08:44:28,2009-06-09,08:55:43,-1
443144.3019417482,4425025.939320389,39973.4098148148,39973.4410648148,122.47220092723626,2009-06-09,09:50:08,2009-06-09,10:35:08,195
440310.8883802817,4424629.668309857,39973.4608564815,39973.4884606482,182.66047738869523,2009-06-09,11:03:38,2009-06-09,11:43:23,-1
441470.2887417218,4422472.250331124,39973.4971412037,39973.527349537,198.39380030644813,2009-06-09,11:55:53,2009-06-09,12:39:23,-1
441635.1783653848,4422243.800480769,39973.5384027778,39973.5614930556,199.40000000002328,2009-06-09,12:55:18,2009-06-09,13:28:33,-1
440529.9891891891,4424795.732432432,39973.6021990741,39973.604224537,195.15660378301084,2009-06-09,14:27:10,2009-06-09,14:30:05,190
443136.7801063832,4425029.215425532,39973.9985185185,39974.0892013889,197.6731898860497,2009-06-09,23:57:52,2009-06-10,02:08:27,195
443130.3570291764,4425019.983852782,39974.0892592593,39974.3614236111,194.14986479510193,2009-06-10,02:08:32,2009-06-10,08:40:27,195
444011.3,4425148.6,39974.3679050926,39974.3679050926,0.0,2009-06-10,08:49:47,2009-06-10,08:49:47,-1
443116.7790322576,4425021.14702887,39974.4337037037,39974.5313888889,193.3140450143564,2009-06-10,10:24:32,2009-06-10,12:45:12,195
443124.1941104287,4425040.484662576,39974.5320833333,39974.5905324074,172.6594625267186,2009-06-10,12:46:12,2009-06-10,14:10:22,195
440504.80317460303,4424753.94920635,39974.6165162037,39974.9782060185,197.47265633516542,2009-06-10,14:47:47,2009-06-10,23:28:37,190
443133.5359041556,4425018.013290897,39974.9973032407,39975.2627546296,189.89389142353536,2009-06-10,23:56:07,2009-06-11,06:18:22,195
443114.9620269136,4425027.063078207,39975.2628125,39975.5273958333,184.11572447796675,2009-06-11,06:18:27,2009-06-11,12:39:27,195
442959.91333333333,4425048.3342222255,39975.5687731481,39975.5933101852,185.8519034070267,2009-06-11,13:39:02,2009-06-11,14:14:22,-1
443091.90922619065,4425046.327678571,39975.5933680556,39975.6209143519,157.73014930605606,2009-06-11,14:14:27,2009-06-11,14:54:07,195
440560.714893617,4424804.676595745,39975.6404166667,39975.642962963,198.03918804149887,2009-06-11,15:22:12,2009-06-11,15:25:52,190
440339.37954545463,4424794.131818182,39979.262662037,39979.2665972222,153.57376077993362,2009-06-15,06:18:14,2009-06-15,06:23:54,-1
440559.91818181827,4424804.9381818175,39979.6421759259,39979.6452430556,196.53422093855042,2009-06-15,15:24:44,2009-06-15,15:29:09,190
443117.181521739,4425041.617391309,39979.9959490741,39980.0229166667,199.42657796765525,2009-06-15,23:54:10,2009-06-16,00:33:00,195
443160.0778009159,4425013.38079967,39980.022974537,39980.2451388889,191.8907241114065,2009-06-16,00:33:05,2009-06-16,05:53:00,195
443068.09952418675,4425020.705154634,39980.2451967593,39980.3456018518,190.07577436386399,2009-06-16,05:53:05,2009-06-16,08:17:40,195
443160.45620078756,4425016.551082677,39980.3484375,39980.4414930556,101.67128404796716,2009-06-16,08:21:45,2009-06-16,10:35:45,195
440663.009090909,4424808.057575759,39980.4678240741,39980.4696759259,194.31546515902983,2009-06-16,11:13:40,2009-06-16,11:16:20,191
449634.6949891067,4433710.991285403,39981.1702430556,39981.2137615741,112.53888217027087,2009-06-17,04:05:09,2009-06-17,05:07:49,-1
449384.11753554473,4434106.291943131,39981.2314699074,39981.2553125,96.21980045721568,2009-06-17,05:33:19,2009-06-17,06:07:39,-1
443151.5351162785,4425017.488139537,39981.3054282407,39981.3404976852,70.3960226149099,2009-06-17,07:19:49,2009-06-17,08:10:19,195
443374.93928571447,4424997.687499999,39981.3415972222,39981.344837963,121.91907151874342,2009-06-17,08:11:54,2009-06-17,08:16:34,-1
441216.81111111044,4422452.00382513,39981.4633564815,39981.5012152778,199.12779816006173,2009-06-17,11:07:14,2009-06-17,12:01:45,-1
440525.17441860476,4424780.455813954,39981.5924768519,39981.594849537,197.75398858168276,2009-06-17,14:13:10,2009-06-17,14:16:35,190
440532.02745098056,4424786.378431372,39982.6175810185,39984.0696412037,171.9592975097709,2009-06-18,14:49:19,2009-06-20,01:40:17,190
443134.5300100707,4425029.169486407,39984.097650463,39984.1866550926,147.62117056807952,2009-06-20,02:20:37,2009-06-20,04:28:47,195
440545.0973684212,4424772.284210525,39984.2080671296,39984.3696990741,198.9397898864463,2009-06-20,04:59:37,2009-06-20,08:52:22,190
441658.50416666653,4422656.108333331,39984.4039814815,39984.5023032407,199.43723323417225,2009-06-20,09:41:44,2009-06-20,12:03:19,-1
441478.1417098445,4422319.153886007,39984.5352893519,39984.5664236111,196.33491793382777,2009-06-20,12:50:49,2009-06-20,13:35:39,-1
441416.32258064527,4422294.120430108,39984.5799652778,39984.6413078704,198.78757506462594,2009-06-20,13:55:09,2009-06-20,15:23:29,-1
440497.8985185186,4424719.714074074,39984.6560648148,39985.0742476852,194.81529714050578,2009-06-20,15:44:44,2009-06-21,01:46:55,190
443126.21299368085,4425017.255489733,39985.0978009259,39985.3265046296,186.64160843715743,2009-06-21,02:20:50,2009-06-21,07:50:10,195
441397.74702702696,4422424.903243244,39985.3451967593,39985.3627893519,50.79064874561836,2009-06-21,08:17:05,2009-06-21,08:42:25,-1
441448.94363636314,4422317.379480518,39985.3728009259,39985.403587963,191.8328699677688,2009-06-21,08:56:50,2009-06-21,09:41:10,-1
441354.32,4422214.748000001,39985.4484375,39985.4788773148,197.78554042145808,2009-06-21,10:45:45,2009-06-21,11:29:35,-1
441357.13360790774,4422399.818286656,39985.4789351852,39985.5452083333,198.85575173959973,2009-06-21,11:29:40,2009-06-21,13:05:06,-1
441172.49887640437,4422733.393258425,39985.5484490741,39985.6607175926,198.9518534721387,2009-06-21,13:09:46,2009-06-21,15:51:26,-1
440557.59230769216,4424770.159615385,39985.6696296296,39985.672349537,164.05063242789302,2009-06-21,16:04:16,2009-06-21,16:08:11,190
449437.4322784812,4434061.738291135,39987.3316203704,39987.3567361111,199.6556285206569,2009-06-23,07:57:32,2009-06-23,08:33:42,-1
449185.37757009326,4434424.009345794,39987.3702199074,39987.3816782407,61.2082510782497,2009-06-23,08:53:07,2009-06-23,09:09:37,-1
443130.2190162898,4425016.4638784425,39990.024537037,39990.2976851852,63.77342706795614,2009-06-26,00:35:20,2009-06-26,07:08:40,195
443138.4,4425268.1,39990.3228587963,39990.3228587963,0.0,2009-06-26,07:44:55,2009-06-26,07:44:55,-1
449168.8312703583,4434314.606188924,39991.379849537,39991.4138773148,199.512530934587,2009-06-27,09:06:59,2009-06-27,09:55:59,197
449180.3048951044,4434357.876456879,39991.4216898148,39991.4540972222,199.21970284086697,2009-06-27,10:07:14,2009-06-27,10:53:54,197
449155.92666666675,4434369.521666666,39991.4545601852,39991.5480902778,199.94341699543247,2009-06-27,10:54:34,2009-06-27,13:09:15,197
449121.7183044316,4434284.957418113,39991.5481481481,39991.5811921296,197.86978041112044,2009-06-27,13:09:20,2009-06-27,13:56:55,-1
440415.29923664144,4424691.425190839,39991.6352083333,39993.0246759259,194.8913800041616,2009-06-27,15:14:42,2009-06-29,00:35:32,-1
443124.4877800409,4425017.60244399,39993.0451388889,39993.0922453704,197.18014605910088,2009-06-29,01:05:00,2009-06-29,02:12:50,195
430234.48028915655,4434763.398698772,39993.1554976852,39993.3779513889,198.4601975211455,2009-06-29,03:43:55,2009-06-29,09:04:15,-1
430362.171923743,4434939.6876949705,39993.3780092593,39993.4385416667,196.46101394405542,2009-06-29,09:04:20,2009-06-29,10:31:30,-1
443125.13087308756,4425026.962916292,39993.5094328704,39993.6134953704,187.27615972163008,2009-06-29,12:13:35,2009-06-29,14:43:26,195
440531.1750000001,4424750.180357142,39993.6558564815,39994.0209953704,195.11483798021808,2009-06-29,15:44:26,2009-06-30,00:30:14,190
430120.3331986136,4434691.459872969,39994.0727314815,39994.2828587963,198.0184082351943,2009-06-30,01:44:44,2009-06-30,06:47:19,-1
443232.37826086977,4425023.777075101,39994.3627083333,39994.3937268518,74.43231824951357,2009-06-30,08:42:18,2009-06-30,09:26:58,-1
443187.10207792243,4425034.105454544,39994.3971412037,39994.4330208333,187.15181003690253,2009-06-30,09:31:53,2009-06-30,10:23:33,195
440630.59051094897,4424740.313868613,39994.4821296296,39994.5105439815,170.5218461079139,2009-06-30,11:34:16,2009-06-30,12:15:11,-1
449182.1671524667,4434350.184529145,39994.5360069444,39994.6145949074,196.468827043885,2009-06-30,12:51:51,2009-06-30,14:45:01,197
449294.49178082164,4434446.168493153,39994.6404050926,39994.6621643519,114.9911735737745,2009-06-30,15:22:11,2009-06-30,15:53:31,-1
449038.8954545454,4434571.738181818,39994.6707291667,39994.6792939815,124.3267067044491,2009-06-30,16:05:51,2009-06-30,16:18:11,-1
447572.0333333334,4434578.066666667,39994.992650463,39994.9927662037,181.4392460304686,2009-06-30,23:49:25,2009-06-30,23:49:35,-1
440520.48139534873,4424778.0813953485,39995.4812384259,39995.4836111111,149.20914851314467,2009-07-01,11:32:59,2009-07-01,11:36:24,190
449142.82500000007,4434546.471428572,39996.2333912037,39996.2347800926,170.91298955901507,2009-07-02,05:36:05,2009-07-02,05:38:05,-1
440373.8909090908,4424696.4786363635,40000.3114699074,40000.3275,132.4733935556362,2009-07-06,07:28:31,2009-07-06,07:51:36,-1
443050.9656862746,4425124.2225490175,40000.358287037,40000.3963078704,153.97353668714595,2009-07-06,08:35:56,2009-07-06,09:30:41,196
443108.62731152185,4425026.167425317,40000.4143634259,40000.4531365741,34.59089475561388,2009-07-06,09:56:41,2009-07-06,10:52:31,195
449152.7473958333,4434326.832812499,40000.4881481482,40000.5168518518,182.33140157417176,2009-07-06,11:42:56,2009-07-06,12:24:16,197
449064.76428571425,4434461.935714285,40000.5430092593,40000.5442824074,107.38216797941656,2009-07-06,13:01:56,2009-07-06,13:03:46,-1
443058.0735632183,4425078.387356323,40001.0227083333,40001.0571759259,197.0623505396214,2009-07-07,00:32:42,2009-07-07,01:22:20,196
443111.65770653484,4425026.298643649,40001.0572337963,40001.1857060185,43.85031356769677,2009-07-07,01:22:25,2009-07-07,04:27:25,195
443019.61616541346,4424995.057894738,40001.1914930556,40001.2142939815,195.4773644184532,2009-07-07,04:35:45,2009-07-07,05:08:35,-1
442881.64285714284,4424938.535714285,40001.2143518519,40001.2151041667,21.128653529703588,2009-07-07,05:08:40,2009-07-07,05:09:45,-1
443119.0690944881,4425021.338188976,40001.5625115741,40001.6057407407,162.7779161927525,2009-07-07,13:30:01,2009-07-07,14:32:16,195
443143.55422360386,4425026.489875772,40001.6072453704,40001.8992592593,124.16199096326503,2009-07-07,14:34:26,2009-07-07,21:34:56,195
443119.23914549686,4425026.089722862,40001.9005902778,40001.9745486111,56.089214649520635,2009-07-07,21:36:51,2009-07-07,23:23:21,195
443154.715495208,4425019.257827473,40001.9925462963,40002.0849652778,199.76165798275008,2009-07-07,23:49:16,2009-07-08,02:02:21,195
443139.3192109778,4425028.114922815,40002.0857175926,40002.1200925926,198.8262809590437,2009-07-08,02:03:26,2009-07-08,02:52:56,195
443149.64649265865,4425018.6551930485,40002.1206134259,40002.2838657407,85.83996738116808,2009-07-08,02:53:41,2009-07-08,06:48:46,195
449182.29676258995,4434232.689928057,40002.4853587963,40002.5070023148,172.14787248158592,2009-07-08,11:38:55,2009-07-08,12:10:05,-1
449151.813128835,4434348.216441717,40002.5705439815,40003.1262384259,190.90639067319157,2009-07-08,13:41:35,2009-07-09,03:01:47,197
442967.739688716,4425055.8,40003.1612847222,40003.2070601852,53.74476718656169,2009-07-09,03:52:15,2009-07-09,04:58:10,-1
443070.9190972218,4425025.929166665,40003.208912037,40003.2353009259,192.9049506881764,2009-07-09,05:00:50,2009-07-09,05:38:50,195
443142.72014237737,4425032.21608041,40003.2353587963,40003.456712963,196.6234217995927,2009-07-09,05:38:55,2009-07-09,10:57:40,195
443098.1110139857,4425034.667482519,40003.4820023148,40003.5318865741,127.97155933989848,2009-07-09,11:34:05,2009-07-09,12:45:55,195
449147.1007645254,4434370.259862385,40003.5668981481,40003.6989583333,193.50258396244726,2009-07-09,13:36:20,2009-07-09,16:46:30,197
449150.29656586354,4434366.691337774,40003.6990162037,40003.8794560185,189.34017006453377,2009-07-09,16:46:35,2009-07-09,21:06:25,197
449149.29855072434,4434366.563405801,40003.8796875,40003.9351851852,56.40434380402449,2009-07-09,21:06:45,2009-07-09,22:26:40,197
449100.4523809525,4434269.704761904,40003.9360532407,40005.2240740741,190.15888093924923,2009-07-09,22:27:55,2009-07-11,05:22:40,-1
441958.1153846153,4426298.946153846,40005.2712384259,40005.273900463,186.5589719097196,2009-07-11,06:30:35,2009-07-11,06:34:25,-1
442086.3347560976,4426289.488109753,40005.4248263889,40005.448900463,182.92123988205068,2009-07-11,10:11:45,2009-07-11,10:46:25,-1
449270.85304347833,4432829.1617391305,40005.4848958333,40005.5172453704,199.9764986190252,2009-07-11,11:38:15,2009-07-11,12:24:50,-1
449525.7999999996,4434277.851236753,40005.5279513889,40005.559537037,194.66237438182716,2009-07-11,12:40:15,2009-07-11,13:25:44,-1
449165.5245391704,4434346.21900922,40005.5966550926,40005.675474537,31.094211680323347,2009-07-11,14:19:11,2009-07-11,16:12:41,197
449170.6070671376,4434375.079858656,40005.6813773148,40005.7126851852,14.724808997406628,2009-07-11,16:21:11,2009-07-11,17:06:16,197
449161.59789406526,4434346.455201013,40005.7153472222,40005.8356018519,96.31375810337468,2009-07-11,17:10:06,2009-07-11,20:03:16,197
449168.86262993776,4434369.367411644,40005.8690509259,40006.0675578704,197.57292324606652,2009-07-11,20:51:26,2009-07-12,01:37:17,197
449237.4713793102,4432712.559655172,40006.0905324074,40006.1178472222,194.84896715093032,2009-07-12,02:10:22,2009-07-12,02:49:42,-1
449681.5333333334,4426748.0,40006.1334143518,40006.1335300926,145.31913156929656,2009-07-12,03:12:07,2009-07-12,03:12:17,-1
443314.06266666675,4419315.491999998,40006.171087963,40006.2268171296,189.42695161979785,2009-07-12,04:06:22,2009-07-12,05:26:37,-1
449123.6212809914,4434362.952685955,40006.2681365741,40006.3370138889,145.03051403093875,2009-07-12,06:26:07,2009-07-12,08:05:18,-1
449118.24665605085,4434535.401433121,40006.3415277778,40006.3886921296,199.19287135821534,2009-07-12,08:11:48,2009-07-12,09:19:43,-1
449153.2075921909,4434393.001952278,40006.3978356481,40006.4503240741,105.418119884426,2009-07-12,09:32:53,2009-07-12,10:48:28,197
449198.1385964913,4434314.473684211,40006.4560532407,40006.4875925926,197.06021922250625,2009-07-12,10:56:43,2009-07-12,11:42:08,197
449378.2265624997,4434248.5703125,40006.4877662037,40006.5378819444,198.94084547935387,2009-07-12,11:42:23,2009-07-12,12:54:33,-1
449183.9489711928,4434357.570781893,40006.5379398148,40007.0030555556,197.51650563989097,2009-07-12,12:54:38,2009-07-13,00:04:24,197
443127.02713619935,4425018.99772139,40007.0377199074,40007.22625,21.858636736916164,2009-07-13,00:54:19,2009-07-13,05:25:48,195
443138.792032657,4425019.524127252,40008.0362268519,40008.3732638889,83.41612553935559,2009-07-14,00:52:10,2009-07-14,08:57:30,195
443113.7594059403,4425031.121782176,40008.3743055556,40008.3899305556,72.16494994101866,2009-07-14,08:59:00,2009-07-14,09:21:30,195
449238.22736842115,4434257.975789473,40008.4678935185,40008.474837963,197.067019056777,2009-07-14,11:13:46,2009-07-14,11:23:46,-1
443127.1632513667,4425039.55382514,40009.0171759259,40009.0837037037,186.9364062985619,2009-07-15,00:24:44,2009-07-15,02:00:32,195
443130.60355199967,4425018.526432003,40009.0837615741,40009.4031481481,191.99437491756564,2009-07-15,02:00:37,2009-07-15,09:40:32,195
443116.9320284698,4424978.204982209,40009.4038425926,40009.4251388889,199.93458930358983,2009-07-15,09:41:32,2009-07-15,10:12:12,-1
443121.54172413785,4425014.352068965,40009.4591087963,40009.4799768519,119.65721875479869,2009-07-15,11:01:07,2009-07-15,11:31:10,195
443007.3871794872,4425101.728205129,40009.4831481481,40009.4846527778,178.84434573178552,2009-07-15,11:35:44,2009-07-15,11:37:54,-1
449172.0195278972,4434348.078111589,40009.5265625,40009.5796759259,124.8939149838889,2009-07-15,12:38:15,2009-07-15,13:54:44,197
448735.52641509444,4434332.035849055,40009.5866782407,40009.5971527778,35.809775201745225,2009-07-15,14:04:49,2009-07-15,14:19:54,-1
449261.304607046,4434334.393495935,40009.6093634259,40009.6343055556,27.327092783815132,2009-07-15,14:37:29,2009-07-15,15:13:24,-1
449493.05060240976,4434227.736144575,40009.6399768519,40009.6482523148,182.1632784068112,2009-07-15,15:21:34,2009-07-15,15:33:29,-1
442441.3,4425610.0,40010.0591435185,40010.0592013889,187.8345016235588,2009-07-16,01:25:10,2009-07-16,01:25:15,-1
443139.7174897118,4425020.842181069,40010.1846875,40010.2669212963,76.17309236241233,2009-07-16,04:25:57,2009-07-16,06:24:22,195
443156.4051044082,4425023.491531317,40010.2691203704,40010.3453935185,64.33234023401734,2009-07-16,06:27:32,2009-07-16,08:17:22,195
443127.4117523614,4425026.528541447,40010.3466087963,40010.4339351852,195.88203082434194,2009-07-16,08:19:07,2009-07-16,10:24:52,195
443118.6333092871,4425022.924436441,40010.4669212963,40010.9662847222,124.04031602668546,2009-07-16,11:12:22,2009-07-16,23:11:27,195
443219.4869451694,4424985.375456922,40010.9663425926,40011.0002546296,198.08185176824495,2009-07-16,23:11:32,2009-07-17,00:00:22,-1
443123.99935483845,4425023.042119809,40011.0003125,40011.0823148148,26.092336039797374,2009-07-17,00:00:27,2009-07-17,01:58:32,195
449178.0905149051,4434349.797289972,40011.5596412037,40011.5855671296,76.13179362113723,2009-07-17,13:25:53,2009-07-17,14:03:13,197
449160.2095184351,4434368.265199401,40011.5888657407,40011.7852777778,198.43903345900839,2009-07-17,14:07:58,2009-07-17,18:50:48,197
449179.149429658,4434341.53688213,40011.7853356482,40011.831400463,199.12272597572536,2009-07-17,18:50:53,2009-07-17,19:57:13,197
449167.41758463864,4434374.7865790855,40011.8314583333,40012.6608564815,71.76071348613698,2009-07-17,19:57:18,2009-07-18,15:51:38,197
449171.20709068794,4434366.341935483,40012.6614351852,40013.1933217593,176.1004542871212,2009-07-18,15:52:28,2009-07-19,04:38:23,197
449167.1879673525,4434373.809136403,40013.2143287037,40015.0385648148,113.30710480778171,2009-07-19,05:08:38,2009-07-21,00:55:32,197
443130.12223082915,4425016.198528275,40015.071724537,40015.2037268518,166.38692857310792,2009-07-21,01:43:17,2009-07-21,04:53:22,195
443001.30769230763,4424710.636538461,40015.2060416667,40015.2421527778,199.1090655902503,2009-07-21,04:56:42,2009-07-21,05:48:42,-1
443142.7983870962,4425028.528387098,40015.2633333333,40015.2943518519,33.70356064283177,2009-07-21,06:19:12,2009-07-21,07:03:52,195
442885.07935323426,4427025.169154227,40015.3147222222,40015.3474189815,199.58258942099798,2009-07-21,07:33:12,2009-07-21,08:20:17,-1
442808.88434504817,4427177.442172527,40015.366400463,40015.3902430556,198.3790563542432,2009-07-21,08:47:37,2009-07-21,09:21:57,-1
442793.5085561498,4427169.665775398,40015.3923842593,40015.4078356481,99.72121138507197,2009-07-21,09:25:02,2009-07-21,09:47:17,-1
442950.42499999976,4427013.806793478,40015.4406481481,40015.4662962963,198.36544557965146,2009-07-21,10:34:32,2009-07-21,11:11:28,-1
455489.85115606926,4427555.973410405,40015.5072106481,40015.5415856481,196.7329408106548,2009-07-21,12:10:23,2009-07-21,12:59:53,-1
455426.84601226996,4427371.082515337,40015.5576157407,40015.5799537037,194.70618891036682,2009-07-21,13:22:58,2009-07-21,13:55:08,-1
455293.4182156131,4427291.94795539,40015.5800115741,40015.6025810185,197.09228802736823,2009-07-21,13:55:13,2009-07-21,14:27:43,-1
455165.16224489815,4427256.267346939,40015.6026388889,40015.6179166667,63.92034105037375,2009-07-21,14:27:48,2009-07-21,14:49:48,-1
452364.6711538462,4427195.123076922,40015.9930555556,40015.9958912037,176.84258536917417,2009-07-21,23:50:00,2009-07-21,23:54:05,-1
445679.9158878504,4425402.159813082,40017.0781828704,40017.0838773148,111.89280584541534,2009-07-23,01:52:35,2009-07-23,02:00:47,-1
454844.91693811095,4420373.184690555,40017.1501967593,40017.1805787037,164.1038695460231,2009-07-23,03:36:17,2009-07-23,04:20:02,-1
454570.4171003717,4420769.840520448,40017.2089930556,40017.2301157407,198.66801453699796,2009-07-23,05:00:57,2009-07-23,05:31:22,-1
452985.67631578987,4420313.5989473695,40017.264837963,40017.2970138889,195.21721235591164,2009-07-23,06:21:22,2009-07-23,07:07:42,-1
453471.73888888874,4420351.168518519,40017.2999074074,40017.3026851852,187.05413654875426,2009-07-23,07:11:52,2009-07-23,07:15:52,-1
443148.9816129028,4425034.510645166,40017.3415162037,40017.3644907407,197.90242545287032,2009-07-23,08:11:47,2009-07-23,08:44:52,195
443175.0438735179,4425052.714031624,40017.3652430556,40017.3992708333,196.07575066847303,2009-07-23,08:45:57,2009-07-23,09:34:57,195
443178.6988764044,4425027.652247191,40017.4269328704,40017.4492708333,177.90393475094479,2009-07-23,10:14:47,2009-07-23,10:46:57,195
443156.38133640576,4425020.015898617,40017.449849537,40017.4913425926,176.32155285160815,2009-07-23,10:47:47,2009-07-23,11:47:32,195
443110.72707838495,4425060.029453684,40017.491400463,40017.5216087963,190.8850963279384,2009-07-23,11:47:37,2009-07-23,12:31:07,195
449156.42,4434207.240769232,40017.5528472222,40018.157337963,196.94062557061886,2009-07-23,13:16:06,2009-07-24,03:46:34,-1
443055.4930379749,4425081.334810127,40018.1921759259,40018.2094212963,148.83766324417886,2009-07-24,04:36:44,2009-07-24,05:01:34,196
440362.02234848496,4424522.833712123,40018.2278240741,40018.2486574074,194.83264613507347,2009-07-24,05:28:04,2009-07-24,05:58:04,-1
440334.2284671534,4424568.537469588,40018.2926388889,40018.3286342593,158.19611246805914,2009-07-24,07:01:24,2009-07-24,07:53:14,-1
443140.8554904826,4425078.33103953,40018.3585532407,40018.4046180556,198.88368459953318,2009-07-24,08:36:19,2009-07-24,09:42:39,195
443160.0049382715,4424996.402469138,40018.4147453704,40018.4986805556,84.13714994040379,2009-07-24,09:57:14,2009-07-24,11:58:06,195
442870.5067375889,4427023.09503546,40018.582650463,40018.6083449074,164.34719346554112,2009-07-24,13:59:01,2009-07-24,14:36:01,-1
442836.7119496855,4427032.218238996,40018.6140740741,40018.7511805556,189.67804301004637,2009-07-24,14:44:16,2009-07-24,18:01:42,-1
444123.22826086957,4430977.506521739,40018.7589930556,40018.7655324074,181.64088196250563,2009-07-24,18:12:57,2009-07-24,18:22:22,-1
445001.028125,4435789.837499999,40020.389525463,40020.4070023148,165.92627881015795,2009-07-26,09:20:55,2009-07-26,09:46:05,-1
443084.2351807234,4424979.051325302,40021.0972106481,40021.1225578704,199.72405964175599,2009-07-27,02:19:59,2009-07-27,02:56:29,-1