443187.9,4425309.2,39836.2427314815,39836.2427314815,0.0,2009-01-23,05:49:32,2009-01-23,05:49:32,-1
510498.1083333336,4444132.072222223,39836.3722106481,39836.8323148148,144.6037689688217,2009-01-23,08:55:59,2009-01-23,19:58:32,-1
510429.70431372564,4443699.589019606,39836.8490856481,39836.8789814815,193.80283795656769,2009-01-23,20:22:41,2009-01-23,21:05:44,-1
510449.6160784319,4443722.5729411775,39837.0507291667,39837.0639351852,75.30537829402364,2009-01-24,01:13:03,2009-01-24,01:32:04,-1
510505.4853333337,4444201.822333337,39840.0932638889,39840.1277199074,103.47801698899545,2009-01-27,02:14:18,2009-01-27,03:03:55,-1