442739.5353658538,4426949.280487805,39853.4544328704,39853.5603935185,190.56820301416434,2009-02-09,10:54:23,2009-02-09,13:26:58,277
440049.688607595,4429509.865822783,39853.5701736111,39853.9147106481,184.7847666881401,2009-02-09,13:41:03,2009-02-09,21:57:11,278
442034.89782608696,4425972.686956522,39853.9238541667,39854.025775463,137.69212032606802,2009-02-09,22:10:21,2009-02-10,00:37:07,279
440101.7071428573,4429515.089285714,39854.0408796296,39854.1211921296,197.10000000036743,2009-02-10,00:58:52,2009-02-10,02:54:31,278
440249.9178571431,4425566.117857143,39854.1335763889,39854.1350231481,189.58533698622531,2009-02-10,03:12:21,2009-02-10,03:14:26,280
442475.0129032258,4425947.606451613,39854.2617939815,39854.2634143519,199.85925047364773,2009-02-10,06:16:59,2009-02-10,06:19:19,281
442095.70909090905,4425912.154545455,39854.3098842593,39854.3134143518,185.12971128389626,2009-02-10,07:26:14,2009-02-10,07:31:19,-1
442723.43749999994,4426938.928125,39854.4563541667,39854.4581481481,185.67328833207074,2009-02-10,10:57:09,2009-02-10,10:59:44,277
440061.6102564105,4429510.084615385,39854.5587847222,39854.9157638889,178.09042646936388,2009-02-10,13:24:39,2009-02-10,21:58:42,278
441992.03026315774,4425984.293421052,39854.9254282407,39855.0690625,196.0471881971277,2009-02-10,22:12:37,2009-02-11,01:39:27,-1
440332.5741935485,4425551.887096773,39855.1218402778,39855.2493865741,195.54380583378128,2009-02-11,02:55:27,2009-02-11,05:59:07,280
442439.14745762723,4425937.077966102,39855.2566203704,39855.2949305556,192.41496823273982,2009-02-11,06:09:32,2009-02-11,07:04:42,282
442039.21190476185,4425960.083333333,39855.2949884259,39855.4556481481,191.08137010202228,2009-02-11,07:04:47,2009-02-11,10:56:08,279
442750.38571428566,4427214.778571428,39855.4636342593,39855.4642708333,3.701351104849917,2009-02-11,11:07:38,2009-02-11,11:08:33,-1
440089.07866666664,4429513.468000001,39855.52,39855.9150462963,181.53746169883073,2009-02-11,12:28:48,2009-02-11,21:57:40,278
442023.1638888888,4425990.208333332,39855.9250578704,39855.9269097222,182.21210168391127,2009-02-11,22:12:05,2009-02-11,22:14:45,279
440324.1376440462,4425515.006402049,39856.1103356481,39856.17,80.70749655423714,2009-02-12,02:38:53,2009-02-12,04:04:48,280
442463.88333333324,4425946.313333334,39856.2501736111,39856.2516782407,198.6269870889911,2009-02-12,06:00:15,2009-02-12,06:02:25,281
441971.8303664921,4425968.24921466,39856.305150463,39856.4569328704,193.45720456990108,2009-02-12,07:19:25,2009-02-12,10:57:59,-1
442736.74545454554,4426931.27922078,39856.4607523148,39856.5573958333,194.6179077062207,2009-02-12,11:03:29,2009-02-12,13:22:39,277
441824.4636363637,4425787.12121212,39856.5603472222,39856.5619675926,180.92166813236992,2009-02-12,13:26:54,2009-02-12,13:29:14,-1
440016.77460317465,4429497.601587299,39856.6159606481,39856.6190856481,197.11420547493046,2009-02-12,14:46:59,2009-02-12,14:51:29,278
442005.28684210515,4426009.32894737,39856.9284027778,39856.9304282407,181.66722324092294,2009-02-12,22:16:54,2009-02-12,22:19:49,279
440365.5905263159,4425620.109473686,39857.1159375,39857.2478703704,195.6169982388578,2009-02-13,02:46:57,2009-02-13,05:56:56,-1
442494.3459459458,4425961.581081082,39857.2527314815,39857.2546412037,182.8326557263793,2009-02-13,06:03:56,2009-02-13,06:06:41,281
442062.6277777777,4425935.298148149,39857.3164467593,39857.453125,179.57377314072716,2009-02-13,07:35:41,2009-02-13,10:52:30,279
442735.90526315774,4426929.15263158,39857.45625,39857.5671875,187.0721785835617,2009-02-13,10:57:00,2009-02-13,13:36:45,277
440062.0966666667,4429509.2716666665,39857.5803240741,39858.0375694444,185.31823979280315,2009-02-13,13:55:40,2009-02-14,00:54:06,278
441670.95098039217,4424845.533333332,39858.0520949074,39858.1239814815,193.5732677825324,2009-02-14,01:15:01,2009-02-14,02:58:32,283
439971.74817749695,4429494.360855779,39858.1396064815,39858.2315046296,176.74416539130354,2009-02-14,03:21:02,2009-02-14,05:33:22,278
445568.2581395349,4431304.518604653,39858.2465509259,39858.3956828704,180.85477599453338,2009-02-14,05:55:02,2009-02-14,09:29:47,-1
442730.535,4426941.704999999,39858.4110763889,39858.5557523148,192.77432401646064,2009-02-14,09:51:57,2009-02-14,13:20:17,277
440095.52173913043,4429518.1978260875,39858.5658217593,39859.0696527778,180.58651666155393,2009-02-14,13:34:47,2009-02-15,01:40:18,278
445342.68260869547,4431309.8507246375,39859.0833680556,39859.223587963,196.3645843832758,2009-02-15,02:00:03,2009-02-15,05:21:58,-1
440022.76736842096,4429501.951578947,39859.2671064815,39859.3950115741,192.93651805726026,2009-02-15,06:24:38,2009-02-15,09:28:49,278
442800.4359712231,4426911.081294963,39859.4067592593,39859.5734837963,198.97989848223364,2009-02-15,09:45:44,2009-02-15,13:45:49,277
440041.4232,4429512.8615999995,39859.5834375,39859.9127777778,188.41788662428246,2009-02-15,14:00:09,2009-02-15,21:54:24,278
442026.5904761905,4425987.3380952375,39859.9238310185,39859.9248726852,188.9188450100461,2009-02-15,22:10:19,2009-02-15,22:11:49,279
442448.12467532477,4425943.196103899,39860.0279282407,39860.0690162037,196.43691099183397,2009-02-16,00:40:13,2009-02-16,01:39:23,281
441040.1853211011,4425911.94678899,39860.0735300926,39860.1161805556,190.79124717915394,2009-02-16,01:45:53,2009-02-16,02:47:18,-1
440321.69787234045,4425542.265957448,39860.1208101852,39860.2447222222,186.11816139213656,2009-02-16,02:53:58,2009-02-16,05:52:24,280
442081.97511961695,4425703.807655498,39860.2771759259,39860.2993402778,172.22650783198225,2009-02-16,06:39:08,2009-02-16,07:11:03,-1
442019.0423728812,4425930.664406779,39860.322662037,39860.3865509259,185.09435431656112,2009-02-16,07:44:38,2009-02-16,09:16:38,279
441996.31980676344,4425964.426570049,39860.3866087963,39860.4557060185,196.20206420932476,2009-02-16,09:16:43,2009-02-16,10:56:13,-1
442786.1923076923,4426943.048717949,39860.4595833333,39860.5490509259,197.242617099094,2009-02-16,11:01:48,2009-02-16,13:10:38,277
440054.3917647058,4429510.1,39860.5607407407,39860.9132175926,188.7624168101267,2009-02-16,13:27:28,2009-02-16,21:55:02,278
442010.07368421066,4425981.607894739,39860.926412037,39860.9284375,166.18173786588073,2009-02-16,22:14:02,2009-02-16,22:16:57,279
440303.41455938667,4425543.78927203,39861.1054166667,39861.1308217593,199.1134601175017,2009-02-17,02:31:48,2009-02-17,03:08:23,280
440216.11717171676,4425582.015151517,39861.1308796296,39861.1532175926,174.07860293547287,2009-02-17,03:08:28,2009-02-17,03:40:38,-1
440044.0,4425964.8,39861.1564583333,39861.1565740741,189.53722589508845,2009-02-17,03:45:18,2009-02-17,03:45:28,-1
440028.5304347827,4429491.067391302,39861.4795486111,39861.4818634259,196.0103313605992,2009-02-17,11:30:33,2009-02-17,11:33:53,278
440066.4999999998,4429506.772,39861.5459027778,39861.9124537037,198.18488842482944,2009-02-17,13:06:06,2009-02-17,21:53:56,278
442011.80384615384,4425985.6769230785,39861.9258796296,39861.9284259259,196.68627303398833,2009-02-17,22:13:16,2009-02-17,22:16:56,279
440324.65999999974,4425568.845,39862.1133101852,39862.2439699074,194.79964065673587,2009-02-18,02:43:10,2009-02-18,05:51:19,280
442432.3113636363,4425916.081818181,39862.2481365741,39862.292962963,177.59893017693557,2009-02-18,05:57:19,2009-02-18,07:01:52,282
442036.375471698,4425951.871698115,39862.2930208333,39862.2956828704,146.64054691680118,2009-02-18,07:01:57,2009-02-18,07:05:47,279
441840.16410256404,4425755.330769231,39862.4631944444,39862.465162037,169.4018890095609,2009-02-18,11:07:00,2009-02-18,11:09:50,-1
440064.32808219176,4429511.198630138,39862.5735532407,39862.9168865741,188.0305560274798,2009-02-18,13:45:55,2009-02-18,22:00:19,278
442036.31826086936,4426000.901739129,39862.9310648148,39863.0916666667,194.22813905268632,2009-02-18,22:20:44,2009-02-19,02:12:00,279
443850.3861538462,4425079.670769231,39863.1142361111,39863.1175347222,168.443492008477,2009-02-19,02:44:30,2009-02-19,02:49:15,-1
443874.6984374998,4425004.951562501,39863.1357060185,39863.1428240741,100.65882971720305,2009-02-19,03:15:25,2009-02-19,03:25:40,-1
440443.20606060605,4425689.078787878,39863.1762731481,39863.1853587963,162.96211216089108,2009-02-19,04:13:50,2009-02-19,04:26:55,-1
442496.85238095256,4425951.309523811,39863.2524884259,39863.2984837963,185.59380377591506,2009-02-19,06:03:35,2009-02-19,07:09:49,281
442060.37608695665,4425932.771739133,39863.2987152778,39863.3011458333,190.19445312644856,2009-02-19,07:10:09,2009-02-19,07:13:39,279
442760.70727272716,4426941.521818182,39863.4517361111,39863.5651041667,192.15413084291623,2009-02-19,10:50:30,2009-02-19,13:33:45,277
440064.075,4429499.891666667,39863.5763888889,39863.5918402778,198.20305244862664,2009-02-19,13:50:00,2009-02-19,14:12:15,278
442025.6891891892,4425975.051351352,39863.9256944444,39863.9275462963,159.58461705370496,2009-02-19,22:13:00,2009-02-19,22:15:40,279
439510.65072463785,4427640.436521736,39864.0600578704,39864.0937384259,193.86309602420974,2009-02-20,01:26:29,2009-02-20,02:14:59,-1
440275.8454923719,4425576.684188631,39864.1020717593,39864.1485648148,109.18058435472334,2009-02-20,02:26:59,2009-02-20,03:33:56,280
440432.05000000005,4425338.35,39864.1492592593,39864.1494328704,179.90275150758535,2009-02-20,03:34:56,2009-02-20,03:35:11,-1
442443.9737499998,4425952.638750002,39864.2509953704,39864.2891319444,199.55863799899842,2009-02-20,06:01:26,2009-02-20,06:56:21,282
442034.64878048777,4425947.524390244,39864.2891898148,39864.2913310185,146.5868343339532,2009-02-20,06:56:26,2009-02-20,06:59:31,279
442756.47903225804,4426935.553225806,39864.4563310185,39864.58,187.84035775040266,2009-02-20,10:57:07,2009-02-20,13:55:12,277
440026.38969072176,4429502.961855669,39864.5909375,39865.0435069444,179.32596019513275,2009-02-20,14:10:57,2009-02-21,01:02:39,278
441656.81041666656,4424846.581249998,39865.0583796296,39865.0608101852,174.74429890539886,2009-02-21,01:24:04,2009-02-21,01:27:34,283
440097.7907407409,4429520.155555557,39865.1552777778,39865.3905208333,190.75117299807047,2009-02-21,03:43:36,2009-02-21,09:22:21,278
442780.84500000003,4426923.607500001,39865.4013425926,39865.4034259259,187.8625561414809,2009-02-21,09:37:56,2009-02-21,09:40:56,277
439997.346,4429488.972000001,39865.5620601852,39865.5646643518,196.15218581503348,2009-02-21,13:29:22,2009-02-21,13:33:07,278
445394.24337464344,4431322.174261203,39866.2063541667,39866.3438541667,176.68486069824638,2009-02-22,04:57:09,2009-02-22,08:15:09,284
439989.8422794129,4429486.738602944,39866.358900463,39866.3893981481,185.26319116312962,2009-02-22,08:36:49,2009-02-22,09:20:44,278
442794.5589041099,4426933.779060667,39866.4001041667,39866.5141087963,191.33536003543028,2009-02-22,09:36:09,2009-02-22,12:20:19,277
442832.98931297706,4426909.038422393,39866.5275925926,39866.5624884259,177.34768112374516,2009-02-22,12:39:44,2009-02-22,13:29:59,277
440041.325,4429490.360000001,39866.5746412037,39866.5814699074,187.9459762803711,2009-02-22,13:47:29,2009-02-22,13:57:19,278
442052.2496194828,4425962.102587524,39866.9223263889,39867.0179282407,199.9326136478874,2009-02-22,22:08:09,2009-02-23,00:25:49,279
442501.4160305345,4425980.63155216,39867.0234259259,39867.0518981481,194.79656054449615,2009-02-23,00:33:44,2009-02-23,01:14:44,281
440292.4532051285,4424488.762820514,39867.06,39867.0958217593,183.9591530751711,2009-02-23,01:26:24,2009-02-23,02:17:59,-1
440269.0484177223,4425529.354113926,39867.0980787037,39867.1163078704,199.49017519684358,2009-02-23,02:21:14,2009-02-23,02:47:29,280
440282.7021992224,4425556.905950851,39867.2013773148,39867.2452430556,183.4957492694647,2009-02-23,04:49:59,2009-02-23,05:53:09,280
442967.0999999999,4425095.510810812,39867.2516087963,39867.3396180556,188.32190525809227,2009-02-23,06:02:19,2009-02-23,08:09:03,-1
442059.60000000003,4425906.583333334,39867.3422800926,39867.3428587963,173.9393572489863,2009-02-23,08:12:53,2009-02-23,08:13:43,-1
442791.7967022321,4426949.165664405,39867.4536226852,39867.5118981482,195.47227424877315,2009-02-23,10:53:13,2009-02-23,12:17:08,277
442817.4890724265,4426926.230241423,39867.5119560185,39867.5547800926,184.0648798657299,2009-02-23,12:17:13,2009-02-23,13:18:53,277
440094.98813559324,4429518.240677967,39867.566412037,39867.9141550926,186.11071973384574,2009-02-23,13:35:38,2009-02-23,21:56:23,278
442036.0333333334,4426027.088888888,39867.9252662037,39867.9257291667,180.4283791429001,2009-02-23,22:12:23,2009-02-23,22:13:03,279
442047.57301204844,4425906.224096386,39868.0375925926,39868.0613773148,196.21816939352587,2009-02-24,00:54:08,2009-02-24,01:28:23,279
440267.8184313724,4424456.404183015,39868.068900463,39868.1129976852,158.11388300841898,2009-02-24,01:39:13,2009-02-24,02:42:43,-1
440272.92463054275,4425543.9390804665,39868.1146180556,39868.2493402778,193.74026427137528,2009-02-24,02:45:03,2009-02-24,05:59:03,280
442490.7049227786,4425976.224613898,39868.2539699074,39868.31375,181.12653035929063,2009-02-24,06:05:43,2009-02-24,07:31:48,281
442036.86639209185,4425959.816474463,39868.3138078704,39868.452349537,185.11969101147955,2009-02-24,07:31:53,2009-02-24,10:51:23,279
442803.39148148097,4426960.115679009,39868.455474537,39868.5014814815,199.498997491354,2009-02-24,10:55:53,2009-02-24,12:02:08,277
442814.06042518385,4426919.452820923,39868.5015393518,39868.5910069444,191.12341562442876,2009-02-24,12:02:13,2009-02-24,14:11:03,277
440051.16333333316,4429487.913333335,39868.6013657407,39868.9089814815,197.9552474677236,2009-02-24,14:25:58,2009-02-24,21:48:56,278
442031.2,4425995.82368421,39868.9242013889,39868.9259953704,159.5591739755561,2009-02-24,22:10:51,2009-02-24,22:13:26,279
443915.7174708826,4425114.743594015,39869.0371527778,39869.1109953704,181.46087732627868,2009-02-25,00:53:30,2009-02-25,02:39:50,285
440285.0059803926,4425553.345392162,39869.1210069444,39869.2529513889,179.58424207020377,2009-02-25,02:54:15,2009-02-25,06:04:15,280
442482.9646153847,4425993.534230771,39869.2590277778,39869.2935763889,195.57198163339285,2009-02-25,06:13:00,2009-02-25,07:02:45,-1
442033.1376470585,4425954.48627451,39869.2936342593,39869.4666087963,199.4222154128884,2009-02-25,07:02:50,2009-02-25,11:11:55,279
441810.2230437911,4425764.230078965,39869.4666666667,39869.5465277778,191.48190515036967,2009-02-25,11:12:00,2009-02-25,13:07:00,-1
440045.15445544553,4429509.991089111,39869.5615740741,39869.9136689815,187.1727811404846,2009-02-25,13:28:40,2009-02-25,21:55:41,278
442055.20034965023,4425961.905769234,39869.9245486111,39870.0122800926,199.8852170627506,2009-02-25,22:11:21,2009-02-26,00:17:41,279
442041.0533169536,4425929.907125304,39870.012337963,39870.0519212963,178.52195943356642,2009-02-26,00:17:46,2009-02-26,01:14:46,279
440260.1462500001,4424474.155625002,39870.0596759259,39870.0883217593,189.70853960765876,2009-02-26,01:25:56,2009-02-26,02:07:11,-1
440267.1487272727,4425527.06509092,39870.091099537,39870.1069560185,191.15828519860213,2009-02-26,02:11:11,2009-02-26,02:34:01,280
440262.03186619736,4425572.311267604,39870.1391898148,39870.2515162037,188.17529062019716,2009-02-26,03:20:26,2009-02-26,06:02:11,280
442473.5532978722,4425977.171170203,39870.2571296296,39870.3108912037,180.28089194365043,2009-02-26,06:10:16,2009-02-26,07:27:41,281
442034.2727879798,4425945.741068447,39870.3109490741,39870.4487962963,187.59213736141228,2009-02-26,07:27:46,2009-02-26,10:46:16,279
442797.0020361989,4426936.10678733,39870.4518634259,39870.4860648148,198.21273924759126,2009-02-26,10:50:41,2009-02-26,11:39:56,277
442819.6051004638,4426908.460741888,39870.4861226852,39870.5650578704,167.4988955187101,2009-02-26,11:40:01,2009-02-26,13:33:41,277
440031.8840425532,4429503.821276597,39870.5759953704,39870.9131712963,188.07586235291876,2009-02-26,13:49:26,2009-02-26,21:54:58,278
442037.72500000003,4426029.075,39870.9228356481,39871.0316898148,188.61402386941097,2009-02-26,22:08:53,2009-02-27,00:45:38,279
443911.04707835155,4425118.656573699,39871.0373611111,39871.1221412037,192.21748099489844,2009-02-27,00:53:48,2009-02-27,02:55:53,285
440282.92371225555,4425550.114742459,39871.129837963,39871.2509027778,185.56475958537214,2009-02-27,03:06:58,2009-02-27,06:01:18,280
442362.7933333335,4425905.323333333,39871.2550694444,39871.3029861111,196.91015717830874,2009-02-27,06:07:18,2009-02-27,07:16:18,-1
442043.8187579226,4425959.925348555,39871.3030439815,39871.4483564815,199.3455291700126,2009-02-27,07:16:23,2009-02-27,10:45:38,279
442803.6203363908,4426940.325382268,39871.4524652778,39871.4877662037,199.18739919959174,2009-02-27,10:51:33,2009-02-27,11:42:23,277
442819.59447748505,4426913.867544606,39871.4878240741,39871.5649652778,188.6148721600258,2009-02-27,11:42:28,2009-02-27,13:33:33,277
440062.2999999999,4429507.888,39871.5756134259,39872.0415162037,180.50277006147502,2009-02-27,13:48:53,2009-02-28,00:59:47,278
441655.6971428571,4424862.62,39872.0567939815,39872.12375,199.74268447222,2009-02-28,01:21:47,2009-02-28,02:58:12,283
441372.73806735006,4424677.875402634,39872.132025463,39872.1687731481,195.33215301140652,2009-02-28,03:10:07,2009-02-28,04:03:02,-1
441112.01484375,4425883.837304687,39872.1716087963,39872.2202777778,199.6267767608566,2009-02-28,04:07:07,2009-02-28,05:17:12,-1
441094.5330935251,4425948.033093524,39872.2203356481,39872.2819097222,197.3656758400014,2009-02-28,05:17:17,2009-02-28,06:45:57,-1
440517.28457222873,4429633.078821888,39872.2923263889,39872.3536689815,191.81996767797042,2009-02-28,07:00:57,2009-02-28,08:29:17,-1
439988.33133514936,4429490.89618528,39872.3547685185,39872.3971296296,195.10207584772093,2009-02-28,08:30:52,2009-02-28,09:31:52,278
442798.37277701724,4426940.808344722,39872.4095717593,39872.5147222222,196.58049241984457,2009-02-28,09:49:47,2009-02-28,12:21:12,277
442823.953463588,4426908.650976908,39872.5147800926,39872.5598611111,185.54506191198078,2009-02-28,12:21:17,2009-02-28,13:26:12,277
440093.5367924529,4429520.281132074,39872.5714351852,39872.982025463,198.59680259246645,2009-02-28,13:42:52,2009-02-28,23:34:07,278
445487.8333333333,4431317.34,39872.996724537,39872.9975347222,178.65175621859999,2009-02-28,23:55:17,2009-02-28,23:56:27,-1
445601.7719815672,4431304.471336398,39873.0257175926,39873.142037037,195.91306745597848,2009-03-01,00:37:02,2009-03-01,03:24:32,-1
445396.31823394436,4431327.029243123,39873.1420949074,39873.252337963,161.70405066051237,2009-03-01,03:24:37,2009-03-01,06:03:22,284
440248.73467741924,4424463.779354848,39873.2773958333,39873.3423263889,196.46111574502658,2009-03-01,06:39:27,2009-03-01,08:12:57,-1
442818.87036797823,4426921.747708207,39873.4074305556,39873.5646643518,182.914870909852,2009-03-01,09:46:42,2009-03-01,13:33:07,277
440122.14,4429515.6466666665,39873.5749652778,39873.575775463,191.61787494893167,2009-03-01,13:47:57,2009-03-01,13:49:07,-1
440002.7481481482,4429494.91728395,39873.5971875,39873.9120949074,192.7230396192023,2009-03-01,14:19:57,2009-03-01,21:53:25,278
442066.11125827796,4425965.3500000015,39873.9228587963,39873.9918402778,199.96092118247716,2009-03-01,22:08:55,2009-03-01,23:48:15,279
442041.6177814027,4425933.853507345,39873.9918981481,39874.0266203704,196.70612598480724,2009-03-01,23:48:20,2009-03-02,00:38:20,279
442429.57999999996,4425912.1,39874.0267361111,39874.0493634259,194.78667818940534,2009-03-02,00:38:30,2009-03-02,01:11:05,282
443896.9413476262,4425147.436294027,39874.0541087963,39874.1208333333,197.22322378451187,2009-03-02,01:17:55,2009-03-02,02:54:00,285
440304.4066666668,4425534.039999999,39874.1282986111,39874.2492476852,173.75764731335136,2009-03-02,03:04:45,2009-03-02,05:58:55,280
442995.37954545463,4425064.19090909,39874.2557291667,39874.3039351852,179.32635054560077,2009-03-02,06:08:15,2009-03-02,07:17:40,-1
442067.3031818177,4425938.133181813,39874.3260416667,39874.4701967593,194.5853283263274,2009-03-02,07:49:30,2009-03-02,11:17:05,279
440042.6989247312,4429507.582795697,39874.4882523148,39874.912974537,181.15200799356546,2009-03-02,11:43:05,2009-03-02,21:54:41,278
442057.6926654733,4425963.506976743,39874.9229282407,39875.0036574074,199.85887520910958,2009-03-02,22:09:01,2009-03-03,00:05:16,279
442037.2147492631,4425919.164896753,39875.0037152778,39875.1063773148,199.7667890319845,2009-03-03,00:05:21,2009-03-03,02:33:11,279
440259.25317725766,4425567.069899668,39875.1309143519,39875.1480439815,184.59775188248054,2009-03-03,03:08:31,2009-03-03,03:33:11,280
442475.88864908,4425974.182494002,39875.2538310185,39875.3261111111,198.25337323740487,2009-03-03,06:05:31,2009-03-03,07:49:36,281
442034.204803842,4425960.397117681,39875.3261689815,39875.4542361111,181.04598863202136,2009-03-03,07:49:41,2009-03-03,10:54:06,279
442783.18874999986,4426962.13625,39875.4568981482,39875.4614699074,191.35730976376774,2009-03-03,10:57:56,2009-03-03,11:04:31,277
442813.1965354329,4426913.668976375,39875.4814930556,39875.5630902778,169.0635383517764,2009-03-03,11:33:21,2009-03-03,13:30:51,277
440057.4037500002,4429514.212499998,39875.5740277778,39875.9162962963,186.0562549336854,2009-03-03,13:46:36,2009-03-03,21:59:28,278
442048.7324210517,4425966.209473692,39875.9265972222,39875.9841203704,199.51591415260188,2009-03-03,22:14:18,2009-03-03,23:37:08,279
442042.61093333317,4425932.261599999,39875.9841782407,39876.0291435185,198.19919273352642,2009-03-03,23:37:13,2009-03-04,00:41:58,279
443895.624012158,4425120.511246199,39876.0336574074,39876.0719675926,199.76706435242417,2009-03-04,00:48:28,2009-03-04,01:43:38,285
443916.1469230773,4425142.488076927,39876.072025463,39876.1168171296,170.43312471500602,2009-03-04,01:43:43,2009-03-04,02:48:13,285
440287.81449136295,4425556.90585413,39876.1239930556,39876.2491666667,184.96618609855753,2009-03-04,02:58:33,2009-03-04,05:58:48,280
442467.1558718873,4425961.260142349,39876.2558217593,39876.2966203704,193.77249546830018,2009-03-04,06:08:23,2009-03-04,07:07:08,281
442044.607785888,4425957.284428227,39876.2966782407,39876.4548958333,173.02153045267886,2009-03-04,07:07:13,2009-03-04,10:55:03,279
442803.1099236644,4426949.224427484,39876.4580208333,39876.5103935185,197.9629258221373,2009-03-04,10:59:33,2009-03-04,12:14:58,277
442807.53595800523,4426908.885695539,39876.5104513889,39876.5539699074,135.79351972780327,2009-03-04,12:15:03,2009-03-04,13:17:43,277
440050.79605911317,4429506.689162554,39876.5654282407,39876.9181944444,184.03488799694307,2009-03-04,13:34:13,2009-03-04,22:02:12,278
442060.2686375321,4425974.302570696,39876.9278009259,39876.9856712963,196.9020568703727,2009-03-04,22:16:02,2009-03-04,23:39:22,279
442054.75273437524,4425927.84453125,39876.9857291667,39877.110150463,192.87508911154518,2009-03-04,23:39:27,2009-03-05,02:38:37,279
440275.556309361,4425542.111668925,39877.1137384259,39877.1563310185,199.94624277497843,2009-03-05,02:43:47,2009-03-05,03:45:07,280
440283.84060822823,4425553.532289806,39877.1563888889,39877.24875,183.99415751610607,2009-03-05,03:45:12,2009-03-05,05:58:12,280
442473.98894348805,4425961.858476655,39877.2543055556,39877.2886226852,182.08923636500734,2009-03-05,06:06:12,2009-03-05,06:55:37,281
442039.1909646737,4425964.570448381,39877.2886805556,39877.4547685185,197.40901701745466,2009-03-05,06:55:42,2009-03-05,10:54:52,279
442781.70000000036,4426959.033846154,39877.4576041667,39877.4613078704,184.84655798797013,2009-03-05,10:58:57,2009-03-05,11:04:17,277
442823.41568895,4426895.40477488,39877.5151851852,39877.5558680556,135.29419795384464,2009-03-05,12:21:52,2009-03-05,13:20:27,277
440088.5,4429517.419642856,39877.5672685185,39877.9141087963,190.67388389552133,2009-03-05,13:36:52,2009-03-05,21:56:19,278
442048.2132511552,4425947.726656394,39877.9237731481,39877.9984837963,199.97584854195367,2009-03-05,22:10:14,2009-03-05,23:57:49,279
442044.94999999995,4425905.628125001,39877.9985416667,39878.0278819444,187.71672807754808,2009-03-05,23:57:54,2009-03-06,00:40:09,279
443882.19923497323,4425117.881530055,39878.0331481481,39878.1165972222,199.87195901401344,2009-03-06,00:47:44,2009-03-06,02:47:54,285
440440.8535714285,4425585.892857143,39878.1250462963,39878.2553125,196.3093477139531,2009-03-06,03:00:04,2009-03-06,06:07:39,-1
442478.5782729816,4425969.689043659,39878.2594791667,39878.3216319444,198.96537387189338,2009-03-06,06:13:39,2009-03-06,07:43:09,281
442034.843808629,4425959.191932462,39878.3216898148,39878.4578009259,193.76792820242525,2009-03-06,07:43:14,2009-03-06,10:59:14,279
442800.8828897337,4426950.479847911,39878.4610416667,39878.5054861111,194.64146526370644,2009-03-06,11:03:54,2009-03-06,12:07:54,277
442816.9671081678,4426910.379470202,39878.5055439815,39878.5518981481,179.38099118915588,2009-03-06,12:07:59,2009-03-06,13:14:44,277
440044.8791666667,4429505.551190471,39878.5639351852,39879.0431828704,199.94061618366666,2009-03-06,13:32:04,2009-03-07,01:02:11,278
441670.3934718101,4424852.685459946,39879.0568402778,39879.1456712963,199.96529698903868,2009-03-07,01:21:51,2009-03-07,03:29:46,283
440807.18289630406,4421077.912634069,39879.1590393518,39879.3198032407,199.4746349789198,2009-03-07,03:49:01,2009-03-07,07:40:31,-1
440805.830086581,4421079.667532466,39879.3198611111,39879.4404050926,187.19628735644542,2009-03-07,07:40:36,2009-03-07,10:34:11,-1
442803.9836575878,4426936.992996113,39879.4560300926,39879.4842708333,197.18661212167558,2009-03-07,10:56:41,2009-03-07,11:37:21,277
442826.9178807952,4426903.22538631,39879.4843287037,39879.5740277778,199.63110979995912,2009-03-07,11:37:26,2009-03-07,13:46:36,277
440044.8683673469,4429495.323469387,39879.5867592593,39880.0804976852,183.0001092895766,2009-03-07,14:04:56,2009-03-08,01:55:55,278
445394.25768786046,4431318.569017341,39880.0950231481,39880.2046296296,191.28219990382775,2009-03-08,02:16:50,2009-03-08,04:54:40,284
440064.95931034454,4429508.768275863,39880.2304398148,39880.4077546296,195.3161795653227,2009-03-08,05:31:50,2009-03-08,09:47:10,278
442807.21795865626,4426916.960852721,39880.4251157407,39880.5560763889,191.1785814364344,2009-03-08,10:12:10,2009-03-08,13:20:45,277
440050.86500000005,4429494.140000001,39880.566724537,39880.6418981481,185.7657934064456,2009-03-08,13:36:05,2009-03-08,15:24:20,278
442046.37203389854,4425943.892796615,39880.9288310185,39880.9804513889,172.3405059758152,2009-03-08,22:17:31,2009-03-08,23:31:51,279
442493.3046632125,4425950.974093268,39881.0276157407,39881.0487962963,181.79947744707235,2009-03-09,00:39:46,2009-03-09,01:10:16,281
443908.9421428565,4425131.236249994,39881.0557407407,39881.1224652778,184.02353110359203,2009-03-09,01:20:16,2009-03-09,02:56:21,285
440280.8371951212,4425535.634390253,39881.1314351852,39881.2453240741,199.92103441109046,2009-03-09,03:09:16,2009-03-09,05:53:16,280
443064.7222222218,4424953.916888889,39881.2591550926,39881.3074768518,186.6004287235446,2009-03-09,06:13:11,2009-03-09,07:22:46,-1
442043.86923076917,4425896.638461539,39881.3108912037,39881.4562037037,198.2943266964533,2009-03-09,07:27:41,2009-03-09,10:56:56,-1
442794.60706259974,4426948.921187803,39881.4597337963,39881.4950925926,198.37572936222227,2009-03-09,11:02:01,2009-03-09,11:52:56,277
442823.509609375,4426906.415468747,39881.495150463,39881.5679513889,198.12342112936616,2009-03-09,11:53:01,2009-03-09,13:37:51,277
439993.78871794895,4429499.8123076875,39881.5795833333,39881.9145949074,190.60789595356795,2009-03-09,13:54:36,2009-03-09,21:57:01,278
442033.5347826092,4425947.001086955,39881.9255324074,39881.9519791667,198.01222184501592,2009-03-09,22:12:46,2009-03-09,22:50:51,279
442046.23671399645,4425929.858891116,39881.952037037,39882.1220601852,198.47793328245294,2009-03-09,22:50:56,2009-03-10,02:55:46,279
440282.24988276884,4425541.4796600165,39882.1261111111,39882.2474652778,191.47315738776604,2009-03-10,03:01:36,2009-03-10,05:56:21,280
442471.37561728427,4425967.410185188,39882.2515740741,39882.3048148148,172.43158063415436,2009-03-10,06:02:16,2009-03-10,07:18:56,281
442038.7498299315,4425955.820238095,39882.3048726852,39882.4589236111,180.4113355640382,2009-03-10,07:19:01,2009-03-10,11:00:51,279
442791.96214149136,4426950.965965581,39882.4617013889,39882.4915625,196.54019945049367,2009-03-10,11:04:51,2009-03-10,11:47:51,277
442817.5875000005,4426914.09333333,39882.4916203704,39882.5314351852,190.28741419248817,2009-03-10,11:47:56,2009-03-10,12:45:16,277
439974.7362204725,4429488.207874018,39882.549375,39882.5566087963,199.56678080268392,2009-03-10,13:11:06,2009-03-10,13:21:31,278
442035.8857142857,4426032.785714285,39882.9245486111,39882.9248958333,188.12721759453078,2009-03-10,22:11:21,2009-03-10,22:11:51,279
442044.5748333343,4425910.042666671,39882.9963657407,39883.0309143519,184.38156090058638,2009-03-10,23:54:46,2009-03-11,00:44:31,279
443900.53155258746,4425115.505175297,39883.0353703704,39883.1208449074,185.06674471678227,2009-03-11,00:50:56,2009-03-11,02:54:01,285
440282.1218538051,4425530.41281087,39883.1276736111,39883.2478125,188.46262228910533,2009-03-11,03:03:51,2009-03-11,05:56:51,280
442455.9164179102,4425958.835074628,39883.2523842593,39883.2878587963,189.00214284499705,2009-03-11,06:03:26,2009-03-11,06:54:31,281
442039.3961620469,4425961.202771848,39883.2879166667,39883.4574768519,170.32219467839,2009-03-11,06:54:36,2009-03-11,10:58:46,279
442797.3349640288,4426943.1394244535,39883.4600231481,39883.4983912037,197.52032806776137,2009-03-11,11:02:26,2009-03-11,11:57:41,277
442821.7870274916,4426895.005240541,39883.4984490741,39883.5625115741,198.39758063047552,2009-03-11,11:57:46,2009-03-11,13:30:01,277
439998.4352941175,4429489.4313725475,39883.5745486111,39883.9123842593,171.93586013385837,2009-03-11,13:47:21,2009-03-11,21:53:50,278
442035.475,4426046.9,39883.9250578704,39883.925462963,199.20424192289224,2009-03-11,22:12:05,2009-03-11,22:12:40,279
442042.22226050886,4425921.5701585105,39884.0087384259,39884.1080439815,196.19225265011775,2009-03-12,00:12:35,2009-03-12,02:35:35,279
440290.1709956707,4425547.115151511,39884.1118055556,39884.2530092593,179.20025111593475,2009-03-12,02:41:00,2009-03-12,06:04:20,280
442474.68625000067,4425971.262916666,39884.2579282407,39884.2994791667,183.87849248892118,2009-03-12,06:11:25,2009-03-12,07:11:15,281
442037.0014101787,4425959.620907403,39884.299537037,39884.4575231481,173.7678048438378,2009-03-12,07:11:20,2009-03-12,10:58:50,279
442799.128310502,4426952.397716891,39884.4604166667,39884.485474537,197.73469599454668,2009-03-12,11:03:00,2009-03-12,11:39:05,277
442812.8208791215,4426918.592967036,39884.4855324074,39884.5655092593,195.21500966897992,2009-03-12,11:39:10,2009-03-12,13:34:20,277
440060.56901408447,4429512.197183098,39884.5756365741,39884.9131134259,186.35259590356344,2009-03-12,13:48:55,2009-03-12,21:54:53,278
442041.9375,4426012.975,39884.9220833333,39885.022662037,191.53198166363757,2009-03-12,22:07:48,2009-03-13,00:32:38,279
443893.16019777564,4425126.455067979,39885.0279282407,39885.1171643519,179.14600190907322,2009-03-13,00:40:13,2009-03-13,02:48:43,285
440285.18769401364,4425543.2480044365,39885.1246296296,39885.2500347222,191.53884723457568,2009-03-13,02:59:28,2009-03-13,06:00:03,280
442471.1588757389,4425966.667455619,39885.2541435185,39885.2943055556,196.2044087170205,2009-03-13,06:05:58,2009-03-13,07:03:48,281
442032.359248555,4425964.428034691,39885.2943634259,39885.579375,167.16952473407514,2009-03-13,07:03:53,2009-03-13,13:54:18,279
439974.99731543614,4429488.707382551,39885.5908333333,39885.5991666667,199.33298773677237,2009-03-13,14:10:48,2009-03-13,14:22:48,278
442047.2250980398,4425978.746421566,39885.9963773148,39886.4030324074,182.98538192948783,2009-03-13,23:54:47,2009-03-14,09:40:22,279
442803.434164457,4426929.35230769,39886.4055208333,39886.5100925926,196.96377839583747,2009-03-14,09:43:57,2009-03-14,12:14:32,277
442829.5221538456,4426889.617230777,39886.510150463,39886.5653587963,196.2709606640567,2009-03-14,12:14:37,2009-03-14,13:34:07,277
440054.4785087715,4429504.107017545,39886.5762384259,39887.0668981481,179.19893972926585,2009-03-14,13:49:47,2009-03-15,01:36:20,278
445396.63117506006,4431311.215667468,39887.0808449074,39887.2355324074,199.3979187454566,2009-03-15,01:56:25,2009-03-15,05:39:10,284
439997.1698305085,4429494.628474573,39887.2489583333,39887.3994212963,178.294643778332,2009-03-15,05:58:30,2009-03-15,09:35:10,278
442801.85826771683,4426935.839448817,39887.4099537037,39887.4816550926,195.72902186447197,2009-03-15,09:50:20,2009-03-15,11:33:35,277
442821.14827586163,4426920.1725215465,39887.481712963,39887.5692708333,199.21410592610818,2009-03-15,11:33:40,2009-03-15,13:39:45,277
440024.5466666668,4429506.354444445,39887.5807291667,39887.9179976852,178.50876729116445,2009-03-15,13:56:15,2009-03-15,22:01:55,278
442034.35000000003,4426039.500000001,39887.9270833333,39887.9274884259,193.20662514539217,2009-03-15,22:15:00,2009-03-15,22:15:35,279
442536.42089809914,4425966.565284978,39888.0267361111,39888.0601273148,186.3472296548248,2009-03-16,00:38:30,2009-03-16,01:26:35,281
443886.4441077439,4425114.908333321,39888.0637731481,39888.131712963,192.55869235120423,2009-03-16,01:31:50,2009-03-16,03:09:40,285
440283.252347418,4425541.519953056,39888.1384259259,39888.2511574074,172.84536441608026,2009-03-16,03:19:20,2009-03-16,06:01:40,280
442949.52574257436,4425088.967326733,39888.2570023148,39888.2893865741,192.22499837430658,2009-03-16,06:10:05,2009-03-16,06:56:43,-1
442048.4583333335,4425951.588095232,39888.2926851852,39888.3018865741,192.44731746611993,2009-03-16,07:01:28,2009-03-16,07:14:43,279
442805.7000000001,4426935.59325843,39888.4631712963,39888.491875,199.68888301541526,2009-03-16,11:06:58,2009-03-16,11:48:18,277
442824.0226506017,4426903.588835326,39888.4919328704,39888.5603935185,194.99889743266684,2009-03-16,11:48:23,2009-03-16,13:26:58,277
440030.1047619048,4429498.166666667,39888.5715046296,39888.9115509259,199.6893587550311,2009-03-16,13:42:58,2009-03-16,21:52:38,278
442030.17299703223,4425942.262314541,39888.9243981481,39888.9779861111,199.90897928788806,2009-03-16,22:11:08,2009-03-16,23:28:18,279
442045.8635738831,4425920.286941581,39888.9780439815,39889.1072106481,199.13437674149122,2009-03-16,23:28:23,2009-03-17,02:34:23,279
440266.59820987715,4425540.306543231,39889.1258449074,39889.2416435185,174.35716217014908,2009-03-17,03:01:13,2009-03-17,05:47:58,280
442470.6102236422,4425970.717891374,39889.2458101852,39889.2905439815,170.3364024511613,2009-03-17,05:53:58,2009-03-17,06:58:23,281
442038.9761061945,4425955.7542035375,39889.2906018518,39889.4534490741,187.08396510690426,2009-03-17,06:58:28,2009-03-17,10:52:58,279
442804.68909090897,4426938.544545451,39889.4566319444,39889.4808217593,196.52829312834123,2009-03-17,10:57:33,2009-03-17,11:32:23,277
442813.4395997573,4426907.3020012155,39889.4808796296,39889.5706944444,194.97333150979256,2009-03-17,11:32:28,2009-03-17,13:41:48,277
440007.3910714285,4429501.344642858,39889.5807638889,39889.9155208333,186.0965609568029,2009-03-17,13:56:18,2009-03-17,21:58:21,278
442048.6523297491,4425935.803225809,39889.9242592593,39889.9664814815,199.9084040260035,2009-03-17,22:10:56,2009-03-17,23:11:44,279
442050.752362205,4425906.4598425105,39889.9665046296,39890.0347916667,182.84597343100478,2009-03-17,23:11:46,2009-03-18,00:50:06,279
443893.32047832635,4425117.544245141,39890.0392476852,39890.1185300926,173.95565526878144,2009-03-18,00:56:31,2009-03-18,02:50:41,285
440284.53718354466,4425542.255537965,39890.1262847222,39890.2397106481,194.48496085806383,2009-03-18,03:01:51,2009-03-18,05:45:11,280
442473.43632218795,4425970.144376918,39890.2438773148,39890.2818402778,188.38930436729538,2009-03-18,05:51:11,2009-03-18,06:45:51,281
442034.44680851075,4425962.462553191,39890.2818981481,39890.4479282407,178.2750964100009,2009-03-18,06:45:56,2009-03-18,10:45:01,279
442809.73624396697,4426914.988021065,39890.4512847222,39890.5762847222,182.66061425506751,2009-03-18,10:49:51,2009-03-18,13:49:51,277
440091.9084745762,4429532.198305086,39890.5872800926,39890.9170138889,188.8316975509948,2009-03-18,14:05:41,2009-03-18,22:00:30,278
442039.0164146869,4425934.888336942,39890.9255787037,39890.971875,180.24663658461685,2009-03-18,22:12:50,2009-03-18,23:19:30,279
442047.15318595537,4425913.856046808,39891.0044560185,39891.1410300926,187.30435125800523,2009-03-19,00:06:25,2009-03-19,03:23:05,279
440286.0191970813,4425547.946058386,39891.1441550926,39891.2453125,191.9927081948404,2009-03-19,03:27:35,2009-03-19,05:53:15,280
442467.58070739603,4425968.350160768,39891.25,39891.2890046296,195.2184673641587,2009-03-19,06:00:00,2009-03-19,06:56:10,281
442024.57857142884,4425973.342857151,39891.2890625,39891.4519097222,199.94659286919853,2009-03-19,06:56:15,2009-03-19,10:50:45,279
442817.8575757579,4426917.455080212,39891.4550347222,39891.5256944444,197.48483486078405,2009-03-19,10:55:15,2009-03-19,12:37:00,277
442826.1341071425,4426910.556964285,39891.5257523148,39891.5625,172.84400481358583,2009-03-19,12:37:05,2009-03-19,13:30:00,277
440094.24117647065,4429522.823529412,39891.5730324074,39891.9149074074,175.5865883265098,2009-03-19,13:45:10,2009-03-19,21:57:28,278
442040.56666666665,4426026.244444445,39891.9249768518,39892.0252083333,180.75668729058512,2009-03-19,22:11:58,2009-03-20,00:36:18,279
443899.69452054787,4425126.175190257,39892.0303009259,39892.1043171296,194.41337402559896,2009-03-20,00:43:38,2009-03-20,02:30:13,285
440283.9971563968,4425543.049668249,39892.1216203704,39892.2465625,178.2925965933459,2009-03-20,02:55:08,2009-03-20,05:55:03,280
442246.8690140844,4425894.688732392,39892.2510763889,39892.2870138889,199.24858845173262,2009-03-20,06:01:33,2009-03-20,06:53:18,-1
442018.0983443703,4425956.946688742,39892.2870717593,39892.4524652778,187.36339023406077,2009-03-20,06:53:23,2009-03-20,10:51:33,279
442810.506666667,4426919.885171346,39892.4561111111,39892.5807060185,189.92988179849496,2009-03-20,10:56:48,2009-03-20,13:56:13,277
440038.4516853933,4429505.111235956,39892.5908912037,39893.0390162037,171.43144402355915,2009-03-20,14:10:53,2009-03-21,00:56:11,278
441700.2186602868,4424889.985167463,39893.0539467593,39893.0950347222,194.60310891677554,2009-03-21,01:17:41,2009-03-21,02:16:51,-1
441705.1776978418,4424880.725539569,39893.0950925926,39893.1317824074,189.79971022114512,2009-03-21,02:16:56,2009-03-21,03:09:46,-1
442701.4825586956,4425810.704024912,39893.1352546296,39893.4022106482,191.61946665163475,2009-03-21,03:14:46,2009-03-21,09:39:11,-1
440049.2360655738,4429504.895081968,39893.4288310185,39894.0273611111,179.53509406218478,2009-03-21,10:17:31,2009-03-22,00:39:24,278
445395.87367941823,4431306.084881624,39894.0414236111,39894.1775347222,193.05921371441326,2009-03-22,00:59:39,2009-03-22,04:15:39,284
439967.7143335574,4429491.16182183,39894.1952430556,39894.4188541667,179.72759943843647,2009-03-22,04:41:09,2009-03-22,10:03:09,278
442800.3776408463,4426949.525704224,39894.4293865741,39894.4615625,196.8640393772581,2009-03-22,10:18:19,2009-03-22,11:04:39,277
442801.79654088087,4426921.333123698,39894.4616203704,39894.5687384259,190.02676127338052,2009-03-22,11:04:44,2009-03-22,13:38:59,277
440048.2218750002,4429510.19375,39894.5789236111,39894.9146875,190.35243628558297,2009-03-22,13:53:39,2009-03-22,21:57:09,278
442035.18571428576,4426055.185714285,39894.9235416667,39894.9238888889,198.55326741241916,2009-03-22,22:09:54,2009-03-22,22:10:24,279
442040.4194928684,4425919.556418394,39894.9598842593,39895.0253356481,165.51341335367724,2009-03-22,23:02:14,2009-03-23,00:36:29,279
442532.9776785713,4425967.839508929,39895.025625,39895.0514351852,190.59729798707215,2009-03-23,00:36:54,2009-03-23,01:14:04,281
443892.0471228618,4425107.429393463,39895.0546759259,39895.1192013889,193.61831008461579,2009-03-23,01:18:44,2009-03-23,02:51:39,285
440309.146808511,4425536.467021275,39895.1259143518,39895.2499884259,188.3403833486849,2009-03-23,03:01:19,2009-03-23,05:59:59,280
443089.4486486485,4425045.762162162,39895.266712963,39895.2690856481,184.75286195384106,2009-03-23,06:24:04,2009-03-23,06:27:29,-1
442055.1398692806,4425912.002614378,39902.9263078704,39902.9526388889,199.68695500689995,2009-03-30,22:13:53,2009-03-30,22:51:48,279
442037.48109589115,4425927.610776255,39902.9526967593,39903.0984722222,189.31138370385975,2009-03-30,22:51:53,2009-03-31,02:21:48,279
440303.55581395375,4425570.63615222,39903.1032175926,39903.2514236111,191.58809983921236,2009-03-31,02:28:38,2009-03-31,06:02:03,280
442473.2952443866,4425969.656274777,39903.2560532407,39903.2997453704,188.2862979613649,2009-03-31,06:08:43,2009-03-31,07:11:38,281
442030.78265306284,4425954.47658429,39903.2998032407,39903.4584259259,168.94274177976092,2009-03-31,07:11:43,2009-03-31,11:00:08,279
442815.409038901,4426913.847940502,39903.4615509259,39903.5661226852,190.40916469563055,2009-03-31,11:04:38,2009-03-31,13:35:13,277
440023.4557894735,4429504.101052633,39903.5766550926,39903.9549652778,199.54478194089805,2009-03-31,13:50:23,2009-03-31,22:55:09,278
442036.05717948754,4425959.178461541,39903.9654398148,39904.0290393519,193.1000000005588,2009-03-31,23:10:14,2009-04-01,00:41:49,279
443888.1082733814,4425110.845683455,39904.0340740741,39904.0855787037,199.01228605301299,2009-04-01,00:49:04,2009-04-01,02:03:14,285
443919.00506607926,4425109.604845816,39904.0856365741,39904.125625,179.19179668696233,2009-04-01,02:03:19,2009-04-01,03:00:54,285
440415.52499999997,4425579.683333334,39904.1347106481,39904.2545601852,192.56261319371677,2009-04-01,03:13:59,2009-04-01,06:06:34,-1
442514.162772277,4425955.306930699,39904.2588425926,39904.2878935185,176.8102089813095,2009-04-01,06:12:44,2009-04-01,06:54:34,281
442032.15613793104,4425960.664413799,39904.2879513889,39904.4577430556,198.19649340949212,2009-04-01,06:54:39,2009-04-01,10:59:09,279
441823.4945147677,4425775.337130804,39904.4578009259,39904.4797916667,199.95209426264572,2009-04-01,10:59:14,2009-04-01,11:30:54,-1
441867.5344729346,4425756.814814808,39904.479849537,39904.5582060185,190.73345275531392,2009-04-01,11:30:59,2009-04-01,13:23:49,-1
440075.60937500023,4429510.99375,39904.5709375,39904.8821990741,180.54542364745996,2009-04-01,13:42:09,2009-04-01,21:10:22,278
442035.4285714286,4426021.8,39904.8915162037,39904.8918634259,172.40011600868294,2009-04-01,21:23:47,2009-04-01,21:24:17,279
442042.28416945436,4425917.077146056,39904.9430787037,39905.02375,185.83568010457603,2009-04-01,22:38:02,2009-04-02,00:34:12,279
442563.52882273385,4425533.209201623,39905.0251967593,39905.0822569444,179.12124385509986,2009-04-02,00:36:17,2009-04-02,01:58:27,-1
439646.0322580646,4427540.301612904,39905.0955671296,39905.1169791667,194.55901418280084,2009-04-02,02:17:37,2009-04-02,02:48:27,-1
440274.8467532466,4425550.4025973985,39905.1240393519,39905.2422106481,190.50002624620433,2009-04-02,02:58:37,2009-04-02,05:48:47,280
442547.36142433085,4425480.358308614,39905.2471296296,39905.2855555556,179.28307226339223,2009-04-02,05:55:52,2009-04-02,06:51:12,-1
442475.28613231506,4425971.192875324,39905.2856134259,39905.3309837963,191.17418758825863,2009-04-02,06:51:17,2009-04-02,07:56:37,281
442025.7633147114,4425950.949068904,39905.3312152778,39905.4556365741,196.97360229205248,2009-04-02,07:56:57,2009-04-02,10:56:07,279
442818.7524663672,4426898.676681613,39905.4585300926,39905.4828356481,196.97068309782566,2009-04-02,11:00:17,2009-04-02,11:35:17,277
442814.19718076277,4426918.552902156,39905.4828935185,39905.5628125,190.9229425711476,2009-04-02,11:35:22,2009-04-02,13:30:27,277
440059.66323529417,4429511.544117647,39905.5745023148,39905.8854976852,175.8443914374297,2009-04-02,13:47:17,2009-04-02,21:15:07,278
442036.58571428567,4426027.128571429,39905.8944675926,39905.8948148148,188.5004244027053,2009-04-02,21:28:02,2009-04-02,21:28:32,279
442047.0688251622,4425918.602960231,39905.9388541667,39906.0361342593,188.7128241537134,2009-04-02,22:31:57,2009-04-03,00:52:02,279
443896.44533333334,4425111.328400002,39906.0415740741,39906.1063310185,199.55072036944375,2009-04-03,00:59:52,2009-04-03,02:33:07,285
440313.7310344827,4425547.001149425,39906.1301157407,39906.235787037,190.33247226882295,2009-04-03,03:07:22,2009-04-03,05:39:32,280
442579.41027713637,4425473.30612009,39906.2397800926,39906.2885648148,167.6775775116848,2009-04-03,05:45:17,2009-04-03,06:55:32,-1
442477.525714286,4425969.4238961125,39906.2886226852,39906.310787037,191.29187123348493,2009-04-03,06:55:37,2009-04-03,07:27:32,281
442038.1285961878,4425950.68388215,39906.3110763889,39906.4647222222,198.39528724229552,2009-04-03,07:27:57,2009-04-03,11:09:12,279
442802.09350515605,4426910.941340209,39906.4673263889,39906.5730555556,189.19104101378574,2009-04-03,11:12:57,2009-04-03,13:45:12,277
440068.39375,4429497.14375,39906.5832407407,39906.5841087963,194.8129872466964,2009-04-03,13:59:52,2009-04-03,14:01:07,278
439963.2669376678,4429491.251038827,39906.9065046296,39907.0868402778,184.06642822625153,2009-04-03,21:45:22,2009-04-04,02:05:03,278
445671.44360269356,4421202.809595963,39907.1319791667,39907.1629398148,196.98837529148682,2009-04-04,03:10:03,2009-04-04,03:54:38,-1
445834.01559485507,4421162.580707389,39907.1629976852,39907.1947685185,199.97062284186362,2009-04-04,03:54:43,2009-04-04,04:40:28,-1
445895.9119047621,4420984.853333337,39907.1949421296,39907.2324884259,68.5396965268967,2009-04-04,04:40:43,2009-04-04,05:34:47,-1
445594.1233928576,4421216.822142855,39907.277974537,39907.3088310185,198.14037952923874,2009-04-04,06:40:17,2009-04-04,07:24:43,-1
440113.3692307693,4429531.328205127,39907.3637615741,39907.4283449074,190.9221831007401,2009-04-04,08:43:49,2009-04-04,10:16:49,-1
442792.81847826083,4426945.735869562,39907.4391087963,39907.4520717593,192.403378348689,2009-04-04,10:32:19,2009-04-04,10:50:59,277
440040.8263157894,4429492.763157894,39908.0271527778,39908.0599652778,184.99578373568397,2009-04-05,00:39:06,2009-04-05,01:26:21,278
445389.85567010276,4431308.792783506,39908.0757638889,39908.214537037,197.4454861474828,2009-04-05,01:49:06,2009-04-05,05:08:56,284
439960.09419475636,4429489.552996243,39908.2510532407,39908.3127430556,199.98442439363419,2009-04-05,06:01:31,2009-04-05,07:30:21,278
440027.7784198144,4429500.394221706,39908.3128009259,39908.4372800926,179.6567838963725,2009-04-05,07:30:26,2009-04-05,10:29:41,278
442818.62158808886,4426891.95334987,39908.4481597222,39908.4710763889,199.81015990167188,2009-04-05,10:45:21,2009-04-05,11:18:21,277
442824.76000000007,4426906.391555559,39908.4711342593,39908.5677777778,196.93003833848104,2009-04-05,11:18:26,2009-04-05,13:37:36,277
440019.93296703196,4429479.85467033,39908.5777893519,39909.0161574074,186.39412544367073,2009-04-05,13:52:01,2009-04-06,00:23:16,278
442791.5299999999,4426927.103333333,39909.0262268518,39909.0457291667,45.595175183602635,2009-04-06,00:37:46,2009-04-06,01:05:51,277
442781.51774193544,4427052.851612904,39909.0481597222,39909.052037037,152.52426036572984,2009-04-06,01:09:21,2009-04-06,01:14:56,-1
440069.85238095233,4429503.414285715,39909.179525463,39909.180625,197.1168435219163,2009-04-06,04:18:31,2009-04-06,04:20:06,278
439959.8070926505,4429490.872715638,39909.2682986111,39909.3938194444,198.11234186693164,2009-04-06,06:26:21,2009-04-06,09:27:06,278
442812.18372881354,4426939.7898305105,39909.4113541667,39909.446712963,196.28869045352357,2009-04-06,09:52:21,2009-04-06,10:43:16,277
442815.7185634338,4426902.87425374,39909.4467708333,39909.5651736111,191.99513014693306,2009-04-06,10:43:21,2009-04-06,13:33:51,277
440017.5138211381,4429503.980487807,39909.5755324074,39909.8838657407,197.67225399608913,2009-04-06,13:48:46,2009-04-06,21:12:46,278
442027.6570680623,4425974.018324608,39909.8934143518,39910.0005324074,199.1996485946257,2009-04-06,21:26:31,2009-04-07,00:00:46,279
442031.3797665373,4425935.476848254,39910.0005902778,39910.0302199074,190.00044736778432,2009-04-07,00:00:51,2009-04-07,00:43:31,279
442540.66532663244,4426014.944556119,39910.0310300926,39910.0641898148,175.73036163390114,2009-04-07,00:44:41,2009-04-07,01:32:26,-1
442057.35656370776,4425964.449034751,39910.0643634259,39910.1025,184.1304972024003,2009-04-07,01:32:41,2009-04-07,02:27:36,279
440294.47034883726,4425558.712209308,39910.106087963,39910.2465972222,183.56745354253115,2009-04-07,02:32:46,2009-04-07,05:55:06,280
440328.82987012935,4425437.8118063705,39910.2466550926,39910.2918518518,184.2362070820077,2009-04-07,05:55:11,2009-04-07,07:00:16,-1
442039.34664310934,4425949.181625442,39910.3219675926,39910.4593518519,190.61773264798364,2009-04-07,07:43:38,2009-04-07,11:01:28,279
442805.0374930039,4426917.5707890205,39910.4628240741,39910.5922800926,198.32422948293535,2009-04-07,11:06:28,2009-04-07,14:12:53,277
440020.02123893827,4429501.842477878,39910.6026388889,39910.8846875,190.81850015153913,2009-04-07,14:27:48,2009-04-07,21:13:57,278
442037.12499999994,4426017.625,39910.8944675926,39911.0283796296,189.25115587512454,2009-04-07,21:28:02,2009-04-08,00:40:52,279
443910.09678770776,4425108.898952508,39911.0354398148,39911.1141435185,199.86520457541744,2009-04-08,00:51:02,2009-04-08,02:44:22,285
440279.8719120126,4425538.170219963,39911.1247106481,39911.2519097222,196.82136571031918,2009-04-08,02:59:35,2009-04-08,06:02:45,280
442518.6222921919,4425960.148362706,39911.2561342593,39911.3019675926,185.38635332739108,2009-04-08,06:08:50,2009-04-08,07:14:50,281
442034.906413449,4425953.025031131,39911.302025463,39911.4635416667,187.6487143576037,2009-04-08,07:14:55,2009-04-08,11:07:30,279
442798.6836344306,4426936.110626992,39911.4664351852,39911.5691550926,179.2261141683645,2009-04-08,11:11:40,2009-04-08,13:39:35,277
440032.2587912087,4429488.170879122,39911.5795717593,39911.883287037,184.5136851290689,2009-04-08,13:54:35,2009-04-08,21:11:56,278
442037.5377176004,4425940.156350748,39911.8925462963,39912.0133796296,185.31823979380982,2009-04-08,21:25:16,2009-04-09,00:19:16,279
440274.29146942886,4425540.787968441,39912.1356597222,39912.2529050926,195.3057602837035,2009-04-09,03:15:21,2009-04-09,06:04:11,280
442405.0,4425904.752,39912.2571296296,39912.2941087963,183.78751317765088,2009-04-09,06:10:16,2009-04-09,07:03:31,-1
442034.28849154734,4425960.158452517,39912.2941666667,39912.4545833333,191.68854947529107,2009-04-09,07:03:36,2009-04-09,10:54:36,279
442794.44975186087,4426926.862158807,39912.4574768519,39912.5662731482,187.82558398655186,2009-04-09,10:58:46,2009-04-09,13:35:26,277
440049.58194444445,4429511.929166667,39912.5765740741,39912.8845486111,191.6278946291484,2009-04-09,13:50:16,2009-04-09,21:13:45,278
442054.03442622983,4425953.483606555,39912.8935763889,39912.9920717593,199.86507949095392,2009-04-09,21:26:45,2009-04-09,23:48:35,279
442031.82003230945,4425925.321647832,39912.9921296296,39913.0277199074,181.71001623447384,2009-04-09,23:48:40,2009-04-10,00:39:55,279
443894.45724299026,4425107.163785045,39913.0330439815,39913.0855902778,195.34502809087047,2009-04-10,00:47:35,2009-04-10,02:03:15,285
443914.94851485133,4425125.53069307,39913.0856481481,39913.1175925926,187.26718879731624,2009-04-10,02:03:20,2009-04-10,02:49:20,285
440286.72379518015,4425538.502710848,39913.1255787037,39913.2487847222,182.7108371172486,2009-04-10,03:00:50,2009-04-10,05:58:15,280
442517.85097402637,4425956.613203458,39913.2532407407,39913.3065393518,199.36148073286373,2009-04-10,06:04:40,2009-04-10,07:21:25,281
442039.36172248726,4425946.64217362,39913.3065972222,39913.4532407407,166.33258850851556,2009-04-10,07:21:30,2009-04-10,10:52:40,279
442808.8047486031,4426944.140782122,39913.4564814815,39913.4929976852,197.70609499951715,2009-04-10,10:57:20,2009-04-10,11:49:55,277
442795.1278563651,4426932.635255717,39913.4930555556,39913.5815393519,190.45088605726056,2009-04-10,11:50:00,2009-04-10,13:57:25,277
440050.92166666663,4429509.206666668,39913.5921296296,39914.0061921296,199.73404817457413,2009-04-10,14:12:40,2009-04-11,00:08:55,278
442759.3213903743,4426998.472192509,39914.0167824074,39914.0378472222,187.1753455988773,2009-04-11,00:24:10,2009-04-11,00:54:30,-1
442818.51191275177,4426885.3211409375,39914.0379050926,39914.0855324074,186.62231913679477,2009-04-11,00:54:35,2009-04-11,02:03:10,277
441701.61499999993,4424834.2700000005,39914.0915509259,39914.1690972222,198.59934541675824,2009-04-11,02:11:50,2009-04-11,04:03:30,-1
442813.41507720307,4426940.35181654,39914.1807291667,39914.4561921296,199.8650794915914,2009-04-11,04:20:15,2009-04-11,10:56:55,277
442811.3997030887,4426917.316805227,39914.45625,39914.5575231481,194.8762940943181,2009-04-11,10:57:00,2009-04-11,13:22:50,277
440065.7147058825,4429515.194117648,39914.5685763889,39915.8843287037,182.0928334667863,2009-04-11,13:38:45,2009-04-12,21:13:26,278
442603.42290909,4424503.161272732,39915.9265740741,39916.059849537,179.60069599030155,2009-04-12,22:14:16,2009-04-13,01:26:11,-1
443888.2229208925,4425112.52616633,39916.0626273148,39916.1228125,188.1859984161184,2009-04-13,01:30:11,2009-04-13,02:56:51,285
440312.3316666668,4425522.583333334,39916.1357175926,39916.2489699074,195.62088334308152,2009-04-13,03:15:26,2009-04-13,05:58:31,280
442954.7647540983,4425083.786885247,39916.25875,39916.2809837963,191.27605704839826,2009-04-13,06:12:36,2009-04-13,06:44:37,-1
442041.6810775299,4425934.050328513,39916.284224537,39916.459224537,184.15257261282088,2009-04-13,06:49:17,2009-04-13,11:01:17,279
442801.67943305173,4426919.339324502,39916.4621180556,39916.5679050926,192.7031395698174,2009-04-13,11:05:27,2009-04-13,13:37:47,277
440059.2950000001,4429517.290000002,39916.5781481481,39916.8835763889,192.53280239988965,2009-04-13,13:52:32,2009-04-13,21:12:21,278
442040.1784042552,4425945.988617021,39916.8927777778,39917.0280208333,199.57767911229786,2009-04-13,21:25:36,2009-04-14,00:40:21,279
442041.3148590022,4425926.701626888,39917.0280787037,39917.1124537037,195.3577743525819,2009-04-14,00:40:26,2009-04-14,02:41:56,279
440271.6671232872,4425548.570916744,39917.1166203704,39917.2438773148,192.56235353776617,2009-04-14,02:47:56,2009-04-14,05:51:11,280
442476.6958333333,4425956.8559523765,39917.2486805556,39917.295787037,187.80023961644864,2009-04-14,05:58:06,2009-04-14,07:05:56,281
442042.87501589407,4425953.259949139,39917.2958449074,39917.4539467593,176.73392430360497,2009-04-14,07:06:01,2009-04-14,10:53:41,279
442786.20499040297,4426927.945873325,39917.456724537,39917.5578819444,180.8881698728822,2009-04-14,10:57:41,2009-04-14,13:23:21,277
440042.9318181816,4429506.669318183,39917.5693402778,39917.8893287037,195.14445931130786,2009-04-14,13:39:51,2009-04-14,21:20:38,278
442033.5942528738,4425946.028735634,39917.8984143519,39918.026712963,193.3232784739799,2009-04-14,21:33:43,2009-04-15,00:38:28,279
443911.01050080813,4425109.88772213,39918.0331365741,39918.0671643519,187.63669683735182,2009-04-15,00:47:43,2009-04-15,01:36:43,285
443910.56294117734,4425109.266588239,39918.0672222222,39918.1134606482,189.11890439616647,2009-04-15,01:36:48,2009-04-15,02:43:23,285
440290.5897196275,4425540.846417448,39918.1235300926,39918.2451736111,186.96930229295305,2009-04-15,02:57:53,2009-04-15,05:53:03,280
442475.5654421781,4425973.537687073,39918.2495138889,39918.2919328704,178.41482561715722,2009-04-15,05:59:18,2009-04-15,07:00:23,281
442040.86996699736,4425946.335258524,39918.2919907407,39918.4605671296,194.32863916625666,2009-04-15,07:00:28,2009-04-15,11:03:13,279
442801.5853309482,4426924.449552778,39918.4636342593,39918.5724305556,179.52882776840312,2009-04-15,11:07:38,2009-04-15,13:44:18,277
440058.3649122805,4429508.587719298,39918.5830787037,39918.8863425926,174.72549899771354,2009-04-15,13:59:38,2009-04-15,21:16:20,278
442037.5428571429,4426010.685714287,39918.8953125,39919.119212963,185.79055411960277,2009-04-15,21:29:15,2009-04-16,02:51:40,279
440274.96758650884,4425545.879807265,39919.1234953704,39919.2554398148,198.2001009081015,2009-04-16,02:57:50,2009-04-16,06:07:50,280
442474.60864516214,4425971.6130322665,39919.2595486111,39919.3041666667,188.8346631315366,2009-04-16,06:13:45,2009-04-16,07:18:00,281
442037.4428358218,4425958.469552261,39919.304224537,39919.4596064815,195.54050731171034,2009-04-16,07:18:05,2009-04-16,11:01:50,279
442789.2008385746,4426929.532285124,39919.463599537,39919.5715277778,197.44467579580862,2009-04-16,11:07:35,2009-04-16,13:43:00,277
440004.5675,4429491.76,39919.5934027778,39919.5956018518,199.5124056294014,2009-04-16,14:14:30,2009-04-16,14:17:40,278
442036.5714285714,4426027.157142857,39919.8914467593,39919.8917939815,196.31347381147026,2009-04-16,21:23:41,2009-04-16,21:24:11,279
443903.49210526294,4425112.092836262,39920.0415046296,39920.1173726852,189.61046912033163,2009-04-17,00:59:46,2009-04-17,02:49:01,285
440274.30594170507,4425541.889349788,39920.1258217593,39920.2449768518,191.20316420008757,2009-04-17,03:01:11,2009-04-17,05:52:46,280
442471.41581921,4425971.145056514,39920.2494907407,39920.2903472222,184.92898637040713,2009-04-17,05:59:16,2009-04-17,06:58:06,281
442037.8510223057,4425945.32741635,39920.2904050926,39920.4323032407,87.52468223337416,2009-04-17,06:58:11,2009-04-17,10:22:31,279
442804.3042735043,4426938.1680911705,39921.1940162037,39921.2278125,187.1105021103939,2009-04-18,04:39:23,2009-04-18,05:28:03,277
442810.0083055256,4426916.863107148,39921.2373032407,39921.5299537037,197.41985715741822,2009-04-18,05:41:43,2009-04-18,12:43:08,277
440056.2291666667,4429499.324999999,39921.5423958333,39922.8817939815,71.35110370559983,2009-04-18,13:01:03,2009-04-19,21:09:47,278
442046.02496413246,4425946.356384497,39922.8955092593,39922.9750231481,178.72864907469827,2009-04-19,21:29:32,2009-04-19,23:24:02,279
442536.0134419553,4425977.621995923,39923.0280324074,39923.0557523148,199.7704933170509,2009-04-20,00:40:22,2009-04-20,01:20:17,-1
443881.0719188768,4425099.390795639,39923.0598032407,39923.1227662037,195.76222822603617,2009-04-20,01:26:07,2009-04-20,02:56:47,285
440314.9933333332,4425529.751999999,39923.1294212963,39923.2423263889,182.1006864352892,2009-04-20,03:06:22,2009-04-20,05:48:57,280
443040.5242187498,4425062.075781251,39923.2556365741,39923.2805324074,187.37369078937374,2009-04-20,06:08:07,2009-04-20,06:43:58,-1
442039.5566929132,4425933.456805405,39923.2840625,39923.4419328704,199.8961730497253,2009-04-20,06:49:03,2009-04-20,10:36:23,279
442723.2893617022,4426959.140425533,39923.461724537,39923.5673958333,181.8624205271589,2009-04-20,11:04:53,2009-04-20,13:37:03,277
440064.17037037027,4429512.068518519,39923.5775231481,39923.8858796296,198.88119569216698,2009-04-20,13:51:38,2009-04-20,21:15:40,278
442033.2736842106,4425969.952631579,39923.894212963,39923.8952546296,173.950711409312,2009-04-20,21:27:40,2009-04-20,21:29:10,279
442037.4828594643,4425922.56742485,39924.0109375,39924.0817708333,188.40562624311812,2009-04-21,00:15:45,2009-04-21,01:57:45,279
441118.80336538394,4425683.764583332,39924.083275463,39924.1189236111,196.38709224395254,2009-04-21,01:59:55,2009-04-21,02:51:15,-1
440293.2766423357,4425552.509489049,39924.1216435185,39924.247337963,198.3790563542856,2009-04-21,02:55:10,2009-04-21,05:56:10,280
442515.4821208379,4425946.68594328,39924.2512152778,39924.2978587963,174.3899366362399,2009-04-21,06:01:45,2009-04-21,07:08:55,281
442041.98513082427,4425950.216017865,39924.2979166667,39924.4550347222,173.9324581559074,2009-04-21,07:09:00,2009-04-21,10:55:15,279
442704.55263157893,4426962.334210527,39924.458275463,39924.5721064815,178.33524609564657,2009-04-21,10:59:55,2009-04-21,13:43:50,-1
440064.3736842105,4429509.620000003,39924.5830439815,39924.8859953704,168.51237343267127,2009-04-21,13:59:35,2009-04-21,21:15:50,278
442038.41087786335,4425944.436450384,39924.8945601852,39925.014525463,185.11825949879247,2009-04-21,21:28:10,2009-04-22,00:20:55,279
443891.8983050849,4425083.688135595,39925.037037037,39925.0469907407,184.93147379500843,2009-04-22,00:53:20,2009-04-22,01:07:40,-1
443907.78217213106,4425111.0028688535,39925.0637152778,39925.1119212963,183.31952978356637,2009-04-22,01:31:45,2009-04-22,02:41:10,285
440268.9365122616,4425545.492098099,39925.1253472222,39925.2486111111,187.0252656731696,2009-04-22,03:00:30,2009-04-22,05:58:00,280
442508.9277349771,4425957.289676428,39925.2532986111,39925.2905092593,185.02870047641858,2009-04-22,06:04:45,2009-04-22,06:58:20,281
442044.4774764159,4425946.001356139,39925.2905671296,39925.4510416667,188.02648749576207,2009-04-22,06:58:25,2009-04-22,10:49:30,279
442730.64166666666,4426933.558333334,39925.4541087963,39925.5548611111,155.86150903930223,2009-04-22,10:53:55,2009-04-22,13:19:00,277
440007.35135135136,4429490.256756756,39925.5653356481,39925.5673032407,195.05078825779412,2009-04-22,13:34:05,2009-04-22,13:36:55,278
440013.5083333333,4429501.029166666,39925.6045486111,39925.8873958333,186.12557588887287,2009-04-22,14:30:33,2009-04-22,21:17:51,278
442035.4972747919,4425938.334519302,39925.896712963,39926.1264583333,184.6027085397349,2009-04-22,21:31:16,2009-04-23,03:02:06,279
440277.3247547166,4425549.468905647,39926.1312615741,39926.2508217593,190.2436595526436,2009-04-23,03:09:01,2009-04-23,06:01:11,280
442514.36945392523,4425962.373720135,39926.2557986111,39926.2893055556,196.50753166224007,2009-04-23,06:08:21,2009-04-23,06:56:36,281
442548.1439393938,4425513.304545453,39926.2897685185,39926.355162037,176.09571261050968,2009-04-23,06:57:16,2009-04-23,08:31:26,-1
442033.74246862,4425942.564435144,39926.3560300926,39926.383287037,192.9174434829489,2009-04-23,08:32:41,2009-04-23,09:11:56,279
442541.8495575216,4425492.131327433,39926.3843865741,39926.4301041667,170.65594041820887,2009-04-23,09:13:31,2009-04-23,10:19:21,-1
442041.1671568625,4425951.60833333,39926.4308564815,39926.4726388889,199.7009013501803,2009-04-23,10:20:26,2009-04-23,11:20:36,279
439981.1858064519,4429497.3812903175,39926.4861805556,39926.8885532407,198.8976118509483,2009-04-23,11:40:06,2009-04-23,21:19:31,278
442038.35294117656,4425961.493137256,39926.8971759259,39927.0304513889,188.7191034313409,2009-04-23,21:31:56,2009-04-24,00:43:51,279
443878.137353801,4425103.0684941495,39927.0368171296,39927.1126273148,177.75165259403656,2009-04-24,00:53:01,2009-04-24,02:42:11,285
440272.5287054413,4425540.55741089,39927.1343287037,39927.2566666667,179.05655531144342,2009-04-24,03:13:26,2009-04-24,06:09:36,280
442523.5952638703,4425956.54952639,39927.2688773148,39927.3111805556,190.85177494603067,2009-04-24,06:27:11,2009-04-24,07:28:06,281
442033.47385837184,4425951.930641954,39927.3115277778,39927.4585185185,180.49767311517854,2009-04-24,07:28:36,2009-04-24,11:00:16,279
442760.6186046513,4426947.995348839,39927.4621643518,39927.4642476852,184.3069721957059,2009-04-24,11:05:31,2009-04-24,11:08:31,277
442737.5851851853,4426972.433333334,39929.2244328704,39929.5597337963,197.38857616373642,2009-04-26,05:23:11,2009-04-26,13:26:01,277
440033.9039999998,4429503.094666666,39929.570150463,39929.8855902778,185.57090289160695,2009-04-26,13:41:01,2009-04-26,21:15:15,278
442062.5587912083,4425957.937362636,39929.8943865741,39929.9419560185,199.98562448392198,2009-04-26,21:27:55,2009-04-26,22:36:25,279
442025.9261363641,4425933.208080812,39929.9420138889,39930.0288194444,196.67315526049174,2009-04-26,22:36:30,2009-04-27,00:41:30,279
442526.29394673125,4425952.3329297835,39930.0291087963,39930.0561342593,192.94356687891522,2009-04-27,00:41:55,2009-04-27,01:20:50,281
443894.62484076346,4425112.301910821,39930.0599537037,39930.1288773148,174.63665136503252,2009-04-27,01:26:20,2009-04-27,03:05:35,285
440367.99285714276,4425547.182142857,39930.1351851852,39930.2504050926,177.05705295112145,2009-04-27,03:14:40,2009-04-27,06:00:35,-1