442809.93333333335,4425287.833333334,39567.3483101852,39567.386087963,43.13942512366553,2008-04-29,08:21:34,2008-04-29,09:15:58,-1
444868.50000000006,4423783.475,39568.5805324074,39568.5829398148,190.9965706498443,2008-04-30,13:55:58,2008-04-30,13:59:26,-1
712331.5499999999,4410521.957142857,39569.1722569444,39569.2301041667,142.6875257337882,2008-05-01,04:08:03,2008-05-01,05:31:21,-1
712028.14,4410219.04,39569.2340740741,39569.3325347222,162.66394806507685,2008-05-01,05:37:04,2008-05-01,07:58:51,-1
712382.85,4410597.0,39569.3788310185,39569.4656134259,64.55640944174885,2008-05-01,09:05:31,2008-05-01,11:10:29,-1
712389.575,4410643.699999999,39569.4862731481,39569.4890856481,135.95955280847983,2008-05-01,11:40:14,2008-05-01,11:44:17,-1
712064.1909090909,4410170.254545455,39570.0237847222,39570.0478819444,178.7389716883208,2008-05-02,00:34:15,2008-05-02,01:08:57,-1
712184.11,4410443.34,39570.0500115741,39570.1234953704,190.1414210524389,2008-05-02,01:12:01,2008-05-02,02:57:50,-1
712595.6000000001,4409926.25,39570.1657523148,39570.2318287037,188.95766721676048,2008-05-02,03:58:41,2008-05-02,05:33:50,-1
712197.5333333332,4409982.8,39570.2353587963,39570.2518287037,153.5677700562737,2008-05-02,05:38:55,2008-05-02,06:02:38,-1
714042.75,4411370.675,39570.2963541667,39570.3038888889,66.36866730637935,2008-05-02,07:06:45,2008-05-02,07:17:36,-1
689931.7,4421757.1,39570.3988425926,39570.3988425926,0.0,2008-05-02,09:34:20,2008-05-02,09:34:20,-1
444784.95,4423698.524999999,39573.6158217593,39573.6176736111,160.83189982080853,2008-05-05,14:46:47,2008-05-05,14:49:27,-1
443000.4,4425250.375,39574.0257407407,39574.0276388889,185.88840738463009,2008-05-06,00:37:04,2008-05-06,00:39:48,-1
444908.66,4423789.4799999995,39574.6059027778,39575.0352430556,161.36186042513842,2008-05-06,14:32:30,2008-05-07,00:50:45,-1
442964.3666666667,4425252.8,39575.0492824074,39575.0507638889,163.62166726914768,2008-05-07,01:10:58,2008-05-07,01:13:06,-1
444619.41666666657,4423859.283333334,39575.4278356481,39575.4309722222,165.12746591576803,2008-05-07,10:16:05,2008-05-07,10:20:36,-1