442835.9272727272,4425302.809090909,39294.4921643519,39294.5131944444,129.5225076963775,2007-07-31,11:48:43,2007-07-31,12:19:00,-1
443863.1583333334,4425544.558333334,39294.5244328704,39294.6533680556,198.10111054704413,2007-07-31,12:35:11,2007-07-31,15:40:51,-1
443525.81499999994,4425409.244999999,39294.6542361111,39294.9831944444,189.28394015339273,2007-07-31,15:42:06,2007-07-31,23:35:48,403
455368.4095238095,4428901.523809523,39295.0341550926,39295.4835185185,171.87393635991316,2007-08-01,00:49:11,2007-08-01,11:36:16,-1
451161.4,4426598.7,39295.5011342593,39295.5011342593,0.0,2007-08-01,12:01:38,2007-08-01,12:01:38,-1
443681.43333333335,4425448.183333334,39295.6397685185,39295.6411805556,181.5264168109636,2007-08-01,15:21:16,2007-08-01,15:23:18,-1
443986.07,4425589.54,39296.0184837963,39296.0203240741,186.85976024868262,2007-08-02,00:26:37,2007-08-02,00:29:16,-1
444372.85,4421405.3,39296.1044675926,39296.1044907407,106.85059662875516,2007-08-02,02:30:26,2007-08-02,02:30:28,-1
452758.75,4418162.9625,39296.1315740741,39296.1330555556,173.58378380477495,2007-08-02,03:09:28,2007-08-02,03:11:36,-1
453404.46428571426,4417289.357142857,39296.1897453704,39296.1999421296,183.1033041751668,2007-08-02,04:33:14,2007-08-02,04:47:55,-1
443522.0733333333,4425394.513333334,39296.6515277778,39296.6571064815,199.12548807203595,2007-08-02,15:38:12,2007-08-02,15:46:14,403
443818.02173913043,4425770.508695653,39297.0067013889,39297.1779398148,199.91698277028362,2007-08-03,00:09:39,2007-08-03,04:16:14,-1
444008.06666666665,4425636.0,39297.1782291667,39297.1785763889,27.54650613055777,2007-08-03,04:16:39,2007-08-03,04:17:09,-1
445876.65,4423124.837499999,39297.3803125,39297.3826388889,188.21455841676755,2007-08-03,09:07:39,2007-08-03,09:11:00,-1
444201.7555555556,4425603.850000001,39297.4485532407,39297.523900463,91.49699448618571,2007-08-03,10:45:55,2007-08-03,12:34:25,-1
443488.34,4425295.369999999,39297.5864351852,39297.5885185185,149.77155938239713,2007-08-03,14:04:28,2007-08-03,14:07:28,-1
443945.1833333334,4425716.783333333,39298.1897453704,39298.1926388889,164.52483095278453,2007-08-04,04:33:14,2007-08-04,04:37:24,-1
446106.01000000007,4423047.21,39298.3414699074,39298.343900463,198.70908383879944,2007-08-04,08:11:43,2007-08-04,08:15:13,-1
446041.5857142857,4423167.771428571,39298.3999884259,39298.4026736111,188.3575323686084,2007-08-04,09:35:59,2007-08-04,09:39:51,-1
446118.91153846146,4423059.396153847,39298.4357986111,39298.5243865741,149.0810517803965,2007-08-04,10:27:33,2007-08-04,12:35:07,-1
445657.5,4425033.9,39298.5345023148,39298.5345023148,0.0,2007-08-04,12:49:41,2007-08-04,12:49:41,-1
443555.2727272728,4425436.181818182,39298.6666435185,39299.0649305556,71.75966833816406,2007-08-04,15:59:58,2007-08-05,01:33:30,403
443494.2263157895,4425922.747368421,39299.0750578704,39299.0976157407,196.1581249907632,2007-08-05,01:48:05,2007-08-05,02:20:34,-1
444059.2444444445,4425739.833333333,39299.1024652778,39299.1044097222,157.2097961325336,2007-08-05,02:27:33,2007-08-05,02:30:21,-1
443638.0176470589,4425761.694117647,39299.1732986111,39299.1942476852,164.21510283768137,2007-08-05,04:09:33,2007-08-05,04:39:43,-1
444040.93,4425732.33,39299.1950347222,39299.1971527778,178.31682478105077,2007-08-05,04:40:51,2007-08-05,04:43:54,-1
447661.9947368422,4422020.652631579,39299.3599189815,39299.3770023148,76.30340752550597,2007-08-05,08:38:17,2007-08-05,09:02:53,-1
444063.3833333333,4425614.333333334,39299.4967361111,39299.657337963,156.25187998853895,2007-08-05,11:55:18,2007-08-05,15:46:34,-1
443547.61764705874,4425403.364705882,39299.6609837963,39299.6675925926,199.46327982857412,2007-08-05,15:51:49,2007-08-05,16:01:20,403
455358.89999999997,4428898.233333333,39300.0240277778,39300.0257407407,162.7037184577702,2007-08-06,00:34:36,2007-08-06,00:37:04,-1
443670.72800000006,4426318.156,39300.4930902778,39300.5192361111,183.72808712904487,2007-08-06,11:50:03,2007-08-06,12:27:42,-1
444069.47500000003,4425678.893749999,39300.5299768519,39300.6700578704,196.14497189541592,2007-08-06,12:43:10,2007-08-06,16:04:53,-1
443559.2800000001,4425384.200000001,39300.6752662037,39300.6776851852,179.26142920352825,2007-08-06,16:12:23,2007-08-06,16:15:52,-1
455414.22222222225,4428870.155555555,39301.0263657407,39301.0277083333,181.88633813455272,2007-08-07,00:37:58,2007-08-07,00:39:54,-1
443959.84545454546,4425590.618181818,39301.4473263889,39301.4493981482,152.76534292847978,2007-08-07,10:44:09,2007-08-07,10:47:08,-1
443548.76,4425422.453333333,39301.6425115741,39301.6457407407,178.61377326499692,2007-08-07,15:25:13,2007-08-07,15:29:52,403
455467.85,4428816.437500001,39302.0208564815,39302.0223032407,111.60667542781341,2007-08-08,00:30:02,2007-08-08,00:32:07,-1
444147.34545454546,4425646.754545455,39302.4643634259,39302.4662037037,173.8600011501645,2007-08-08,11:08:41,2007-08-08,11:11:20,-1
443573.3181818183,4425407.954545455,39302.5938194444,39302.5964583333,189.9604695720747,2007-08-08,14:15:06,2007-08-08,14:18:54,403
443910.9413793104,4425544.848275862,39303.0407638889,39303.4355787037,199.59143268178303,2007-08-09,00:58:42,2007-08-09,10:27:14,-1
443945.8375,4425547.6625,39303.4357638889,39303.6630208333,192.95421736788293,2007-08-09,10:27:30,2007-08-09,15:54:45,-1
443571.6833333333,4425422.775,39303.6647222222,39303.6671990741,191.76782837563698,2007-08-09,15:57:12,2007-08-09,16:00:46,403
443476.02307692304,4425300.546153847,39303.9683912037,39303.978287037,176.64045403075244,2007-08-09,23:14:29,2007-08-09,23:28:44,-1
455474.66,4428805.6,39304.0218171296,39304.023275463,108.87263200610812,2007-08-10,00:31:25,2007-08-10,00:33:31,-1