440769.50884353707,4425716.167346939,40812.0756134259,40812.0773032407,162.60381299342276,2011-09-26,01:48:53,2011-09-26,01:51:19,-1
443157.259375,4425741.3062499985,40912.6333680556,40912.6341203704,72.02201052444529,2012-01-04,15:12:03,2012-01-04,15:13:08,-1
440630.901851852,4425452.528703704,40913.0407291667,40913.0431134259,186.07786004824806,2012-01-05,00:58:39,2012-01-05,01:02:05,-1
440495.4076923076,4425466.35104895,40914.0333796296,40914.0355787037,191.31129083249522,2012-01-06,00:48:04,2012-01-06,00:51:14,465
450942.25560165953,4417035.056569852,40914.4311226852,40914.4465393518,175.118302869582,2012-01-06,10:20:49,2012-01-06,10:43:01,-1
440690.88581560267,4425756.985106385,40915.2165625,40915.2229976852,199.54851540382893,2012-01-07,05:11:51,2012-01-07,05:21:07,-1
442980.58196721325,4425582.718032787,40915.4117013889,40915.4131712963,134.70449138800325,2012-01-07,09:52:51,2012-01-07,09:54:58,-1
440530.76476868294,4425527.712811386,40916.0974189815,40916.5390162037,197.76127022292525,2012-01-08,02:20:17,2012-01-08,12:56:11,-1
443480.1,4425496.5,40916.5572222222,40916.5572222222,0.0,2012-01-08,13:22:24,2012-01-08,13:22:24,-1
440522.14702702686,4425487.331891889,40917.0134490741,40917.0155787037,199.5948145618966,2012-01-09,00:19:22,2012-01-09,00:22:26,465
442899.98416666675,4425509.307499998,40917.6069675926,40917.6099421296,195.28842771675775,2012-01-09,14:34:02,2012-01-09,14:38:19,466
440501.4090395481,4425418.388135592,40918.0266782407,40918.0287152778,199.75990588649364,2012-01-10,00:38:25,2012-01-10,00:41:21,-1
440512.3307017545,4425474.583333332,40919.0417939815,40919.0437847222,197.26989126576333,2012-01-11,01:00:11,2012-01-11,01:03:03,465
442902.17225130904,4425484.698429319,40919.6076851852,40919.6113541667,199.62910609416002,2012-01-11,14:35:04,2012-01-11,14:40:21,466
440501.0085937499,4425454.631250001,40920.0432523148,40920.045462963,198.78355062762947,2012-01-12,01:02:17,2012-01-12,01:05:28,465
440708.50093167677,4424533.855279504,40920.5171180556,40920.5216087963,101.80653220660749,2012-01-12,12:24:39,2012-01-12,12:31:07,-1
442927.1861842105,4425371.120394739,40920.5598263889,40920.5616203704,190.58294782060872,2012-01-12,13:26:09,2012-01-12,13:28:44,-1
440531.63942307676,4425442.784134616,40921.0311458333,40921.0340856481,195.76026154466365,2012-01-13,00:44:51,2012-01-13,00:49:05,465
440475.8570570566,2771371.3891891884,40927.3495833333,40927.3575462963,53.00198109498129,2012-01-19,08:23:24,2012-01-19,08:34:52,-1
443361.3285714285,4415303.271428572,40937.2070833333,40937.2072337963,198.99932160707002,2012-01-29,04:58:12,2012-01-29,04:58:25,-1
442914.2528301887,4425529.809433962,40938.5964351852,40938.5982638889,199.98462440865646,2012-01-30,14:18:52,2012-01-30,14:21:30,466
440612.75196374644,4425363.939879155,40939.0332291667,40939.5816319444,199.88006403840524,2012-01-31,00:47:51,2012-01-31,13:57:33,-1
442888.5708333332,4425470.414583333,40939.5941666667,40939.5974074074,199.5123053851495,2012-01-31,14:15:36,2012-01-31,14:20:16,466
440519.42068965535,4425465.783333333,40940.0393634259,40940.042037037,189.63103648978907,2012-02-01,00:56:41,2012-02-01,01:00:32,465
442748.2459999998,4425576.69,40940.603587963,40940.6053125,190.87949077879932,2012-02-01,14:29:10,2012-02-01,14:31:39,-1
440564.61466666666,4425477.760666666,40941.0289351852,40941.0312962963,106.30075258411988,2012-02-02,00:41:40,2012-02-02,00:45:04,-1
442880.97290076345,4425423.575572521,40941.5975462963,40942.0149537037,199.44625842568598,2012-02-02,14:20:28,2012-02-03,00:21:32,-1
440466.6670050765,4425263.65482234,40942.0271527778,40945.6042361111,199.71684956483952,2012-02-03,00:39:06,2012-02-06,14:30:06,-1
442784.8063694266,4425478.003821658,40945.6117013889,40945.6146875,197.71868905097972,2012-02-06,14:40:51,2012-02-06,14:45:09,-1
442954.0344398339,4425371.018257263,40946.592662037,40947.0337615741,190.52705844579438,2012-02-07,14:13:26,2012-02-08,00:48:37,-1
440571.6228070176,4425694.712280701,40947.0529976852,40947.0536458333,73.34609737371912,2012-02-08,01:16:19,2012-02-08,01:17:15,-1
443153.28124999994,4425214.403124999,40947.2871296296,40947.2884259259,155.75737542733208,2012-02-08,06:53:28,2012-02-08,06:55:20,-1
442828.45470852003,4425440.879372198,40947.5475925926,40948.0396064815,198.65729284337218,2012-02-08,13:08:32,2012-02-09,00:57:02,466
440480.1156126485,4425390.264822137,40948.0479976852,40948.5957407407,199.37592633050528,2012-02-09,01:09:07,2012-02-09,14:17:52,-1
442797.9061797751,4425423.086516853,40948.6073842593,40948.6099884259,199.69789683430875,2012-02-09,14:34:38,2012-02-09,14:38:23,-1
440662.5591240874,4425700.357299272,40950.3739699074,40950.3797337963,98.54805934111604,2012-02-11,08:58:31,2012-02-11,09:06:49,-1
442833.35833333316,4425474.656666666,40950.601875,40950.6044212963,198.91611297251137,2012-02-11,14:26:42,2012-02-11,14:30:22,466
440556.9316831684,4425652.990099009,40951.3797569444,40951.3818402778,177.01175102237607,2012-02-12,09:06:51,2012-02-12,09:09:51,-1
442909.39181818167,4425539.546363635,40951.6145601852,40951.6182060185,189.14801082770035,2012-02-12,14:44:58,2012-02-12,14:50:13,-1
440582.0444444445,4425770.6466666665,40952.0332638889,40952.0337847222,69.75385294012808,2012-02-13,00:47:54,2012-02-13,00:48:39,-1
442896.48947368405,4425475.969298244,40952.5157638889,40952.5187268518,189.49517144259542,2012-02-13,12:22:42,2012-02-13,12:26:58,-1
442825.5087628865,4425427.360824743,40953.6136111111,40953.6165046296,185.42518707014966,2012-02-14,14:43:36,2012-02-14,14:47:46,-1
440562.02800000005,4425548.294666666,40954.0503240741,40954.0602430556,198.97964720023407,2012-02-15,01:12:28,2012-02-15,01:26:45,-1
440502.8295302014,4425431.378523489,40955.042974537,40955.0446875,199.7259372238153,2012-02-16,01:01:53,2012-02-16,01:04:21,465
442820.4135338344,4425490.918045113,40955.6055787037,40955.6075694444,196.7617086734013,2012-02-16,14:32:02,2012-02-16,14:34:54,466
440635.2353932582,4425433.537078653,40956.0488657407,40956.0513657407,199.06634572424863,2012-02-17,01:10:22,2012-02-17,01:13:58,-1
440640.55157894717,4425430.562105262,40958.1528356481,40958.1551041667,134.11342214744585,2012-02-19,03:40:05,2012-02-19,03:43:21,-1
442778.4688888888,4425388.133333331,40958.4860648148,40958.4886342593,198.1476469706473,2012-02-19,11:39:56,2012-02-19,11:43:38,-1
440515.27777777787,4425445.685185186,40959.0142361111,40959.0173148148,184.2617974510968,2012-02-20,00:20:30,2012-02-20,00:24:56,465
442733.80352112645,4425402.11056338,40959.5721759259,40959.5738078704,197.9773977000127,2012-02-20,13:43:56,2012-02-20,13:46:17,-1
440524.7120689655,4425472.988505748,40960.0192824074,40960.0217476852,146.99200658587822,2012-02-21,00:27:46,2012-02-21,00:31:19,465
442913.721022727,4425389.081818181,40960.5786689815,40960.5806944444,198.99047715945653,2012-02-21,13:53:17,2012-02-21,13:56:12,-1
440522.6176470586,4425459.774705879,40961.0432060185,40961.5233217593,185.53891775042754,2012-02-22,01:02:13,2012-02-22,12:33:35,465
442770.4569343065,4425439.034306571,40961.5346412037,40961.5368518519,198.98052668540205,2012-02-22,12:49:53,2012-02-22,12:53:04,-1
440475.693650794,4425289.302267567,40962.0425231481,40962.547025463,196.63265242546467,2012-02-23,01:01:14,2012-02-23,13:07:43,-1
442804.0515624998,4425453.635156251,40962.5549537037,40962.5568865741,198.57995870693657,2012-02-23,13:19:08,2012-02-23,13:21:55,466
440487.4270114941,4425290.559195399,40963.0509375,40963.497650463,196.59811799740115,2012-02-24,01:13:21,2012-02-24,11:56:37,-1
442827.6654929575,4425466.255633803,40963.5047106481,40963.5075,194.6448047082778,2012-02-24,12:06:47,2012-02-24,12:10:48,466
442827.0375527427,4428278.970886078,40964.0297685185,40964.0331828704,199.191365274348,2012-02-25,00:42:52,2012-02-25,00:47:47,-1
442778.6545945948,4425470.93027027,40964.4645486111,40964.4666782407,197.13398996618446,2012-02-25,11:08:57,2012-02-25,11:12:01,-1
440516.65467625915,4425594.7467625905,40965.0662268519,40965.0682986111,185.22680691574945,2012-02-26,01:35:22,2012-02-26,01:38:21,-1
442834.44476744183,4425446.199418604,40968.5574189815,40968.5593981481,197.48480954240506,2012-02-29,13:22:41,2012-02-29,13:25:32,466
440510.9841463418,4425436.850609758,40969.0528240741,40969.0553240741,199.64721385484964,2012-03-01,01:16:04,2012-03-01,01:19:40,465
442853.001869159,4425500.921495326,40969.5818402778,40969.5835185185,196.92600133054475,2012-03-01,13:57:51,2012-03-01,14:00:16,466
440521.64,4424483.8,40970.5351851852,40970.5352430556,11.86001686348551,2012-03-02,12:50:40,2012-03-02,12:50:45,-1
440696.13529411773,4425591.507486634,40971.147025463,40971.1491782407,194.44536507701176,2012-03-03,03:31:43,2012-03-03,03:34:49,-1
440670.5727272727,4425840.2272727275,40971.1786111111,40971.1787268519,18.536720313650807,2012-03-03,04:17:12,2012-03-03,04:17:22,-1
442852.51909090934,4425475.279090906,40971.5240972222,40972.4348726852,198.35977414839203,2012-03-03,12:34:42,2012-03-04,10:26:13,466
440637.9333333333,4425598.699999998,40972.4432986111,40972.4452083333,197.9692905479592,2012-03-04,10:38:21,2012-03-04,10:41:06,-1
442747.52243589744,4425448.44871795,40972.5952199074,40972.5970138889,199.15453798439663,2012-03-04,14:17:07,2012-03-04,14:19:42,-1
440523.8528888889,4425472.309333334,40973.0001157407,40973.0027083333,145.7963648375217,2012-03-05,00:00:10,2012-03-05,00:03:54,465
442847.9579487179,4425516.284102565,40973.5856712963,40973.5879282407,77.70231656811268,2012-03-05,14:03:22,2012-03-05,14:06:37,-1
440489.5622727269,4425340.903636361,40975.0419444444,40975.0452199074,154.60119663169345,2012-03-07,01:00:24,2012-03-07,01:05:07,-1
442897.2522727276,4425496.56168831,40975.5858217593,40975.5909953704,178.28432348333476,2012-03-07,14:03:35,2012-03-07,14:11:02,466
440479.59311926615,4425396.24082569,40976.0453587963,40977.5992939815,199.72593722361472,2012-03-08,01:05:19,2012-03-09,14:22:59,-1
442852.8401709402,4425506.324358975,40977.6091319444,40977.6118287037,188.437628938488,2012-03-09,14:37:09,2012-03-09,14:41:02,466
440503.78054794524,4425492.141643834,40979.4622569444,40979.5983680556,199.12659289990995,2012-03-11,11:05:39,2012-03-11,14:21:39,465
442863.1952127661,4425511.004787232,40979.6102199074,40979.6123842593,192.54124233569283,2012-03-11,14:38:43,2012-03-11,14:41:50,466
440509.3993288591,4425458.217449665,40979.9895717593,40979.9918402778,199.14361651765967,2012-03-11,23:44:59,2012-03-11,23:48:15,465
442891.9685606062,4425455.200757576,40980.5414583333,40981.033900463,199.88399135500572,2012-03-12,12:59:42,2012-03-13,00:48:49,-1
440451.91428571445,4425631.130612246,40981.0547916667,40981.0566782407,61.38020853681509,2012-03-13,01:18:54,2012-03-13,01:21:37,-1
440524.22211981576,4425475.756682029,40982.0195949074,40982.0220949074,197.57441636031413,2012-03-14,00:28:13,2012-03-14,00:31:49,465
440522.30838709674,4425469.458064513,40983.0325810185,40983.0355902778,190.4065387534154,2012-03-15,00:46:55,2012-03-15,00:51:15,465
438131.85714285716,4427627.2349753715,40985.2163425926,40985.2202662037,188.66576265979543,2012-03-17,05:11:32,2012-03-17,05:17:11,-1
440462.3199999998,4425156.991304345,40988.5736574074,40990.5988773148,199.61588113171356,2012-03-20,13:46:04,2012-03-22,14:22:23,-1
442825.07372881356,4425473.711016949,40990.6060300926,40990.6080787037,198.2471185166195,2012-03-22,14:32:41,2012-03-22,14:35:38,466
442990.71219512203,4425506.690243903,40992.592650463,40992.5931134259,56.96191710278467,2012-03-24,14:13:25,2012-03-24,14:14:05,-1
440629.233333334,4425576.42956989,41006.0523842593,41008.5650231481,198.35332112167632,2012-04-07,01:15:26,2012-04-09,13:33:38,-1
442873.68787878804,4425496.431818181,41008.5830902778,41008.5854166667,199.07626679242335,2012-04-09,13:59:39,2012-04-09,14:03:00,466
382037.85000000015,4388490.562222223,41013.0710300926,41013.0727430556,189.68871869457,2012-04-14,01:42:17,2012-04-14,01:44:45,-1
381992.58518518734,4388525.020752442,41013.0923958333,41013.1862384259,5.5901699437494745,2012-04-14,02:13:03,2012-04-14,04:28:11,-1
440638.45855855825,4425419.449549547,41014.9876388889,41014.9901967593,188.37287490524463,2012-04-15,23:42:12,2012-04-15,23:45:53,-1
442873.2284603425,4425519.5513219265,41021.5981018519,41021.6055324074,179.08849767637997,2012-04-22,14:21:16,2012-04-22,14:31:58,466
442733.049019608,4425317.039705883,41023.6047222222,41023.6078240741,199.64273089750432,2012-04-24,14:30:48,2012-04-24,14:35:16,-1