448102.86666666664,4414464.433333334,40322.5410648148,40322.5414699074,187.5606835130353,2010-05-24,12:59:08,2010-05-24,12:59:43,-1
442879.5727272728,4425247.359090908,40323.1120138889,40323.1132291667,131.8157805425235,2010-05-25,02:41:18,2010-05-25,02:43:03,477
447944.6583333334,4414591.133333332,40323.556724537,40323.5573611111,180.5697926011658,2010-05-25,13:21:41,2010-05-25,13:22:36,-1
442937.63999999996,4425214.140000001,40325.0816550926,40325.5389351852,188.9784379233888,2010-05-27,01:57:35,2010-05-27,12:56:04,-1
447871.1875,4414706.893750001,40325.5716319444,40326.052025463,182.4240389860017,2010-05-27,13:43:09,2010-05-28,01:14:55,-1
442871.78235294117,4425249.852941178,40326.0920717593,40326.0929976852,86.62707428973923,2010-05-28,02:12:35,2010-05-28,02:13:55,477
453317.07692307694,4417196.407692308,40327.1680208333,40327.1687152778,184.34847436359507,2010-05-29,04:01:57,2010-05-29,04:02:57,-1
447153.25384615397,4417428.96923077,40327.5984606481,40327.6013541667,158.37023078860528,2010-05-29,14:21:47,2010-05-29,14:25:57,-1
447964.18750000006,4414584.25,40328.5480324074,40328.548900463,193.29079129619473,2010-05-30,13:09:10,2010-05-30,13:10:25,-1
447947.9666666667,4414585.173333333,40329.4863541667,40329.4871643518,191.3178768435591,2010-05-31,11:40:21,2010-05-31,11:41:31,-1
442874.2588235294,4425247.3,40330.1237037037,40330.1246296296,128.29216655748425,2010-06-01,02:58:08,2010-06-01,02:59:28,477
444622.67999999993,4417957.006666666,40330.4750925926,40330.4766550926,146.54036986459914,2010-06-01,11:24:08,2010-06-01,11:26:23,-1
442870.09411764704,4425248.7,40332.1826273148,40332.1835532407,119.78150942447388,2010-06-03,04:22:59,2010-06-03,04:24:19,477
445232.84999999986,4426669.09375,40334.3462037037,40334.3470717593,164.36985733436353,2010-06-05,08:18:32,2010-06-05,08:19:47,-1
445228.56190476206,4426684.785714286,40335.1738773148,40335.1749768518,190.06156897208965,2010-06-06,04:10:23,2010-06-06,04:11:58,-1
447918.9545454545,4414658.4363636365,40335.3758912037,40335.376412037,171.92094113246398,2010-06-06,09:01:17,2010-06-06,09:02:02,-1
448008.69999999995,4414567.215789474,40338.5613425926,40338.5623263889,194.78154430046294,2010-06-09,13:28:20,2010-06-09,13:29:45,-1
442869.81764705887,4425247.517647059,40339.132974537,40339.133900463,104.56662947611343,2010-06-10,03:11:29,2010-06-10,03:12:49,477
447843.18260869576,4414753.860869564,40339.4820023148,40340.0923726852,174.91649436239172,2010-06-10,11:34:05,2010-06-11,02:13:01,-1
442874.84736842103,4425245.305263158,40340.1174305556,40340.1184722222,107.2769313505823,2010-06-11,02:49:06,2010-06-11,02:50:36,477
442881.95,4425248.414999999,40341.1021296296,40341.1032291667,136.3831734489911,2010-06-12,02:27:04,2010-06-12,02:28:39,477
454563.55999999994,4417526.31,40343.2383217593,40343.2388425926,130.5641987681187,2010-06-14,05:43:11,2010-06-14,05:43:56,-1
445230.77948717965,4426616.717948718,40343.3570717593,40345.0482291667,143.5510362206538,2010-06-14,08:34:11,2010-06-16,01:09:27,-1
468739.1285714285,4416584.142857143,40345.0684837963,40345.0687731481,197.4919745206567,2010-06-16,01:38:37,2010-06-16,01:39:02,-1