444767.76000000007,4423656.1899999995,39260.4405324074,39260.4431134259,189.5333479893102,2007-06-27,10:34:22,2007-06-27,10:38:05,-1
456416.36000000004,4424679.253333333,39262.0348032407,39262.4065277778,195.0031025394243,2007-06-29,00:50:07,2007-06-29,09:45:24,-1
444577.5,4423481.157142857,39262.4602430556,39262.4706365741,177.08512077597976,2007-06-29,11:02:45,2007-06-29,11:17:43,-1
454725.63999999996,4419841.14,39267.5613888889,39267.5623032407,94.23401721271473,2007-07-04,13:28:24,2007-07-04,13:29:43,-1
443027.4538461538,4425239.138461539,39268.0801388889,39268.0827546296,176.04400018172058,2007-07-05,01:55:24,2007-07-05,01:59:10,-1
444032.72307692305,4424330.607692308,39268.5403009259,39269.0258449074,197.38908277852278,2007-07-05,12:58:02,2007-07-06,00:37:13,-1
442746.66,4425235.62,39269.0355208333,39269.0387268519,173.59726380343395,2007-07-06,00:51:09,2007-07-06,00:55:46,-1
443438.05714285705,4425224.114285715,39269.4277083333,39269.4541666667,159.32824608334923,2007-07-06,10:15:54,2007-07-06,10:54:00,-1
453763.19999999995,4425258.496296296,39269.4958449074,39269.5809143518,53.729135484787435,2007-07-06,11:54:01,2007-07-06,13:56:31,-1