441605.69230769237,4426690.1115384605,39718.046412037,39718.1102199074,191.52903174172442,2008-09-27,01:06:50,2008-09-27,02:38:43,-1
441121.223853211,4426162.4146789,39718.1123032407,39718.1456018519,187.3676599629831,2008-09-27,02:41:43,2008-09-27,03:29:40,-1
441669.76666666666,4426637.771428571,39718.1477430556,39718.1488425926,198.9029914305587,2008-09-27,03:32:45,2008-09-27,03:34:20,-1
442663.0620689654,4425939.610344827,39718.4736226852,39718.4752430556,190.53695179672332,2008-09-27,11:22:01,2008-09-27,11:24:21,-1
441429.00416666665,4426527.937500001,39719.1007060185,39719.102037037,180.25992344388868,2008-09-28,02:25:01,2008-09-28,02:26:56,-1
444257.30133333325,4421286.376,39720.1923263889,39720.1974189815,141.91775787431285,2008-09-29,04:36:57,2008-09-29,04:44:17,-1
450667.9875000001,4416892.9275,39720.235462963,39720.2373958333,84.2829164184839,2008-09-29,05:39:04,2008-09-29,05:41:51,-1
450632.12499999994,4416972.425,39720.2640625,39720.2642361111,144.9723077008378,2008-09-29,06:20:15,2008-09-29,06:20:30,-1
517548.6734375,4331766.446874999,39720.3869907407,39720.3961342593,182.29300589983933,2008-09-29,09:17:16,2008-09-29,09:30:26,-1
561485.7,4335015.699999999,39720.4511226852,39720.4511805556,186.04913329567918,2008-09-29,10:49:37,2008-09-29,10:49:42,-1
269220.4,4467408.65,39720.6227662037,39720.6228240741,142.22534935830234,2008-09-29,14:56:47,2008-09-29,14:56:52,-1
637428.95,4653848.35,39720.8777777778,39720.8778356481,88.433590903543,2008-09-29,21:04:00,2008-09-29,21:04:05,-1
719997.7369047619,4712367.377380949,39720.9612268518,39720.9796875,116.90273735032898,2008-09-29,23:04:10,2008-09-29,23:30:45,-1
720017.4409836065,4712425.42240437,39721.0038194444,39721.037037037,195.2375476184905,2008-09-30,00:05:30,2008-09-30,00:53:20,-1
743925.5282051282,4623386.871794871,39721.1825231481,39721.187037037,176.75251059017577,2008-09-30,04:22:50,2008-09-30,04:29:20,-1
747515.6587500002,4626421.869999999,39721.2383564815,39721.2462268519,198.6057652738208,2008-09-30,05:43:14,2008-09-30,05:54:34,-1
263359.24625,4555899.641250001,39721.380162037,39722.0397569444,196.140689302036,2008-09-30,09:07:26,2008-10-01,00:57:15,-1
747315.1467289723,4626422.4943925245,39722.3019328704,39722.3481828704,184.49200524702243,2008-10-01,07:14:47,2008-10-01,08:21:23,-1
374146.2447761194,4671018.762686566,39722.5388078704,39722.9568287037,160.42300333786736,2008-10-01,12:55:53,2008-10-01,22:57:50,-1
419465.67967213085,4649822.709836065,39723.1205324074,39723.150625,197.87066482901494,2008-10-02,02:53:34,2008-10-02,03:36:54,-1
389290.0,4656394.933333334,39723.234537037,39723.2346527778,147.20489122309718,2008-10-02,05:37:44,2008-10-02,05:37:54,-1
428495.77233009686,4699965.126699029,39723.5090393518,39723.5411574074,199.7833326386379,2008-10-02,12:13:01,2008-10-02,12:59:16,-1
428510.7348416293,4699954.538009051,39723.5412152778,39723.8860648148,6.466065264143127,2008-10-02,12:59:21,2008-10-02,21:15:56,-1
441827.2576271188,4427716.001694916,39726.3812962963,39726.3925810185,185.91879947961266,2008-10-05,09:09:04,2008-10-05,09:25:19,-1
442681.40416666656,4425953.372916666,39726.4153472222,39727.029849537,157.86427714987673,2008-10-05,09:58:06,2008-10-06,00:42:59,-1
441611.4463157895,4426712.975789473,39727.0346527778,39727.1573148148,193.3004138643069,2008-10-06,00:49:54,2008-10-06,03:46:32,-1
441590.5571428571,4426821.7,39727.1940856481,39727.5392361111,176.75986535428834,2008-10-06,04:39:29,2008-10-06,12:56:30,-1