450429.08749999997,4417122.6,39569.9756134259,39569.9887731481,147.69322936410958,2008-05-01,23:24:53,2008-05-01,23:43:50,-1
720876.3333333333,4426913.844444444,39570.1455787037,39570.1720023148,195.53132741364936,2008-05-02,03:29:38,2008-05-02,04:07:41,-1
720956.87,4425980.58,39570.1794097222,39570.2170023148,179.46927313580957,2008-05-02,04:18:21,2008-05-02,05:12:29,-1
720807.5,4426195.9,39570.2176851852,39570.2176851852,0.0,2008-05-02,05:13:28,2008-05-02,05:13:28,-1
734988.0249999999,4432378.025,39570.2905324074,39570.3116898148,171.70104833692776,2008-05-02,06:58:22,2008-05-02,07:28:50,-1
735114.3999999999,4432383.166666667,39570.312974537,39570.3477662037,190.84844772769065,2008-05-02,07:30:41,2008-05-02,08:20:47,-1
738478.8625,4427990.925000001,39570.3788541667,39570.4027546296,181.78924610643512,2008-05-02,09:05:33,2008-05-02,09:39:58,-1
738639.51,4427836.319999999,39570.4125578704,39570.441712963,175.55449296462535,2008-05-02,09:54:05,2008-05-02,10:36:04,-1
725591.9,4423869.5,39570.4985763889,39570.4993981481,182.9187797903398,2008-05-02,11:57:57,2008-05-02,11:59:08,-1
720854.8666666667,4426824.333333333,39571.4522569444,39571.4770023148,90.77092045317626,2008-05-03,10:51:15,2008-05-03,11:26:53,-1
575043.5,4401237.3,39571.5762615741,39571.5762615741,0.0,2008-05-03,13:49:49,2008-05-03,13:49:49,-1
442043.5,4428740.733333333,39573.4171990741,39573.4189930556,160.57004701999097,2008-05-05,10:00:46,2008-05-05,10:03:21,-1
440931.75,4426041.725,39574.2288657407,39574.2301273148,180.57533054135615,2008-05-06,05:29:34,2008-05-06,05:31:23,-1
442527.0,4426364.85,39574.4135300926,39574.4153472222,127.4576400219306,2008-05-06,09:55:29,2008-05-06,09:58:06,-1
442050.65,4428611.525,39574.451087963,39574.4528472222,181.2498827583181,2008-05-06,10:49:34,2008-05-06,10:52:06,-1
442077.9916666667,4428787.524999999,39575.3253703704,39575.3463888889,102.02127229174299,2008-05-07,07:48:32,2008-05-07,08:18:48,-1
440268.44999999995,4427700.3,39584.4596296296,39584.4597106481,37.237749663169964,2008-05-16,11:01:52,2008-05-16,11:01:59,-1
440428.61428571434,4426639.157142857,39584.5451388889,39584.565474537,162.48227595667123,2008-05-16,13:05:00,2008-05-16,13:34:17,-1
441968.52978723403,4428531.568085107,39584.5913310185,39595.2586111111,199.3102355626323,2008-05-16,14:11:31,2008-05-27,06:12:24,-1
440246.693295019,4418896.374616855,39595.3339351852,39595.4476388889,186.5802776286831,2008-05-27,08:00:52,2008-05-27,10:44:36,-1
440158.6709026132,4418874.980760095,39595.4479513889,39595.4820486111,199.44625842568217,2008-05-27,10:45:03,2008-05-27,11:34:09,-1
440186.4352380956,4418901.007619051,39595.5446296296,39595.5686458333,52.26557184226348,2008-05-27,13:04:16,2008-05-27,13:38:51,-1
442019.57499999984,4428598.940384613,39595.6321064815,39626.0544907407,199.85417183518072,2008-05-27,15:10:14,2008-06-27,01:18:28,-1
450318.03380952333,4426406.264523813,39626.0836805556,39626.0904398148,183.12239076642174,2008-06-27,02:00:30,2008-06-27,02:10:14,-1