441962.79428571434,4426279.262857144,39920.5178009259,39920.7765625,197.14644303179475,2009-04-17,12:25:38,2009-04-17,18:38:15,-1
448172.83636363636,4428113.418181818,39920.8001388889,39920.8002546296,133.17120559603416,2009-04-17,19:12:12,2009-04-17,19:12:22,-1
460511.416,4444514.87,39921.4568171296,39921.5433217593,183.08863973459455,2009-04-18,10:57:49,2009-04-18,13:02:23,-1
460878.7933333333,4434743.786666666,39921.5540509259,39921.5544212963,195.98992320997522,2009-04-18,13:17:50,2009-04-18,13:18:22,-1
461652.64782608696,4439627.243478261,39921.5901273148,39921.6152777778,197.25364381917606,2009-04-18,14:09:47,2009-04-18,14:46:00,-1
460472.10909090907,4444538.159999999,39921.6227314815,39921.6432407407,190.8801980300212,2009-04-18,14:56:44,2009-04-18,15:26:16,-1
460434.2586206897,4444502.2,39921.6437037037,39921.7528125,123.2836161051467,2009-04-18,15:26:56,2009-04-18,18:04:03,-1
454793.9666666666,4446099.55,39921.7547685185,39921.7548263889,182.29078418824923,2009-04-18,18:06:52,2009-04-18,18:06:57,-1
453581.2887096776,4425154.220967742,39921.8042361111,39921.848900463,189.81301325266054,2009-04-18,19:18:06,2009-04-18,20:22:25,-1
460490.3934782609,4444565.871739131,39921.8638657407,39921.8783217593,163.27807568694115,2009-04-18,20:43:58,2009-04-18,21:04:47,-1
460372.01428571425,4444593.742857143,39921.9373263889,39921.9499884259,26.836542251863264,2009-04-18,22:29:45,2009-04-18,22:47:59,-1
467613.85178571416,4442475.119642858,39922.2789930556,39922.3090277778,199.2081323643048,2009-04-19,06:41:45,2009-04-19,07:25:00,-1
460523.4794871795,4444530.800000001,39922.3245717593,39922.3746527778,196.04879494644075,2009-04-19,07:47:23,2009-04-19,08:59:30,-1
460431.83125000005,4444521.346875,39922.3805208333,39922.3815972222,136.53296305243657,2009-04-19,09:07:57,2009-04-19,09:09:30,-1
441928.11587301583,4426386.336507937,39924.358275463,39924.3978125,191.807742283921,2009-04-21,08:35:55,2009-04-21,09:32:51,-1
442828.8368421054,4428734.37105263,39924.5029166667,39924.5247337963,189.15118291953345,2009-04-21,12:04:12,2009-04-21,12:35:37,-1
441907.10329670314,4426292.685714288,39924.5545833333,39924.5958217593,193.4263942696143,2009-04-21,13:18:36,2009-04-21,14:17:59,649
442795.00749999995,4428782.0425,39924.6018055556,39924.6379282407,196.6639011106845,2009-04-21,14:26:36,2009-04-21,15:18:37,-1
442020.4523809525,4426304.823809523,39924.7483333333,39924.7491550926,195.68896238670257,2009-04-21,17:57:36,2009-04-21,17:58:47,650
441914.192,4426232.752,39924.7822569444,39924.8382638889,190.9675626905711,2009-04-21,18:46:27,2009-04-21,20:07:06,-1
446627.4142857144,4427872.8178571435,39924.8443634259,39924.8450231481,196.00867327762563,2009-04-21,20:15:53,2009-04-21,20:16:50,651
442001.3275862069,4426297.175862069,39925.3658680556,39926.8169675926,194.4895112853196,2009-04-22,08:46:51,2009-04-23,19:36:26,650
442602.3222222221,4424833.177777778,39926.8278819444,39926.8283217593,198.7687098109896,2009-04-23,19:52:09,2009-04-23,19:52:47,-1
446645.1678571429,4427897.67857143,39926.9294560185,39926.9301273148,187.90130388042752,2009-04-23,22:18:25,2009-04-23,22:19:23,-1
442012.7736842105,4426298.910526317,39927.356875,39927.3573263889,190.84404627864686,2009-04-24,08:33:54,2009-04-24,08:34:33,650
439464.6499999999,4424247.07361111,39990.7534837963,39990.8490162037,198.28557688381622,2009-06-26,18:05:01,2009-06-26,20:22:35,-1
446627.71,4427875.326666667,39990.8649189815,39990.8655902778,166.63303994080022,2009-06-26,20:45:29,2009-06-26,20:46:27,651
446617.87499999994,4428734.768750001,39991.408287037,39991.4089930556,199.1558435002518,2009-06-27,09:47:56,2009-06-27,09:48:57,-1
446637.93571428576,4428722.292857143,39991.4684375,39991.4946412037,198.88753103273345,2009-06-27,11:14:33,2009-06-27,11:52:17,-1
446666.17407407414,4427962.825925925,39991.4952199074,39991.4958912037,199.0401969455455,2009-06-27,11:53:07,2009-06-27,11:54:05,-1
441987.62307692325,4426305.0423076935,39994.3485648148,39994.4233217593,195.78409026275244,2009-06-30,08:21:56,2009-06-30,10:09:35,-1
441902.807142857,4426312.152380952,39994.4328935185,39995.8463657407,199.16028720596327,2009-06-30,10:23:22,2009-07-01,20:18:46,649
446635.74375,4427886.812500002,39995.8621412037,39995.863287037,179.80350385921784,2009-07-01,20:41:29,2009-07-01,20:43:08,651
442003.89999999997,4426294.190909091,39996.3569560185,39996.3575462963,194.6989727759156,2009-07-02,08:34:01,2009-07-02,08:34:52,650
442970.1760000001,4425138.244,39996.7554166667,39996.7562384259,199.17321607061788,2009-07-02,18:07:48,2009-07-02,18:08:59,-1
442515.0862068964,4425214.796551724,39996.806712963,39996.9089814815,193.83209228617275,2009-07-02,19:21:40,2009-07-02,21:48:56,-1
446636.3384615384,4427885.661538461,39996.9421643519,39996.9428935185,162.64470480146184,2009-07-02,22:36:43,2009-07-02,22:37:46,651
442020.152,4426303.06,39997.3548263889,39997.355474537,134.1928463070962,2009-07-03,08:30:57,2009-07-03,08:31:53,650
445252.33384615387,4423682.241538462,39997.3930671296,39997.4617013889,198.0049494330847,2009-07-03,09:26:01,2009-07-03,11:04:51,-1
441983.6782608695,4426307.317391305,39997.4718865741,39997.5038194444,191.90177174795556,2009-07-03,11:19:31,2009-07-03,12:05:30,-1
443611.9888888889,4423756.633333333,39997.5120833333,39997.5128472222,194.99333321881315,2009-07-03,12:17:24,2009-07-03,12:18:30,-1
441995.82916666666,4426263.516666667,39997.5946875,39997.690474537,194.10886120937394,2009-07-03,14:16:21,2009-07-03,16:34:17,-1
441866.09310344834,4426283.331034483,39997.7394675926,39997.762037037,192.83892241967183,2009-07-03,17:44:50,2009-07-03,18:17:20,-1
446637.52424242435,4427869.684848485,39997.7746180556,39997.7755208333,196.07898918578087,2009-07-03,18:35:27,2009-07-03,18:36:45,651
442008.2285714285,4426297.980952381,40004.4272916667,40004.4278472222,191.6100206148291,2009-07-10,10:15:18,2009-07-10,10:16:06,650
441785.7470588235,4426441.973529413,40004.5146296296,40004.5629398148,198.54815536743098,2009-07-10,12:21:04,2009-07-10,13:30:38,-1
441836.9933333333,4426280.296666666,40004.5629976852,40004.7815625,192.79237536795534,2009-07-10,13:30:43,2009-07-10,18:45:27,-1
446641.39666666667,4427897.863333333,40004.7985532407,40004.7992361111,179.22589098698114,2009-07-10,19:09:55,2009-07-10,19:10:54,651
443628.5944444445,4423662.861111111,40009.500462963,40009.5647800926,192.93099802742788,2009-07-15,12:00:40,2009-07-15,13:33:17,-1
442025.86799999996,4426305.9520000005,40009.5927893519,40009.5940972222,196.94285973346538,2009-07-15,14:13:37,2009-07-15,14:15:30,650
441889.5555555556,4426273.773611112,40009.7130439815,40009.7768171296,197.86182047084765,2009-07-15,17:06:47,2009-07-15,18:38:37,649
460534.74285714293,4444527.371428572,40009.8317939815,40010.0092476852,186.34189008348255,2009-07-15,19:57:47,2009-07-16,00:13:19,-1
460563.8272727272,4444489.736363635,40010.1095717593,40010.2954282407,193.2335374616557,2009-07-16,02:37:47,2009-07-16,07:05:25,-1
441800.77627118625,4425831.913559322,40010.3254976852,40010.3497337963,196.428358441256,2009-07-16,07:48:43,2009-07-16,08:23:37,-1
441932.2787234043,4426283.280851063,40010.3499305556,40010.5066203704,196.38044709203788,2009-07-16,08:23:54,2009-07-16,12:09:32,649
442048.647457627,4426088.935593221,40010.5084027778,40010.5365625,193.74356763542207,2009-07-16,12:12:06,2009-07-16,12:52:39,-1
442004.2363636363,4426303.2727272725,40010.5956712963,40010.5961574074,196.90314878134097,2009-07-16,14:17:46,2009-07-16,14:18:28,650
446733.9380281691,4427574.9718309855,40010.7671643518,40010.8016203704,193.9293943681688,2009-07-16,18:24:43,2009-07-16,19:14:20,-1
446643.56333333347,4427889.663333333,40010.801712963,40010.8024074074,178.10137562681837,2009-07-16,19:14:28,2009-07-16,19:15:28,651
445689.57884615374,4429341.826923076,40016.3536689815,40016.4045486111,196.48104234308556,2009-07-22,08:29:17,2009-07-22,09:42:33,-1
442007.79545454547,4426293.036363637,40016.4147453704,40016.4152083333,193.78142325822154,2009-07-22,09:57:14,2009-07-22,09:57:54,650
443616.5266666667,4423738.695555555,40016.5083449074,40016.5803356481,198.72845795205075,2009-07-22,12:12:01,2009-07-22,13:55:41,-1
442977.6782608695,4425057.504347826,40016.5853587963,40016.5860648148,194.30208439453702,2009-07-22,14:02:55,2009-07-22,14:03:56,-1
442963.03076923086,4425486.76923077,40025.9735069444,40025.980162037,171.8589247028878,2009-07-31,23:21:51,2009-07-31,23:31:26,-1
449729.28333333327,4422037.491666666,40026.4742013889,40026.4862152778,179.14075471511663,2009-08-01,11:22:51,2009-08-01,11:40:09,-1
441651.7418604651,4423885.441860464,40026.5920023148,40026.5948842593,175.55343915743228,2009-08-01,14:12:29,2009-08-01,14:16:38,-1
441871.74545454537,4425794.0636363635,40026.6492592593,40026.649375,194.45436482630058,2009-08-01,15:34:56,2009-08-01,15:35:06,-1
447968.0185185184,4418050.6,40027.4720138889,40027.4953935185,192.10000000036922,2009-08-02,11:19:42,2009-08-02,11:53:22,-1
447796.2024193548,4418345.933064517,40027.5115393519,40027.5661689815,198.0840478180925,2009-08-02,12:16:37,2009-08-02,13:35:17,-1
447918.9236363636,4418599.16909091,40027.56625,40027.591875,196.4347219813036,2009-08-02,13:35:24,2009-08-02,14:12:18,-1
447876.0555555555,4418790.703703704,40027.5940856481,40027.6224189815,151.77279071051115,2009-08-02,14:15:29,2009-08-02,14:56:17,-1
447906.76034482755,4419033.562068965,40027.6628009259,40027.6853125,60.950881863730224,2009-08-02,15:54:26,2009-08-02,16:26:51,-1
447928.5785714286,4419383.153571426,40027.7288773148,40027.7518171296,196.88791227462698,2009-08-02,17:29:35,2009-08-02,18:02:37,-1
447840.36923076917,4419415.158974359,40027.7721643519,40027.7970833333,194.78616480653912,2009-08-02,18:31:55,2009-08-02,19:07:48,-1
448389.0558823529,4419270.247058825,40027.8071180556,40027.831087963,196.17933122542559,2009-08-02,19:22:15,2009-08-02,19:56:46,-1
448116.684090909,4417564.468181818,40027.8628935185,40027.8723611111,66.39352378078192,2009-08-02,20:42:34,2009-08-02,20:56:12,-1