442813.9411764706,4425196.082352942,39184.3968981481,39184.4350810185,151.70029663799772,2007-04-12,09:31:32,2007-04-12,10:26:31,-1
442834.51666666666,4425324.841666668,39184.4351273148,39184.4376157407,45.15085824157244,2007-04-12,10:26:35,2007-04-12,10:30:10,-1
437318.23,4422344.48,39184.4791087963,39184.481712963,168.45046749714513,2007-04-12,11:29:55,2007-04-12,11:33:40,671
442822.94000000006,4425406.9,39185.0880092593,39185.0892476852,98.47730703055853,2007-04-13,02:06:44,2007-04-13,02:08:31,672
442462.09375,4427059.28125,39185.2260416667,39185.2950347222,42.679268971810416,2007-04-13,05:25:30,2007-04-13,07:04:51,-1
442905.275,4425332.925000001,39185.3038425926,39185.304537037,165.7873336530107,2007-04-13,07:17:32,2007-04-13,07:18:32,673
437603.2,4422073.5200000005,39185.9267824074,39185.9594791667,101.10395640131478,2007-04-13,22:14:34,2007-04-13,23:01:39,-1
424445.875,4437982.825,39185.9901157407,39186.3016666667,198.70123301073903,2007-04-13,23:45:46,2007-04-14,07:14:24,-1
437274.55999999994,4422194.8100000005,39186.3695138889,39186.3731828704,185.00664852916285,2007-04-14,08:52:06,2007-04-14,08:57:23,-1
424261.875,4437930.300000001,39186.9893402778,39186.9899768519,132.65387291744824,2007-04-14,23:44:39,2007-04-14,23:45:34,-1
440690.52499999997,4421439.041666667,39187.3495023148,39187.3538657407,191.38539651684297,2007-04-15,08:23:17,2007-04-15,08:29:34,-1
442821.8,4425165.7,39188.0864467593,39188.0864467593,0.0,2007-04-16,02:04:29,2007-04-16,02:04:29,-1
437187.6533333333,4422365.419999999,39189.4821064815,39189.4865972222,144.3812314674238,2007-04-17,11:34:14,2007-04-17,11:40:42,-1
441558.9,4424175.35,39190.0712962963,39190.0719907407,188.0392778117449,2007-04-18,01:42:40,2007-04-18,01:43:40,-1
437357.6272727272,4422339.854545455,39190.4782291667,39192.0658333333,167.38984437531244,2007-04-18,11:28:39,2007-04-20,01:34:48,-1
442801.4,4425382.275,39192.0811111111,39192.0825694444,188.41839082211632,2007-04-20,01:56:48,2007-04-20,01:58:54,672
437320.0444444444,4422361.866666667,39192.4859259259,39192.4875347222,115.01604235913587,2007-04-20,11:39:44,2007-04-20,11:42:03,671
424205.23636363633,4437982.7,39192.9945833333,39193.0009722222,133.57260198092646,2007-04-20,23:52:12,2007-04-21,00:01:24,-1
438972.6142857143,4423231.685714285,39193.3545486111,39193.3565972222,177.92001011689598,2007-04-21,08:30:33,2007-04-21,08:33:30,-1
424369.95999999996,4437992.33,39193.982662037,39194.2966550926,176.65290826929512,2007-04-21,23:35:02,2007-04-22,07:07:11,-1
437271.9,4422183.93,39194.3686805556,39194.3720023148,193.43019412701594,2007-04-22,08:50:54,2007-04-22,08:55:41,-1
442855.9,4425385.1,39195.0498032407,39195.0509027778,70.7086981923168,2007-04-23,01:11:43,2007-04-23,01:13:18,672
442797.8666666667,4425385.383333333,39196.079525463,39196.0810532407,195.3032769821639,2007-04-24,01:54:31,2007-04-24,01:56:43,672
443006.91999999987,4424692.699999999,39196.188900463,39196.2576273148,187.68063299070133,2007-04-24,04:32:01,2007-04-24,06:10:59,-1
442801.18,4425220.593333333,39196.2628935185,39196.2686805556,95.91230369405454,2007-04-24,06:18:34,2007-04-24,06:26:54,-1
442833.6,4425404.25,39197.0821759259,39197.0825578704,25.838150088614864,2007-04-25,01:58:20,2007-04-25,01:58:53,672
437437.24117647065,4422359.370588236,39197.4794097222,39198.0251736111,191.82460738895458,2007-04-25,11:30:21,2007-04-26,00:36:15,-1
440144.3,4423493.533333333,39198.0316319444,39198.0327893518,192.98904113947575,2007-04-26,00:45:33,2007-04-26,00:47:13,-1
437560.1,4422671.6,39198.4828587963,39198.483275463,41.93041855263222,2007-04-26,11:35:19,2007-04-26,11:35:55,-1
440902.3571428571,4425731.071428572,39199.1765625,39199.1777430556,195.1559376498627,2007-04-27,04:14:15,2007-04-27,04:15:57,-1
442912.6857142857,4425323.042857142,39199.2614930556,39199.3063310185,159.35720881052626,2007-04-27,06:16:33,2007-04-27,07:21:07,673
442879.4260869564,4425317.986956522,39199.3092824074,39199.4371180556,28.577263689904722,2007-04-27,07:25:22,2007-04-27,10:29:27,673
442886.7916666667,4425285.750000001,39199.4443055556,39199.4675,98.66468466495571,2007-04-27,10:39:48,2007-04-27,11:13:12,-1
449350.76666666666,4428895.183333334,39199.549537037,39199.550787037,22.884492566315842,2007-04-27,13:11:20,2007-04-27,13:13:08,-1
448383.67142857146,4426618.857142857,39246.2794097222,39246.3599074074,117.94002713225923,2007-06-13,06:42:21,2007-06-13,08:38:16,-1
442890.8,4425254.425,39246.3679513889,39246.3688425926,62.859923639495676,2007-06-13,08:49:51,2007-06-13,08:51:08,-1
443999.875,4430970.675,39537.5029282407,39537.5034490741,179.54311459911534,2008-03-30,12:04:13,2008-03-30,12:04:58,-1
452387.59636363626,4430550.256363636,39537.5633912037,39537.6487731481,103.90019249297576,2008-03-30,13:31:17,2008-03-30,15:34:14,-1
442575.06666666665,4425076.600000001,39537.6723726852,39537.672650463,163.95816539574705,2008-03-30,16:08:13,2008-03-30,16:08:37,-1
499526.6,4478020.2,39543.5025231481,39543.5025231481,0.0,2008-04-05,12:03:38,2008-04-05,12:03:38,-1
499659.88367346977,4477948.804081633,39543.5664236111,39543.6074074074,199.60824131280796,2008-04-05,13:35:39,2008-04-05,14:34:40,-1
499595.5330188684,4477931.5663522,39543.612650463,39543.6445949074,198.3911792395108,2008-04-05,14:42:13,2008-04-05,15:28:13,-1
448390.96249999997,4426498.525,39543.735775463,39543.7360763889,167.4314187958778,2008-04-05,17:39:31,2008-04-05,17:39:57,-1
432669.13764044933,4432253.135955058,39550.7040740741,39550.7434606481,192.40834181502575,2008-04-12,16:53:52,2008-04-12,17:50:35,-1
429237.39999999997,4433369.375,39550.7642939815,39550.7685763889,127.85245402416021,2008-04-12,18:20:35,2008-04-12,18:26:45,-1
421872.71994609205,4439602.912129379,39551.4676273148,39551.5133333333,198.04335383973626,2008-04-13,11:13:23,2008-04-13,12:19:12,-1
422189.5594654788,4440057.162360802,39551.5369097222,39551.6069907407,198.99608036341672,2008-04-13,12:53:09,2008-04-13,14:34:04,-1
444608.3618181818,4424301.205454544,39551.7396527778,39551.7420717593,145.0340994388199,2008-04-13,17:45:06,2008-04-13,17:48:35,-1
564836.6788990824,5275552.311467888,39565.7844328704,39566.2891319444,124.60437392001936,2008-04-27,18:49:35,2008-04-28,06:56:21,674
564426.5261862916,5276857.508611598,39566.3027083333,39566.7981828704,21.786234185783297,2008-04-28,07:15:54,2008-04-28,19:09:23,675
564529.0662162163,5275637.508108107,39566.8029050926,39566.8287152778,198.987889078671,2008-04-28,19:16:11,2008-04-28,19:53:21,-1
564620.826833631,5275750.666368517,39566.8287847222,39566.8539467593,199.83242980071955,2008-04-28,19:53:27,2008-04-28,20:29:41,-1
564857.2532019707,5275503.549753693,39566.8539583333,39567.2947569444,168.77787177199136,2008-04-28,20:29:42,2008-04-29,07:04:27,676
564418.4887459801,5276851.198392281,39567.2974884259,39567.655474537,98.0967889389956,2008-04-29,07:08:23,2008-04-29,15:43:53,675
564478.0224489797,5273179.420408164,39567.7366087963,39567.8028125,19.811612756341695,2008-04-29,17:40:43,2008-04-29,19:16:03,-1
564845.6739130435,5275464.845652175,39567.8082060185,39568.3353472222,178.81610665683826,2008-04-29,19:23:49,2008-04-30,08:02:54,-1
564473.7622222222,5276875.208888889,39568.3445138889,39568.4760763889,198.0911406396144,2008-04-30,08:16:06,2008-04-30,11:25:33,-1
564421.93,5276909.906666667,39568.4765162037,39568.6325,151.633274712696,2008-04-30,11:26:11,2008-04-30,15:10:48,-1
559720.25,5278209.65,39568.7503125,39568.7504398148,177.02344477477132,2008-04-30,18:00:27,2008-04-30,18:00:38,-1
564837.2330935253,5275545.513669066,39568.892662037,39569.3156944444,177.6260397582002,2008-04-30,21:25:26,2008-05-01,07:34:36,674
564424.731414868,5276855.940287772,39569.3172916667,39569.7267708333,184.75091339403966,2008-05-01,07:36:54,2008-05-01,17:26:33,675
563678.210582011,5275262.117195768,39569.7319097222,39569.8621875,72.22700326054334,2008-05-01,17:33:57,2008-05-01,20:41:33,-1
564428.0032432431,5276861.621081077,39570.3205671296,39570.7433680556,19.513328778202023,2008-05-02,07:41:37,2008-05-02,17:50:27,675
560284.3795154185,5273506.111674012,39570.7552777778,39570.8510763889,198.28779589241276,2008-05-02,18:07:36,2008-05-02,20:25:33,-1
560269.594660194,5273508.466504854,39570.851099537,39570.8799652778,122.68402504035058,2008-05-02,20:25:35,2008-05-02,21:07:09,-1
564832.6088888888,5275533.139999999,39570.892974537,39570.8940972222,197.92435423634677,2008-05-02,21:25:53,2008-05-02,21:27:30,674
564289.1083333333,5275359.925,39571.3678587963,39571.3684259259,138.40520221380848,2008-05-03,08:49:43,2008-05-03,08:50:32,-1
564471.2921052632,5275431.544078949,39571.3945949074,39571.4001736111,87.62767827593862,2008-05-03,09:28:13,2008-05-03,09:36:15,-1
564483.3,5275810.002500001,39571.4908796296,39571.4922916667,190.16616418248344,2008-05-03,11:46:52,2008-05-03,11:48:54,-1
553093.7526011557,5307858.302312139,39571.5477662037,39571.5529050926,79.49037677632164,2008-05-03,13:08:47,2008-05-03,13:16:11,-1
563890.2769911505,5292254.06637168,39571.6663888889,39571.6781597222,196.58903835158256,2008-05-03,15:59:36,2008-05-03,16:16:33,-1
566521.8969465647,5291667.783206108,39571.6914583333,39571.7238773148,162.07714212647576,2008-05-03,16:35:42,2008-05-03,17:22:23,-1
566529.2603448273,5291579.884482759,39571.7256018519,39571.746400463,137.12567228659785,2008-05-03,17:24:52,2008-05-03,17:54:49,-1
566545.0276450515,5291620.2006825935,39571.7478819444,39571.7758680556,188.0264874957888,2008-05-03,17:56:57,2008-05-03,18:37:15,-1
564344.4066265064,5275251.991566266,39571.7898148148,39571.8646412037,181.35252962119495,2008-05-03,18:57:20,2008-05-03,20:45:05,-1
564847.4370370369,5275500.291358025,39571.8667939815,39571.8794328704,174.7412372627355,2008-05-03,20:48:11,2008-05-03,21:06:23,676
560284.840271493,5273531.600904976,39572.4818981481,39572.5405671296,87.35364903662203,2008-05-04,11:33:56,2008-05-04,12:58:25,-1
559716.0895522387,5274011.508457707,39572.543599537,39572.5823842593,199.18559184838608,2008-05-04,13:02:47,2008-05-04,13:58:38,-1
564856.7806306308,5275512.625675678,39572.5903472222,39572.7528819444,196.96733231699946,2008-05-04,14:10:06,2008-05-04,18:04:09,676
550608.3271186438,5284199.477966098,39572.7653240741,39572.8260648148,112.7193417299122,2008-05-04,18:22:04,2008-05-04,19:49:32,-1
564838.1271739127,5275545.95652174,39572.8412268519,39573.3367361111,137.95144073177957,2008-05-04,20:11:22,2008-05-05,08:04:54,674
564420.4226708071,5276862.923602483,39573.3399305556,39573.4637847222,191.87600162548142,2008-05-05,08:09:30,2008-05-05,11:07:51,675
564480.740909091,5276919.365454543,39573.463900463,39573.6488078704,184.4608359522495,2008-05-05,11:08:01,2008-05-05,15:34:17,-1
564423.3745033115,5276872.006125825,39573.6623032407,39573.7521759259,195.70735806266396,2008-05-05,15:53:43,2008-05-05,18:03:08,675
564487.9878048783,5273168.536585365,39573.7581365741,39573.8065972222,116.87193846238839,2008-05-05,18:11:43,2008-05-05,19:21:30,-1
564848.7559322034,5275501.40677966,39573.8092592593,39573.812974537,125.61102658586984,2008-05-05,19:25:20,2008-05-05,19:30:41,676
559981.55,5258274.45,39575.1301157407,39575.1301851852,172.5941482206184,2008-05-07,03:07:22,2008-05-07,03:07:28,-1
530718.0,5268668.2,39575.2358912037,39575.2358912037,0.0,2008-05-07,05:39:41,2008-05-07,05:39:41,-1
378426.3,6258874.3,39575.3140972222,39575.3140972222,0.0,2008-05-07,07:32:18,2008-05-07,07:32:18,-1
434284.7,7181531.4,39575.4390509259,39575.4390509259,0.0,2008-05-07,10:32:14,2008-05-07,10:32:14,-1
639997.4,6433009.4,39575.5078125,39575.5078125,0.0,2008-05-07,12:11:15,2008-05-07,12:11:15,-1
506149.3,5276021.6,39575.5773958333,39575.5773958333,0.0,2008-05-07,13:51:27,2008-05-07,13:51:27,-1
380657.6,4448742.7,39575.6182291667,39575.6182291667,0.0,2008-05-07,14:50:15,2008-05-07,14:50:15,-1
279429.6,4146059.75,39575.6811458333,39575.6812037037,147.01499923476663,2008-05-07,16:20:51,2008-05-07,16:20:56,-1
273938.04583333334,4147904.7791666663,39575.7529513889,39575.7536921296,156.99687894987852,2008-05-07,18:04:15,2008-05-07,18:05:19,-1
451316.0,4426573.75,39575.8770949074,39575.8771527778,102.06003135410062,2008-05-07,21:03:01,2008-05-07,21:03:06,-1
442820.55769230763,4425369.998076922,39587.0852546296,39587.666412037,198.86721700694883,2008-05-19,02:02:46,2008-05-19,15:59:38,672
437309.8277777777,4422319.947777779,39587.6793171296,39587.6821180556,137.8025398893447,2008-05-19,16:18:13,2008-05-19,16:22:15,671
442796.2415094342,4425408.2716981135,39588.0818402778,39588.0833101852,185.45996872641064,2008-05-20,01:57:51,2008-05-20,01:59:58,672
437961.3220338985,4422559.888135593,39588.494537037,39588.4964930556,186.85076933212568,2008-05-20,11:52:08,2008-05-20,11:54:57,-1
442722.78118811897,4425394.284158414,39589.0611574074,39589.5542013889,112.05610202031515,2008-05-21,01:28:04,2008-05-21,13:18:03,-1
437391.679310345,4422342.274482759,39589.5619907407,39590.0602430556,194.17190836970062,2008-05-21,13:29:16,2008-05-22,01:26:45,677
442814.13043478254,4425431.713043477,39590.0822569444,39590.6959722222,193.27113079751285,2008-05-22,01:58:27,2008-05-22,16:42:12,672
437314.293258427,4422322.931460675,39590.7033333333,39590.7059837963,154.7691183662192,2008-05-22,16:52:48,2008-05-22,16:56:37,671
285034.6702127659,4212621.158156029,39591.1772685185,39591.2300115741,197.9762612031941,2008-05-23,04:15:16,2008-05-23,05:31:13,-1
275549.7014851484,4218055.174257423,39591.2475115741,39591.2690740741,196.21032082946752,2008-05-23,05:56:25,2008-05-23,06:27:28,-1
275533.7829787234,4218060.538297872,39591.2690972222,39591.275162037,87.80364457109606,2008-05-23,06:27:30,2008-05-23,06:36:14,-1
281950.4698795182,4214607.648192771,39591.4236574074,39591.4259490741,183.66570175184341,2008-05-23,10:10:04,2008-05-23,10:13:22,-1
437379.3,4421528.4,39591.6220138889,39591.6221064815,175.9751402896482,2008-05-23,14:55:42,2008-05-23,14:55:50,-1
432629.02654320997,4432227.114814817,39592.2955671296,39592.3189583333,199.6505947896704,2008-05-24,07:05:37,2008-05-24,07:39:18,-1
431471.3333333333,4435158.933333334,39592.3344444444,39592.3344907407,175.6932838786375,2008-05-24,08:01:36,2008-05-24,08:01:40,-1
432797.84331210185,4432119.789808917,39592.3567592593,39592.3784722222,34.09824042379919,2008-05-24,08:33:44,2008-05-24,09:05:00,-1
441554.1666666667,4424074.699999999,39592.4412152778,39592.4412847222,92.79665942235808,2008-05-24,10:35:21,2008-05-24,10:35:27,-1
441870.22184873954,4424414.357983193,39592.5354398148,39592.5382060185,197.43852207750055,2008-05-24,12:51:02,2008-05-24,12:55:01,-1
441616.91111111094,4424348.596296299,39592.5625694444,39592.5905555556,199.4318429940182,2008-05-24,13:30:06,2008-05-24,14:10:24,-1
437317.3676691729,4422337.036842106,39592.6048726852,39592.608287037,153.66603398279008,2008-05-24,14:31:01,2008-05-24,14:35:56,671
442751.4120370374,4425262.212037037,39593.2003125,39593.2034606481,194.53827386919068,2008-05-25,04:48:27,2008-05-25,04:52:59,-1
437311.6039999999,4422350.160799998,39593.7361111111,39593.7393865741,126.57835517978664,2008-05-25,17:40:00,2008-05-25,17:44:43,671
442824.6818181818,4425409.299999999,39594.0951736111,39594.0964351852,197.4727576148618,2008-05-26,02:17:03,2008-05-26,02:18:52,672
371280.17853107327,142156.16610169495,39650.3058217593,39650.3213194444,154.51614802344253,2008-07-21,07:20:23,2008-07-21,07:42:42,-1
371353.28571428574,142071.2857142857,39650.332650463,39650.3333217593,2.927456233629474,2008-07-21,07:59:01,2008-07-21,07:59:59,-1
372678.59574468096,142968.14723404258,39650.4359837963,39650.468599537,199.28231231098022,2008-07-21,10:27:49,2008-07-21,11:14:47,-1
371611.2578014188,142524.9163120567,39650.4873842593,39650.5227314815,199.7634851517909,2008-07-21,11:41:50,2008-07-21,12:32:44,-1
371438.71801152726,142552.26858789637,39650.5227546296,39650.6121643518,199.807332197826,2008-07-21,12:32:46,2008-07-21,14:41:31,-1
370690.3953667954,142518.08223938217,39650.6211226852,39651.1801041667,199.54250173837468,2008-07-21,14:54:25,2008-07-22,04:19:21,-1
363765.9584905661,148472.62452830185,39651.2263194444,39651.227962963,194.86513284833345,2008-07-22,05:25:54,2008-07-22,05:28:16,-1
363883.4204761902,149707.37714285718,39651.3028587963,39651.3426736111,195.76720869442542,2008-07-22,07:16:07,2008-07-22,08:13:27,-1
365238.49570135697,155250.49162895934,39651.3846527778,39651.4066203704,199.83838470122234,2008-07-22,09:13:54,2008-07-22,09:45:32,-1
365262.9539509537,155193.76621253396,39651.4091666667,39651.4851157407,199.99724998109508,2008-07-22,09:49:12,2008-07-22,11:38:34,-1
365385.9132013203,154853.46897689774,39651.4940856481,39651.5149305556,159.58762483351114,2008-07-22,11:51:29,2008-07-22,12:21:30,-1
365086.3591269839,155188.16706349212,39651.5479513889,39651.5849768519,199.3243838570337,2008-07-22,13:09:03,2008-07-22,14:02:22,-1
370628.37777777785,142567.54691358024,39651.6837847222,39652.189537037,181.0512910752286,2008-07-22,16:24:39,2008-07-23,04:32:56,-1
371470.02913385845,141628.1141732283,39652.2188541667,39652.2434953704,198.27266579133618,2008-07-23,05:15:09,2008-07-23,05:50:38,-1
371434.849354005,141517.83669250648,39652.2435185185,39652.278275463,199.45335294247633,2008-07-23,05:50:40,2008-07-23,06:40:43,-1
371359.231687243,141224.77530864204,39652.2787847222,39652.2899074074,197.12432625120368,2008-07-23,06:41:27,2008-07-23,06:57:28,-1
372649.59226519347,143672.2364640885,39652.3358449074,39652.3535069444,116.53947828954263,2008-07-23,08:03:37,2008-07-23,08:29:03,-1
380900.2087912088,144262.50164835164,39652.4150115741,39652.5160416667,199.16073910286636,2008-07-23,09:57:37,2008-07-23,12:23:06,-1
370742.88823529385,142520.18039215668,39652.5886574074,39653.1169328704,198.46652110620758,2008-07-23,14:07:40,2008-07-24,02:48:23,-1
372365.1534059948,144607.43978201627,39653.1514236111,39653.1738194444,199.31445005317602,2008-07-24,03:38:03,2008-07-24,04:10:18,-1
372391.77209821437,144311.76808035723,39653.1749074074,39653.2079398148,167.73699651542506,2008-07-24,04:11:52,2008-07-24,04:59:26,-1
370103.25000000006,144255.20217391304,39653.2307175926,39653.2349884259,149.56834558155265,2008-07-24,05:32:14,2008-07-24,05:38:23,-1
370476.1923076923,144078.78333333327,39653.3233217593,39653.3288425926,110.82896733255828,2008-07-24,07:45:35,2008-07-24,07:53:32,-1
370541.9470588237,142497.16666666666,39653.6290162037,39653.6303819444,192.23717122346005,2008-07-24,15:05:47,2008-07-24,15:07:45,-1
370152.9943396226,142982.92264150942,39654.3179861111,39654.3212847222,197.00977133126054,2008-07-25,07:37:54,2008-07-25,07:42:39,-1
370578.8510869565,142721.5858695653,39654.3829282407,39654.4132407407,61.77289049412836,2008-07-25,09:11:25,2008-07-25,09:55:04,-1
354174.6259541984,148189.10839694657,39654.441412037,39654.7388425926,198.76941414613418,2008-07-25,10:35:38,2008-07-25,17:43:56,-1
370586.8535714284,142516.36607142858,39654.7671527778,39654.7699305556,164.79723905452303,2008-07-25,18:24:42,2008-07-25,18:28:42,-1
370929.7273743016,142574.3441340781,39655.2217939815,39655.2797337963,199.95764551524476,2008-07-26,05:19:23,2008-07-26,06:42:49,-1
387269.3904040405,149907.9060606061,39655.3024884259,39655.3152083333,163.17245478326333,2008-07-26,07:15:35,2008-07-26,07:33:54,-1
438554.5237500002,4423348.982916665,39796.2184375,39796.2284143518,116.44178803161077,2008-12-14,05:14:33,2008-12-14,05:28:55,-1
437313.3979381441,4421603.535051547,39796.3603009259,39796.4569907407,198.09040865274454,2008-12-14,08:38:50,2008-12-14,10:58:04,-1
437363.46518987353,4422187.278481011,39796.4625347222,39796.4661689815,199.85807464246506,2008-12-14,11:06:03,2008-12-14,11:11:17,-1
442766.69823008846,4425325.583185842,39797.0565277778,39797.4723726852,191.38406412236515,2008-12-15,01:21:24,2008-12-15,11:20:13,-1
437320.61643835617,4422314.850684931,39797.4886458333,39797.4915856481,155.54099138144215,2008-12-15,11:43:39,2008-12-15,11:47:53,671
442812.50821917807,4425362.443835616,39798.0801736111,39798.1851736111,198.41756474602383,2008-12-16,01:55:27,2008-12-16,04:26:39,672
441871.7373831776,4425985.430841121,39798.1870949074,39798.2485069444,193.96520306524891,2008-12-16,04:29:25,2008-12-16,05:57:51,-1
442765.0069767441,4425402.665116279,39798.2526967593,39798.2548726852,198.72297300536317,2008-12-16,06:03:53,2008-12-16,06:07:01,-1
437306.04090909095,4422314.198484848,39798.4805439815,39798.4831828704,159.60006265653567,2008-12-16,11:31:59,2008-12-16,11:35:47,671
438713.3088888889,4423247.613333331,39799.2003819444,39799.2023958333,198.5604441977304,2008-12-17,04:48:33,2008-12-17,04:51:27,-1
440189.4,4421268.6,39799.279837963,39799.279837963,0.0,2008-12-17,06:42:58,2008-12-17,06:42:58,-1
439890.1550918199,4423437.934390656,39799.3690856481,39799.3951273148,190.02139353231854,2008-12-17,08:51:29,2008-12-17,09:28:59,-1
437402.95471698104,4422364.104716982,39799.4441782407,39800.0515972222,192.53584081950106,2008-12-17,10:39:37,2008-12-18,01:14:18,677
442835.2475409835,4425389.568852458,39800.0662962963,39800.0676851852,182.18081677270737,2008-12-18,01:35:28,2008-12-18,01:37:28,672
446991.4545751635,4428108.694771242,39800.4369560185,39800.4590509259,181.75260658344624,2008-12-18,10:29:13,2008-12-18,11:01:02,-1
448499.93636363634,4428245.281818182,39800.4595601852,39800.4598611111,22.47220505424423,2008-12-18,11:01:46,2008-12-18,11:02:12,-1
437314.2267605633,4422319.442253521,39800.5898611111,39800.5925925926,137.8091433831804,2008-12-18,14:09:24,2008-12-18,14:13:20,671
442832.8770491803,4425393.450819671,39801.0783217593,39801.0797106481,196.9741099739872,2008-12-19,01:52:47,2008-12-19,01:54:47,672
442461.3340222575,4425723.290620032,39801.4550810185,39801.4860648148,199.5860967098669,2008-12-19,10:55:19,2008-12-19,11:39:56,-1
442455.0506723284,4425750.026185425,39801.486087963,39801.5533564815,183.56679983018915,2008-12-19,11:39:58,2008-12-19,13:16:50,-1
437307.65357142844,4422306.804761905,39801.5600462963,39801.5628819444,134.01958812054303,2008-12-19,13:26:28,2008-12-19,13:30:33,671
442082.3028169015,4420965.477464789,39803.124212963,39803.1258333333,171.23250275587085,2008-12-21,02:58:52,2008-12-21,03:01:12,-1
437311.92142857146,4422298.5971428575,39803.2966319444,39803.300474537,198.48649828151162,2008-12-21,07:07:09,2008-12-21,07:12:41,671
437265.8025547444,4422715.19963504,39804.2359375,39804.2667013889,199.93488940181447,2008-12-22,05:39:45,2008-12-22,06:24:03,-1
438548.77671232884,4423370.09497717,39804.293900463,39804.3033680556,198.78480827274447,2008-12-22,07:03:13,2008-12-22,07:16:51,-1
437378.94127906987,4422175.641860466,39804.3444791667,39804.3484375,173.68408102070754,2008-12-22,08:16:03,2008-12-22,08:21:45,-1
442818.5571428572,4425413.271428573,39805.280150463,39805.2819097222,196.71006583287578,2008-12-23,06:43:25,2008-12-23,06:45:57,672
440789.7937730625,4425950.179428044,39805.4759375,39805.5917592593,165.43303781222374,2008-12-23,11:25:21,2008-12-23,14:12:08,-1
437310.08760330564,4422336.783471073,39805.6082407407,39805.6109143518,130.04787579980376,2008-12-23,14:35:52,2008-12-23,14:39:43,671
437470.05818181817,4417611.167272727,39806.251412037,39806.2536111111,187.4917864863184,2008-12-24,06:02:02,2008-12-24,06:05:12,-1
445941.45967741933,4417982.319354839,39806.2778472222,39806.2803703704,1.6031219538148838,2008-12-24,06:40:06,2008-12-24,06:43:44,-1
442813.738028169,4425402.436619719,39807.0751388889,39807.0767592593,193.86892479196257,2008-12-25,01:48:12,2008-12-25,01:50:32,672
444263.9750000001,4421267.638095237,39807.4154166667,39807.4186342593,182.94048212434015,2008-12-25,09:58:12,2008-12-25,10:02:50,-1
445897.29913793114,4417833.553448276,39807.4452430556,39807.5361226852,180.98179466453703,2008-12-25,10:41:09,2008-12-25,12:52:01,-1
437303.101513067,4422208.157496567,39807.6346296296,39807.6594675926,199.7314196616809,2008-12-25,15:13:52,2008-12-25,15:49:38,-1
442816.98888888897,4425413.923809525,39808.0834143519,39808.084849537,184.29595763336752,2008-12-26,02:00:07,2008-12-26,02:02:11,672
441127.21881188126,4425381.465346536,39808.1792476852,39808.1815625,94.97536522721646,2008-12-26,04:18:07,2008-12-26,04:21:27,-1
437341.68466453685,4422254.595846644,39808.3415972222,39808.370787037,199.54861563003416,2008-12-26,08:11:54,2008-12-26,08:53:56,-1
438534.34831460664,4423302.407303371,39808.3992824074,39808.4053240741,177.8777108017241,2008-12-26,09:34:58,2008-12-26,09:43:40,-1
437296.4721649484,4422334.988659796,39808.5678703704,39808.5700925926,177.34669435954916,2008-12-26,13:37:44,2008-12-26,13:40:56,671
437391.1499999999,4422369.2976190485,40284.4847106481,40288.0647337963,188.1710923597504,2010-04-16,11:37:59,2010-04-20,01:33:13,677
442887.68072289164,4425350.466265061,40288.080474537,40288.4678935185,195.53091827124285,2010-04-20,01:55:53,2010-04-20,11:13:46,673
437383.15,4422375.330952381,40288.4779861111,40291.0602893519,194.4819014721328,2010-04-20,11:28:18,2010-04-23,01:26:49,677
442939.89999999985,4425326.3,40291.0847569444,40291.0865625,193.5791827649139,2010-04-23,02:02:03,2010-04-23,02:04:39,673
442928.8265306123,4425343.48367347,40304.0745833333,40304.0756944444,199.55550606300898,2010-05-06,01:47:24,2010-05-06,01:49:00,673
437264.87333333335,4422395.446666666,40304.5028703704,40304.5035416667,176.50048158592801,2010-05-06,12:04:08,2010-05-06,12:05:06,678
442886.57840909105,4425355.5443181805,40305.0831944444,40305.4719097222,194.3422239246906,2010-05-07,01:59:48,2010-05-07,11:19:33,673
437268.8612903226,4422394.093548387,40305.4853587963,40305.4860532407,192.92537417363474,2010-05-07,11:38:55,2010-05-07,11:39:55,678
442927.61612903245,4425325.032258065,40309.082962963,40309.0836574074,199.09989954828384,2010-05-11,01:59:28,2010-05-11,02:00:28,673
437416.19841269834,4422389.992063491,40309.4855092593,40310.0785185185,191.8935121359269,2010-05-11,11:39:08,2010-05-12,01:53:04,677
442891.305882353,4425358.6823529415,40310.0966203704,40310.0977777778,173.22774027286593,2010-05-12,02:19:08,2010-05-12,02:20:48,673
442889.2662337662,4425351.548051948,40312.0786805556,40312.4871527778,194.86818621829744,2010-05-14,01:53:18,2010-05-14,11:41:30,673
437343.19999999995,4422387.51875,40312.5025694444,40312.503287037,185.01945843621985,2010-05-14,12:03:42,2010-05-14,12:04:44,679
386017.4121739132,6671758.135217395,40314.6881134259,40314.7092013889,199.03165577346104,2010-05-16,16:30:53,2010-05-16,17:01:15,-1
386132.9515923565,6672209.036942674,40314.7273032407,40314.7313541667,158.79370264592427,2010-05-16,17:27:19,2010-05-16,17:33:09,-1
386126.97187499993,6672229.8609375,40315.4933796296,40315.494837963,197.8210555025581,2010-05-17,11:50:28,2010-05-17,11:52:34,-1
387695.9760536398,6688657.236590038,40320.5550347222,40320.5865856481,42.466104130472736,2010-05-22,13:19:15,2010-05-22,14:04:41,-1
387364.9942786068,6688282.107462687,40320.6123958333,40320.6401041667,199.3415410797924,2010-05-22,14:41:51,2010-05-22,15:21:45,-1
386835.3,6688586.85,40320.6473726852,40320.6473958333,132.07274510627178,2010-05-22,15:32:13,2010-05-22,15:32:15,-1
462337.8,4431333.25,40320.984525463,40320.9848263889,189.76841149160617,2010-05-22,23:37:43,2010-05-22,23:38:09,-1
442928.16363636375,4425332.106060607,40323.083900463,40323.0858680556,193.57024564743483,2010-05-25,02:00:49,2010-05-25,02:03:39,673
442906.8085271316,4425315.511627909,40324.0776157407,40324.4635763889,189.1560202583755,2010-05-26,01:51:46,2010-05-26,11:07:33,673
437425.405263158,4422373.328070175,40324.4736226852,40325.0586458333,178.6353828334828,2010-05-26,11:22:01,2010-05-27,01:24:27,677
442927.24634146347,4425324.360975608,40325.0777430556,40325.0786689815,197.99565651816434,2010-05-27,01:51:57,2010-05-27,01:53:17,673
437408.55409836065,4422381.201639343,40325.48375,40326.0843634259,189.9794725756979,2010-05-27,11:36:36,2010-05-28,02:01:29,677
442922.8731707315,4425325.431707319,40326.0995486111,40326.100474537,197.7007840139875,2010-05-28,02:23:21,2010-05-28,02:24:41,673
437266.2799999999,4422393.433333333,40326.4865740741,40326.4872453704,194.8407041661616,2010-05-28,11:40:40,2010-05-28,11:41:38,678
431125.6765217387,4439444.255652174,40328.09875,40328.1034953704,195.8999999999796,2010-05-30,02:22:12,2010-05-30,02:29:02,-1
437381.5512820513,4422368.041025641,40328.4869444444,40330.0495138889,187.29025601990267,2010-05-30,11:41:12,2010-06-01,01:11:18,677
442894.27473684214,4425342.514736842,40330.0680324074,40330.4727314815,192.2203163040028,2010-06-01,01:37:58,2010-06-01,11:20:44,673
437397.44909090915,4422386.772727273,40330.4833796296,40330.9890162037,177.4894363057464,2010-06-01,11:36:04,2010-06-01,23:44:11,677
452449.65,4419855.940000001,40331.0279282407,40331.0296875,174.57963798736213,2010-06-02,00:40:13,2010-06-02,00:42:45,-1
437276.95483870973,4422393.2709677415,40331.4694675926,40331.470162037,184.5743752530956,2010-06-02,11:16:02,2010-06-02,11:17:02,678
442908.6431372549,4425317.494117648,40332.0878472222,40332.4664930556,198.29102349826135,2010-06-03,02:06:30,2010-06-03,11:11:45,673
437421.2982758621,4422375.020689656,40332.4776041667,40333.0658680556,192.5041557996649,2010-06-03,11:27:45,2010-06-04,01:34:51,677
442859.6977272728,4425379.586363636,40333.0854282407,40333.4694097222,197.3689438589567,2010-06-04,02:03:01,2010-06-04,11:15:57,672
437352.0914285714,4422392.822857143,40333.4801041667,40333.4808912037,195.66872514532506,2010-06-04,11:31:21,2010-06-04,11:32:29,679
443178.94722222217,4416433.258333333,40334.1515509259,40334.1533333333,182.47986190259385,2010-06-05,03:38:14,2010-06-05,03:40:48,-1
437273.78529411764,4422400.714705883,40334.3272453704,40334.3280092593,193.86557198225967,2010-06-05,07:51:14,2010-06-05,07:52:20,678
520249.47857142857,4331601.750000001,40335.158599537,40335.159224537,199.1290285216797,2010-06-06,03:48:23,2010-06-06,03:49:17,-1
529565.9379310345,4329417.251724137,40335.2277777778,40335.2284259259,181.66147087366704,2010-06-06,05:28:00,2010-06-06,05:28:56,-1
442920.08333333326,4425330.541666666,40337.0795601852,40337.0803703704,199.54169990269097,2010-06-08,01:54:34,2010-06-08,01:55:44,673
437344.45,4422392.971875,40337.5291550926,40337.5298726852,192.11467929330948,2010-06-08,12:41:59,2010-06-08,12:43:01,679
437413.7391891893,4422387.774324325,40338.6459722222,40339.0609259259,194.77250832720122,2010-06-09,15:30:12,2010-06-10,01:27:44,677
442935.3631578947,4425279.528070174,40339.082662037,40339.0839583333,195.1218081092084,2010-06-10,01:59:02,2010-06-10,02:00:54,673
437271.35142857133,4422392.491428572,40339.4859375,40339.486724537,198.99271343461697,2010-06-10,11:39:45,2010-06-10,11:40:53,678
442931.1869565217,4425269.128260868,40340.0766087963,40340.4785416667,197.97042708445414,2010-06-11,01:50:19,2010-06-11,11:29:06,673
437347.00625,4422390.54375,40340.4959027778,40340.4966203704,192.05634589881274,2010-06-11,11:54:06,2010-06-11,11:55:08,679
426209.84500000003,4443429.14,40344.3288773148,40344.3293171296,198.54422681106595,2010-06-15,07:53:35,2010-06-15,07:54:13,-1
438958.42166666663,4438374.578333333,40344.4251041667,40344.5193171296,195.22648385929037,2010-06-15,10:12:09,2010-06-15,12:27:49,-1
437398.2816666667,4422384.791666665,40344.5535300926,40346.056400463,189.33721240231606,2010-06-15,13:17:05,2010-06-17,01:21:13,677
442931.5046511627,4425311.876744185,40346.0768402778,40346.460162037,199.72981750407334,2010-06-17,01:50:39,2010-06-17,11:02:38,673
437271.2875,4422395.181250001,40346.4749537037,40346.4756712963,194.84029357394644,2010-06-17,11:23:56,2010-06-17,11:24:58,678
442926.24095238093,4425270.825714286,40347.0809722222,40347.4662037037,198.7865689624386,2010-06-18,01:56:36,2010-06-18,11:11:20,673
437267.7206896551,4422394.648275862,40347.4811111111,40347.4817592593,182.09121340687435,2010-06-18,11:32:48,2010-06-18,11:33:44,678
449656.1964285715,4395349.274999999,40348.249224537,40348.249849537,174.65543220830585,2010-06-19,05:58:53,2010-06-19,05:59:47,-1
442937.9717391305,4425301.363043481,40352.0787037037,40352.5176041667,176.97867103145555,2010-06-23,01:53:20,2010-06-23,12:25:21,673
437270.03125,4422399.943749999,40352.5292476852,40353.0483680556,199.33775357419026,2010-06-23,12:42:07,2010-06-24,01:09:39,678
442935.49999999994,4425303.859649124,40353.0772569444,40353.4600578704,198.56736891982172,2010-06-24,01:51:15,2010-06-24,11:02:29,673
437274.9892857143,4422393.407142857,40353.4789930556,40353.4796180556,186.3372480210412,2010-06-24,11:29:45,2010-06-24,11:30:39,678
442924.9933333332,4425270.52,40354.0884953704,40354.4721875,199.89789893788537,2010-06-25,02:07:26,2010-06-25,11:19:57,673
437278.14242424245,4422394.990909091,40354.4879282407,40354.4886689815,193.3033367531247,2010-06-25,11:42:37,2010-06-25,11:43:41,678
379968.47500000003,4407261.314285714,40356.1522916667,40356.1543287037,147.47752371102516,2010-06-27,03:39:18,2010-06-27,03:42:14,-1
437231.1556701031,4419507.911340206,40356.5242592593,40356.5969444444,188.31093967163082,2010-06-27,12:34:56,2010-06-27,14:19:36,-1
437262.86874999997,4422397.8,40356.6050462963,40356.6057638889,191.04619860122276,2010-06-27,14:31:16,2010-06-27,14:32:18,678
442932.80555555556,4425328.297222223,40358.0891898148,40358.0909490741,197.22679838162506,2010-06-29,02:08:26,2010-06-29,02:10:58,673
442919.576923077,4425289.395384614,40360.0911111111,40360.4662615741,198.49848865867895,2010-07-01,02:11:12,2010-07-01,11:11:25,673
437275.8653846154,4422390.403846153,40360.4812152778,40360.4817939815,184.17323366861785,2010-07-01,11:32:57,2010-07-01,11:33:47,678
442916.5920454545,4425269.129545456,40365.0813425926,40441.4510185185,197.99578278319785,2010-07-06,01:57:08,2010-09-20,10:49:28,673
437265.8062500001,4422401.190625001,40441.4763194444,40441.477037037,196.65861282946378,2010-09-20,11:25:54,2010-09-20,11:26:56,678
432568.14772727265,4431986.088636364,40443.1567013889,40443.529849537,110.7030713217297,2010-09-22,03:45:39,2010-09-22,12:42:59,-1
437357.20000000007,4422395.564516129,40443.5483912037,40443.5490856481,184.7459336494539,2010-09-22,13:09:41,2010-09-22,13:10:41,679
453230.9110344828,4421992.981379309,40565.3763078704,40565.5428819444,198.04428797616484,2011-01-22,09:01:53,2011-01-22,13:01:45,-1
437795.80000000005,4428442.5,40565.5715625,40565.5716319444,57.063561052566634,2011-01-22,13:43:03,2011-01-22,13:43:09,-1
439350.00000000006,4424954.51590909,40566.3185185185,40566.3205324074,73.01814842886441,2011-01-23,07:38:40,2011-01-23,07:41:34,-1
437383.16176470625,4422326.203308826,40566.5228009259,40567.6451388889,194.02724035578686,2011-01-23,12:32:50,2011-01-24,15:29:00,677
437329.83945720206,4422281.058872651,40567.645162037,40567.6777083333,85.35133273765726,2011-01-24,15:29:02,2011-01-24,16:15:54,-1
437351.3557142857,4422140.127142858,40567.7765740741,40567.7781712963,52.186205073871335,2011-01-24,18:38:16,2011-01-24,18:40:34,-1
442873.2199999999,4425320.748,40568.0799305556,40568.4797222222,199.7410323392046,2011-01-25,01:55:06,2011-01-25,11:30:48,-1
437363.77179487183,4422389.289743588,40568.4912037037,40569.088900463,192.51277879718558,2011-01-25,11:47:20,2011-01-26,02:08:01,679
442933.61964285705,4425315.930357141,40569.1041319444,40569.1054050926,198.2919312535127,2011-01-26,02:29:57,2011-01-26,02:31:47,673
437401.37560975616,4422384.663414633,40569.4817361111,40571.0123611111,185.55918193396602,2011-01-26,11:33:42,2011-01-28,00:17:48,677
442884.8930232558,4425341.667441863,40571.0286111111,40571.4230671296,188.8128173615137,2011-01-28,00:41:12,2011-01-28,10:09:13,673
437344.6172413793,4422397.58275862,40571.4358449074,40571.4364930556,197.6907180421344,2011-01-28,10:27:37,2011-01-28,10:28:33,679
442897.252991453,4425339.898290601,40573.0761111111,40573.4087615741,192.70093409213564,2011-01-30,01:49:36,2011-01-30,09:48:37,673
437258.2125000001,4422400.387499999,40573.433599537,40573.4341319444,180.2466088446718,2011-01-30,10:24:23,2011-01-30,10:25:09,678
442937.02978723386,4425295.597872342,40574.0900231482,40574.091087963,193.98577267404298,2011-01-31,02:09:38,2011-01-31,02:11:10,673