450654.0,4424641.016666667,39508.1886921296,39508.2125231481,174.80231691754048,2008-03-01,04:31:43,2008-03-01,05:06:02,-1
448665.68,4423753.9799999995,39508.2465625,39508.2614814815,77.29534267997312,2008-03-01,05:55:03,2008-03-01,06:16:32,-1
442757.875,4425225.325,39509.3344907407,39509.3375115741,193.33041664461908,2008-03-02,08:01:40,2008-03-02,08:06:01,797
442811.3142857143,4425226.735714286,39509.3872800926,39509.4521296296,79.62826131505095,2008-03-02,09:17:41,2008-03-02,10:51:04,797
442797.1849999999,4425285.179999999,39509.455787037,39509.4809837963,154.26736531149177,2008-03-02,10:56:20,2008-03-02,11:32:37,797
441909.07499999995,4428322.6,39513.3192476852,39513.3267592593,144.67871301600587,2008-03-06,07:39:43,2008-03-06,07:50:32,-1
442800.16,4425273.159999999,39513.4713310185,39513.4758680556,144.33769431446547,2008-03-06,11:18:43,2008-03-06,11:25:15,797
442790.125,4425255.175000001,39514.0825462963,39514.0850925926,177.35729474710524,2008-03-07,01:58:52,2008-03-07,02:02:32,797
442065.9,4428543.14,39517.7269212963,39518.0831018519,194.9106718477574,2008-03-10,17:26:46,2008-03-11,01:59:40,798
442722.0,4425280.2,39518.094212963,39518.6729398148,163.81770356112403,2008-03-11,02:15:40,2008-03-11,16:09:02,797
442027.85,4428649.6,39518.6823958333,39518.682974537,76.9691496638024,2008-03-11,16:22:39,2008-03-11,16:23:29,798
442667.025,4425304.65,39519.1036226852,39520.7108449074,139.53168099036742,2008-03-12,02:29:13,2008-03-13,17:03:37,-1
442064.76666666666,4428610.5,39520.7197453704,39520.7207060185,135.53984653944246,2008-03-13,17:16:26,2008-03-13,17:17:49,798
442377.76666666666,4428111.1,39521.3038657407,39521.3043981481,66.9215959160407,2008-03-14,07:17:34,2008-03-14,07:18:20,-1
442763.4,4425258.6,39521.3952893519,39521.4121527778,147.98827656339088,2008-03-14,09:29:13,2008-03-14,09:53:30,797
443476.8,4425199.6,39521.4166550926,39521.4166550926,0.0,2008-03-14,09:59:59,2008-03-14,09:59:59,-1
450688.8333333333,4424635.85,39521.4490972222,39521.4511805556,30.253594827557617,2008-03-14,10:46:42,2008-03-14,10:49:42,799
451342.6,4425339.6,39521.5858912037,39521.5858912037,0.0,2008-03-14,14:03:41,2008-03-14,14:03:41,-1
442853.8666666667,4425259.8,39521.6226041667,39521.7649884259,37.694827231336276,2008-03-14,14:56:33,2008-03-14,18:21:35,797
442041.55999999994,4428597.7,39521.7760416667,39522.2255324074,82.62693265515408,2008-03-14,18:37:30,2008-03-15,05:24:46,798
442335.56666666665,4428114.466666666,39522.2437268518,39522.2452546296,176.66581446390404,2008-03-15,05:50:58,2008-03-15,05:53:10,-1
442636.5,4427013.933333334,39522.338587963,39522.3410185185,186.5276655084007,2008-03-15,08:07:34,2008-03-15,08:11:04,-1
445634.10000000003,4425411.483333333,39522.3644675926,39522.5532175926,199.26525035722375,2008-03-15,08:44:50,2008-03-15,13:16:38,-1
442073.325,4428642.325,39522.5843865741,39522.5856944444,162.62164677530225,2008-03-15,14:01:31,2008-03-15,14:03:24,798
442719.15,4425233.025,39523.0587268519,39523.0971643519,134.90904343305945,2008-03-16,01:24:34,2008-03-16,02:19:55,797
450506.44999999995,4424789.949999999,39524.5339583333,39524.5364814815,186.6871714929698,2008-03-17,12:48:54,2008-03-17,12:52:32,-1
442922.85,4425256.525,39524.6494444444,39524.6510069444,170.99239749170778,2008-03-17,15:35:12,2008-03-17,15:37:27,797
442031.61071428575,4428634.803571428,39527.0386689815,39527.0424305556,162.50443070883367,2008-03-20,00:55:41,2008-03-20,01:01:06,798
442706.37352941174,4425272.661764706,39527.4348032407,39527.9664699074,198.38734838712284,2008-03-20,10:26:07,2008-03-20,23:11:43,797
442043.7541666667,4428656.079166667,39527.9752893519,39527.9761574074,174.56969954660607,2008-03-20,23:24:25,2008-03-20,23:25:40,798
442563.47222222225,4425321.172222223,39528.4260763889,39528.4266898148,194.21567907850957,2008-03-21,10:13:33,2008-03-21,10:14:26,-1
442050.696,4428602.092,39529.1303819444,39529.1312384259,196.2012487216492,2008-03-22,03:07:45,2008-03-22,03:08:59,798
442756.080952381,4425234.342857145,39529.5600925926,39529.560787037,180.87017443444998,2008-03-22,13:26:32,2008-03-22,13:27:32,797
442850.48,4425172.3,39529.9173842593,39530.0157407407,158.87520259643725,2008-03-22,22:01:02,2008-03-23,00:22:40,-1
443053.3,4428196.0,39530.0302662037,39530.0302662037,0.0,2008-03-23,00:43:35,2008-03-23,00:43:35,-1
444241.7,4421228.8,39530.4280671296,39530.4280671296,0.0,2008-03-23,10:16:25,2008-03-23,10:16:25,-1
442822.4192307694,4425239.811538461,39530.8802662037,39530.8814930556,138.14865182116733,2008-03-23,21:07:35,2008-03-23,21:09:21,797
442055.3560000001,4428609.723999999,39531.1232523148,39531.1241550926,195.42758249541487,2008-03-24,02:57:29,2008-03-24,02:58:47,798
442780.1,4425248.085714286,39531.4187615741,39531.7368402778,194.9076961025157,2008-03-24,10:03:01,2008-03-24,17:41:03,797
442036.57608695654,4428625.986956523,39531.7489583333,39531.7917361111,185.03648288987327,2008-03-24,17:58:30,2008-03-24,19:00:06,798
441985.59677419363,4428687.912903225,39531.7945138889,39531.8178472222,43.04985481972053,2008-03-24,19:04:06,2008-03-24,19:37:42,798
442431.3,4428389.8,39531.8222222222,39531.8222222222,0.0,2008-03-24,19:44:00,2008-03-24,19:44:00,-1
442555.7555555556,4425379.916666665,39532.4178009259,39532.4184606481,193.15387648230887,2008-03-25,10:01:38,2008-03-25,10:02:35,-1
442039.6047619048,4428622.623809524,39535.0165856481,39535.0173032407,189.3970696711013,2008-03-28,00:23:53,2008-03-28,00:24:55,798
442599.8965517242,4425277.744827586,39535.4263888889,39535.5064699074,178.2384077578849,2008-03-28,10:14:00,2008-03-28,12:09:19,-1
441263.89523809525,4428473.7761904765,39535.5141203704,39535.5589351852,170.08459659859005,2008-03-28,12:20:20,2008-03-28,13:24:52,-1
442593.0,4425814.1,39535.5769097222,39535.5769097222,0.0,2008-03-28,13:50:45,2008-03-28,13:50:45,-1
441996.975,4429143.55,39535.847662037,39535.8481828704,196.26851505007195,2008-03-28,20:20:38,2008-03-28,20:21:23,-1
441741.8266666669,4428707.141666667,39535.8836226852,39535.9068634259,194.3806831966637,2008-03-28,21:12:25,2008-03-28,21:45:53,-1
441961.34285714285,4428680.742857143,39535.9069212963,39535.9072453704,107.99245343978804,2008-03-28,21:45:58,2008-03-28,21:46:26,798
441985.55000000005,4428602.483333333,39535.9725347222,39535.9754976852,178.0530819728807,2008-03-28,23:20:27,2008-03-28,23:24:43,800
442745.82380952383,4425247.761904761,39536.898287037,39536.8990277778,171.84344619432244,2008-03-29,21:33:32,2008-03-29,21:34:36,797
442055.6000000001,4428607.233333333,39538.0926041667,39538.0933217593,193.39906928388828,2008-03-31,02:13:21,2008-03-31,02:14:23,798
442639.41428571433,4425231.857142856,39538.4481365741,39538.4486574074,147.99611481396977,2008-03-31,10:45:19,2008-03-31,10:46:04,-1
442032.76666666666,4428632.406666667,39539.1515162037,39539.1522800926,187.04149272233872,2008-04-01,03:38:11,2008-04-01,03:39:17,798
442754.7499999999,4425240.373076923,39539.533125,39540.0114814815,171.23854706222818,2008-04-01,12:47:42,2008-04-02,00:16:32,797
442050.22,4428611.852000001,39540.0236805556,39540.0245138889,190.90188579492744,2008-04-02,00:34:06,2008-04-02,00:35:18,798
442833.305,4425197.160000001,39540.501400463,39540.7439583333,38.105773840648716,2008-04-02,12:02:01,2008-04-02,17:51:18,-1
450705.9411764706,4424632.470588235,39540.7790509259,39540.7848263889,39.189922173344286,2008-04-02,18:41:50,2008-04-02,18:50:09,799
450600.34062500007,4424568.31875,39540.8692592593,39540.8793634259,52.44520950458801,2008-04-02,20:51:44,2008-04-02,21:06:17,-1
449259.89999999997,4433642.0,39540.9143634259,39540.9171412037,0.29999999998835847,2008-04-02,21:56:41,2008-04-02,22:00:41,-1
443070.0,4425235.766666667,39540.939224537,39540.9392939815,4.751841748108448,2008-04-02,22:32:29,2008-04-02,22:32:35,-1
442051.27391304343,4428613.05652174,39541.1013425926,39541.1021296296,190.90238343163603,2008-04-03,02:25:56,2008-04-03,02:27:04,798
442585.56666666665,4425504.744444445,39541.4152662037,39541.4155671296,80.88634000923716,2008-04-03,09:57:59,2008-04-03,09:58:25,-1
442014.8333333333,4428653.399999999,39541.6962615741,39541.6969675926,118.92455591662913,2008-04-03,16:42:37,2008-04-03,16:43:38,798
433954.2444444444,4425868.077777777,39542.0795833333,39542.1493865741,31.698738145245,2008-04-04,01:54:36,2008-04-04,03:35:07,-1
442436.3,4429072.633333333,39542.1943518519,39542.2406481481,197.89676601719282,2008-04-04,04:39:52,2008-04-04,05:46:32,-1
442025.25,4428683.85,39542.2448611111,39542.2452546296,79.26020439036674,2008-04-04,05:52:36,2008-04-04,05:53:10,798
442810.2666666666,4425264.433333334,39542.3462962963,39542.3473032407,112.63236657384721,2008-04-04,08:18:40,2008-04-04,08:20:07,797
450708.65,4424638.35,39543.1572800926,39543.1586574074,188.69795971376772,2008-04-05,03:46:29,2008-04-05,03:48:28,799
448684.69090909086,4423783.890909092,39543.2246759259,39543.2487847222,42.737571292716204,2008-04-05,05:23:32,2008-04-05,05:58:15,-1
447761.3,4420908.033333334,39543.4826041667,39543.4874884259,127.7877145892947,2008-04-05,11:34:57,2008-04-05,11:41:59,-1
447613.06666666665,4420978.944444444,39543.5234027778,39543.6039351852,175.83938694179258,2008-04-05,12:33:42,2008-04-05,14:29:40,-1
448761.025,4423610.625,39543.6370486111,39543.6396990741,181.3005515711337,2008-04-05,15:17:21,2008-04-05,15:21:10,-1
442785.66,4425254.74,39544.5377662037,39545.0211805556,104.41963416902537,2008-04-06,12:54:23,2008-04-07,00:30:30,797
442044.65000000014,4428625.758333334,39545.0317476852,39545.5189351852,172.06469713420137,2008-04-07,00:45:43,2008-04-07,12:27:16,798
442572.67500000005,4426395.925,39545.5358680556,39545.559849537,16.21172415267852,2008-04-07,12:51:39,2008-04-07,13:26:11,-1
442743.96785714285,4425249.55,39545.5649537037,39545.6032986111,92.10255153895848,2008-04-07,13:33:32,2008-04-07,14:28:45,797
442940.3866666667,4425164.666666667,39545.606087963,39545.6358912037,190.24839026927552,2008-04-07,14:32:46,2008-04-07,15:15:41,-1
442747.8282051283,4425231.251282051,39545.6359259259,39546.0598263889,177.1012139992556,2008-04-07,15:15:44,2008-04-08,01:26:09,797
442056.6625000001,4428609.778124999,39546.0685532407,39546.4265046296,142.87295055416226,2008-04-08,01:38:43,2008-04-08,10:14:10,798
442742.52058823535,4425234.882352942,39546.4448726852,39546.4456944444,182.614484639,2008-04-08,10:40:37,2008-04-08,10:41:48,797
442053.86969696963,4428614.245454545,39550.1568634259,39550.1576273148,190.8973546172865,2008-04-12,03:45:53,2008-04-12,03:46:59,798
442540.56842105265,4426904.342105263,39550.5219560185,39550.5228240741,198.65097533073435,2008-04-12,12:31:37,2008-04-12,12:32:52,-1
441039.3166666666,4426193.433333334,39550.5803356481,39550.5988657407,196.4244638528382,2008-04-12,13:55:41,2008-04-12,14:22:22,-1
447449.6,4423884.4,39550.6336921296,39550.6336921296,0.0,2008-04-12,15:12:31,2008-04-12,15:12:31,-1
440210.8666666667,4425196.7,39550.6997916667,39550.6998842593,191.88749307835175,2008-04-12,16:47:42,2008-04-12,16:47:50,-1
442136.44761904766,4427984.547619048,39551.0522569444,39551.0529166667,134.07221934464056,2008-04-13,01:15:15,2008-04-13,01:16:12,-1
442535.9454545454,4426401.233333333,39551.4598611111,39551.4819675926,100.72894320863283,2008-04-13,11:02:12,2008-04-13,11:34:02,-1
442745.74473684205,4425236.147368421,39551.4866666667,39551.4875115741,186.47919454998825,2008-04-13,11:40:48,2008-04-13,11:42:01,797
441941.48095238087,4428332.273809523,39551.6268287037,39551.6663657407,197.0848801913864,2008-04-13,15:02:38,2008-04-13,15:59:34,-1
441826.66666666657,4428195.550000001,39551.672349537,39551.6949884259,190.67891860421165,2008-04-13,16:08:11,2008-04-13,16:40:47,-1
441530.8428571429,4428161.782142856,39551.7091550926,39551.7490509259,196.05624193123785,2008-04-13,17:01:11,2008-04-13,17:58:38,-1
441993.65,4429010.95,39551.7577777778,39551.7624074074,15.672268502325679,2008-04-13,18:11:12,2008-04-13,18:17:52,801
442825.5631578947,4425263.815789474,39551.8613425926,39551.8674305556,151.32696388939874,2008-04-13,20:40:20,2008-04-13,20:49:06,797
442053.4055555555,4428625.416666667,39552.1686226852,39552.1694560185,192.58681159430537,2008-04-14,04:02:49,2008-04-14,04:04:01,798
442804.8508196721,4425297.481967213,39552.4934722222,39552.5018865741,181.7394013416142,2008-04-14,11:50:36,2008-04-14,12:02:43,797
450484.4863636364,4424516.875000001,39552.7238310185,39552.7252546296,124.99411986177789,2008-04-14,17:22:19,2008-04-14,17:24:22,-1
442856.00909090904,4425325.599999999,39552.8934143518,39552.8936921296,199.29468131355713,2008-04-14,21:26:31,2008-04-14,21:26:55,797
442058.5794117647,4428617.611764707,39553.0428472222,39553.0436226852,192.843589471026,2008-04-15,01:01:42,2008-04-15,01:02:49,798
442772.638,4425274.603999999,39553.4690856481,39553.4702662037,197.72728693824737,2008-04-15,11:15:29,2008-04-15,11:17:11,797
442052.42702702706,4428611.897297298,39554.0489699074,39554.0498032407,193.8491165828276,2008-04-16,01:10:31,2008-04-16,01:11:43,798
442551.09285714285,4425332.803571427,39554.4793287037,39554.4799652778,194.50257067709927,2008-04-16,11:30:14,2008-04-16,11:31:09,-1
442565.35,4426976.575,39554.7244097222,39554.7245138889,8.431488599396365,2008-04-16,17:23:09,2008-04-16,17:23:18,-1
442153.74230769224,4427021.549999999,39554.7555324074,39554.7561342593,80.48055665833907,2008-04-16,18:07:58,2008-04-16,18:08:50,-1
440180.82,4425952.606666667,39554.797974537,39554.7983680556,55.20480051552678,2008-04-16,19:09:05,2008-04-16,19:09:39,-1
442050.37586206896,4428621.879310345,39554.949224537,39554.9498842593,193.74243211010622,2008-04-16,22:46:53,2008-04-16,22:47:50,798
442810.6,4425387.6,39555.4020138889,39555.4020138889,0.0,2008-04-17,09:38:54,2008-04-17,09:38:54,802
442053.9222222222,4428684.588888888,39555.7500231481,39555.7530208333,181.85887385626415,2008-04-17,18:00:02,2008-04-17,18:04:21,798
442796.205882353,4425312.370588236,39556.5805555556,39556.5990393519,128.52490031115119,2008-04-18,13:56:00,2008-04-18,14:22:37,797
442059.8117647059,4428624.714705883,39556.6123263889,39556.6131134259,189.94528159398124,2008-04-18,14:41:45,2008-04-18,14:42:53,798
442767.49833333323,4425261.9750000015,39556.8883333333,39556.8898842593,195.20455937285413,2008-04-18,21:19:12,2008-04-18,21:21:26,797
442056.07837837836,4428613.9108108105,39557.0785532407,39557.079375,194.76447314623394,2008-04-19,01:53:07,2008-04-19,01:54:18,798
442775.8,4425342.95,39557.4375231481,39557.4430902778,45.83939353874569,2008-04-19,10:30:02,2008-04-19,10:38:03,-1
442041.4348484847,4428620.198484848,39559.6897222222,39559.6915162037,199.05788102961998,2008-04-21,16:33:12,2008-04-21,16:35:47,798
442717.1987854254,4425223.917813761,39560.0827083333,39560.4738078704,197.043776861587,2008-04-22,01:59:06,2008-04-22,11:22:17,797
450381.6446941329,4424710.822222222,39560.5006712963,39560.5429166667,199.35759328384418,2008-04-22,12:00:58,2008-04-22,13:01:48,803
450334.872408536,4424542.748475606,39560.5429398148,39560.5689699074,197.0640505015172,2008-04-22,13:01:50,2008-04-22,13:39:19,-1
450330.2071428574,4424406.688095239,39560.5690509259,39560.5942013889,20.827865949312102,2008-04-22,13:39:26,2008-04-22,14:15:39,-1
442832.14891304343,4425274.874999999,39560.6116782407,39560.6160532407,190.11959394021508,2008-04-22,14:40:49,2008-04-22,14:47:07,797
442037.7464788733,4428633.41408451,39560.6579398148,39560.6594212963,196.517683682355,2008-04-22,15:47:26,2008-04-22,15:49:34,798
442764.6538461538,4425338.451748254,39561.0846527778,39561.6254166667,197.75573316579045,2008-04-23,02:01:54,2008-04-23,15:00:36,-1
442122.8800865802,4428512.099134201,39561.6353356481,39562.0737615741,195.87876352479802,2008-04-23,15:14:53,2008-04-24,01:46:13,804
442839.8846153846,4425421.388461539,39562.0929398148,39562.0938657407,177.3704033939437,2008-04-24,02:13:50,2008-04-24,02:15:10,-1
442046.8791666667,4428627.662499999,39563.7306365741,39563.7316666667,195.33420079429322,2008-04-25,17:32:07,2008-04-25,17:33:36,798
448664.5512500005,4423776.7412499925,39564.2492476852,39564.25625,134.4629688800813,2008-04-26,05:58:55,2008-04-26,06:09:00,-1
448397.1600775196,4420402.010562019,39564.5009143518,39564.5584143519,199.91103021091254,2008-04-26,12:01:19,2008-04-26,13:24:07,-1
448800.7053872053,4423546.232323231,39564.587349537,39565.2596412037,199.41033072519113,2008-04-26,14:05:47,2008-04-27,06:13:53,-1
450314.85204918036,4425383.098360656,39565.2777314815,39565.3246296296,199.80563055110727,2008-04-27,06:39:56,2008-04-27,07:47:28,-1
450671.8259689922,4424701.349031009,39565.3342361111,39565.5191666667,192.20848056211724,2008-04-27,08:01:18,2008-04-27,12:27:36,-1
442849.6314410481,4425249.141775834,39565.5506365741,39565.6872337963,197.94931169381658,2008-04-27,13:12:55,2008-04-27,16:29:37,797
442106.1923728815,4428514.407627119,39565.6959143518,39566.0545023148,197.07567074634875,2008-04-27,16:42:07,2008-04-28,01:18:29,804
442882.8423503324,4425282.541463413,39566.0669097222,39566.0859375,171.70404770978564,2008-04-28,01:36:21,2008-04-28,02:03:45,-1
442906.46510067116,4425282.349664428,39566.091724537,39566.0951736111,24.671643642032564,2008-04-28,02:12:05,2008-04-28,02:17:03,-1
441998.2857142857,4428658.596031743,39566.7870486111,39566.7933680556,191.4138187279069,2008-04-28,18:53:21,2008-04-28,19:02:27,798
441091.9764940238,4424468.632669323,39567.0364814815,39567.0501157407,156.9319916396142,2008-04-29,00:52:32,2008-04-29,01:12:10,-1
441007.2553191491,4424555.588379706,39567.1759953704,39567.1999768519,198.36877274417577,2008-04-29,04:13:26,2008-04-29,04:47:58,-1
442040.74117647065,4428651.809411765,39567.2441087963,39567.2790277778,195.8492532534351,2008-04-29,05:51:31,2008-04-29,06:41:48,798
442766.2794354835,4425309.700806451,39567.2892013889,39567.6092361111,193.3705510156812,2008-04-29,06:56:27,2008-04-29,14:37:18,797
442017.5655405408,4428644.428040541,39567.6301388889,39568.0722337963,194.80248971751706,2008-04-29,15:07:24,2008-04-30,01:44:01,798
443050.7083333334,4426044.968055557,39568.0824768519,39568.1191898148,199.85034400733787,2008-04-30,01:58:46,2008-04-30,02:51:38,-1
442852.78888888884,4425243.133333333,39568.1232638889,39568.1246990741,124.63105551978157,2008-04-30,02:57:30,2008-04-30,02:59:34,797
441032.90454545483,4426046.136363636,39568.3837268518,39568.3857291667,191.3581981520764,2008-04-30,09:12:34,2008-04-30,09:15:27,-1
442657.5369863014,4425493.371232877,39568.4363425926,39568.6474652778,197.8490838995518,2008-04-30,10:28:20,2008-04-30,15:32:21,-1
442096.24056603736,4428508.327358492,39568.6612731481,39569.0017939815,196.51465594251962,2008-04-30,15:52:14,2008-05-01,00:02:35,804
562903.2498245614,4644015.011578948,39569.3393634259,39569.3805439815,198.54596445211254,2008-05-01,08:08:41,2008-05-01,09:07:59,-1
562835.9622950818,4644454.291256831,39569.384849537,39569.3922569444,198.1820627602927,2008-05-01,09:14:11,2008-05-01,09:24:51,-1
568294.7393298043,4627833.74867725,39570.0584027778,39570.0826736111,195.04381558956428,2008-05-02,01:24:06,2008-05-02,01:59:03,-1
575982.0314093956,4537973.595838921,39570.2356597222,39570.2728125,196.1200652660936,2008-05-02,05:39:21,2008-05-02,06:32:51,-1
578680.3396678964,4537121.625092256,39570.2899768518,39570.3114351852,199.78413350395573,2008-05-02,06:57:34,2008-05-02,07:28:28,-1
578678.6931506852,4537261.194520545,39570.3114583333,39570.3371064815,199.38023974287051,2008-05-02,07:28:30,2008-05-02,08:05:26,-1
578748.5999999999,4537941.084269661,39570.3507407407,39570.4047685185,196.40786644105384,2008-05-02,08:25:04,2008-05-02,09:42:52,-1
576059.7888888889,4538001.192592591,39570.554525463,39570.5551273148,188.72903857107428,2008-05-02,13:18:31,2008-05-02,13:19:23,-1
456538.06666666665,4420234.783333332,39571.2665509259,39571.2666087963,187.3993062961534,2008-05-03,06:23:50,2008-05-03,06:23:55,-1
450307.2781771497,4425277.295121955,39571.2971180556,39571.3398958333,199.15069670989632,2008-05-03,07:07:51,2008-05-03,08:09:27,-1
442834.60599999985,4425237.397999998,39571.3643865741,39571.6681597222,188.43961897648907,2008-05-03,08:44:43,2008-05-03,16:02:09,797
442003.0211538462,4428592.468269231,39571.6786342593,39572.1962037037,194.59344798832424,2008-05-03,16:17:14,2008-05-04,04:42:32,800
442334.90781249985,4428164.4375,39572.2128935185,39572.2143518519,194.12006593914165,2008-05-04,05:06:34,2008-05-04,05:08:40,-1
450718.0121212124,4424570.158787877,39572.4854398148,39572.5220949074,173.7277467764528,2008-05-04,11:39:02,2008-05-04,12:31:49,805
450652.5325454544,4424666.498727274,39572.5395601852,39572.5631597222,198.38397112672232,2008-05-04,12:56:58,2008-05-04,13:30:57,-1
442788.0355371901,4425245.252066114,39572.5893055556,39572.688287037,143.79770512773976,2008-05-04,14:08:36,2008-05-04,16:31:08,797
442025.3708333333,4428634.085416666,39572.6986921296,39572.6997800926,199.9216846665855,2008-05-04,16:46:07,2008-05-04,16:47:41,798
442747.1432748537,4425284.973099413,39573.106412037,39573.1781828704,193.68172345374637,2008-05-05,02:33:14,2008-05-05,04:16:35,797
441726.7890173411,4422667.531791908,39573.1859143519,39573.2317824074,193.33701145907673,2008-05-05,04:27:43,2008-05-05,05:33:46,-1
442768.50236220466,4425375.30393701,39573.239837963,39573.6562847222,198.8655827437194,2008-05-05,05:45:22,2008-05-05,15:45:03,802
442008.1753846155,4428655.163076921,39573.6755208333,39573.6828935185,158.0564456134339,2008-05-05,16:12:45,2008-05-05,16:23:22,798
442802.86564885493,4425333.447328243,39574.1051736111,39574.6386111111,191.797028131427,2008-05-06,02:31:27,2008-05-06,15:19:36,797
442065.22268907574,4428603.029411766,39574.6484143519,39575.0696643519,199.40173018290147,2008-05-06,15:33:43,2008-05-07,01:40:19,798
442754.173943662,4425265.864084505,39575.0899074074,39575.7001388889,196.688027089267,2008-05-07,02:09:28,2008-05-07,16:48:12,797
442030.1788888889,4428636.667777779,39575.7102199074,39576.063900463,197.3238201535766,2008-05-07,17:02:43,2008-05-08,01:32:01,798
442796.8483870966,4425318.713978493,39576.0831134259,39576.0852430556,190.2395595031667,2008-05-08,01:59:41,2008-05-08,02:02:45,797
450326.54604316544,4426401.426618703,39576.4313657407,39576.4345486111,198.39085160342495,2008-05-08,10:21:10,2008-05-08,10:25:45,-1
450413.59334811603,4424872.588913524,39576.5322106481,39576.5811458333,198.76833248710813,2008-05-08,12:46:23,2008-05-08,13:56:51,-1
442933.8055555556,4425256.291111111,39576.6272453704,39576.6293055556,199.98524945616597,2008-05-08,15:03:14,2008-05-08,15:06:12,797
442078.6119148935,4428641.212340426,39576.7216435185,39577.0641319444,198.81493907660536,2008-05-08,17:19:10,2008-05-09,01:32:21,798
442782.79411764693,4425287.055882353,39577.0826851852,39577.0852314815,195.46930705345562,2008-05-09,01:59:04,2008-05-09,02:02:44,797
442023.275862069,4428636.287931034,39577.6052430556,39577.6065625,179.65191343263288,2008-05-09,14:31:33,2008-05-09,14:33:27,798
442825.72993421025,4425318.41052632,39578.241712963,39578.6923032407,198.89084946238378,2008-05-10,05:48:04,2008-05-10,16:36:55,797
442049.29589041095,4428555.8232876705,39578.7006481481,39579.2289583333,196.77139019703492,2008-05-10,16:48:56,2008-05-11,05:29:42,798
442805.88446601946,4425293.757281555,39579.2418981481,39579.6550578704,155.92947123593387,2008-05-11,05:48:20,2008-05-11,15:43:17,797
442066.9076923077,4428583.071328672,39579.6672337963,39580.0750694444,193.2317261739802,2008-05-11,16:00:49,2008-05-12,01:48:06,798
442776.732653061,4425279.499999999,39580.0866435185,39580.0893287037,198.05112976222787,2008-05-12,02:04:46,2008-05-12,02:08:38,797
450723.4796536801,4424596.997763354,39580.4752083333,39580.6276273148,198.0382033850357,2008-05-12,11:24:18,2008-05-12,15:03:47,805
442861.28837209305,4425250.139534884,39580.6394675926,39580.6413541667,153.20737580155858,2008-05-12,15:20:50,2008-05-12,15:23:33,797
442026.9312499999,4428638.564583333,39580.7783796296,39581.1135300926,187.79438223742264,2008-05-12,18:40:52,2008-05-13,02:43:29,798
442790.07751196146,4425332.394258376,39581.1503819444,39581.6895717593,193.23366683937127,2008-05-13,03:36:33,2008-05-13,16:32:59,797
442018.03537735855,4428629.66698113,39581.6988657407,39582.0994328704,197.0535206484134,2008-05-13,16:46:22,2008-05-14,02:23:11,798
442789.35,4425268.1277777795,39582.1149074074,39582.6656712963,152.08395707634486,2008-05-14,02:45:28,2008-05-14,15:58:34,797
442055.9184049078,4428593.531288343,39582.6768287037,39583.0842476852,197.07737059352132,2008-05-14,16:14:38,2008-05-15,02:01:19,798
442793.6862745098,4425294.735294117,39583.0946180556,39583.0967939815,196.28410531701243,2008-05-15,02:16:15,2008-05-15,02:19:23,797
441323.04854368925,4428473.8223300995,39583.4637615741,39583.5144675926,197.2337699279987,2008-05-15,11:07:49,2008-05-15,12:20:50,-1
442783.7666666668,4425325.374137936,39583.5302083333,39583.6810532407,193.92949749894763,2008-05-15,12:43:30,2008-05-15,16:20:43,797
442028.4822222223,4428626.64888889,39583.6892476852,39584.0965509259,190.00918398855907,2008-05-15,16:32:31,2008-05-16,02:19:02,798
441673.029032258,4428115.682258062,39584.1049074074,39584.121099537,199.5214524806865,2008-05-16,02:31:04,2008-05-16,02:54:23,-1
442052.21732283453,4428618.502362207,39584.1740162037,39584.2932175926,192.8864173545086,2008-05-16,04:10:35,2008-05-16,07:02:14,798
442803.21176470583,4425320.724509803,39584.3067361111,39584.3090740741,192.42037314126608,2008-05-16,07:21:42,2008-05-16,07:25:04,797
440661.75454545463,4426728.197607656,39584.4578009259,39584.4710416667,46.15246472236416,2008-05-16,10:59:14,2008-05-16,11:18:18,-1
440489.48738095217,4426577.84952381,39584.5441666667,39584.5725462963,199.54372954339718,2008-05-16,13:03:36,2008-05-16,13:44:28,-1
442000.07564766804,4428661.341968909,39584.5912731481,39584.6060185185,118.72577647698135,2008-05-16,14:11:26,2008-05-16,14:32:40,798
450636.6894736841,4424708.075187969,39585.1288657407,39585.1319097222,157.7555387300452,2008-05-17,03:05:34,2008-05-17,03:09:57,-1
448768.551835853,4423680.073650106,39585.1969791667,39586.2467013889,176.89332943895877,2008-05-17,04:43:39,2008-05-18,05:55:15,-1
450349.1313559322,4424525.2076271195,39586.2606597222,39586.3009722222,199.53636260090977,2008-05-18,06:15:21,2008-05-18,07:13:24,-1
450535.08964143443,4424563.577689245,39586.3024189815,39586.3091087963,132.50358485728046,2008-05-18,07:15:29,2008-05-18,07:25:07,-1
447910.70265700406,4426506.008937203,39586.5498263889,39586.5717939815,199.40072718021912,2008-05-18,13:11:45,2008-05-18,13:43:23,-1
441999.6089743592,4428633.843589744,39586.6200115741,39587.0266898148,199.928237124892,2008-05-18,14:52:49,2008-05-19,00:38:26,798
442813.26227544906,4425290.786227547,39587.0443981481,39587.5943287037,199.81924331739236,2008-05-19,01:03:56,2008-05-19,14:15:50,797
442082.27519379836,4428555.9108527135,39587.6058101852,39588.0648611111,198.50604524788434,2008-05-19,14:32:22,2008-05-20,01:33:24,798
442780.36488549615,4425276.096183201,39588.0755324074,39588.4821643519,198.55079954502,2008-05-20,01:48:46,2008-05-20,11:34:19,797
442525.89577464806,4425213.8704225365,39588.4854861111,39588.5645601852,118.27971085528394,2008-05-20,11:39:06,2008-05-20,13:32:58,-1
442543.9425531917,4426138.063829786,39588.6442939815,39588.6448611111,199.53170174222868,2008-05-20,15:27:47,2008-05-20,15:28:36,-1
442784.20169491513,4425279.8994350275,39589.1496875,39589.4121990741,198.70002516357349,2008-05-21,03:35:33,2008-05-21,09:53:34,797
441108.33358778653,4425415.41221374,39589.4270717593,39589.4677893519,144.77354730752378,2008-05-21,10:14:59,2008-05-21,11:13:37,-1
440891.8638888892,4425936.819444445,39589.4947916667,39589.503587963,145.14010472669037,2008-05-21,11:52:30,2008-05-21,12:05:10,-1
442777.9606237818,4425233.28245614,39589.5460532407,39589.5693402778,137.47832556442052,2008-05-21,13:06:19,2008-05-21,13:39:51,797
442808.1288343559,4425261.076073618,39589.5694212963,39589.614212963,197.95615676203636,2008-05-21,13:39:58,2008-05-21,14:44:28,797
442053.8974093261,4428567.535751299,39589.6235069444,39590.0677314815,195.7102194574236,2008-05-21,14:57:51,2008-05-22,01:37:32,798
442797.4938053098,4425284.154867257,39590.0933912037,39590.0956944444,195.75058109759158,2008-05-22,02:14:29,2008-05-22,02:17:48,797
442470.4568421054,4429018.037894736,39590.173599537,39590.2684027778,98.47690084482811,2008-05-22,04:09:59,2008-05-22,06:26:30,-1
442776.6740524778,4425272.086005831,39590.2812037037,39590.4515625,66.90328840938578,2008-05-22,06:44:56,2008-05-22,10:50:15,797
450710.06984126975,4424560.206349206,39590.476400463,39590.6472106481,178.0373556309616,2008-05-22,11:26:01,2008-05-22,15:31:59,805
442110.0543478261,4428521.2354037305,39590.6760069444,39591.0533564815,198.29536051018155,2008-05-22,16:13:27,2008-05-23,01:16:50,804
442797.06548672565,4425287.253982301,39591.0640277778,39591.066099537,197.58615842198134,2008-05-23,01:32:12,2008-05-23,01:35:11,797
442037.5177083335,4428623.053124998,39594.6528009259,39596.0497222222,197.31003522375642,2008-05-26,15:40:02,2008-05-28,01:11:36,798
442853.3555555557,4425301.67962963,39596.0702546296,39596.0746064815,197.6452630343399,2008-05-28,01:41:10,2008-05-28,01:47:26,797
442015.04499999987,4429021.7579999985,39596.4253240741,39596.4266666667,196.4193982275302,2008-05-28,10:12:28,2008-05-28,10:14:24,801
442044.40595238097,4428617.492857143,39596.615462963,39597.0561689815,166.87108796880605,2008-05-28,14:46:16,2008-05-29,01:20:53,798
442808.5735000004,4425291.4185000025,39597.0740393519,39597.4353356481,196.40957206809222,2008-05-29,01:46:37,2008-05-29,10:26:53,797
443246.90540540515,4425464.606306305,39597.4387962963,39597.4401967593,199.59609214594613,2008-05-29,10:31:52,2008-05-29,10:33:53,-1
442848.45294117666,4425277.036134456,39597.470150463,39597.4738657407,145.74913378814776,2008-05-29,11:17:01,2008-05-29,11:22:22,797
442045.7905472636,4428580.594527361,39597.6667939815,39598.0616203704,198.7191485487124,2008-05-29,16:00:11,2008-05-30,01:28:44,798
442784.6286486488,4425251.8005405385,39598.0716782407,39598.160462963,190.84428207311942,2008-05-30,01:43:13,2008-05-30,03:51:04,797
450643.1214285713,4424531.222619047,39598.1831944444,39598.2069560185,197.7467572427195,2008-05-30,04:23:48,2008-05-30,04:58:01,-1
442943.71466666664,4425258.408000004,39598.2457407407,39598.2475462963,199.3159552069272,2008-05-30,05:53:52,2008-05-30,05:56:28,797
461047.48460342176,4429453.109175734,39598.3236689815,39598.3535185185,199.49536335456455,2008-05-30,07:46:05,2008-05-30,08:29:04,-1
460964.4360681118,4429514.513622284,39598.3535763889,39598.405462963,199.54410539995067,2008-05-30,08:29:09,2008-05-30,09:43:52,-1
460918.9943143813,4429720.309698995,39598.405474537,39598.4309837963,199.6225438174209,2008-05-30,09:43:53,2008-05-30,10:20:37,-1
460730.4188284521,4429789.62573222,39598.4309953704,39598.5055439815,198.6664038029695,2008-05-30,10:20:38,2008-05-30,12:07:59,-1
442823.93846153835,4425231.53861539,39598.5333796296,39598.7395601852,199.85619830267962,2008-05-30,12:48:04,2008-05-30,17:44:58,797
442044.2603238865,4428562.627935225,39598.748599537,39599.1188657407,197.2012423897818,2008-05-30,17:57:59,2008-05-31,02:51:10,798
450645.1310160426,4424530.529946522,39599.1555439815,39599.1577083333,198.04671166166835,2008-05-31,03:43:59,2008-05-31,03:47:06,-1
454697.77552447544,4428733.7391608395,39599.2560185185,39599.2608333333,195.18632124214434,2008-05-31,06:08:40,2008-05-31,06:15:36,-1
453606.12641509424,4426764.535849057,39599.4510532407,39599.4516550926,193.2574707481,2008-05-31,10:49:31,2008-05-31,10:50:23,-1
442908.0174999997,4425261.6175,39599.5863773148,39599.5908796296,137.5956394657192,2008-05-31,14:04:23,2008-05-31,14:10:52,797
442072.84999999974,4428562.63219178,39599.6520949074,39600.1846759259,155.12191979204056,2008-05-31,15:39:01,2008-06-01,04:25:56,798
450677.3936842105,4424617.987789474,39600.2647916667,39600.2913425926,190.93278922158115,2008-06-01,06:21:18,2008-06-01,06:59:32,799
450310.92796725786,4424929.301773534,39600.3242476852,39600.3396412037,177.3709389947208,2008-06-01,07:46:55,2008-06-01,08:09:05,-1
449696.32150259067,4428588.828497409,39600.3632407407,39600.4259953704,199.4081242070571,2008-06-01,08:43:04,2008-06-01,10:13:26,-1
450281.3950672643,4425299.776681612,39600.4360532407,39600.4743055556,199.80723210115644,2008-06-01,10:27:55,2008-06-01,11:23:00,-1
450631.0719806767,4424583.837198067,39600.4912152778,39600.5117708333,53.209397666388014,2008-06-01,11:47:21,2008-06-01,12:16:57,-1
442031.659550562,4428628.804494381,39600.5633101852,39601.0535185185,190.29324738445547,2008-06-01,13:31:10,2008-06-02,01:17:04,798
442722.6442982457,4425351.120614037,39601.0751967593,39601.4463773148,198.85886955259843,2008-06-02,01:48:17,2008-06-02,10:42:47,-1
442547.10128205136,4425696.628205123,39601.4481481481,39601.4519560185,194.9326550377188,2008-06-02,10:45:20,2008-06-02,10:50:49,806
442394.5427976682,4428055.153538712,39601.5342824074,39601.6079513889,129.2746688256621,2008-06-02,12:49:22,2008-06-02,14:35:27,-1
442046.33508771943,4428632.760526316,39601.6115277778,39602.0320949074,197.39739106666696,2008-06-02,14:40:36,2008-06-03,00:46:13,798
442778.91428571416,4425324.490273552,39602.0630208333,39602.6698958333,197.4775177073782,2008-06-03,01:30:45,2008-06-03,16:04:39,797
442053.9929577465,4428623.609859152,39602.6792361111,39602.6816203704,196.88092848231648,2008-06-03,16:18:06,2008-06-03,16:21:32,798
442786.51101694914,4425292.322033897,39603.0934375,39603.0953587963,197.70637318996074,2008-06-04,02:14:33,2008-06-04,02:17:19,797
442044.2070588234,4428626.3988235295,39603.729537037,39604.0812268518,199.77950345285615,2008-06-04,17:30:32,2008-06-05,01:56:58,798
442781.3832214767,4425386.6852349,39604.0949189815,39604.0991666667,159.85299496718713,2008-06-05,02:16:41,2008-06-05,02:22:48,802
441975.2352331609,4428588.179274611,39604.4685069444,39604.4718055556,195.5050127234591,2008-06-05,11:14:39,2008-06-05,11:19:24,800
442799.6860139862,4425244.402097903,39604.5622106481,39604.563912037,199.15132437417947,2008-06-05,13:29:35,2008-06-05,13:32:02,797
442051.1083700441,4428565.68986784,39604.7021296296,39605.0913078704,198.96879152250898,2008-06-05,16:51:04,2008-06-06,02:11:29,798
442784.08273809525,4425313.2351190485,39605.1019560185,39605.1039467593,197.41339873485268,2008-06-06,02:26:49,2008-06-06,02:29:41,797
442045.0621621621,4428613.914864863,39605.7692361111,39605.7701273148,199.592710287071,2008-06-06,18:27:42,2008-06-06,18:28:59,798
450542.2996699669,4417188.322772276,39605.9972685185,39606.0059722222,197.45594445288168,2008-06-06,23:56:04,2008-06-07,00:08:36,-1
706609.5057366363,4413940.642112126,39606.1675694444,39606.1940625,198.90502758842206,2008-06-07,04:01:18,2008-06-07,04:39:27,-1
706752.8046583852,4413907.416459627,39606.1940740741,39606.2447222222,198.8615598853845,2008-06-07,04:39:28,2008-06-07,05:52:24,-1
712172.5961325972,4410828.749999995,39606.2832986111,39606.3246412037,199.86820657619478,2008-06-07,06:47:57,2008-06-07,07:47:29,-1
712634.9857142858,4409840.043999998,39606.3359259259,39606.3498611111,199.0281387138942,2008-06-07,08:03:44,2008-06-07,08:23:48,-1
712613.1796819791,4409779.421554769,39606.3578125,39606.3813541667,181.0907231191462,2008-06-07,08:35:15,2008-06-07,09:09:09,-1
712063.2820143887,4410856.329496402,39606.4382986111,39607.0930092593,199.37565046899954,2008-06-07,10:31:09,2008-06-08,02:13:56,-1
712430.2017816093,4410725.833563223,39607.1897222222,39607.244224537,199.99062478026315,2008-06-08,04:33:12,2008-06-08,05:51:41,-1
712059.6562078922,4410846.666987489,39607.252650463,39607.2932060185,199.90700337909433,2008-06-08,06:03:49,2008-06-08,07:02:13,-1
713015.2637323944,4409922.000704227,39607.3130902778,39607.3474884259,198.9317973577634,2008-06-08,07:30:51,2008-06-08,08:20:23,-1
713025.1719540235,4409925.507126439,39607.3526736111,39607.3751388889,199.8383847013303,2008-06-08,08:27:51,2008-06-08,09:00:12,-1
712058.533459501,4410851.558743372,39607.4317824074,39608.0909837963,199.52756701763127,2008-06-08,10:21:46,2008-06-09,02:11:01,-1
712685.7776361521,4409933.49663963,39608.123275463,39608.1554166667,199.2030371256039,2008-06-09,02:57:31,2008-06-09,03:43:48,-1
712435.2758314857,4410715.098891357,39608.1747453704,39608.2087962963,198.9598200642599,2008-06-09,04:11:38,2008-06-09,05:00:40,-1
712091.4118644065,4410871.505084745,39608.2284259259,39608.2303125,68.98072194445008,2008-06-09,05:28:56,2008-06-09,05:31:39,-1
706837.9222222219,4413941.909401706,39608.3672800926,39608.3701851852,190.81228996068768,2008-06-09,08:48:53,2008-06-09,08:53:04,-1
595263.48,4407822.706666667,39608.5046990741,39608.5050347222,192.96408992341733,2008-06-09,12:06:46,2008-06-09,12:07:15,-1
450616.9937888197,4417180.95031056,39608.6256134259,39608.6293171296,180.58574140888535,2008-06-09,15:00:53,2008-06-09,15:06:13,-1
442037.7494915256,4428596.682033898,39608.6808680556,39608.999525463,195.59358373937613,2008-06-09,16:20:27,2008-06-09,23:59:19,798
442793.6231578945,4425295.101052632,39609.0215625,39609.7283101852,149.98723278967262,2008-06-10,00:31:03,2008-06-10,17:28:46,797
442114.8419463091,4428564.191946312,39609.7375115741,39610.0286111111,198.5130726172247,2008-06-10,17:42:01,2008-06-11,00:41:12,-1
442202.8102040815,4428184.5142857125,39610.0537384259,39610.0628935185,18.757931655938673,2008-06-11,01:17:23,2008-06-11,01:30:34,-1
442791.63770491804,4425412.186065575,39610.1712847222,39610.1727777778,196.44879740031791,2008-06-11,04:06:39,2008-06-11,04:08:48,802
442041.3455882353,4428606.902941175,39610.7785069444,39610.7794097222,199.1656847950482,2008-06-11,18:41:03,2008-06-11,18:42:21,798
442876.7941176471,4425317.527450979,39611.0283796296,39611.0335763889,189.51203128070884,2008-06-12,00:40:52,2008-06-12,00:48:21,-1
442052.33690476185,4428596.0559523795,39611.7735532407,39611.7746527778,196.56309419605742,2008-06-12,18:33:55,2008-06-12,18:35:30,798
442302.96624999994,4428239.171250001,39613.0892939815,39613.0902662037,56.21103094597923,2008-06-14,02:08:35,2008-06-14,02:09:59,-1
445590.10257510724,4425333.646566523,39613.4090046296,39613.5770833333,199.67666363432036,2008-06-14,09:48:58,2008-06-14,13:51:00,-1
442971.1790055251,4425243.744198897,39613.5930324074,39613.630474537,187.03887296494898,2008-06-14,14:13:58,2008-06-14,15:07:53,797
442110.0985074627,4428565.9619403,39613.6407523148,39614.0436111111,155.3373103925092,2008-06-14,15:22:41,2008-06-15,01:02:48,798
442797.68805970135,4425260.661194032,39614.0590509259,39614.0702662037,185.40218445317095,2008-06-15,01:25:02,2008-06-15,01:41:11,797
450279.5815047022,4426561.919122255,39614.199537037,39614.2101157407,140.73951115414044,2008-06-15,04:47:20,2008-06-15,05:02:34,-1
442526.2125,4427413.1899999995,39615.4942824074,39615.4947453704,198.00982298865966,2008-06-16,11:51:46,2008-06-16,11:52:26,-1
442767.3308510638,4425364.065957446,39616.3474768519,39616.3763310185,199.1925952439112,2008-06-17,08:20:22,2008-06-17,09:01:55,802
442886.8407407405,4425234.822685181,39616.416099537,39616.4387615741,62.012659998138986,2008-06-17,09:59:11,2008-06-17,10:31:49,797
442557.8547619048,4426940.689285715,39616.6794212963,39616.6804166667,184.33233574226938,2008-06-17,16:18:22,2008-06-17,16:19:48,-1
442798.77142857155,4425292.145864662,39617.0399652778,39617.0421527778,199.24951693765948,2008-06-18,00:57:33,2008-06-18,01:00:42,797
442032.1624999998,4428620.353124999,39618.6511111111,39618.6519444444,199.77319639964807,2008-06-19,15:37:36,2008-06-19,15:38:48,798
442797.2694656489,4425280.4732824415,39618.9610300926,39618.9780324074,156.8936582528618,2008-06-19,23:03:53,2008-06-19,23:28:22,797
456693.3594810384,4412490.343912173,39619.0133680556,39619.059224537,199.37667867594658,2008-06-20,00:19:15,2008-06-20,01:25:17,-1
456214.07335811725,4413130.635192071,39619.0853125,39619.1750462963,199.7240596426519,2008-06-20,02:02:51,2008-06-20,04:12:04,-1
456012.4443125617,4413022.557863505,39619.1797916667,39619.2074189815,199.6069137078852,2008-06-20,04:18:54,2008-06-20,04:58:41,-1
456255.65855614946,4413037.825935829,39619.2074305556,39619.2435763889,198.3238261024813,2008-06-20,04:58:42,2008-06-20,05:50:45,-1
456195.6162878778,4413182.903409088,39619.2806828704,39619.2956018519,190.32795380548535,2008-06-20,06:44:11,2008-06-20,07:05:40,-1
456033.1000000001,4413128.1116564395,39619.3086226852,39619.3115393519,199.98124912050872,2008-06-20,07:24:25,2008-06-20,07:28:37,-1
456098.0226591756,4412922.929213479,39619.3517361111,39619.3748726852,188.69724428301265,2008-06-20,08:26:30,2008-06-20,08:59:49,-1
450371.96566265123,4424700.364307226,39619.4684837963,39619.4938194444,186.0446451799835,2008-06-20,11:14:37,2008-06-20,11:51:06,803
450354.7196428574,4424729.119642851,39619.4941319444,39619.529375,199.2510978645199,2008-06-20,11:51:33,2008-06-20,12:42:18,-1
442883.33974358975,4425238.865384615,39619.5477199074,39619.550775463,178.27599389703084,2008-06-20,13:08:43,2008-06-20,13:13:07,797
442129.8627831715,4428473.25987055,39620.7027083333,39621.0617476852,198.4877074283221,2008-06-21,16:51:54,2008-06-22,01:28:55,-1
442801.00743243226,4425303.109459457,39621.0731597222,39621.0765740741,193.51932720008847,2008-06-22,01:45:21,2008-06-22,01:50:16,797
442509.57557692286,4427434.203269233,39624.0306944444,39624.1824768518,199.66454367244944,2008-06-25,00:44:12,2008-06-25,04:22:46,-1
442883.1553571428,4425239.224999999,39624.2059606481,39624.2084606481,185.23952062161507,2008-06-25,04:56:35,2008-06-25,05:00:11,797
442053.18520179385,4428640.0206278,39624.5976157407,39624.6028125,182.05784794916548,2008-06-25,14:20:34,2008-06-25,14:28:03,798
442769.41656804737,4425267.017159762,39625.1233680556,39625.4593865741,196.77512546118928,2008-06-26,02:57:39,2008-06-26,11:01:31,797
441754.84239130444,4428552.233695653,39625.4711226852,39625.4723842593,197.28824090633742,2008-06-26,11:18:25,2008-06-26,11:20:14,-1
450318.03380952333,4426406.264523813,39626.0836805556,39626.0904398148,183.12239076642174,2008-06-27,02:00:30,2008-06-27,02:10:14,-1
442792.14457831334,4425229.7,39626.2574884259,39626.258587963,193.6298530702162,2008-06-27,06:10:47,2008-06-27,06:12:22,797
442075.3169230768,4428579.224615385,39626.7391435185,39626.7409259259,188.53394919784873,2008-06-27,17:44:22,2008-06-27,17:46:56,798
450722.15193548374,4424553.562580643,39627.1802777778,39627.3512037037,146.24038429977202,2008-06-28,04:19:36,2008-06-28,08:25:44,805
448728.0531690142,4423743.732042254,39627.3797685185,39627.392025463,183.85004759331994,2008-06-28,09:06:52,2008-06-28,09:24:31,-1
450375.1469387759,4424695.387755101,39628.2752662037,39628.3025115741,199.83878502433592,2008-06-29,06:36:23,2008-06-29,07:15:37,803
450623.4864035089,4424734.615789474,39628.3031365741,39628.3109027778,192.52495942099895,2008-06-29,07:16:31,2008-06-29,07:27:42,-1
443006.32894736854,4425180.139473684,39628.5406712963,39628.5426736111,182.75196305370227,2008-06-29,12:58:34,2008-06-29,13:01:27,-1
442046.44320987654,4428623.960493825,39629.6947685185,39629.6973958333,198.67553951073526,2008-06-30,16:40:28,2008-06-30,16:44:15,798
442741.3120772948,4425458.749758455,39630.0772106481,39630.6191435185,154.11051229522673,2008-07-01,01:51:11,2008-07-01,14:51:34,-1
442055.750877193,4428612.063157896,39630.6398032407,39630.6414236111,195.0179478919825,2008-07-01,15:21:19,2008-07-01,15:23:39,798
442781.8244897961,4425266.515306122,39631.1127546296,39631.7284953704,197.9329431905184,2008-07-02,02:42:22,2008-07-02,17:29:02,797
442024.23225806444,4428633.95483871,39631.7376273148,39631.7383333333,173.20764994655534,2008-07-02,17:42:11,2008-07-02,17:43:12,798
442787.002631579,4425239.342105262,39632.1911342593,39632.1925925926,195.61853184201073,2008-07-03,04:35:14,2008-07-03,04:37:20,797
450524.36390041513,4424743.081327801,39635.2334143519,39635.2584027778,199.919008601215,2008-07-06,05:36:07,2008-07-06,06:12:06,-1
449800.4,4428841.322222223,39635.2827199074,39635.2828587963,84.1957837416948,2008-07-06,06:47:07,2008-07-06,06:47:19,-1
449394.0453832754,4427674.782142865,39635.3857175926,39635.4571064815,196.31591886547415,2008-07-06,09:15:26,2008-07-06,10:58:14,-1
449705.6413445379,4423605.590756305,39635.4760648148,39635.4980555556,197.57995849773653,2008-07-06,11:25:32,2008-07-06,11:57:12,-1
442794.05555555556,4425247.1,39635.5405902778,39635.5429976852,175.29067288351496,2008-07-06,12:58:27,2008-07-06,13:01:55,797
442802.6567164178,4425382.73283582,39635.7292361111,39635.7313078704,187.62774315086978,2008-07-06,17:30:06,2008-07-06,17:33:05,802
441116.7688372094,4425295.216279073,39638.1730092593,39638.1755324074,139.33287479939398,2008-07-09,04:09:08,2008-07-09,04:12:46,-1
442729.52666666656,4425240.998461537,39638.2219097222,39638.4459143518,197.6619589098112,2008-07-09,05:19:33,2008-07-09,10:42:07,797
442490.142184154,4427139.279657389,39638.4534953704,39638.518587963,189.61149754205667,2008-07-09,10:53:02,2008-07-09,12:26:46,-1
442839.57278911583,4425230.786394559,39638.5315393518,39638.5365625,147.84630533087747,2008-07-09,12:45:25,2008-07-09,12:52:39,797
441930.47012987,4425224.587012987,39642.1621180556,39642.163900463,162.9223741540419,2008-07-13,03:53:27,2008-07-13,03:56:01,-1
441135.9391999999,4425346.3184,39644.1708912037,39644.2370717593,153.60602201736336,2008-07-15,04:06:05,2008-07-15,05:41:23,-1
442773.40090090095,4425235.188288288,39644.2454513889,39644.2469907407,195.16405919127024,2008-07-15,05:53:27,2008-07-15,05:55:40,797
443263.66111111094,4425439.611616166,39645.4377314815,39645.4400115741,199.780379416819,2008-07-16,10:30:20,2008-07-16,10:33:37,-1
442966.20648648636,4425254.326486486,39645.4771296296,39645.4792824074,196.6087739649822,2008-07-16,11:27:04,2008-07-16,11:30:10,797
442011.50431654695,4428771.313669066,39645.6708564815,39645.6792013889,169.0237853083048,2008-07-16,16:06:02,2008-07-16,16:18:03,-1
442797.1228571428,4425278.303809523,39646.0808101852,39646.4578240741,199.9974249837396,2008-07-17,01:56:22,2008-07-17,10:59:16,797
442544.19967426715,4425709.93648208,39646.460462963,39646.4658912037,180.96038240451492,2008-07-17,11:03:04,2008-07-17,11:10:53,806
442754.7082840235,4425407.810059171,39646.5037152778,39646.5056712963,196.16821862865373,2008-07-17,12:05:21,2008-07-17,12:08:10,-1
442540.8481994462,4425704.229916896,39646.6440740741,39646.7454398148,199.70022533806613,2008-07-17,15:27:28,2008-07-17,17:53:26,806
442064.38431372546,4428601.404901961,39646.7546990741,39646.7559490741,198.04042516615692,2008-07-17,18:06:46,2008-07-17,18:08:34,798
442688.4039408868,4425274.123152707,39647.0942592593,39647.4067708333,198.30789192517904,2008-07-18,02:15:44,2008-07-18,09:45:45,-1
442010.0407766989,4429023.716504856,39647.4247337963,39647.426087963,193.3919595016097,2008-07-18,10:11:37,2008-07-18,10:13:34,801
442462.41843687405,4425734.604809618,39647.5799305556,39647.6014467593,198.30816927178287,2008-07-18,13:55:06,2008-07-18,14:26:05,-1
442787.0863636363,4425237.573636366,39647.6048148148,39647.6308680556,26.900743484569706,2008-07-18,14:30:56,2008-07-18,15:08:27,797
442054.51690140855,4428613.173239437,39647.6411921296,39647.6420949074,192.52189485857423,2008-07-18,15:23:19,2008-07-18,15:24:37,798
442897.89651162794,4425213.6988372095,39648.3275231481,39648.3412152778,81.0395582416183,2008-07-19,07:51:38,2008-07-19,08:11:21,797
450593.8619565215,4421219.973913046,39648.4244444444,39648.4284375,186.32831239509542,2008-07-19,10:11:12,2008-07-19,10:16:57,-1
450648.9689922482,4424582.889437987,39648.4958217593,39648.5551157407,199.7943943158618,2008-07-19,11:53:59,2008-07-19,13:19:22,-1
442849.4918918919,4425268.054954952,39648.5784259259,39648.5811689815,190.85400179194568,2008-07-19,13:52:56,2008-07-19,13:56:53,797
442044.33488372096,4428626.4186046515,39649.7644212963,39649.7654976852,197.945649106182,2008-07-20,18:20:46,2008-07-20,18:22:19,798
442782.9307692309,4425381.632051283,39650.0635532407,39650.0653703704,195.6719959523028,2008-07-21,01:31:31,2008-07-21,01:34:08,802
442544.44451612915,4425730.492903226,39650.4377430556,39650.472962963,187.42689241409306,2008-07-21,10:30:21,2008-07-21,11:21:04,-1
442775.32313432836,4425386.724626867,39650.4787847222,39650.4818634259,162.9725130198227,2008-07-21,11:29:27,2008-07-21,11:33:53,802
441185.7444444443,4425316.854074075,39652.399537037,39652.4385416667,197.7844533827869,2008-07-23,09:35:20,2008-07-23,10:31:30,-1
440970.29036144563,4425128.396385544,39652.4391435185,39652.4410416667,196.4533786932039,2008-07-23,10:32:22,2008-07-23,10:35:06,-1
442822.4791044777,4425246.574626864,39652.5867708333,39652.5882986111,197.07886746168944,2008-07-23,14:04:57,2008-07-23,14:07:09,797
450710.3782527877,4424632.501301116,39654.4033796296,39654.4257175926,199.08616225116003,2008-07-25,09:40:52,2008-07-25,10:13:02,799
449766.29714285734,4423557.667619046,39654.4479282407,39654.492037037,194.59344798842284,2008-07-25,10:45:01,2008-07-25,11:48:32,-1
450360.30000000005,4424836.753846155,39654.4954166667,39654.4972685185,188.65259075842255,2008-07-25,11:53:24,2008-07-25,11:56:04,-1
450654.3833333332,4424586.425490197,39654.5689699074,39654.5992824074,197.60187246136746,2008-07-25,13:39:19,2008-07-25,14:22:58,-1
442876.9433962265,4425230.532075471,39654.6121990741,39654.6134027778,192.00567699934538,2008-07-25,14:41:34,2008-07-25,14:43:18,797
442027.72692307696,4428710.255769235,39656.991087963,39656.9975694444,152.18189774090217,2008-07-27,23:47:10,2008-07-27,23:56:30,-1
442834.57894736854,4425243.071052631,39657.2919791667,39657.2937152778,191.9941665779964,2008-07-28,07:00:27,2008-07-28,07:02:57,797
450717.0117154812,4424687.89246862,39658.447662037,39658.5103703704,153.9013320277549,2008-07-29,10:44:38,2008-07-29,12:14:56,-1
447284.5995689647,4426432.408189658,39658.5627777778,39658.5911226852,179.7467106791733,2008-07-29,13:30:24,2008-07-29,14:11:13,-1
449492.5351351349,4426475.7587837875,39658.5937615741,39658.5983912037,191.70354717636292,2008-07-29,14:15:01,2008-07-29,14:21:41,-1
442957.99999999994,4425237.178571428,39658.6207986111,39658.6230439815,198.97622973612854,2008-07-29,14:53:57,2008-07-29,14:57:11,797
450296.889971346,4425212.778796559,39660.4609143519,39660.4944212963,198.4064515074507,2008-07-31,11:03:43,2008-07-31,11:51:58,-1
450328.9326086955,4424767.172826088,39660.4958564815,39660.497962963,199.38798860550293,2008-07-31,11:54:02,2008-07-31,11:57:04,-1
442834.94574468076,4425350.39574468,39660.6204398148,39660.6234953704,194.19871266290582,2008-07-31,14:53:26,2008-07-31,14:57:50,-1
441049.85,4429081.8,39662.3301273148,39662.330150463,86.93313522469852,2008-08-02,07:55:23,2008-08-02,07:55:25,-1
450554.9057142857,4424731.948571428,39662.3824305556,39662.3840277778,199.40596781439456,2008-08-02,09:10:42,2008-08-02,09:13:00,-1
447636.6586956522,4426216.60869565,39662.4352893519,39662.5296643519,198.98065232542797,2008-08-02,10:26:49,2008-08-02,12:42:43,-1
450315.8963302747,4425271.702752294,39662.6073032407,39662.6468518519,148.37634582377936,2008-08-02,14:34:31,2008-08-02,15:31:28,-1
442054.49428571464,4428579.785714287,39662.6718402778,39663.1526041667,197.83389497196984,2008-08-02,16:07:27,2008-08-03,03:39:45,798
450225.5257425745,4426524.838613864,39663.1852777778,39663.1892361111,187.99680848346802,2008-08-03,04:26:48,2008-08-03,04:32:30,-1
450389.5019230771,4424925.609615385,39663.4300925926,39663.4312615741,186.60452834790192,2008-08-03,10:19:20,2008-08-03,10:21:01,-1
442040.9093749999,4428599.422656247,39663.5558680556,39663.6579976852,198.0273213467814,2008-08-03,13:20:27,2008-08-03,15:47:31,798
442771.34035087744,4425248.121929825,39663.6686921296,39665.4492361111,191.4585072545222,2008-08-03,16:02:55,2008-08-05,10:46:54,797
442537.79852941167,4425715.073529411,39665.4496296296,39665.4511805556,198.23390224692747,2008-08-05,10:47:28,2008-08-05,10:49:42,806
442756.5801587301,4425395.721428573,39665.4813425926,39665.4842361111,186.55875750008212,2008-08-05,11:33:08,2008-08-05,11:37:18,802
442586.0021660651,4425217.995306861,39666.4640625,39666.5359259259,197.46847849723036,2008-08-06,11:08:15,2008-08-06,12:51:44,-1
442832.00264550257,4425235.18201058,39666.5359490741,39667.2647106481,194.5253967995884,2008-08-06,12:51:46,2008-08-07,06:21:11,797
442997.80048780504,4425238.161463413,39667.2956018519,39667.9196875,191.87704396324006,2008-08-07,07:05:40,2008-08-07,22:04:21,-1
444256.8192982459,4421288.1228070175,39667.9238773148,39667.9267476852,174.16362995785892,2008-08-07,22:10:23,2008-08-07,22:14:31,-1
450430.80645161297,4417030.162365589,39667.948275463,39667.956724537,136.8760388083722,2008-08-07,22:45:31,2008-08-07,22:57:41,-1
712491.8912213744,4410758.758778624,39668.1182407407,39668.1404166667,199.5215527208937,2008-08-08,02:50:16,2008-08-08,03:22:12,-1
712433.7204943362,4410735.400617922,39668.1404398148,39668.1747453704,199.28818329242307,2008-08-08,03:22:14,2008-08-08,04:11:38,-1
712089.3651111108,4410889.045333336,39668.1747685185,39668.2089351852,199.9250109414023,2008-08-08,04:11:40,2008-08-08,05:00:52,-1
712071.8180369148,4410907.4753635805,39668.2089583333,39668.4774768518,18.710692130412937,2008-08-08,05:00:54,2008-08-08,11:27:34,-1
698098.8920634935,4389590.716780046,39669.113599537,39669.1317476852,198.45193372667467,2008-08-09,02:43:35,2008-08-09,03:09:43,-1
698037.4385777767,4389627.214666668,39669.1995717593,39669.2255902778,197.84322075839594,2008-08-09,04:47:23,2008-08-09,05:24:51,-1
697948.942822385,4389841.619464722,39669.2256134259,39669.2351851852,169.62576455188864,2008-08-09,05:24:53,2008-08-09,05:38:40,-1
713913.9772952856,4411493.76736972,39669.4702662037,39669.5010763889,191.1163519952998,2008-08-09,11:17:11,2008-08-09,12:01:33,-1
713847.6596363636,4410325.914909095,39670.0934837963,39670.1165856481,199.40195585783937,2008-08-10,02:14:37,2008-08-10,02:47:53,-1
713823.9604910722,4411403.501004473,39670.1372337963,39670.2981712963,197.316497029673,2008-08-10,03:17:37,2008-08-10,07:09:22,-1
450321.9529616724,4424442.392334494,39670.547650463,39670.5828125,198.64485898186845,2008-08-10,13:08:37,2008-08-10,13:59:15,-1
450351.324528302,4424605.932075471,39670.5828356481,39670.5840393519,81.42788220315242,2008-08-10,13:59:17,2008-08-10,14:01:01,-1
442049.6038461538,4428609.753846154,39670.7132291667,39670.7144097222,196.8405700052629,2008-08-10,17:07:03,2008-08-10,17:08:45,798
442830.8542857143,4425238.3257142855,39671.1641319444,39671.1657291667,183.2840691386051,2008-08-11,03:56:21,2008-08-11,03:58:39,797
441224.2915057915,4425242.882239385,39671.4058796296,39671.5491203704,194.541126757367,2008-08-11,09:44:28,2008-08-11,13:10:44,-1
442730.9371681414,4425243.250442479,39671.5540046296,39671.6726736111,194.20466008894962,2008-08-11,13:17:46,2008-08-11,16:08:39,797
442037.8809523809,4428636.090476191,39671.681099537,39671.6820486111,187.62582444925485,2008-08-11,16:20:47,2008-08-11,16:22:09,798
442829.1600000001,4425255.658333333,39672.1043287037,39672.1056944444,190.15753995049354,2008-08-12,02:30:14,2008-08-12,02:32:12,797
442027.94487179484,4428626.8807692295,39673.6517824074,39674.1079166667,134.99796294745047,2008-08-13,15:38:34,2008-08-14,02:35:24,798
442828.6711340206,4425261.6185567025,39674.1190740741,39675.0553472222,198.11675850347882,2008-08-14,02:51:28,2008-08-15,01:19:42,797
442797.52346938755,4425218.981632651,39675.0741319444,39675.0763773148,67.25027880999023,2008-08-15,01:46:45,2008-08-15,01:49:59,797
450207.3134020618,4426510.33814433,39676.2793402778,39676.4278356481,196.57695694053257,2008-08-16,06:42:15,2008-08-16,10:16:05,-1
453541.5560000002,4425220.545333329,39676.4438773148,39676.5307291667,176.67710660971463,2008-08-16,10:39:11,2008-08-16,12:44:15,-1
450300.621437126,4425276.468143714,39676.5426967593,39676.5733217593,199.0200492418656,2008-08-16,13:01:29,2008-08-16,13:45:35,-1
442919.4740384616,4425235.524038464,39676.5949074074,39677.7486226852,190.73586448274298,2008-08-16,14:16:40,2008-08-17,17:58:01,797
442096.4039473684,4428549.819736841,39677.7603703704,39678.0503587963,193.25902307539351,2008-08-17,18:14:56,2008-08-18,01:12:31,798
442922.31188118807,4425497.120792079,39678.0666087963,39678.090775463,196.72999262966835,2008-08-18,01:35:55,2008-08-18,02:10:43,-1
442848.4901960784,4425281.852941177,39678.0942708333,39678.3591087963,188.7000000000038,2008-08-18,02:15:45,2008-08-18,08:37:07,797
442066.0289473684,4428684.315789473,39678.368599537,39678.3945023148,190.5534045879523,2008-08-18,08:50:47,2008-08-18,09:28:05,798
442815.40645161306,4425250.129032259,39678.4065972222,39679.1683449074,195.4869049323858,2008-08-18,09:45:30,2008-08-19,04:02:25,797
443309.77058823523,4425224.994117647,39679.1721643518,39679.2270023148,197.4632370847126,2008-08-19,04:07:55,2008-08-19,05:26:53,-1
442928.23,4425267.55,39679.2271759259,39679.2299537037,190.20856973330325,2008-08-19,05:27:08,2008-08-19,05:31:08,797
442105.88292682933,4428730.637804877,39679.6248842593,39680.1169328704,194.5999229189761,2008-08-19,14:59:50,2008-08-20,02:48:23,-1
442751.60000000003,4425266.306250001,39680.1268865741,39680.1831828704,174.22356327482913,2008-08-20,03:02:43,2008-08-20,04:23:47,797
442821.10357142857,4425237.739285714,39680.2203703704,39680.2218171296,199.39430784253747,2008-08-20,05:17:20,2008-08-20,05:19:25,797
454738.61811023625,4422053.759055116,39680.5445138889,39680.6352314815,199.10040180744846,2008-08-20,13:04:06,2008-08-20,15:14:44,-1
442857.8166666667,4425257.704761904,39680.6466898148,39680.7297685185,180.8692898201177,2008-08-20,15:31:14,2008-08-20,17:30:52,797
442077.4818181817,4428535.70909091,39680.7397222222,39681.1622685185,198.44606320106857,2008-08-20,17:45:12,2008-08-21,03:53:40,798
442766.8379310344,4425284.6034482755,39681.1728587963,39682.4005787037,188.43593075650463,2008-08-21,04:08:55,2008-08-22,09:36:50,797
442525.41,4427389.89,39682.4080439815,39682.4090856481,189.6127632831155,2008-08-22,09:47:35,2008-08-22,09:49:05,-1
442521.7642857143,4427114.149999999,39682.5248148148,39682.5270023148,155.9569491882544,2008-08-22,12:35:44,2008-08-22,12:38:53,-1
442808.1864864865,4425254.7918918915,39682.5590740741,39682.5615625,159.53388354800865,2008-08-22,13:25:04,2008-08-22,13:28:39,797
444512.65400000004,4419717.73,39683.1479398148,39683.1506018518,193.76630254013125,2008-08-23,03:33:02,2008-08-23,03:36:52,-1
450510.125925926,4424763.203703703,39685.4199074074,39685.4229166667,187.60730262972174,2008-08-25,10:04:40,2008-08-25,10:09:00,-1
440945.1770833331,4425832.0041666655,39685.5031712963,39685.6444097222,194.92154832133858,2008-08-25,12:04:34,2008-08-25,15:27:57,-1
442781.11272727273,4425217.898181818,39685.6495949074,39685.652662037,199.15644604181043,2008-08-25,15:35:25,2008-08-25,15:39:50,797
442047.8925675677,4428673.197972974,39686.1466666667,39686.1965856481,187.45634158310256,2008-08-26,03:31:12,2008-08-26,04:43:05,798
442764.3187499999,4425258.581250001,39686.2061342593,39687.415474537,192.07147107276677,2008-08-26,04:56:50,2008-08-27,09:58:17,797
442067.97230769234,4428643.783076922,39687.4241550926,39687.4818518519,144.1711482928202,2008-08-27,10:10:47,2008-08-27,11:33:52,798
442735.2063829789,4425256.097872342,39687.5112037037,39688.4263773148,184.81864083401877,2008-08-27,12:16:08,2008-08-28,10:13:59,797
442815.91250000003,4425260.354166666,39688.4661226852,39689.3822106481,199.2625654754656,2008-08-28,11:11:13,2008-08-29,09:10:23,797
442079.78188405803,4421032.139855071,39689.4100115741,39689.51,195.38787065711855,2008-08-29,09:50:25,2008-08-29,12:14:24,-1
442801.93913043494,4425228.810869566,39689.5268981481,39689.5294444444,187.93536122825392,2008-08-29,12:38:44,2008-08-29,12:42:24,797
450700.83548387076,4424655.538709681,39691.1785416667,39691.1842708333,160.6762272395779,2008-08-31,04:17:06,2008-08-31,04:25:21,799
452815.2938053098,4420517.751327436,39691.2440972222,39691.2651041667,199.44726119956823,2008-08-31,05:51:30,2008-08-31,06:21:45,-1
452830.3583999998,4420546.358400001,39691.2653935185,39691.3602777778,189.46833508543412,2008-08-31,06:22:10,2008-08-31,08:38:48,-1
452944.9539682541,4420358.396825396,39691.3609722222,39691.3857523148,182.407017409032,2008-08-31,08:39:48,2008-08-31,09:15:29,-1
450620.6871794873,4424728.056410257,39691.4054861111,39691.4612152778,186.2538590203541,2008-08-31,09:43:54,2008-08-31,11:04:09,-1
442952.92758620705,4425231.889655172,39691.5157523148,39692.622025463,198.06385334023366,2008-08-31,12:22:41,2008-09-01,14:55:43,797
442047.26153846143,4428606.399999999,39692.6363194444,39693.1210648148,184.63144369291243,2008-09-01,15:16:18,2008-09-02,02:54:20,798
442058.9098360656,4428656.450819672,39693.1265046296,39693.1524768519,198.73047073826237,2008-09-02,03:02:10,2008-09-02,03:39:34,798
442808.81363636366,4425237.754545457,39693.1632407407,39693.1643402778,186.15813170523433,2008-09-02,03:55:04,2008-09-02,03:56:39,797
441162.20986842137,4425341.888815791,39695.3985763889,39695.4063310185,22.04223219185441,2008-09-04,09:33:57,2008-09-04,09:45:07,-1
440893.8309278351,4425877.174226805,39695.4427546296,39695.5418865741,182.06207732570954,2008-09-04,10:37:34,2008-09-04,13:00:19,-1
442821.7107142858,4425232.303571427,39695.5560069444,39695.5573958333,182.44212781049134,2008-09-04,13:20:39,2008-09-04,13:22:39,797
442048.7,4428632.953333334,39698.1132986111,39698.1140509259,174.95613735984224,2008-09-07,02:43:09,2008-09-07,02:44:14,798
442806.8428571428,4425236.309523809,39698.1613310185,39698.1624305556,187.529224389089,2008-09-07,03:52:19,2008-09-07,03:53:54,797
450767.11379310355,4424757.803448276,39698.4195138889,39698.4211342593,191.90687845941696,2008-09-07,10:04:06,2008-09-07,10:06:26,-1
442819.6495495491,4425223.946846847,39698.6144328704,39700.3592361111,193.76604449696285,2008-09-07,14:44:47,2008-09-09,08:37:18,797
450463.4424242424,4424725.906060606,39700.3909375,39700.395162037,152.40213253093916,2008-09-09,09:22:57,2008-09-09,09:29:02,-1
452849.6204819279,4420423.815662652,39700.4596412037,39700.5188078704,169.94566778827698,2008-09-09,11:01:53,2008-09-09,12:27:05,-1
442923.631707317,4425241.38292683,39700.5739351852,39700.5763657407,198.29455363184974,2008-09-09,13:46:28,2008-09-09,13:49:58,797
443029.38163265295,4425241.8959183665,39701.6428125,39701.6456018519,163.43674617425913,2008-09-10,15:25:39,2008-09-10,15:29:40,-1
442813.225531915,4425222.074468085,39703.0919675926,39703.3707060185,195.60738738640035,2008-09-12,02:12:26,2008-09-12,08:53:49,797
440836.3054545454,4426177.980909091,39703.4451851852,39703.5306365741,189.6739307339546,2008-09-12,10:41:04,2008-09-12,12:44:07,-1
442506.16923076945,4425655.719780219,39703.5423842593,39703.5672685185,196.64938342061473,2008-09-12,13:01:02,2008-09-12,13:36:52,-1
442813.190909091,4425236.943181819,39703.5684259259,39703.5747916667,174.0740072499023,2008-09-12,13:38:32,2008-09-12,13:47:42,797
443232.61739130423,4425534.8,39704.1560532407,39704.1647337963,134.41577288363766,2008-09-13,03:44:43,2008-09-13,03:57:13,-1
442792.2235294117,4425228.33986928,39704.2290972222,39705.3759027778,180.57353072940333,2008-09-13,05:29:54,2008-09-14,09:01:18,797
442029.54666666675,4428971.52,39705.3914236111,39705.3922337963,195.43530898996934,2008-09-14,09:23:39,2008-09-14,09:24:49,-1
442765.0279069768,4425191.24651163,39705.4356018519,39706.2990972222,171.1740634560249,2008-09-14,10:27:16,2008-09-15,07:10:42,-1
450684.11037037044,4424678.780740743,39706.3255902778,39706.3496527778,198.7592765132556,2008-09-15,07:48:51,2008-09-15,08:23:30,-1
450376.0189189186,4424580.025096527,39706.3673611111,39706.4072222222,199.8409617671152,2008-09-15,08:49:00,2008-09-15,09:46:24,-1
450655.8344827586,4424745.689655173,39706.4072800926,39706.408900463,132.7882901463264,2008-09-15,09:46:29,2008-09-15,09:48:49,807
450473.9,4424847.2,39706.4757638889,39706.4758217593,137.68195233908648,2008-09-15,11:25:06,2008-09-15,11:25:11,-1
442843.54500000004,4425237.5475,39706.5372685185,39706.8495486111,182.46054368004957,2008-09-15,12:53:40,2008-09-15,20:23:21,797
442037.3277777779,4428586.875925924,39706.8599074074,39707.2563425926,190.3273495844939,2008-09-15,20:38:16,2008-09-16,06:09:08,798
442830.33428571426,4425244.717142857,39707.267337963,39707.7829861111,136.54193494972003,2008-09-16,06:24:58,2008-09-16,18:47:30,797
442006.6162790695,4428661.744186047,39707.7936342593,39708.1446064815,196.90944619272648,2008-09-16,19:02:50,2008-09-17,03:28:14,798
442819.06799999997,4425228.976,39708.1710185185,39708.172349537,175.82391759939594,2008-09-17,04:06:16,2008-09-17,04:08:11,797
442778.58255813963,4425255.131395348,39708.2431828704,39708.6985648148,193.02448031305778,2008-09-17,05:50:11,2008-09-17,16:45:56,797
442032.83999999997,4428626.63,39708.7077083333,39708.70875,191.8103490429949,2008-09-17,16:59:06,2008-09-17,17:00:36,798
442685.98115942033,4425272.875362319,39709.1642824074,39709.3197916667,195.7909088797011,2008-09-18,03:56:34,2008-09-18,07:40:30,-1
450319.3742105263,4426441.710000001,39709.3568287037,39709.5032175926,186.66153862072144,2008-09-18,08:33:50,2008-09-18,12:04:38,-1
443002.0905660377,4425244.649056604,39709.5436342593,39709.5465856481,197.67814750251247,2008-09-18,13:02:50,2008-09-18,13:07:05,-1
441127.3796875001,4425538.774999999,39710.1667013889,39710.1701736111,127.84682240870549,2008-09-19,04:00:03,2008-09-19,04:05:03,-1
442952.3102040815,4425249.667346938,39710.2571527778,39710.2599305556,194.5112850196847,2008-09-19,06:10:18,2008-09-19,06:14:18,797
442840.67916666664,4425250.208333332,39710.7778819444,39710.7791550926,187.71278592570772,2008-09-19,18:40:09,2008-09-19,18:41:59,797
442012.618918919,4429041.427027026,39711.1716666667,39711.1872337963,170.16750571111666,2008-09-20,04:07:12,2008-09-20,04:29:37,-1
442424.5418300654,4428659.937254903,39711.1973611111,39711.2530671296,194.30854330163635,2008-09-20,04:44:12,2008-09-20,06:04:25,-1
448703.23773584893,4423733.500314459,39711.3089467593,39711.3221875,172.17897664963533,2008-09-20,07:24:53,2008-09-20,07:43:57,-1
442990.6104651163,4425269.940697673,39712.2926736111,39712.2946412037,119.0171836332986,2008-09-21,07:01:27,2008-09-21,07:04:17,797
450423.25,4424707.024509804,39714.4843981481,39714.4887268519,197.05798638982176,2008-09-23,11:37:32,2008-09-23,11:43:46,-1
450421.9843137254,4424859.903921569,39714.5761111111,39714.5772685185,64.38089778830616,2008-09-23,13:49:36,2008-09-23,13:51:16,-1
421953.8519893898,4439458.712997344,39720.1453472222,39720.1613194444,199.2627662160143,2008-09-29,03:29:18,2008-09-29,03:52:18,-1
421838.748761262,4439613.80844595,39720.1791203704,39720.2105439815,198.52103163151898,2008-09-29,04:17:56,2008-09-29,05:03:11,-1
421591.80327868875,4441041.742315575,39720.2921064815,39720.3362268518,198.0489838400182,2008-09-29,07:00:38,2008-09-29,08:04:10,-1
442434.3885321101,4427108.432110088,39720.4605092593,39720.5146527778,196.1984964262712,2008-09-29,11:03:08,2008-09-29,12:21:06,-1
450520.3909348442,4424568.430594902,39720.5543634259,39721.1244907407,196.9916241876433,2008-09-29,13:18:17,2008-09-30,02:59:16,-1
450337.915765766,4424477.765090089,39721.1252546296,39721.1438657407,198.7483333265207,2008-09-30,03:00:22,2008-09-30,03:27:10,-1
442937.1384615385,4425231.315384615,39721.1652314815,39721.1699074074,179.07551479753434,2008-09-30,03:57:56,2008-09-30,04:04:40,797
442370.3500000001,4428610.1462963,39721.2729513889,39721.3119097222,193.13427971233074,2008-09-30,06:33:03,2008-09-30,07:29:09,-1
442489.4842105267,4427138.077894737,39721.3985416667,39721.4007175926,183.47493016742223,2008-09-30,09:33:54,2008-09-30,09:37:02,-1
450602.6423076925,4424641.969780217,39721.5876736111,39722.332974537,199.27721896949157,2008-09-30,14:06:15,2008-10-01,07:59:29,-1
450862.3506578946,4424334.733552634,39722.3459143518,39722.3701736111,198.66162185988875,2008-10-01,08:18:07,2008-10-01,08:53:03,-1
450854.65567282285,4424271.216886551,39722.3702199074,39722.3917476852,194.276117935266,2008-10-01,08:53:07,2008-10-01,09:24:07,-1
450733.03085250314,4424571.395940458,39722.394849537,39722.4254513889,175.39786201664765,2008-10-01,09:28:35,2008-10-01,10:12:39,805
450706.54588607594,4424652.893987344,39723.1439930556,39723.3523148148,196.97944055147687,2008-10-02,03:27:21,2008-10-02,08:27:20,799
449790.7549450549,4424842.330769231,39723.3662962963,39723.3698611111,183.46492852888343,2008-10-02,08:47:28,2008-10-02,08:52:36,-1
450459.93750000006,4424819.399999999,39723.4353587963,39723.4355208333,12.788275881090376,2008-10-02,10:26:55,2008-10-02,10:27:09,-1
442852.12441860454,4425252.6918604635,39723.4876388889,39727.7252777778,192.1162408542071,2008-10-02,11:42:12,2008-10-06,17:24:24,797
442049.29829059826,4428572.377777776,39727.7355324074,39728.1880439815,196.25271972656137,2008-10-06,17:39:10,2008-10-07,04:30:47,798
442855.8,4425250.354117648,39728.1982060185,39728.2008449074,193.39526881480845,2008-10-07,04:45:25,2008-10-07,04:49:13,797
442021.5079069769,4428949.301860466,39729.1704282407,39729.1941782407,196.48888009266872,2008-10-08,04:05:25,2008-10-08,04:39:37,-1
442780.86834532366,4425262.124460429,39729.2057986111,39729.7567476852,194.49105377931429,2008-10-08,04:56:21,2008-10-08,18:09:43,797
442054.29565217387,4428574.057391304,39729.767025463,39730.1850578704,197.9733567934689,2008-10-08,18:24:31,2008-10-09,04:26:29,798
442775.4187499999,4425231.143750001,39730.1948263889,39730.1970023148,150.34792981612108,2008-10-09,04:40:33,2008-10-09,04:43:41,797
451316.78666666674,4421158.92333333,39732.2240046296,39732.2325,195.4679001780203,2008-10-11,05:22:34,2008-10-11,05:34:48,-1
448479.84508196736,4447994.7745901635,39732.2862731481,39732.2960648148,189.01137531886374,2008-10-11,06:52:14,2008-10-11,07:06:20,-1
448498.1323467228,4448027.044186045,39733.0357291667,39733.0567824074,199.88521706182294,2008-10-12,00:51:27,2008-10-12,01:21:46,-1
448494.4207017548,4448023.707368423,39733.0568055556,39733.0820138889,199.6835746882065,2008-10-12,01:21:48,2008-10-12,01:58:06,-1
452270.56217008794,4446052.182258074,39733.1107523148,39733.1412152778,196.35564672290738,2008-10-12,02:39:29,2008-10-12,03:23:21,-1
448576.62447552464,4447069.214825164,39733.1613773148,39733.2186921296,199.38991950457492,2008-10-12,03:52:23,2008-10-12,05:14:55,-1
450669.03316645825,4424615.641051313,39733.2492476852,39733.2830092593,199.0226117806718,2008-10-12,05:58:55,2008-10-12,06:47:32,799
442991.7570175437,4425254.863157895,39733.3087037037,39733.3113194444,195.05332604181376,2008-10-12,07:24:32,2008-10-12,07:28:18,797
442032.74807692296,4428635.350000002,39733.6800578704,39733.6829513889,186.80305136710197,2008-10-12,16:19:17,2008-10-12,16:23:27,798
441796.52571428556,4428750.617142857,39734.1729282407,39734.1794097222,158.5698584222655,2008-10-13,04:09:01,2008-10-13,04:18:21,-1
442027.48793103447,4428976.187931037,39734.4063541667,39734.4095486111,192.61508248284744,2008-10-13,09:45:09,2008-10-13,09:49:45,-1
441064.037735849,4427140.543396227,39734.4494212963,39734.4703240741,198.40002520198385,2008-10-13,10:47:10,2008-10-13,11:17:16,-1
441805.13695652207,4428769.381211179,39734.4793981481,39734.5015625,197.40157040918822,2008-10-13,11:30:20,2008-10-13,12:02:15,-1
441970.5222222223,4428662.433333334,39734.5015856481,39734.5019791667,11.448143954393112,2008-10-13,12:02:17,2008-10-13,12:02:51,798
441291.7262857139,4426995.064571431,39735.102349537,39735.1141550926,195.72084712676244,2008-10-14,02:27:23,2008-10-14,02:44:23,-1
442807.35357142845,4425227.925,39735.1305787037,39735.1325,191.8114960058867,2008-10-14,03:08:02,2008-10-14,03:10:48,797
442049.6347826087,4428550.192753623,39735.4371759259,39736.1469212963,197.11461133019353,2008-10-14,10:29:32,2008-10-15,03:31:34,798
442911.5626168225,4425227.371962619,39736.1661111111,39736.1693055556,196.09326862464437,2008-10-15,03:59:12,2008-10-15,04:03:48,797
447514.4681034483,4427528.605172414,39736.5607986111,39736.5628472222,130.6822864813756,2008-10-15,13:27:33,2008-10-15,13:30:30,-1
441894.4356097559,4428687.613170728,39736.6409953704,39737.1323148148,197.85340532829022,2008-10-15,15:23:02,2008-10-16,03:10:32,-1
442822.4940740741,4425263.586666665,39737.155462963,39737.1584953704,184.02893794204314,2008-10-16,03:43:52,2008-10-16,03:48:14,797
441009.0181055169,4427835.790887288,39737.3768055556,39737.3999074074,199.04858703348745,2008-10-16,09:02:36,2008-10-16,09:35:52,-1
442000.27593984944,4428464.154135335,39737.4044212963,39737.4059490741,190.99010445533116,2008-10-16,09:42:22,2008-10-16,09:44:34,-1
442013.80513419036,4428558.25904318,39737.4291435185,39737.4390509259,122.76041707291041,2008-10-16,10:17:58,2008-10-16,10:32:14,-1
442747.4257575759,4425238.892424243,39738.0969791667,39738.0984375,194.12915803657955,2008-10-17,02:19:39,2008-10-17,02:21:45,797
442830.30000000034,4425249.281730769,39738.2573958333,39738.2598148148,195.51373353321992,2008-10-17,06:10:39,2008-10-17,06:14:08,797
441796.7142857145,4428740.719047621,39738.436099537,39739.1172569444,199.19209321662765,2008-10-17,10:27:59,2008-10-18,02:48:51,-1
441933.69201773795,4428736.407760536,39739.1183912037,39739.1989699074,199.14128150656543,2008-10-18,02:50:29,2008-10-18,04:46:31,-1
443101.16400000005,4425184.085999999,39739.234525463,39739.2356597222,46.235267923633394,2008-10-18,05:37:43,2008-10-18,05:39:21,-1
449294.61234567856,4414858.84197531,39739.2991782407,39739.3228356481,199.88259053698926,2008-10-18,07:10:49,2008-10-18,07:44:53,-1
449261.7730693069,4414275.022376241,39739.3437384259,39739.3661458333,197.9964898673981,2008-10-18,08:14:59,2008-10-18,08:47:15,-1
447997.195,4416152.782,39739.429525463,39739.4318171296,41.08783274862148,2008-10-18,10:18:31,2008-10-18,10:21:49,-1
447812.29716981144,4417534.620754715,39739.5028356481,39739.5103587963,168.79366101798843,2008-10-18,12:04:05,2008-10-18,12:14:55,-1
441992.26206896553,4428587.325862069,39739.5774768519,39739.5787962963,198.93843268710046,2008-10-18,13:51:34,2008-10-18,13:53:28,800
442156.4819935689,4428944.159807076,39740.0844212963,39740.1129513889,196.92257361727067,2008-10-19,02:01:34,2008-10-19,02:42:39,-1
441987.8967213119,4428609.663934424,39740.1377430556,39740.1405902778,189.72783137994307,2008-10-19,03:18:21,2008-10-19,03:22:27,800
441303.6,4426020.7,39740.2374305556,39740.2374305556,0.0,2008-10-19,05:41:54,2008-10-19,05:41:54,-1
442826.92963429954,4425239.72534678,39740.5510763889,39740.6093287037,197.52895990209356,2008-10-19,13:13:33,2008-10-19,14:37:26,797
441772.53703703685,4428660.5546296295,39740.6241666667,39740.6273842593,135.15417122697576,2008-10-19,14:58:48,2008-10-19,15:03:26,-1
442796.95481481473,4425269.740740742,39741.0874537037,39741.3931712963,199.9697977200405,2008-10-20,02:05:56,2008-10-20,09:26:10,797
441775.16388888884,4428655.152777778,39741.4066435185,39741.4074537037,193.5671976343093,2008-10-20,09:45:34,2008-10-20,09:46:44,-1
441767.682857143,4428670.428571428,39741.482349537,39741.4842939815,194.90790132796704,2008-10-20,11:34:35,2008-10-20,11:37:23,-1
442823.88852459023,4425240.818032786,39742.1482175926,39742.1496064815,192.94582141107776,2008-10-21,03:33:26,2008-10-21,03:35:26,797
442869.3960339944,4425240.415509902,39743.2794675926,39743.4147916667,196.82085763459844,2008-10-22,06:42:26,2008-10-22,09:57:18,797
441955.3419580421,4428717.631468531,39743.4334722222,39743.4556365741,198.8163222676707,2008-10-22,10:24:12,2008-10-22,10:56:07,-1
442754.9101694915,4425267.094915255,39743.4714467593,39743.6975462963,192.52597227369347,2008-10-22,11:18:53,2008-10-22,16:44:28,797
442039.46451612905,4428547.082795697,39743.7080787037,39744.1152777778,195.61883856129919,2008-10-22,16:59:38,2008-10-23,02:46:00,798
442812.75454545434,4425248.7295454545,39744.1262962963,39744.7148148148,193.74532252403412,2008-10-23,03:01:52,2008-10-23,17:09:20,797
442019.0337837839,4428652.71081081,39744.7234259259,39744.7251157407,183.8646513063471,2008-10-23,17:21:44,2008-10-23,17:24:10,798
442809.9316666665,4425237.748333333,39745.0574768518,39745.2005555556,189.9009478649551,2008-10-24,01:22:46,2008-10-24,04:48:48,797
442943.78243902425,4425058.2078048745,39745.2021527778,39745.2565046296,198.1781017164196,2008-10-24,04:51:06,2008-10-24,06:09:22,-1
442785.97748344357,4425235.480132454,39745.2565277778,39745.2614583333,150.0260310748238,2008-10-24,06:09:24,2008-10-24,06:16:30,797
442845.487012987,4425252.08181818,39752.1950347222,39752.1978125,153.52827101223477,2008-10-31,04:40:51,2008-10-31,04:44:51,797
442568.3834951458,4427095.915533978,39753.1933217593,39753.1957060185,193.6141007261106,2008-11-01,04:38:23,2008-11-01,04:41:49,-1
442744.7696969697,4425248.418181819,39753.2551851852,39753.2570833333,199.20251002435847,2008-11-01,06:07:28,2008-11-01,06:10:12,797
442043.5428571428,4428449.146938776,39753.8954398148,39753.8965509259,186.40743010927332,2008-11-01,21:29:26,2008-11-01,21:31:02,-1
442005.3553846155,4428646.523076923,39754.8563194444,39754.8578009259,199.26394555994628,2008-11-02,20:33:06,2008-11-02,20:35:14,798
442803.6770833335,4425236.743749999,39755.0830324074,39755.0841203704,192.09823008039882,2008-11-03,01:59:34,2008-11-03,02:01:08,797
448913.6,4428329.3,39755.266412037,39755.266412037,0.0,2008-11-03,06:23:38,2008-11-03,06:23:38,-1
448932.11045296176,4427052.065505224,39755.4027777778,39755.4260532407,197.21460392183695,2008-11-03,09:40:00,2008-11-03,10:13:31,-1
442703.2782051285,4425267.374358972,39755.4553125,39755.7359490741,195.48815820964757,2008-11-03,10:55:39,2008-11-03,17:39:46,797
442034.26753246743,4428630.127272729,39755.7471990741,39755.7489583333,186.54125549044446,2008-11-03,17:55:58,2008-11-03,17:58:30,798
440409.76008403325,4421583.100000001,39756.5627314815,39756.6069097222,198.8254510874999,2008-11-04,13:30:20,2008-11-04,14:33:57,-1
441972.886734694,4428656.740816325,39756.6562615741,39756.6585069444,178.8586033709319,2008-11-04,15:45:01,2008-11-04,15:48:15,798
442001.6694444445,4428705.477777776,39756.692025463,39756.6938541667,53.88320703200251,2008-11-04,16:36:31,2008-11-04,16:39:09,-1
450709.1367088607,4424772.272151898,39757.4593171296,39757.4611226852,199.8031281035224,2008-11-05,11:01:25,2008-11-05,11:04:01,-1
449848.4783505155,4425205.601030925,39757.6253356481,39757.6275578704,197.95395929353464,2008-11-05,15:00:29,2008-11-05,15:03:41,-1
441962.1991452991,4428706.282905984,39758.7672337963,39758.7842476852,104.88946562906831,2008-11-06,18:24:49,2008-11-06,18:49:19,-1
442831.9121621621,4425232.593243241,39759.2730787037,39759.2747685185,183.70683166403091,2008-11-07,06:33:14,2008-11-07,06:35:40,797
442819.35471698106,4425232.567924528,39769.0668402778,39769.0680439815,194.5823476063656,2008-11-17,01:36:15,2008-11-17,01:37:59,797
441988.06,4428637.14,39769.2301388889,39769.2308333333,83.270282814471,2008-11-17,05:31:24,2008-11-17,05:32:24,798
442715.7,4425236.869999999,39769.3085185185,39769.3096527778,195.31239079995993,2008-11-17,07:24:16,2008-11-17,07:25:54,797
442849.544871795,4425251.966666667,39770.0535532407,39770.0557523148,169.5726687883785,2008-11-18,01:17:07,2008-11-18,01:20:17,797
442864.19622641505,4425268.4,39770.2389351852,39770.2401273148,140.81665384481389,2008-11-18,05:44:04,2008-11-18,05:45:47,797
442029.6771428571,4428609.782857143,39770.6859259259,39770.686712963,193.92369633477236,2008-11-18,16:27:44,2008-11-18,16:28:52,798
442825.3,4425225.529999998,39771.0831828704,39771.0847800926,194.4496335815178,2008-11-19,01:59:47,2008-11-19,02:02:05,797
442836.16962025315,4425284.74050633,39772.099849537,39772.1015625,129.67131525498397,2008-11-20,02:23:47,2008-11-20,02:26:15,797
450645.5399999997,4424749.426086957,39772.4783564815,39772.4809953704,198.1873103909759,2008-11-20,11:28:50,2008-11-20,11:32:38,807
442933.4999999999,4425252.279012348,39772.5509143519,39772.5527662037,196.17160854718222,2008-11-20,13:13:19,2008-11-20,13:15:59,797
442861.1246153845,4425243.08,39773.0794791667,39773.0818865741,128.59257365732924,2008-11-21,01:54:27,2008-11-21,01:57:55,797
442483.89999999997,4425105.100000001,39774.1761111111,39774.1761574074,90.53364015656223,2008-11-22,04:13:36,2008-11-22,04:13:40,-1
442186.7671641792,4428602.26716418,39774.6165393519,39774.6180671296,199.68875782114984,2008-11-22,14:47:49,2008-11-22,14:50:01,-1
442037.02432432433,4428634.602702703,39775.7421412037,39775.742974537,189.08199279609357,2008-11-23,17:48:41,2008-11-23,17:49:53,798
442842.88382352947,4425278.585294119,39776.084537037,39776.086087963,158.9465633475709,2008-11-24,02:01:44,2008-11-24,02:03:58,797
442033.5526315789,4428629.4,39776.6645833333,39776.6654398148,192.7080953156601,2008-11-24,15:57:00,2008-11-24,15:58:14,798
442766.3272727272,4425262.081818184,39777.0822222222,39777.1761458333,193.2609893379117,2008-11-25,01:58:24,2008-11-25,04:13:39,797
442816.89682539686,4425362.04920635,39777.207025463,39777.2084606481,189.96497045511921,2008-11-25,04:58:07,2008-11-25,05:00:11,802
442014.8029850747,4428658.93283582,39777.6459606481,39777.6474884259,198.04827694310643,2008-11-25,15:30:11,2008-11-25,15:32:23,798
442823.01392405055,4425240.948101264,39778.0956944444,39778.0975,197.40559769171685,2008-11-26,02:17:48,2008-11-26,02:20:24,797
450679.6363228697,4424675.221076233,39778.3326967593,39778.3752430556,199.99444992316967,2008-11-26,07:59:05,2008-11-26,09:00:21,-1
450665.18365384615,4424762.600480771,39778.3752662037,39778.6216782407,196.54528740212191,2008-11-26,09:00:23,2008-11-26,14:55:13,807
442021.7138461537,4428643.510769231,39778.6587731481,39778.6602199074,191.0859754143621,2008-11-26,15:48:38,2008-11-26,15:50:43,798
442830.8825,4425248.098749999,39779.1047916667,39779.1069444444,193.14432427584765,2008-11-27,02:30:54,2008-11-27,02:34:00,797
442058.0709677419,4428620.987096773,39779.6157523148,39779.6164467593,194.8410634337702,2008-11-27,14:46:41,2008-11-27,14:47:41,798
442834.9564102566,4425338.508974358,39780.1963078704,39780.1991087963,150.2392758236099,2008-11-28,04:42:41,2008-11-28,04:46:43,797
441800.3325358851,4428227.1172248805,39780.4961458333,39780.5205208333,199.74546302732386,2008-11-28,11:54:27,2008-11-28,12:29:33,-1
442476.5958333335,4427122.199305557,39780.5384490741,39780.5431481482,87.87274890485746,2008-11-28,12:55:22,2008-11-28,13:02:08,-1
442695.94925373135,4425360.076119403,39780.588900463,39780.5904282407,184.14630053300226,2008-11-28,14:08:01,2008-11-28,14:10:13,-1
442774.1925000001,4425224.840000001,39781.2099884259,39781.3407175926,194.6961735627422,2008-11-29,05:02:23,2008-11-29,08:10:38,797
451146.07078651676,4424352.397752811,39781.3768287037,39781.380462963,198.8340514097168,2008-11-29,09:02:38,2008-11-29,09:07:52,-1
442850.3611940299,4425251.805970149,39781.5062152778,39781.5079976852,98.66270825441163,2008-11-29,12:08:57,2008-11-29,12:11:31,797
442023.490909091,4428641.131818183,39782.6765509259,39782.6780555556,182.2990948962919,2008-11-30,16:14:14,2008-11-30,16:16:24,798
442791.4627329194,4425279.956521736,39783.1016319444,39783.6673958333,199.20022590359633,2008-12-01,02:26:21,2008-12-01,16:01:03,797
441971.9863924051,4428689.352848102,39783.6804976852,39783.6933912037,147.12776760366273,2008-12-01,16:19:55,2008-12-01,16:38:29,798
442026.4981132075,4428630.513207547,39784.6621875,39784.6633912037,193.96156835826454,2008-12-02,15:53:33,2008-12-02,15:55:17,798
442796.6620253166,4425266.927848101,39785.1041087963,39785.6335532407,195.3784276729335,2008-12-03,02:29:55,2008-12-03,15:12:19,797
442019.06962025317,4428645.043037977,39785.6475810185,39785.6493865741,186.42084110940522,2008-12-03,15:32:31,2008-12-03,15:35:07,798
442834.50199999986,4425282.813999999,39786.092337963,39786.0934722222,162.205949335531,2008-12-04,02:12:58,2008-12-04,02:14:36,797
450362.43709677306,4424701.8763440875,39790.4506481481,39790.4751736111,197.7880178376454,2008-12-08,10:48:56,2008-12-08,11:24:15,803
450396.3361240306,4424714.765581393,39790.4751967593,39790.5095023148,158.3091279743431,2008-12-08,11:24:17,2008-12-08,12:13:41,803
450623.12372881366,4424875.783050847,39790.5192476852,39790.5218171296,140.69474048451673,2008-12-08,12:27:43,2008-12-08,12:31:25,-1
442041.35555555555,4428620.980555556,39790.6696990741,39790.6705092593,193.38699542644406,2008-12-08,16:04:22,2008-12-08,16:05:32,798
442850.5064935065,4425252.906493506,39791.1861574074,39791.1892361111,163.2191777947065,2008-12-09,04:28:04,2008-12-09,04:32:30,797
442828.23962264165,4425283.95,39792.1457523148,39792.148599537,148.37796332368373,2008-12-10,03:29:53,2008-12-10,03:33:59,797
442063.0078947369,4428785.210526315,39793.1978472222,39793.2033564815,114.97673677759505,2008-12-11,04:44:54,2008-12-11,04:52:50,-1
442832.6590163934,4425313.385245901,39793.3153472222,39793.3167361111,196.2126397561214,2008-12-11,07:34:06,2008-12-11,07:36:06,797
442028.6857142857,4428640.702380953,39793.6450231481,39793.6459722222,197.87008364109508,2008-12-11,15:28:50,2008-12-11,15:30:12,798
442843.3034090908,4425289.477272727,39794.1581944444,39794.1604861111,142.69758232024964,2008-12-12,03:47:48,2008-12-12,03:51:06,797
445904.21335403697,4439381.870031055,39795.1144212963,39795.1416666667,103.66426578144788,2008-12-13,02:44:46,2008-12-13,03:24:00,-1
448753.64814814826,4423630.540740741,39795.3815856481,39795.3844097222,184.6070692033576,2008-12-13,09:09:29,2008-12-13,09:13:33,-1
442872.4378787879,4425277.628030304,39796.2981828704,39796.3061226852,49.90110219208656,2008-12-14,07:09:23,2008-12-14,07:20:49,797
450346.1513100436,4424477.259388643,39796.5093287037,39796.5315046296,199.94561760620044,2008-12-14,12:13:26,2008-12-14,12:45:22,-1
442846.054347826,4425234.85652174,39796.572662037,39796.5737037037,132.90673421602716,2008-12-14,13:44:38,2008-12-14,13:46:08,797
442154.3737864077,4421013.658252426,39797.4187384259,39797.421099537,198.80596067496472,2008-12-15,10:02:59,2008-12-15,10:06:23,-1
442778.4846153845,4425229.6000000015,39797.5249884259,39797.5273726852,186.95389806047976,2008-12-15,12:35:59,2008-12-15,12:39:25,797
442044.4157894736,4428624.710526316,39802.6790509259,39802.6800347222,189.81456740757145,2008-12-20,16:17:50,2008-12-20,16:19:15,798
442084.26097560965,4420991.175609756,39803.1214467593,39803.1250347222,156.71340083093207,2008-12-21,02:54:53,2008-12-21,03:00:03,-1
450650.30740740744,4424754.34074074,39803.4268171296,39803.5066435185,181.96950293939807,2008-12-21,10:14:37,2008-12-21,12:09:34,807
449735.03793103434,4425140.098275862,39803.5091898148,39803.5121990741,152.48636004571878,2008-12-21,12:13:14,2008-12-21,12:17:34,-1
442171.6583333334,4427979.774999999,39803.5381944444,39803.5388310185,193.9309413167666,2008-12-21,12:55:00,2008-12-21,12:55:55,-1
442842.29062499997,4425287.009374999,39804.1038888889,39804.6415972222,189.4609194523307,2008-12-22,02:29:36,2008-12-22,15:23:54,797
442030.5909090911,4428660.449090907,39804.656875,39804.6598263889,174.47764899821172,2008-12-22,15:45:54,2008-12-22,15:50:09,798
442818.50526315795,4425237.163157895,39805.1019444444,39805.1029861111,180.90497505602744,2008-12-23,02:26:48,2008-12-23,02:28:18,797
453664.59103641415,4425211.421288515,39805.5312384259,39805.5944328704,193.13606602615357,2008-12-23,12:44:59,2008-12-23,14:15:59,-1
442941.073076923,4425264.888461539,39805.6259259259,39805.6273726852,193.40933276353695,2008-12-23,15:01:20,2008-12-23,15:03:25,797
441194.27,4425297.853750001,39806.416412037,39806.4285069444,115.1347905721171,2008-12-24,09:59:38,2008-12-24,10:17:03,-1
442750.9673913043,4425251.636956522,39806.5982175926,39806.6286226852,190.83841332408844,2008-12-24,14:21:26,2008-12-24,15:05:13,797
442029.5045454545,4428685.018181819,39806.6405439815,39806.641724537,181.07158805301722,2008-12-24,15:22:23,2008-12-24,15:24:05,798
442809.52307692316,4425239.68076923,39807.0734606481,39807.0747916667,184.36876091137498,2008-12-25,01:45:47,2008-12-25,01:47:42,797
442014.38499999995,4428656.2924999995,39807.7527083333,39807.7547337963,188.36722114000327,2008-12-25,18:03:54,2008-12-25,18:06:49,798
442832.5999999999,4425295.924000001,39808.0789236111,39808.0802546296,154.40136009778527,2008-12-26,01:53:39,2008-12-26,01:55:34,797
442769.17560975614,4425226.334146342,39808.2465509259,39808.2486921296,192.94154555216411,2008-12-26,05:55:02,2008-12-26,05:58:07,797
450316.8268244577,4426609.474950689,39808.4456018518,39808.4905092593,195.88437916279975,2008-12-26,10:41:40,2008-12-26,11:46:20,-1
453598.6139534884,4425202.393023255,39808.5027777778,39808.505150463,199.7138953603268,2008-12-26,12:04:00,2008-12-26,12:07:25,-1
441992.87866666686,4428651.43066667,39808.6633680556,39808.6923611111,196.56594313329444,2008-12-26,15:55:15,2008-12-26,16:37:00,798
441998.0072970969,4428673.89880864,39808.6924189815,39809.031400463,32.22188697143605,2008-12-26,16:37:05,2008-12-27,00:45:13,798
434179.71489361714,4453156.725531915,39809.1585532407,39809.161099537,192.54518950121874,2008-12-27,03:48:19,2008-12-27,03:51:59,-1
442914.91764705884,4424974.9941176465,39809.3361226852,39809.3369328704,142.24601927627864,2008-12-27,08:04:01,2008-12-27,08:05:11,-1
450385.33846153854,4426339.053846153,39810.1606134259,39810.1611921296,104.14974795991306,2008-12-28,03:51:17,2008-12-28,03:52:07,-1
450690.2484374999,4424659.843749999,39810.3880902778,39810.3916203704,185.99712363383662,2008-12-28,09:18:51,2008-12-28,09:23:56,799
442034.94074074074,4428433.722222223,39810.7256134259,39810.727025463,178.39697306864068,2008-12-28,17:24:53,2008-12-28,17:26:55,-1
442729.0241379311,4425264.737931035,39811.1162152778,39811.6725578704,189.25160501266294,2008-12-29,02:47:21,2008-12-29,16:08:29,797
442028.055,4428637.875000001,39811.6818171296,39812.0668287037,94.37716884941402,2008-12-29,16:21:49,2008-12-30,01:36:14,798
441070.8481481481,4425489.586419754,39813.430162037,39813.5381365741,185.42667014232222,2008-12-31,10:19:26,2008-12-31,12:54:55,-1
443012.3264705884,4424574.961764707,39813.5468171296,39813.5485532407,175.76191282527623,2008-12-31,13:07:25,2008-12-31,13:09:55,-1
442906.80481651414,4425273.303669722,39814.5959722222,39814.6240972222,80.34824204663134,2009-01-01,14:18:12,2009-01-01,14:58:42,-1
442938.86259673175,4425254.388564054,39814.6247337963,39814.7468402778,183.95504885718034,2009-01-01,14:59:37,2009-01-01,17:55:27,797
442857.45,4425309.9,39814.7473611111,39814.7474189815,9.042676594651082,2009-01-01,17:56:12,2009-01-01,17:56:17,797
442034.0213592234,4428698.76407767,39819.4386574074,39819.4440393519,152.3471365010349,2009-01-06,10:31:40,2009-01-06,10:39:25,798
442823.11111111107,4425274.305555556,39819.5550578704,39819.5573148148,174.8783863143087,2009-01-06,13:19:17,2009-01-06,13:22:32,797
442035.9593749999,4428637.621875001,39824.5655555556,39824.5671180556,184.8638958798385,2009-01-11,13:34:24,2009-01-11,13:36:39,798
442904.0580645162,4425259.712903226,39825.1733217593,39825.1752314815,38.55191305240247,2009-01-12,04:09:35,2009-01-12,04:12:20,797
442137.3829787235,4428443.885106382,39825.6962037037,39826.0796643518,199.29588555701795,2009-01-12,16:42:32,2009-01-13,01:54:43,-1
442809.1842105263,4425233.510526315,39826.0908333333,39826.0918171296,185.1210414836316,2009-01-13,02:10:48,2009-01-13,02:12:13,797
442836.194117647,4425286.602941177,39826.2109375,39826.2127314815,190.34001155868458,2009-01-13,05:03:45,2009-01-13,05:06:20,797
442837.42857142864,4425233.621428571,39827.5258912037,39827.5272800926,181.67443408469305,2009-01-14,12:37:17,2009-01-14,12:39:17,797
442058.9489361703,4428571.159574468,39827.7644097222,39828.0763194444,194.04231497242415,2009-01-14,18:20:45,2009-01-15,01:49:54,798
442790.5457627119,4425224.377966101,39828.0877777778,39828.3335069444,184.23343887573364,2009-01-15,02:06:24,2009-01-15,08:00:15,797
450717.4006042296,4424623.870996978,39828.3606481481,39828.387337963,197.0045938545825,2009-01-15,08:39:20,2009-01-15,09:17:46,-1
450032.29863945575,4426464.700680274,39828.4187152778,39828.4376388889,100.64790112068906,2009-01-15,10:02:57,2009-01-15,10:30:12,-1
450050.7071428571,4426513.214285715,39828.4403009259,39828.4409953704,162.70027658261864,2009-01-15,10:34:02,2009-01-15,10:35:02,-1
442935.42727272725,4425258.121212121,39828.5349305556,39828.5367824074,194.96073963733028,2009-01-15,12:50:18,2009-01-15,12:52:58,797
442825.4341463414,4425252.524390244,39829.1148842593,39829.1174305556,187.53373029948006,2009-01-16,02:45:26,2009-01-16,02:49:06,797
442496.1381944445,4427060.637499999,39829.1789699074,39829.2477430556,181.19895143147644,2009-01-16,04:17:43,2009-01-16,05:56:45,-1
442819.6868421053,4425442.997368421,39829.2550347222,39829.2569444444,185.24786098629286,2009-01-16,06:07:15,2009-01-16,06:10:00,-1
441985.09657228005,4428674.683755589,39829.6826851852,39829.7288657407,78.39005038906404,2009-01-16,16:23:04,2009-01-16,17:29:34,798
441985.26551724126,4428649.948275861,39829.7316435185,39830.1092013889,184.66336940496018,2009-01-16,17:33:34,2009-01-17,02:37:15,798
442821.968,4425233.384000001,39830.120775463,39830.1220486111,189.9016850899658,2009-01-17,02:53:55,2009-01-17,02:55:45,797
442017.99374999997,4429007.19375,39831.1880208333,39831.1888310185,196.11935141660737,2009-01-18,04:30:45,2009-01-18,04:31:55,801
441990.6074683544,4428651.955063289,39831.3549305556,39831.5815740741,196.81984147994947,2009-01-18,08:31:06,2009-01-18,13:57:28,798
442059.18125,4428613.46875,39831.6095833333,39831.6103935185,198.2035317545967,2009-01-18,14:37:48,2009-01-18,14:38:58,798
442851.09,4425222.210000001,39832.3033912037,39832.3038541667,51.140786071579335,2009-01-19,07:16:53,2009-01-19,07:17:33,797
442809.10256410256,4425285.158974358,39833.2543171296,39833.4232407407,198.3645633671934,2009-01-20,06:06:13,2009-01-20,10:09:28,797
441978.66666666674,4428613.888888888,39833.4398263889,39833.4407523148,180.8622956841332,2009-01-20,10:33:21,2009-01-20,10:34:41,800
442802.5285714285,4425373.442857144,39834.2886921296,39834.2906018518,196.61993795151,2009-01-21,06:55:43,2009-01-21,06:58:28,802
442051.7619047619,4428627.0666666655,39834.7865393519,39834.7876388889,189.3892552388678,2009-01-21,18:52:37,2009-01-21,18:54:12,798
442210.4976190476,4429102.126190477,39837.2033449074,39838.0857523148,184.49132770902304,2009-01-24,04:52:49,2009-01-25,02:03:29,-1
441829.6662162164,4427733.509459461,39838.0915393519,39838.1199537037,186.22924045398904,2009-01-25,02:11:49,2009-01-25,02:52:44,-1
442092.5468749999,4429179.121875,39838.1281134259,39838.1297916667,195.43106201433204,2009-01-25,03:04:29,2009-01-25,03:06:54,-1
442702.87499999994,4425203.486538461,39841.2214583333,39846.4583796296,195.01130736447092,2009-01-28,05:18:54,2009-02-02,11:00:04,-1
442146.73902439035,4429158.117073171,39846.4771527778,39847.2708796296,193.4725303500174,2009-02-02,11:27:06,2009-02-03,06:30:04,-1
442780.81923076935,4425268.215384615,39847.2848263889,39847.6080555556,197.32949602143276,2009-02-03,06:50:09,2009-02-03,14:35:36,797
442190.8774193548,4429163.46451613,39847.617662037,39847.6191666667,196.09357460152626,2009-02-03,14:49:26,2009-02-03,14:51:36,-1
442761.94,4425404.343333334,39848.2112731481,39848.2127777778,182.09758372906393,2009-02-04,05:04:14,2009-02-04,05:06:24,802
442820.43200000003,4425388.92,39849.1591898148,39849.160462963,187.47042433410238,2009-02-05,03:49:14,2009-02-05,03:51:04,802
442852.70666666667,4425295.516666668,39850.2538773148,39850.2553819444,181.49650134351845,2009-02-06,06:05:35,2009-02-06,06:07:45,797
442891.26060606074,4425238.257575756,39851.0433101852,39851.0451041667,188.91336638796486,2009-02-07,01:02:22,2009-02-07,01:04:57,797
441812.4655172413,4427780.631034484,39851.4542708333,39851.4558333333,193.63481091975603,2009-02-07,10:54:09,2009-02-07,10:56:24,-1
438012.3861111112,4451546.113888889,39852.1158101852,39852.1177199074,126.67679345480893,2009-02-08,02:46:46,2009-02-08,02:49:31,-1
442229.57428571425,4429174.502857144,39854.6657175926,39855.1948611111,189.02224736786974,2009-02-10,15:58:38,2009-02-11,04:40:36,-1
442737.1092105264,4425409.582894739,39855.2052777778,39855.3906481481,197.3752010762352,2009-02-11,04:55:36,2009-02-11,09:22:32,-1
442101.6699999999,4429172.366666666,39855.4070833333,39855.4086226852,194.93396317727704,2009-02-11,09:46:12,2009-02-11,09:48:25,-1
442841.5515151514,4425287.512121212,39857.1355902778,39857.1373842593,168.42698714840563,2009-02-13,03:15:15,2009-02-13,03:17:50,797
442766.3445086707,4425192.017341042,39858.1727314815,39858.1972106481,147.42893203166508,2009-02-14,04:08:44,2009-02-14,04:43:59,-1
444452.0666666667,4415583.575,39858.3050578704,39858.3063888889,182.26587722317058,2009-02-14,07:19:17,2009-02-14,07:21:12,-1
442107.0612903226,4429167.406451613,39858.4545023148,39858.4561226852,193.1521938784561,2009-02-14,10:54:29,2009-02-14,10:56:49,-1
442786.9780487805,4425241.517073171,39859.449525463,39859.7565625,190.15551530316205,2009-02-15,10:47:19,2009-02-15,18:09:27,797
442206.52941176464,4429188.017647059,39859.7614814815,39859.762349537,192.1262605684085,2009-02-15,18:16:32,2009-02-15,18:17:47,-1
442768.8055555556,4425250.890740742,39860.1647685185,39860.7275578704,182.1079350277183,2009-02-16,03:57:16,2009-02-16,17:27:41,797
442238.30400000006,4429153.692000001,39860.7378009259,39860.7391319444,192.89997407954726,2009-02-16,17:42:26,2009-02-16,17:44:21,-1