441448.8039999998,4435941.068999999,39566.4907175926,39566.4931712963,196.89512436836515,2008-04-28,11:46:38,2008-04-28,11:50:10,-1
442923.4885714287,4425272.1342857145,39567.083599537,39567.0857407407,154.79706069556028,2008-04-29,02:00:23,2008-04-29,02:03:28,-1
442946.07428571425,4425264.508571429,39580.0786689815,39580.0802662037,197.60086032192217,2008-05-12,01:53:17,2008-05-12,01:55:35,-1
443036.2841269839,4425184.594444446,39582.0942476852,39582.0971296296,127.82914378133539,2008-05-14,02:15:43,2008-05-14,02:19:52,-1