335518.41872246715,3804152.0984581504,39577.0729513889,39577.1203587963,199.13136367736516,2008-05-09,01:45:03,2008-05-09,02:53:19,-1
335212.25057736726,3804025.5205542683,39577.1204166667,39577.1607638889,196.25544578428998,2008-05-09,02:53:24,2008-05-09,03:51:30,-1
335753.9650000004,3804821.341666666,39577.1672106481,39577.1884606481,196.65451939919186,2008-05-09,04:00:47,2008-05-09,04:31:23,-1
337737.618137255,3806010.8808823586,39577.1955439815,39577.2164351852,187.80947792907196,2008-05-09,04:41:35,2008-05-09,05:11:40,-1
341802.3947916668,3806706.643749999,39577.22125,39577.2496875,199.0725747058003,2008-05-09,05:18:36,2008-05-09,05:59:33,-1
341493.4251748248,3806229.4545454537,39577.2547222222,39577.2896180556,197.2392709375797,2008-05-09,06:06:48,2008-05-09,06:57:03,-1
341349.38023598824,3806169.598230097,39577.2897916667,39577.3192708333,198.4125248062691,2008-05-09,06:57:18,2008-05-09,07:39:45,-1
335473.51446280995,3803717.204545453,39577.4099537037,39577.4330671296,197.8729390291777,2008-05-09,09:50:20,2008-05-09,10:23:37,-1
315004.9344827587,3793930.2103448277,39577.4696643518,39577.4712268518,186.8176918817783,2008-05-09,11:16:19,2008-05-09,11:18:34,-1
311276.15158730134,3788926.573809528,39578.0001157407,39578.0433217593,199.10371669057838,2008-05-10,00:00:10,2008-05-10,01:02:23,-1
310819.725,3789259.8,39578.0496412037,39578.0499074074,163.30517444342334,2008-05-10,01:11:29,2008-05-10,01:11:52,-1
310315.18870967726,3793047.8177419356,39578.1702199074,39578.1734490741,115.92122325124593,2008-05-10,04:05:07,2008-05-10,04:09:46,-1
474757.78018867923,5524420.450943394,39618.7345601852,39618.7461574074,145.47522125790172,2008-06-19,17:37:46,2008-06-19,17:54:28,-1
473948.9,5522210.8,39618.8260185185,39618.8260416667,71.1376131167639,2008-06-19,19:49:28,2008-06-19,19:49:30,-1
475506.2682291668,5524619.2984375,39619.2644097222,39619.4455787037,193.94071259021402,2008-06-20,06:20:45,2008-06-20,10:41:38,-1
474843.2218579233,5524356.773224045,39619.4576851852,39619.4876157407,197.72834900455257,2008-06-20,10:59:04,2008-06-20,11:42:10,-1
474773.88,5525113.9,39619.4960416667,39619.4961342593,168.1383061649031,2008-06-20,11:54:18,2008-06-20,11:54:26,-1
475174.15,5549435.5,39620.6466435185,39620.646712963,131.05407280928713,2008-06-21,15:31:10,2008-06-21,15:31:16,-1
475689.1,5549957.8,39620.7335069444,39620.7335069444,0.0,2008-06-21,17:36:15,2008-06-21,17:36:15,-1
476144.74000000005,5550117.26,39620.8203935185,39620.8204976852,62.439490708837674,2008-06-21,19:41:22,2008-06-21,19:41:31,-1
476066.07747035584,5550598.046640313,39621.347662037,39621.4498958333,195.33501990136074,2008-06-22,08:20:38,2008-06-22,10:47:51,-1
476568.4125000001,5550130.995833331,39621.4606481481,39621.4628587963,199.80640630357837,2008-06-22,11:03:20,2008-06-22,11:06:31,-1
452938.1,5547190.3,39621.6354398148,39621.635462963,105.53369130278777,2008-06-22,15:15:02,2008-06-22,15:15:04,-1
650267.6771428572,6913303.984285712,39626.1137962963,39626.1507986111,195.22914741400385,2008-06-27,02:43:52,2008-06-27,03:37:09,-1
649563.4468085108,6913529.846808512,39626.2250810185,39626.2744560185,189.56819353481595,2008-06-27,05:24:07,2008-06-27,06:35:13,-1
345547.4287878787,6790338.691666666,39626.3565625,39626.672974537,191.48785862285578,2008-06-27,08:33:27,2008-06-27,16:09:05,-1
364273.9872340426,6665194.508510638,39627.0797453704,39627.1517013889,181.85103793983959,2008-06-28,01:54:50,2008-06-28,03:38:27,-1
345529.6107438015,6790360.685123967,39627.250775463,39627.3047800926,97.5223564112584,2008-06-28,06:01:07,2008-06-28,07:18:53,-1
442857.1670329671,4425438.07802198,39647.4915509259,39647.4984375,190.70776072330403,2008-07-18,11:47:50,2008-07-18,11:57:45,-1