429365.1153846154,4426958.438461538,39374.320625,39374.3525578704,169.5054571394516,2007-10-19,07:41:42,2007-10-19,08:27:41,-1
431455.81666666665,4427151.733333333,39374.3998611111,39374.4747337963,179.7555284265912,2007-10-19,09:35:48,2007-10-19,11:23:37,-1
442868.4,4425398.4,39374.4942013889,39374.4956018519,56.95085600707326,2007-10-19,11:51:39,2007-10-19,11:53:40,-1
441310.12500000006,4424126.85,39374.5519212963,39374.5542824074,170.92995641502642,2007-10-19,13:14:46,2007-10-19,13:18:10,-1
443554.3,4424139.050000001,39374.9256134259,39374.9269791667,30.56550343110862,2007-10-19,22:12:53,2007-10-19,22:14:51,-1
514606.60000000003,4328690.7,39375.1186226852,39375.1198726852,126.8101730931843,2007-10-20,02:50:49,2007-10-20,02:52:37,-1
521161.0285714287,4329956.1,39376.3456712963,39376.3739351852,23.910248848799895,2007-10-21,08:17:46,2007-10-21,08:58:28,-1
450422.95,4417200.35,39376.4547569444,39376.4554513889,45.19756630650468,2007-10-21,10:54:51,2007-10-21,10:55:51,-1
443622.5,4424244.566666666,39376.487650463,39376.4972916667,179.08648748564437,2007-10-21,11:42:13,2007-10-21,11:56:06,-1